000001**************************************************************/   36091133
000002*  PROGRAM: PPAWRFET                                         */   36091133
000003*  RELEASE: ___1133______ SERVICE REQUEST(S): ____3609_____  */   36091133
000004*  NAME:___G STEINITZ____ MODIFICATION DATE:  ___05/22/97__  */   36091133
000005*  DESCRIPTION:                                              */   36091133
000006*  REMOVE OFFSET LOGIC AND SIMPLIFY RETURN ARRAY LOGIC.      */   36091133
000007**************************************************************/   36091133
000000**************************************************************/   36450984
000001*  PROGRAM: PPAWRFET                                         */   36450984
000002*  RELEASE: ___0984______ SERVICE REQUEST(S): _____3645____  */   36450984
000003*  REF. RELEASE: _____775___                                 */   36450984
000004*  NAME:___HUNG TRUONG___ MODIFICATION DATE:  ___05/19/95__  */   36450984
000005*  DESCRIPTION:                                              */   36450984
000006*  ERROR REPORT 1273                                         */   36450984
000007*                                                            */   36450984
000008*  ADDED CODE TO 9180-MAP-DE-TO-EDB-COL SECTION TO MOVE THE  */   36450984
000009*  OCCURRENCE KEY OF THE DELETED TABLE ENTRY TO THE          */   36450984
000010*  WS-OCCURRENCE-KEY FIELD.                                  */   36450984
000011*                                                            */   36450984
000020**************************************************************/   36450984
000101**************************************************************/   36430795
000200*  PROGRAM: PPAWRFET                                         */   36430795
000300*  RELEASE: ___0795______ SERVICE REQUEST(S): _____3643____  */   36430795
000400*  NAME:_______PXP_______ MODIFICATION DATE:  __07/15/93____ */   36430795
000500*  DESCRIPTION:                                              */   36430795
000600*  ADJUST FETCH CHANGED PROCESS FOR ECON SCREEN              */   36430795
000700**************************************************************/   36430795
000702**************************************************************/   36450775
000703*  PROGRAM: PPAWRFET                                         */   36450775
000705*  RELEASE: ___0775______ SERVICE REQUEST(S): _____3645____  */   36450775
000706*  NAME:_______DDM_______ MODIFICATION DATE:  __06/01/93____ */   36450775
000712*  DESCRIPTION: EDB ENTRY/UPDATE IMPLEMENTATION.             */   36450775
000713*    EDB AWR TABLE  FETCH DRIVER MODULE.                     */   36450775
000714*                                                            */   36450775
000715**************************************************************/   36450775
001600 IDENTIFICATION DIVISION.                                         PPAWRFET
001700 PROGRAM-ID. PPAWRFET.                                            PPAWRFET
001800*AUTHOR  DDM.                                                     PPAWRFET
001900*DATE-WRITTEN. FEB 1993                                           PPAWRFET
002000*DATE-COMPILED.                                                   PPAWRFET
002100*REMARKS.                                                         PPAWRFET
002200****************************************************************  PPAWRFET
002300*                                                                 PPAWRFET
002400*  THIS PROGRAM DRIVES THE RETRIEVAL OF EMPLOYEE DATA BASE        PPAWRFET
002500* DATA ELEMENTS, BY DATA ELEMENT NUMBER, FROM AWARD-ARRAY         PPAWRFET
002600* THIS PROGRAM IS CALLED BY PPEDBFET.                             PPAWRFET
002700*                                                                 PPAWRFET
002800*  THE DETAILS OF THIS PROGRAMS FUNCTION ARE DESCRIBED IN THE     PPAWRFET
002900* PROCEDURE DIVISION COPYMEMBER CPPDEFET.                         PPAWRFET
003000*                                                                 PPAWRFET
003100****************************************************************  PPAWRFET
003200     EJECT                                                        PPAWRFET
003300 ENVIRONMENT DIVISION.                                            PPAWRFET
003400 CONFIGURATION SECTION.                                           PPAWRFET
003500 SOURCE-COMPUTER.                   COPY CPOTXUCS.                PPAWRFET
003600 OBJECT-COMPUTER.                   COPY CPOTXOBJ.                PPAWRFET
003700      EJECT                                                       PPAWRFET
003800****************************************************************  PPAWRFET
003900*                                                                 PPAWRFET
004000*                D A T A  D I V I S I O N                         PPAWRFET
004100*                                                                 PPAWRFET
004200****************************************************************  PPAWRFET
004300 DATA DIVISION.                                                   PPAWRFET
004400 WORKING-STORAGE SECTION.                                         PPAWRFET
004500 01  MISCELLANEOUS-WS.                                            PPAWRFET
004600****************************************************************  PPAWRFET
004700*                                                                 PPAWRFET
004800* NOTE:                                                           PPAWRFET
004900*                                                                 PPAWRFET
005000*   DATA NAMES A-STND-PROG-ID AND PPXXXUTL-NAME                   PPAWRFET
005100*  ARE REFERENCED IN COPY CODE CPPDEFET. A-STND-PROG-ID IS USED   PPAWRFET
005200*  IN DIAGNOSTIC REFERENCES, WHILE PPXXUTL-NAME                   PPAWRFET
005300*  IS USED IN DYNAMIC CALLS TO THE APPROPRIATE TABLE READ         PPAWRFET
005400*  UTILITY.                                                       PPAWRFET
005500*                                                                 PPAWRFET
005600****************************************************************  PPAWRFET
005700     05  A-STND-PROG-ID      PIC X(08) VALUE 'PPAWRFET'.          PPAWRFET
005800     05  PPXXXUTL-NAME       PIC X(08) VALUE 'PPAWRUTL'.          PPAWRFET
005900     05  WS-INIT-DATE        PIC X(10) VALUE '01/01/0001'.        PPAWRFET
006000     05  WS-ISO-INIT-DATE    PIC X(10) VALUE '0001-01-01'.        PPAWRFET
006100     05  REQ-OCC-KEY-MATCH-SW PIC X(01) VALUE 'Y'.                PPAWRFET
006200         88  REQ-OCC-KEY-MATCH         VALUE 'Y'.                 PPAWRFET
006300         88  NOT-REQ-OCC-KEY-MATCH     VALUE 'N'.                 PPAWRFET
006400     05  FIRST-TIME-SW       PIC X(01) VALUE 'Y'.                 PPAWRFET
006500         88  FIRST-TIME                VALUE 'Y'.                 PPAWRFET
006600         88  NOT-FIRST-TIME            VALUE 'N'.                 PPAWRFET
006610     05  DATE-VALUE-SWITCH   PIC X(01) VALUE 'N'.                 PPAWRFET
006620         88  NO-DATE-VALUE             VALUE 'N'.                 PPAWRFET
006630         88  ISO-DATE-VALUE            VALUE 'I'.                 PPAWRFET
006640         88  USA-DATE-VALUE            VALUE 'U'.                 PPAWRFET
006650         88  DATE-VALUE                VALUES 'I' 'U'.            PPAWRFET
006660     05  DATE-HOLD-SWITCH    PIC X(01) VALUE 'N'.                 PPAWRFET
006700     05  INIT-VALUE-SW       PIC X(01) VALUE 'Y'.                 PPAWRFET
006800         88  INIT-VALUE                VALUE 'Y'.                 PPAWRFET
006900         88  NON-INIT-VALUE            VALUE 'N'.                 PPAWRFET
007000     05  MULTIPLE-OCCUR-SW   PIC X(01) VALUE 'N'.                 PPAWRFET
007100         88  MULTIPLE-OCCURRENCE       VALUE 'Y'.                 PPAWRFET
007200         88  SINGLE-OCCURRENCE         VALUE 'N'.                 PPAWRFET
007300     05  REQ-OCC-KEY-ALL-SW PIC X(01)  VALUE SPACE.               PPAWRFET
007400         88  REQ-OCC-KEY-ALL           VALUE 'A'.                 PPAWRFET
007500         88  REQ-OCC-KEY-ONE           VALUE 'O'.                 PPAWRFET
008100     05  DATA-RETURN-SW      PIC X(01) VALUE 'N'.                 PPAWRFET
008200         88  DATA-RETURN               VALUE 'Y'.                 PPAWRFET
008300         88  BYPASS-RETURN             VALUE 'N'.                 PPAWRFET
008700**** 05  LOCAL-OFFSET-RETURN-SW PIC X(01) VALUE 'N'.              36091133
008800****     88  LOCAL-OFFSET-RETURNED     VALUE 'Y'.                 36091133
008900****     88  NO-LOCAL-OFFSET-RETURNED  VALUE 'N'.                 36091133
008700     05  MULT-DATA-RETURN-SW PIC X(01) VALUE 'N'.                 PPAWRFET
008800         88  MULT-DATA-RETURNED        VALUE 'Y'.                 PPAWRFET
008900         88  MULT-DATA-NOT-RETURNED    VALUE 'N'.                 PPAWRFET
009100     05  WS-DATA-TYPE        PIC X(01) VALUE 'A'.                 PPAWRFET
009200         88  WS-DATA-TYPE-AN           VALUE 'A'.                 PPAWRFET
009300         88  WS-DATA-TYPE-NUM          VALUE 'N'.                 PPAWRFET
009400         88  WS-DATA-TYPE-DATE         VALUE 'D'.                 PPAWRFET
009500     05  WS-EMPLOYEE-ID      PIC X(09) VALUE SPACES.              PPAWRFET
009600     05  WS-DATA-ELEM-NO     PIC  9(04) VALUE ZERO.               PPAWRFET
009700     05  WS-OCCURRENCE-KEY.                                       PPAWRFET
009800         15  WS-AWARD-ID-X   PIC  X(02).                          PPAWRFET
009900     05  FILLER              REDEFINES WS-OCCURRENCE-KEY.         PPAWRFET
010000         15  WS-AWARD-ID-9   PIC  9(02).                          PPAWRFET
010100     05  WS-IX1              PIC S9(4) COMP VALUE ZERO.           PPAWRFET
010200     05  WS-IX2              PIC S9(4) COMP VALUE ZERO.           PPAWRFET
010300     05  WS-IX3              PIC S9(4) COMP VALUE ZERO.           PPAWRFET
010400     05  WS-IX4              PIC S9(4) COMP VALUE ZERO.           PPAWRFET
010500     05  WS-IX5              PIC S9(4) COMP VALUE ZERO.           PPAWRFET
010600     05  WS-IX9              PIC S9(4) COMP VALUE ZERO.           PPAWRFET
010900**** 05  TEMP-IDX            PIC S9(4) COMP VALUE ZERO.           36091133
010800     05  WS-ARRAY-IX         PIC S9(4) COMP VALUE ZERO.           PPAWRFET
010900     05  WS-ARRAY-MAX        PIC S9(4) COMP VALUE ZERO.           PPAWRFET
011000     05  WS-ARRAY-HOLD-MAX   PIC S9(4) COMP VALUE ZERO.           PPAWRFET
011300**** 05  LOCAL-OFFSET        PIC S9(4) COMP VALUE ZERO.           36091133
011200*                                                                 PPAWRFET
011300 01  DATE-CONVERSION-WORK-AREAS.                                  PPAWRFET
011400                                    COPY CPWSXDC2.                PPAWRFET
011500     EJECT                                                        PPAWRFET
011600 01  TEMP-DATA-AREA.                                              PPAWRFET
011700                                    COPY CPWSXMMM.                PPAWRFET
011800     EJECT                                                        PPAWRFET
011900****************************************************************  PPAWRFET
012000*                                                                 PPAWRFET
012100* AWARD-ARRAY IS THE ROW THAT WILL BE PASSED AROUND FOR USE       PPAWRFET
012200* BY HIGHER LEVEL PROGRAMS. IT IS DEFINED AS AN EXTERNAL DATA     PPAWRFET
012300* AREA TO ALLOW HIGHER LEVEL PROGRAMS TO AVOID PASSING THE ROW    PPAWRFET
012400* THROUGH UNNECESSARY CALLING CHAINS.                             PPAWRFET
012500*                                                                 PPAWRFET
012600* AWARD-ARRAY-HOLD IS THE PURE ROW AS READ FROM THE AWR TBL       PPAWRFET
012700* ROW IS HELD IN WORKING-STORAGE TO ALLOW THE REFRESH FUNCTION    PPAWRFET
012800* TO BE PERFORMED WITHOUT AN ADDED DATA BASE ACCESS.              PPAWRFET
012900*                                                                 PPAWRFET
013000* AWARD-ARRAY-HOLD1 IS THE ROW AS SET ASIDE, AFTER SOME UPD       PPAWRFET
013100* ACTIVITY, BY THE EDB UPDATE COMPLEX, TO ALLOW THE GENERATION    PPAWRFET
013200* OF THE "FIRST" CHANGE ENTRY IN CHANGE RECORDS.                  PPAWRFET
013300*                                                                 PPAWRFET
013400****************************************************************  PPAWRFET
013500 01  AWARD-ARRAY EXTERNAL.                                        PPAWRFET
013600                                 COPY CPWSEAWR.                   PPAWRFET
013700     EJECT                                                        PPAWRFET
013800 01  AWARD-ARRAY-HOLD EXTERNAL.                                   PPAWRFET
013900                                 COPY CPWSEAWR.                   PPAWRFET
014000     EJECT                                                        PPAWRFET
014100 01  AWARD-ARRAY-HOLD1 EXTERNAL.                                  PPAWRFET
014200                                 COPY CPWSEAWR.                   PPAWRFET
014300     EJECT                                                        PPAWRFET
014400 01  PPEDBFET-REQUEST-ARRAY     EXTERNAL.                         PPAWRFET
014500                                    COPY CPWSEREQ.                PPAWRFET
014600     EJECT                                                        PPAWRFET
014700 01  PPEDBFET-D-E-RETURN-ARRAY  EXTERNAL.                         PPAWRFET
014800                                    COPY CPWSERET.                PPAWRFET
014900     EJECT                                                        PPAWRFET
015000 01  PPEDBFET-CHANGE-RETURN-ARRAY EXTERNAL.                       PPAWRFET
015100                                    COPY CPWSECHG.                PPAWRFET
015200     EJECT                                                        PPAWRFET
015300 01  PPEDBFET-RETURN-POINTERS     EXTERNAL.                       PPAWRFET
015400                                    COPY CPWSEPTR.                PPAWRFET
015500     EJECT                                                        PPAWRFET
015600 01  PPAWRUTL-INTERFACE.                                          PPAWRFET
015700                                    COPY CPLNKAWR.                PPAWRFET
015800     EJECT                                                        PPAWRFET
015900 01  XWHC-COMPILE-WORK-AREA.                                      PPAWRFET
016000                                    COPY CPWSXWHC.                PPAWRFET
016100     EJECT                                                        PPAWRFET
016200 01  PPXXXFET-INTERFACE  EXTERNAL.                                PPAWRFET
016300                                    COPY CPLNFXXX.                PPAWRFET
016400     EJECT                                                        PPAWRFET
016500 01  PAYROLL-CONSTANTS.                                           PPAWRFET
016600                                 COPY CPWSXIC2.                   PPAWRFET
016700 01  ONLINE-SIGNALS                      EXTERNAL. COPY CPWSONLI. 36430795
016702     EJECT                                                        PPAWRFET
016800 PROCEDURE DIVISION.                                              PPAWRFET
016900*                                                                 PPAWRFET
017010****************************************************************  PPAWRFET
017100*            P R O C E D U R E  D I V I S I O N                   PPAWRFET
017200****************************************************************  PPAWRFET
017300*                                                                 PPAWRFET
017400****************************************************************  PPAWRFET
017500*                                                                 PPAWRFET
017600*  THE PROCEDURE DIVISION OF THIS PROGRAM IS CONTAINED PRIMARILY  PPAWRFET
017700* IN COPY MEMBER CPPDEFET. HERE THE GENERIC DATA-NAMES IN         PPAWRFET
017800* CPPDEFET ARE REPLACED WITH THE SPECIFIC DATA-NAMES OF THE       PPAWRFET
017900* WORKING STORAGE TABLE ROWS AND THE PPXXXUTL MODULE INTERFACE.   PPAWRFET
018000*                                                                 PPAWRFET
018100*                                                                 PPAWRFET
018200****************************************************************  PPAWRFET
018300                                     COPY CPPDEFET                PPAWRFET
018400        REPLACING PP000UTL-INTERFACE   BY PPAWRUTL-INTERFACE      PPAWRFET
018500                  PP000UTL-ERROR       BY PPAWRUTL-ERROR          PPAWRFET
018600                  PP000UTL-EMPLOYEE-ID BY PPAWRUTL-EMPLOYEE-ID    PPAWRFET
018700                  000-ROW              BY AWARD-ARRAY.            PPAWRFET
018800     EJECT                                                        PPAWRFET
018900 7900-FIRST-TIME SECTION.                                         PPAWRFET
018910****************************************************************  PPAWRFET
018920****************************************************************  PPAWRFET
019100     MOVE A-STND-PROG-ID TO XWHC-DISPLAY-MODULE.                  PPAWRFET
019200     IF PPXXXFET-NON-INITIAL-REQUEST                              PPAWRFET
019210     OR PPXXXFET-LIST-REQUEST                                     PPAWRFET
019300          INITIALIZE AWARD-ARRAY-HOLD1                            PPAWRFET
019400          INITIALIZE AWARD-ARRAY-HOLD                             PPAWRFET
019500     END-IF.                                                      PPAWRFET
019600*                                                                 PPAWRFET
019700                                    COPY CPPDXWHC.                PPAWRFET
019800     EJECT                                                        PPAWRFET
019900 8800-CONVERT-DATES SECTION.                                      PPAWRFET
019910****************************************************************  PPAWRFET
019920****************************************************************  PPAWRFET
020100                                    COPY CPPDXDC2.                PPAWRFET
020200     EJECT                                                        PPAWRFET
020300 9000-RESTORE-INDEXES SECTION.                                    PPAWRFET
020310****************************************************************  PPAWRFET
020320****************************************************************  PPAWRFET
020400*                                                                 PPAWRFET
020800     INITIALIZE WS-IX4.                                           PPAWRFET
021600     EJECT                                                        PPAWRFET
021700 9100-EVALUATE-DATA-ELEMENT SECTION.                              PPAWRFET
021710****************************************************************  PPAWRFET
021711*** PROCESS ONE OR MORE EDB OCCURRENCES FOR A GIVEN DE.           PPAWRFET
021720****************************************************************  PPAWRFET
021810     PERFORM 9160-SET-UP-FOR-MULT-OCCUR                           PPAWRFET
021900     IF PPXXXFET-NON-INITIAL-REQUEST                              PPAWRFET
022000         PERFORM 9120-PROC-NON-INITIAL-REQUEST                    PPAWRFET
024500     ELSE                                                         PPAWRFET
024700         PERFORM 9140-PROC-LIST-OR-CHG-REQUEST                    PPAWRFET
024701     END-IF                                                       PPAWRFET
024702***                                                               PPAWRFET
024703*** IF "MORE-DATA" THAN CAN BE PROCESSED IN ONE CALL, SAVE        PPAWRFET
024704*** THE INDEX SO THAT THE NEXT CALL CAN POSITION ITSELF.          PPAWRFET
024705***                                                               PPAWRFET
024706     IF PPXXXFET-MORE-DATA                                        PPAWRFET
024707         COMPUTE WS-ARRAY-IX = WS-IX5                             PPAWRFET
024708         MOVE WS-ARRAY-IX TO PPXXXFET-SAVE3                       PPAWRFET
024709     END-IF.                                                      PPAWRFET
024710     EJECT                                                        PPAWRFET
024720 9120-PROC-NON-INITIAL-REQUEST SECTION.                           PPAWRFET
024730****************************************************************  PPAWRFET
024731***  THIS SECTION WILL PROCESS DATA ELEMENTS IN THE ORDER         PPAWRFET
024732***  RETURNED BY FETCH UTILITY PPXXXUTL FOR THE GIVEN TABLE.      PPAWRFET
024740****************************************************************  PPAWRFET
024750     SET MULTIPLE-OCCURRENCE TO TRUE.                             PPAWRFET
024752     IF WS-ARRAY-IX NOT > ZERO                                    PPAWRFET
024753         MOVE 1 TO WS-ARRAY-IX                                    PPAWRFET
024754     END-IF                                                       PPAWRFET
024761     PERFORM VARYING WS-IX5 FROM WS-ARRAY-IX BY 1                 PPAWRFET
024762         UNTIL (WS-IX5 > WS-ARRAY-MAX)                            PPAWRFET
024763           OR PPXXXFET-MORE-DATA                                  PPAWRFET
024764         PERFORM 9122-PROC-DB2-ROW-FOR-NI-REQ                     PPAWRFET
024765         IF NOT PPXXXFET-MORE-DATA                                PPAWRFET
024766             MOVE PPEDBFET-MAX-PTR (WS-IX1) TO WS-IX2             PPAWRFET
024767         END-IF                                                   PPAWRFET
025000****     COMPUTE PPXXXFET-OFFSET =                                36091133
025100****             PPXXXFET-OFFSET + LOCAL-OFFSET                   36091133
025200****     MOVE ZERO TO LOCAL-OFFSET                                36091133
024772     END-PERFORM.                                                 PPAWRFET
024779     EJECT                                                        PPAWRFET
024780 9122-PROC-DB2-ROW-FOR-NI-REQ  SECTION.                           PPAWRFET
024781****************************************************************  PPAWRFET
024782*** LOOP1 - WS-IX1 ==> FIXED ON ONE EDB TABLE FOR THIS SUBPGM.    PPAWRFET
024783*** LOOP2 - WS-IX5 ==> STEPS THRU DB2 ROWS IN EXTERNAL            PPAWRFET
024784*** LOOP3 - WS-IX2 ==> STEPS THRU DATA ELEMENT LIST FOR TABLE     PPAWRFET
024785***                    AS PRESENTED IN THE REQUEST ARRAY          PPAWRFET
024786*** PROCESS:                                                      PPAWRFET
024787*** LOOP THROUGH ALL ROWS IN THE DB2 TABLE EXTERNAL AND MATCH/    PPAWRFET
024788*** MOVE THE DATA ELEMENTS/COLUMNS IN EACH DB2 ROW TO THE RETURN  PPAWRFET
024789*** ARRAY ACCORDING TO THE ORDER IN THE REQUEST ARRAY.            PPAWRFET
024790*** NOTE: THE ORDER OF THE DB2 ROWS IN THE EXTERNAL IS DETERMINED PPAWRFET
024791*** BY THE ORDER-BY CLAUSE IN FETCH UTILITY PPXXXUTL. IT WILL     PPAWRFET
024792*** NOT NECESSARILY BE THE SAME AS THE OCCURRENCE KEY.            PPAWRFET
024793****************************************************************  PPAWRFET
024797***  ADJUST RETURN INDEX BY LOCAL-OFFSET                          PPAWRFET
027000**** IF  LOCAL-OFFSET-RETURNED                                    36091133
027100****     SET NO-LOCAL-OFFSET-RETURNED TO TRUE                     36091133
027200**** ELSE                                                         36091133
027300****     PERFORM VARYING TEMP-IDX FROM 1 BY 1                     36091133
027400****       UNTIL TEMP-IDX > PPEDBFET-MAX-PTR (WS-IX1)             36091133
027500****         COMPUTE PPEDBFET-RETURN-INDEX (WS-IX1, TEMP-IDX) =   36091133
027600****                 PPEDBFET-RETURN-INDEX (WS-IX1, TEMP-IDX)     36091133
027700****                 + LOCAL-OFFSET                               36091133
027800****     END-PERFORM                                              36091133
027900**** END-IF.                                                      36091133
024808***                                                               PPAWRFET
024809***                                                               PPAWRFET
024810     IF WS-IX2 = PPEDBFET-MAX-PTR (WS-IX1)                        PPAWRFET
024811         MOVE ZERO TO WS-IX2                                      PPAWRFET
024812     ELSE                                                         PPAWRFET
024813         COMPUTE WS-IX2 = WS-IX2 - 1                              PPAWRFET
024814     END-IF.                                                      PPAWRFET
024815***                                                               PPAWRFET
024816***                                                               PPAWRFET
024817     PERFORM WITH TEST AFTER                                      PPAWRFET
024818       UNTIL WS-IX2 = PPEDBFET-MAX-PTR (WS-IX1)                   PPAWRFET
024819          OR PPXXXFET-MORE-DATA                                   PPAWRFET
024820         ADD 1 TO WS-IX2                                          PPAWRFET
024821         MOVE PPEDBFET-REQUEST-INDEX (WS-IX1, WS-IX2) TO          PPAWRFET
024822              WS-IX3                                              PPAWRFET
024823         MOVE PPEDBFET-REQ-DATA-ELEM-NO (WS-IX3) TO               PPAWRFET
024824              WS-DATA-ELEM-NO                                     PPAWRFET
024825         MOVE SPACE TO WS-OCCURRENCE-KEY                          PPAWRFET
024826***                                                               PPAWRFET
024827         PERFORM 9180-MAP-DE-TO-EDB-COL                           PPAWRFET
024828***      IF "NON-INITIAL" DATA WAS FOUND                          PPAWRFET
024829         IF DATA-RETURN                                           PPAWRFET
024830             IF  WS-IX4 = PPXXXFET-MAX-RETURN-ENTRIES             PPAWRFET
024831             AND WS-IX5 < WS-ARRAY-MAX                            PPAWRFET
024832                 SET PPXXXFET-MORE-DATA TO TRUE                   PPAWRFET
030500****             IF WS-IX2 < PPEDBFET-MAX-PTR (WS-IX1)            36091133
030600****                 MOVE LOCAL-OFFSET TO PPXXXFET-SAVE7          36091133
030700****             ELSE                                             36091133
030800****                 MOVE ZERO TO PPXXXFET-SAVE7                  36091133
030900****             END-IF                                           36091133
024838             ELSE                                                 PPAWRFET
024839                 PERFORM 0900-SETUP-FOR-RETURN                    PPAWRFET
031200****             ADD 1 TO LOCAL-OFFSET                            36091133
024841                 SET MULT-DATA-RETURNED TO TRUE                   PPAWRFET
024842             END-IF                                               PPAWRFET
024843         END-IF                                                   PPAWRFET
024844     END-PERFORM.                                                 PPAWRFET
024845     EJECT                                                        PPAWRFET
024846 9140-PROC-LIST-OR-CHG-REQUEST SECTION.                           PPAWRFET
024847****************************************************************  PPAWRFET
024848***  THIS SECTION WILL PROCESS DATA ELEMENTS IN THE ORDER         PPAWRFET
024849***  RETURNED BY FETCH UTILITY PPXXXUTL FOR THE GIVEN TABLE.      PPAWRFET
024850****************************************************************  PPAWRFET
024851     IF REQ-OCC-KEY-ALL                                           PPAWRFET
024852         SET MULTIPLE-OCCURRENCE TO TRUE                          PPAWRFET
024853     END-IF.                                                      PPAWRFET
024854*                                                                 PPAWRFET
024855     COMPUTE WS-ARRAY-IX = WS-ARRAY-IX + 1.                       PPAWRFET
024856*                                                                 PPAWRFET
024857     PERFORM VARYING WS-IX5 FROM WS-ARRAY-IX BY 1                 PPAWRFET
024858         UNTIL (WS-IX5 > WS-ARRAY-MAX)                            PPAWRFET
024859           OR PPXXXFET-MORE-DATA                                  PPAWRFET
024860         PERFORM 9142-PROC-DB2-ROW-FOR-OTH-REQ                    PPAWRFET
033300     END-PERFORM.                                                 36091133
024862*                                                                 PPAWRFET
033500**** IF MULT-DATA-RETURNED                                        36091133
033600****     SUBTRACT 1 FROM PPXXXFET-OFFSET                          36091133
033700**** END-IF.                                                      36091133
024866     EJECT                                                        PPAWRFET
024870 9142-PROC-DB2-ROW-FOR-OTH-REQ SECTION.                           PPAWRFET
024900****************************************************************  PPAWRFET
025100*** MATCH THE REQUESTED DE AND MOVE TO RETURN ARRAY.              PPAWRFET
025110*** SINCE THE KEY INFO IN THE "CURRENT" ARRAY MAY HAVE BEEN       PPAWRFET
025200*** MARKED FOR DELETION, MATCH AGAINST THE "HOLD" ARRAY.          PPAWRFET
025500****************************************************************  PPAWRFET
027300***  MATCH ***                                                    PPAWRFET
027310     IF REQ-OCC-KEY-ALL                                           PPAWRFET
027400         SET REQ-OCC-KEY-MATCH TO TRUE                            PPAWRFET
027500     ELSE                                                         PPAWRFET
027600         SET NOT-REQ-OCC-KEY-MATCH TO TRUE                        PPAWRFET
028200         IF WS-IX5 NOT > WS-ARRAY-HOLD-MAX                        PPAWRFET
028300             IF (AWARD-ID OF AWARD-ARRAY-HOLD (WS-IX5)            PPAWRFET
028500                 = WS-AWARD-ID-9)                                 PPAWRFET
028600                 SET REQ-OCC-KEY-MATCH TO TRUE                    PPAWRFET
028700             END-IF                                               PPAWRFET
028800         ELSE                                                     PPAWRFET
028900             IF (AWARD-ID OF AWARD-ARRAY (WS-IX5)                 PPAWRFET
029100                 = WS-AWARD-ID-9)                                 PPAWRFET
029200                 SET REQ-OCC-KEY-MATCH TO TRUE                    PPAWRFET
029300             END-IF                                               PPAWRFET
029400         END-IF                                                   PPAWRFET
029500     END-IF                                                       PPAWRFET
029510***  MOVE MATCHED DE TO RETURN ARRAY                              PPAWRFET
029600     IF REQ-OCC-KEY-MATCH                                         PPAWRFET
029800         PERFORM 9180-MAP-DE-TO-EDB-COL                           PPAWRFET
030000     END-IF                                                       PPAWRFET
030200     IF MULTIPLE-OCCURRENCE AND DATA-RETURN                       PPAWRFET
030300         IF  WS-IX4 = PPXXXFET-MAX-RETURN-ENTRIES                 PPAWRFET
030400         AND WS-IX5 < WS-ARRAY-MAX                                PPAWRFET
030500             SET PPXXXFET-MORE-DATA TO TRUE                       PPAWRFET
030700         ELSE                                                     PPAWRFET
030800             PERFORM 0900-SETUP-FOR-RETURN                        PPAWRFET
037200****         ADD 1 TO PPXXXFET-OFFSET                             36091133
031000             SET MULT-DATA-RETURNED TO TRUE                       PPAWRFET
031100         END-IF                                                   PPAWRFET
031200     END-IF.                                                      PPAWRFET
048610     EJECT                                                        PPAWRFET
048700 9160-SET-UP-FOR-MULT-OCCUR SECTION.                              PPAWRFET
048710****************************************************************  PPAWRFET
048712*** NOTE: IF THIS IS A CONTINUATION OF A REQUEST REQUIRING        PPAWRFET
048713*** MORE THAN ONE CALL TO THIS MODULE ("MORE-DATA" MODE),         PPAWRFET
048714*** THEN THE PPXXXFET-SAVE3 FIELD WILL CONTAIN AN INDEX VALUE     PPAWRFET
048715*** GREATER THAN ZERO.                                            PPAWRFET
048720****************************************************************  PPAWRFET
049000     SET MULT-DATA-NOT-RETURNED TO TRUE.                          PPAWRFET
049100*                                                                 PPAWRFET
038600**** IF PPXXXFET-SAVE7  =  ZERO                                   36091133
038700****     SET NO-LOCAL-OFFSET-RETURNED TO TRUE                     36091133
038800****     MOVE ZERO TO LOCAL-OFFSET                                36091133
038900**** ELSE                                                         36091133
039000****     SET LOCAL-OFFSET-RETURNED TO TRUE                        36091133
039100****     MOVE PPXXXFET-SAVE7 TO LOCAL-OFFSET                      36091133
039200****     MOVE ZERO TO PPXXXFET-SAVE7                              36091133
039300**** END-IF.                                                      36091133
049607*                                                                 PPAWRFET
049610***  SET SINGLE/MULTIPLE OCCURENCE FLAG                           PPAWRFET
049700     IF PPXXXFET-SAVE3  =  ZERO                                   PPAWRFET
049900         MOVE ZERO TO WS-ARRAY-IX                                 PPAWRFET
049930         IF (WS-AWARD-ID-X = '*' OR SPACE)                        PPAWRFET
049940             SET REQ-OCC-KEY-ALL TO TRUE                          PPAWRFET
049950         ELSE                                                     PPAWRFET
049951             SET REQ-OCC-KEY-ONE TO TRUE                          PPAWRFET
049953         END-IF                                                   PPAWRFET
049991         PERFORM 9162-DET-ARRAY-LIMITS                            PPAWRFET
050000     ELSE                                                         PPAWRFET
050002         INITIALIZE PPXXXFET-SAVE-INDEXES                         PPAWRFET
050004     END-IF.                                                      PPAWRFET
054900     EJECT                                                        PPAWRFET
055000 9162-DET-ARRAY-LIMITS  SECTION.                                  PPAWRFET
055100****************************************************************  PPAWRFET
055110*** DETERMINE THE LIMITS OF THE ACTUAL (NON-INITIAL) ARRAY DATA   PPAWRFET
055120*** FOR THE "CURRENT" AND "HOLD" ARRAYS:                          PPAWRFET
055130*** WS-ARRAY-MAX                                                  PPAWRFET
055140*** WS-ARRAY-MAX-HOLD                                             PPAWRFET
055200****************************************************************  PPAWRFET
055201*                                                                 PPAWRFET
055202*    DETERMINE THE SIZE OF THE ORIGINAL ARRAY                     PPAWRFET
055203*                                                                 PPAWRFET
055204     MOVE 1 TO WS-IX5                                             PPAWRFET
055205     IF NOT  PPXXXFET-LIST-REQUEST                                PPAWRFET
055207         PERFORM VARYING WS-IX5 FROM 1 BY 1                       PPAWRFET
055208           UNTIL (WS-IX5 > IDC-MAX-NO-AWR)                        PPAWRFET
055209              OR (AWARD-ID OF AWARD-ARRAY-HOLD(WS-IX5) = ZERO)    PPAWRFET
055211         END-PERFORM                                              PPAWRFET
055212     END-IF                                                       PPAWRFET
055213*                                                                 PPAWRFET
055214*    SAVE THE INFORMATION                                         PPAWRFET
055215*                                                                 PPAWRFET
055216     IF WS-IX5 > IDC-MAX-NO-AWR                                   PPAWRFET
055217         MOVE IDC-MAX-NO-AWR TO WS-ARRAY-HOLD-MAX                 PPAWRFET
055218     ELSE                                                         PPAWRFET
055219         COMPUTE WS-ARRAY-HOLD-MAX = WS-IX5 - 1                   PPAWRFET
055220     END-IF.                                                      PPAWRFET
055221*                                                                 PPAWRFET
055222*    NOW DETERMINE THE SIZE OF THE "CURRENT" ARRAY                PPAWRFET
055223*                                                                 PPAWRFET
055224     PERFORM VARYING WS-IX9 FROM WS-IX5 BY 1                      PPAWRFET
055225             UNTIL (WS-IX9 > IDC-MAX-NO-AWR)                      PPAWRFET
055226         OR (AWARD-ID            OF AWARD-ARRAY (WS-IX9)          PPAWRFET
055227             = ZERO)                                              PPAWRFET
055228     END-PERFORM.                                                 PPAWRFET
055229*                                                                 PPAWRFET
055230*    SAVE THE INFORMATION                                         PPAWRFET
055231*                                                                 PPAWRFET
055232     IF WS-IX9 > IDC-MAX-NO-AWR                                   PPAWRFET
055233         MOVE IDC-MAX-NO-AWR TO WS-ARRAY-MAX                      PPAWRFET
055234     ELSE                                                         PPAWRFET
055235         COMPUTE WS-ARRAY-MAX = WS-IX9 - 1                        PPAWRFET
055236     END-IF.                                                      PPAWRFET
055237     EJECT                                                        PPAWRFET
055238 9180-MAP-DE-TO-EDB-COL SECTION.                                  PPAWRFET
055239****************************************************************  PPAWRFET
055240****************************************************************  PPAWRFET
055300***  CONVERT KEY VALUE FROM COMPUTATIONAL FORMAT AND SAVE         PPAWRFET
055301***  AS PART OF THE OCCURRENCE KEY. NOTE THAT AWARD-ID IS         PPAWRFET
055302***  DEFINED AS 2 DIGITS IN THE DET.                              PPAWRFET
055310     COMPUTE WS-AWARD-ID-9 =                                      PPAWRFET
055400             AWARD-ID OF AWARD-ARRAY (WS-IX5).                    PPAWRFET
055410     IF WS-AWARD-ID-9 = ZERO                                      36450984
055412        MOVE AWARD-ID OF AWARD-ARRAY-HOLD (WS-IX5)                36450984
055413                                     TO WS-AWARD-ID-9             36450984
055420     END-IF.                                                      36450984
055500     EVALUATE WS-DATA-ELEM-NO                                     PPAWRFET
055501         WHEN '0742'                                              PPAWRFET
055502             COMPUTE TEMP-NUMBER =                                PPAWRFET
055503                     AWARD-ID OF AWARD-ARRAY              (WS-IX5)PPAWRFET
055504              IF PPXXXFET-CHANGE-REQUEST                          PPAWRFET
055505                  COMPUTE ORIG-NUMBER =                           PPAWRFET
055506                          AWARD-ID                                PPAWRFET
055507                          OF AWARD-ARRAY-HOLD (WS-IX5)            PPAWRFET
055508                  COMPUTE CHG1-NUMBER =                           PPAWRFET
055509                          AWARD-ID                                PPAWRFET
055510                          OF AWARD-ARRAY-HOLD1 (WS-IX5)           PPAWRFET
055511              END-IF                                              PPAWRFET
055512         WHEN '0743'                                              PPAWRFET
055520             MOVE    AWARD-TYPE                                   PPAWRFET
055530                     OF AWARD-ARRAY (WS-IX5)                      PPAWRFET
055540                     TO TEMP-DATA-VALUE                           PPAWRFET
055550              IF PPXXXFET-CHANGE-REQUEST                          PPAWRFET
055560                  MOVE    AWARD-TYPE                              PPAWRFET
055570                          OF AWARD-ARRAY-HOLD (WS-IX5)            PPAWRFET
055580                          TO ORIG-DATA-VALUE                      PPAWRFET
055590                  MOVE    AWARD-TYPE                              PPAWRFET
055591                          OF  AWARD-ARRAY-HOLD1 (WS-IX5)          PPAWRFET
055592                          TO CHG1-DATA-VALUE                      PPAWRFET
055593              END-IF                                              PPAWRFET
055594         WHEN '0744'                                              PPAWRFET
055595             MOVE    AWARD-DATE                                   PPAWRFET
055596                     OF AWARD-ARRAY (WS-IX5)                      PPAWRFET
055597                     TO TEMP-DATA-VALUE                           PPAWRFET
055598              IF PPXXXFET-CHANGE-REQUEST                          PPAWRFET
055599                  MOVE    AWARD-DATE                              PPAWRFET
055600                          OF AWARD-ARRAY-HOLD (WS-IX5)            PPAWRFET
055601                          TO ORIG-DATA-VALUE                      PPAWRFET
055602                  MOVE    AWARD-DATE                              PPAWRFET
055603                          OF  AWARD-ARRAY-HOLD1 (WS-IX5)          PPAWRFET
055604                          TO CHG1-DATA-VALUE                      PPAWRFET
055605              END-IF                                              PPAWRFET
055606         WHEN '0745'                                              PPAWRFET
055607             MOVE    AWARD-SOURCE                                 PPAWRFET
055608                     OF AWARD-ARRAY (WS-IX5)                      PPAWRFET
055609                     TO TEMP-DATA-VALUE                           PPAWRFET
055610              IF PPXXXFET-CHANGE-REQUEST                          PPAWRFET
055611                  MOVE    AWARD-SOURCE                            PPAWRFET
055612                          OF AWARD-ARRAY-HOLD (WS-IX5)            PPAWRFET
055613                          TO ORIG-DATA-VALUE                      PPAWRFET
055614                  MOVE    AWARD-SOURCE                            PPAWRFET
055615                          OF  AWARD-ARRAY-HOLD1 (WS-IX5)          PPAWRFET
055616                          TO CHG1-DATA-VALUE                      PPAWRFET
055617              END-IF                                              PPAWRFET
055620         WHEN '0746'                                              PPAWRFET
055700             COMPUTE TEMP-NUMBER =                                PPAWRFET
055800                     AWARD-AMOUNT OF AWARD-ARRAY          (WS-IX5)PPAWRFET
055900              IF PPXXXFET-CHANGE-REQUEST                          PPAWRFET
056000                  COMPUTE ORIG-NUMBER =                           PPAWRFET
056100                          AWARD-AMOUNT                            PPAWRFET
056200                          OF AWARD-ARRAY-HOLD (WS-IX5)            PPAWRFET
056300                  COMPUTE CHG1-NUMBER =                           PPAWRFET
056400                          AWARD-AMOUNT                            PPAWRFET
056500                          OF AWARD-ARRAY-HOLD1 (WS-IX5)           PPAWRFET
056600              END-IF                                              PPAWRFET
056700         WHEN '0747'                                              PPAWRFET
056800             MOVE    AWARD-ADC-CD                                 PPAWRFET
056900                     OF AWARD-ARRAY (WS-IX5)                      PPAWRFET
057000                     TO TEMP-DATA-VALUE                           PPAWRFET
057100              IF PPXXXFET-CHANGE-REQUEST                          PPAWRFET
057200                  MOVE    AWARD-ADC-CD                            PPAWRFET
057300                          OF AWARD-ARRAY-HOLD (WS-IX5)            PPAWRFET
057400                          TO ORIG-DATA-VALUE                      PPAWRFET
057500                  MOVE    AWARD-ADC-CD                            PPAWRFET
057600                          OF  AWARD-ARRAY-HOLD1 (WS-IX5)          PPAWRFET
057700                          TO CHG1-DATA-VALUE                      PPAWRFET
057800              END-IF                                              PPAWRFET
057900         WHEN OTHER                                               PPAWRFET
058000              IF PPXXXFET-DIAGNOSTICS-ON AND PPXXXFET-BATCH-CALL  PPAWRFET
058100                  DISPLAY A-STND-PROG-ID                          PPAWRFET
058200                          ': UNRECOGNIZED DATA ELEMENT NUMBER ('  PPAWRFET
058300                          WS-DATA-ELEM-NO                         PPAWRFET
058400                          ')'                                     PPAWRFET
058500              END-IF                                              PPAWRFET
058600              SET PPXXXFET-DATA-ELEM-NO-ERROR TO TRUE             PPAWRFET
058700     END-EVALUATE.                                                PPAWRFET
058710***                                                               PPAWRFET
058800     SET DATA-RETURN TO TRUE                                      PPAWRFET
058802     IF NOT ENVIRON-IS-CICS                                       36430795
058900     IF  PPXXXFET-CHANGE-REQUEST                                  PPAWRFET
059000     AND TEMP-DATA-VALUE = ORIG-DATA-VALUE                        PPAWRFET
059100     AND ORIG-DATA-VALUE = CHG1-DATA-VALUE                        PPAWRFET
059200         SET BYPASS-RETURN TO TRUE                                PPAWRFET
059300     END-IF                                                       PPAWRFET
059302     END-IF                                                       36430795
059400     IF PPXXXFET-LIST-REQUEST                                     PPAWRFET
059500     AND MULTIPLE-OCCURRENCE                                      PPAWRFET
059600     AND TEMP-DATA-VALUE = WS-ISO-INIT-DATE                       PPAWRFET
059700        SET BYPASS-RETURN TO TRUE                                 PPAWRFET
059800     END-IF.                                                      PPAWRFET
