000010**************************************************************/   36430976
000020*  PROGRAM: PPBNDUPD                                         */   36430976
000030*  RELEASE: ___0976______ SERVICE REQUEST(S): _____3643____  */   36430976
000040*  NAME:_______JLT_______ MODIFICATION DATE:  __04/18/95____ */   36430976
000050*  DESCRIPTION:                                              */   36430976
000060*  - ADD "QUICK FETCH" PROGRAM FUNCTION.                     */   36430976
000061*    (ERROR REPORT #1255)                                    */   36430976
000070**************************************************************/   36430976
000100**************************************************************/   36430821
000200*  PROGRAM: PPBNDUPD                                         */   36430821
000300*  RELEASE: ___0821______ SERVICE REQUEST(S): _____3643____  */   36430821
000400*  NAME:_______PXP_______ MODIFICATION DATE:  __10/05/93____ */   36430821
000500*  DESCRIPTION:                                              */   36430821
000600*  ADD EMPLOYEE-ID CHANGE FUNCTION                           */   36430821
000700**************************************************************/   36430821
000101**************************************************************/   36430795
000200*  PROGRAM: PPBNDUPD                                         */   36430795
000300*  RELEASE: ___0795______ SERVICE REQUEST(S): _____3643____  */   36430795
000400*  NAME:_______PXP_______ MODIFICATION DATE:  __07/15/93____ */   36430795
000500*  DESCRIPTION:                                              */   36430795
000600*  MAKE INIT-BND-ROW EXTERNAL                                */   36430795
000700*  CHANGE TO INITIALIZE ON A FETCH ALL CALL;NOT ON FIRST TIME*/   36430795
000800**************************************************************/   36430795
000802**************************************************************/  *36090574
000803*  PROGRAM:  PPBNDUPD                                        */  *36090574
000804*  RELEASE # ____0574____ SERVICE REQUEST NO(S)___3609_______*/  *36090574
000805*  NAME ______JAG______   MODIFICATION DATE ____06/05/91_____*/  *36090574
000806*  DESCRIPTION                                               */  *36090574
000807*    EDB BND TABLE UPDATE DRIVER MODULE.                     */  *36090574
000808**************************************************************/  *36090574
000809 IDENTIFICATION DIVISION.                                         PPBNDUPD
000900 PROGRAM-ID. PPBNDUPD.                                            PPBNDUPD
001000 AUTHOR. UCOP.                                                    PPBNDUPD
001100 DATE-WRITTEN. NOVEMBER 1990.                                     PPBNDUPD
001200 DATE-COMPILED.                                                   PPBNDUPD
001300*REMARKS.                                                         PPBNDUPD
001400******************************************************************PPBNDUPD
001500*                                                                *PPBNDUPD
001600*  THIS PROGRAM DRIVES THE APPLICATION OF EMPLOYEE DATA BASE     *PPBNDUPD
001700* BND-TABLE ROWS. THIS PROGRAM IS CALLED BY PPEDBUPD.            *PPBNDUPD
001800*                                                                *PPBNDUPD
001900*  THE DETAILS OF THIS PROGRAMS FUNCTION ARE DESCRIBED IN THE    *PPBNDUPD
002000* PROCEDURE DIVISION COPYMEMBER CPPDEUPD. ADDITIONAL CODE IS     *PPBNDUPD
002100* HARCODED IN THIS SOURCE TO PROVIDE THE NECESSARY MOVEMENT OF   *PPBNDUPD
002200* CHANGE-RECORD VALUES TO XXX-TABLE COLUMN ROWS, AS WELL AS      *PPBNDUPD
002300* BND-ROW INITIALIZATION.                                        *PPBNDUPD
002400*                                                                *PPBNDUPD
002500*  AS SHOULD BE OBVIOUS, THIS PROGRAM USES COPY CODE FOR THE     *PPBNDUPD
002600* MAJORITY OF THE PROCEDURE DIVISION. THIS COPY CODE ADDRESSES   *PPBNDUPD
002700* THE ROOT FUNCTIONS WHICH ARE COMMON TO THE PPXXXUPD PROGRAM    *PPBNDUPD
002800* SERIES.                                                        *PPBNDUPD
002900*                                                                *PPBNDUPD
003000******************************************************************PPBNDUPD
003100     EJECT                                                        PPBNDUPD
003200 ENVIRONMENT DIVISION.                                            PPBNDUPD
003300 CONFIGURATION SECTION.                                           PPBNDUPD
003400 SOURCE-COMPUTER.                   COPY CPOTXUCS.                PPBNDUPD
003500 OBJECT-COMPUTER.                   COPY CPOTXOBJ.                PPBNDUPD
003600      EJECT                                                       PPBNDUPD
003700******************************************************************PPBNDUPD
003800*                                                                *PPBNDUPD
003900*                D A T A  D I V I S I O N                        *PPBNDUPD
004000*                                                                *PPBNDUPD
004100******************************************************************PPBNDUPD
004200 DATA DIVISION.                                                   PPBNDUPD
004300 WORKING-STORAGE SECTION.                                         PPBNDUPD
004400 01  MISCELLANEOUS-WS.                                            PPBNDUPD
004500******************************************************************PPBNDUPD
004600*                                                                *PPBNDUPD
004700* NOTE:                                                          *PPBNDUPD
004800*                                                                *PPBNDUPD
004900*   DATA NAMES A-STND-PROG-ID, PPXXXUTL-NAME AND PPXXXUTW-NAME   *PPBNDUPD
005000*  ARE REFERENCED IN COPY CODE CPPDEUPD. A-STND-PROG-ID IS USED  *PPBNDUPD
005100*  IN DIAGNOSTIC REFERENCES, WHILE PPXXUTL-NAME AND              *PPBNDUPD
005200*  PPXXXUTW-NAME ARE USED IN DYNAMIC CALLS TO THE APPROPRIATE    *PPBNDUPD
005300*  TABLE READ AND WRITE UTILITY MODULES, RESPECTIVELY.           *PPBNDUPD
005400*                                                                *PPBNDUPD
005500******************************************************************PPBNDUPD
005600     05  A-STND-PROG-ID      PIC X(08) VALUE 'PPBNDUPD'.          PPBNDUPD
005700     05  PPXXXUTL-NAME       PIC X(08) VALUE 'PPBARUTL'.          PPBNDUPD
005800     05  PPXXXUTW-NAME       PIC X(08) VALUE 'PPBNDUTW'.          PPBNDUPD
005900     05  WS-INIT-DATE        PIC X(10) VALUE '0001-01-01'.        PPBNDUPD
006000     05  FIRST-TIME-SWITCH   PIC X(01) VALUE 'Y'.                 PPBNDUPD
006100         88  FIRST-TIME                VALUE 'Y'.                 PPBNDUPD
006200         88  NOT-FIRST-TIME            VALUE 'N'.                 PPBNDUPD
006300     05  WS-EMPLOYEE-ID      PIC X(9).                            PPBNDUPD
006400     05  WS-IX1              PIC S9(4) COMP VALUE ZERO.           PPBNDUPD
006500     05  WS-HOLD-KEY.                                             PPBNDUPD
006600         10  FILLER              PIC X(01).                       PPBNDUPD
006700         10  WS-BOND-NUMBER      PIC 9(01).                       PPBNDUPD
006800         10  FILLER              PIC X(02).                       PPBNDUPD
006900 01  WS-NUMBER-WORK-AREA.                                         PPBNDUPD
007000     05  WS-AREA1.                                                PPBNDUPD
007100         10  WS-TEMP-NUMBER       PIC 9(09)V9(09).                PPBNDUPD
007200     05  FILLER                   REDEFINES WS-AREA1.             PPBNDUPD
007300         10  FILLER               PIC X(08).                      PPBNDUPD
007400         10  WS-NUM-1             PIC 9(01).                      PPBNDUPD
007500         10  FILLER               PIC X(09).                      PPBNDUPD
007600     05  FILLER                   REDEFINES WS-AREA1.             PPBNDUPD
007700         10  FILLER               PIC X(07).                      PPBNDUPD
007800         10  WS-NUM-2             PIC 9(02).                      PPBNDUPD
007900         10  FILLER               PIC X(09).                      PPBNDUPD
008000     05  FILLER                   REDEFINES WS-AREA1.             PPBNDUPD
008100         10  FILLER               PIC X(06).                      PPBNDUPD
008200         10  WS-NUM-3             PIC 9(03).                      PPBNDUPD
008300         10  FILLER               PIC X(09).                      PPBNDUPD
008400     05  FILLER                   REDEFINES WS-AREA1.             PPBNDUPD
008500         10  FILLER               PIC X(05).                      PPBNDUPD
008600         10  WS-NUM-4             PIC 9(04).                      PPBNDUPD
008700         10  FILLER               PIC X(09).                      PPBNDUPD
008800     05  FILLER                   REDEFINES WS-AREA1.             PPBNDUPD
008900         10  FILLER               PIC X(04).                      PPBNDUPD
009000         10  WS-NUM-5             PIC 9(05).                      PPBNDUPD
009100         10  FILLER               PIC X(09).                      PPBNDUPD
009200     05  FILLER                   REDEFINES WS-AREA1.             PPBNDUPD
009300         10  FILLER               PIC X(03).                      PPBNDUPD
009400         10  WS-NUM-6             PIC 9(06).                      PPBNDUPD
009500         10  FILLER               PIC X(09).                      PPBNDUPD
009600     05  FILLER                   REDEFINES WS-AREA1.             PPBNDUPD
009700         10  FILLER               PIC X(02).                      PPBNDUPD
009800         10  WS-NUM-7             PIC 9(07).                      PPBNDUPD
009900         10  FILLER               PIC X(09).                      PPBNDUPD
010000     05  FILLER                   REDEFINES WS-AREA1.             PPBNDUPD
010100         10  FILLER               PIC X(01).                      PPBNDUPD
010200         10  WS-NUM-8             PIC 9(08).                      PPBNDUPD
010300         10  FILLER               PIC X(09).                      PPBNDUPD
010400     05  FILLER                   REDEFINES WS-AREA1.             PPBNDUPD
010500         10  WS-NUM-9             PIC 9(09).                      PPBNDUPD
010600         10  FILLER               PIC X(09).                      PPBNDUPD
010700     SKIP3                                                        PPBNDUPD
010800 01  TEMP-DATA-AREA.                                              PPBNDUPD
010900                                    COPY CPWSXMMM.                PPBNDUPD
011000     EJECT                                                        PPBNDUPD
011100******************************************************************PPBNDUPD
011200*                                                                *PPBNDUPD
011300*  BND-ARRAY IS THE DATA AREA THAT WILL BE PASSED                *PPBNDUPD
011400* AROUND FOR USE BY HIGHER LEVEL PROGRAMS. IT IS DEFINED AS AN   *PPBNDUPD
011500* EXTERNAL DATA AREA TO ALLOW HIGHER LEVEL PROGRAMS TO AVOID     *PPBNDUPD
011600* PASSING THE ARRAY THROUGH UNECESSARY CALLING CHAINS.           *PPBNDUPD
011700*                                                                *PPBNDUPD
011800*  BND-ARRAY IS THE PURE ARRAY AS RETURNED BY PPBNDUTL.          *PPBNDUPD
011900* THIS ARRAY IS HELD IN WORKING-STORAGE TO ALLOW                 *PPBNDUPD
012000* THE REFRESH FUNCTION TO BE PERFORMED WITHOUT AN ADDED DATA     *PPBNDUPD
012100* BASE ACCESS. THIS ARRAY IS ALSO THE REFERENCE FOR LOGIC WHICH  *PPBNDUPD
012200* DETERMINES WHICH BND-ROWS ARE TO BE UPDATE, DELETED AND        *PPBNDUPD
012300* INSERTED.                                                      *PPBNDUPD
012400*                                                                *PPBNDUPD
012500*  INIT-BND-ROW IS THE INITIALIZED ROW. THIS IS PLACED IN        *PPBNDUPD
012600* WORKING STORAGE FOR COMPARISON PURPOSES WITHIN THE "POST"      *PPBNDUPD
012700* LOGIC OF CPPDEUPD.                                             *PPBNDUPD
012800*                                                                *PPBNDUPD
012900******************************************************************PPBNDUPD
013000 01  BND-ARRAY   EXTERNAL.                                        PPBNDUPD
013100     02  BND-ARRAY-ENTRY OCCURS 4 TIMES.                          PPBNDUPD
013200                                    COPY CPWSRBND.                PPBNDUPD
013300     EJECT                                                        PPBNDUPD
013400 01  BND-ARRAY-HOLD   EXTERNAL.                                   PPBNDUPD
013500     02  BND-ARRAY-ENTRY-HOLD OCCURS 4 TIMES.                     PPBNDUPD
013600                                    COPY CPWSRBND.                PPBNDUPD
013700 01  BND-ARRAY-HOLD1 EXTERNAL.                                    PPBNDUPD
013800     02  BND-ARRAY-ENTRY-HOLD1 OCCURS 4 TIMES.                    PPBNDUPD
013900                                    COPY CPWSRBND.                PPBNDUPD
014000     EJECT                                                        PPBNDUPD
014100 01  BND-ROW.                                                     PPBNDUPD
014200     EXEC SQL                                                     PPBNDUPD
014300         INCLUDE PPPVBND1                                         PPBNDUPD
014400     END-EXEC.                                                    PPBNDUPD
014500     EJECT                                                        PPBNDUPD
015400*01**INIT-BND-ROW.                                                36430795
015500 01  INIT-BND-ROW EXTERNAL.                                       36430795
015505                                    COPY CPWSRBND.                PPBNDUPD
015506     EJECT                                                        PPBNDUPD
015800*01**INIT-BND-ROW-2.                                              36430795
015810 01  INIT-BND-ROW-2 EXTERNAL.                                     36430795
015815                                    COPY CPWSRBND.                PPBNDUPD
015816     EJECT                                                        PPBNDUPD
015817 01  PPBARUTL-INTERFACE.                                          PPBNDUPD
015818                                    COPY CPLNKBAR.                PPBNDUPD
015819     EJECT                                                        PPBNDUPD
015820 01  PPXXXUTW-INTERFACE.                                          PPBNDUPD
015821                                    COPY CPLNWXXX.                PPBNDUPD
015822     EJECT                                                        PPBNDUPD
015823 01  INSTALLATION-DEPNDNT-CONSTANTS.                              PPBNDUPD
015900                                    COPY CPWSXIDC.                PPBNDUPD
016000     EJECT                                                        PPBNDUPD
016100 01  XWHC-COMPILE-WORK-AREA.                                      PPBNDUPD
016200                                    COPY CPWSXWHC.                PPBNDUPD
017110                                                                  36430795
017120 01  ONLINE-SIGNALS                      EXTERNAL. COPY CPWSONLI. 36430795
017122     EJECT                                                        PPBNDUPD
017123 LINKAGE SECTION.                                                 PPBNDUPD
017124******************************************************************PPBNDUPD
017125*              L I N K A G E    S E C T I O N                    *PPBNDUPD
017126******************************************************************PPBNDUPD
017127*                                                                 PPBNDUPD
017128 01  PPXXXUPD-INTERFACE.            COPY CPLNUXXX.                PPBNDUPD
017129     EJECT                                                        PPBNDUPD
017130 01  EDB-CHANGE-RECORD.             COPY CPWSXCHG.                PPBNDUPD
017200     EJECT                                                        PPBNDUPD
017300 PROCEDURE DIVISION USING                                         PPBNDUPD
017400                          PPXXXUPD-INTERFACE                      PPBNDUPD
017500                          EDB-CHANGE-RECORD.                      PPBNDUPD
017600*                                                                 PPBNDUPD
017700******************************************************************PPBNDUPD
017800*            P R O C E D U R E  D I V I S I O N                  *PPBNDUPD
017900******************************************************************PPBNDUPD
018000*                                                                 PPBNDUPD
018100******************************************************************PPBNDUPD
018200*                                                                *PPBNDUPD
018300*  THE PROCEDURE DIVISION OF THIS PROGRAM IS CONTAINED PRIMARILY *PPBNDUPD
018400* IN COPY MEMBER CPPDEUPD. HERE THE GENERIC DATA-NAMES IN        *PPBNDUPD
018500* CPPDEUPD ARE REPLACED WITH THE SPECIFIC DATA-NAMES OF THE      *PPBNDUPD
018600* WORKING STORAGE TABLE ROWS AND THE PPXXXUTL MODULE INTERFACE.  *PPBNDUPD
018700*                                                                *PPBNDUPD
018800*                                                                *PPBNDUPD
018900******************************************************************PPBNDUPD
019000     SKIP3                                                        PPBNDUPD
019100 0100-MAINLINE SECTION.                                           PPBNDUPD
019200     SKIP1                                                        PPBNDUPD
019300     IF ENVIRON-IS-CICS                                           36430795
020101         MOVE PPXXXUPD-EMPLOYEE-ID TO PPBARUTL-EMPLOYEE-ID        36430795
020110         MOVE PPBARUTL-EMPLOYEE-ID TO WS-EMPLOYEE-ID              36430795
020111     END-IF.                                                      36430795
020112     INITIALIZE PPXXXUPD-ERROR-SWITCHES.                          PPBNDUPD
020113     SKIP1                                                        PPBNDUPD
020114     IF FIRST-TIME                                                PPBNDUPD
020115         SET NOT-FIRST-TIME TO TRUE                               PPBNDUPD
020116         PERFORM 7900-FIRST-TIME                                  PPBNDUPD
020610         IF NOT ENVIRON-IS-CICS                                   36430795
020700             PERFORM 9000-INITIALIZE-ARRAY                        36430795
020800             MOVE BND-ARRAY    TO                                 36430795
020900                  BND-ARRAY-HOLD                                  36430795
020901         END-IF                                                   36430795
020910*****    PERFORM 9000-INITIALIZE-ARRAY                            36430795
020920*****    MOVE BND-ARRAY        TO                                 36430795
020930*****         BND-ARRAY-HOLD                                      36430795
020937     END-IF.                                                      PPBNDUPD
020938     SKIP3                                                        PPBNDUPD
020939     EVALUATE PPXXXUPD-FUNCTION                                   PPBNDUPD
020940         WHEN 'A'                                                 PPBNDUPD
020941             PERFORM 1000-APPLY-DATA-ELEMENT-CHANGE               PPBNDUPD
020942         WHEN 'C'                                                 PPBNDUPD
020943             PERFORM 9000-INITIALIZE-ARRAY                        PPBNDUPD
020944         WHEN 'F'                                                 PPBNDUPD
021800             PERFORM 9000-INITIALIZE-ARRAY                        36430795
021900             MOVE BND-ARRAY    TO                                 36430795
022000                  BND-ARRAY-HOLD                                  36430795
022002             MOVE PPXXXUPD-EMPLOYEE-ID TO PPBARUTL-EMPLOYEE-ID    PPBNDUPD
022003             PERFORM 8100-CALL-PPXXXUTL                           PPBNDUPD
022004         WHEN 'H'                                                 PPBNDUPD
022005             MOVE BND-ARRAY TO BND-ARRAY-HOLD1                    PPBNDUPD
022006         WHEN 'P'                                                 PPBNDUPD
022007             PERFORM 2000-POST-ROWS                               PPBNDUPD
022008         WHEN 'R'                                                 PPBNDUPD
022009             MOVE BND-ARRAY-HOLD   TO                             PPBNDUPD
022010                  BND-ARRAY                                       PPBNDUPD
024900         WHEN 'S'                                                 36430821
025000             MOVE PPXXXUPD-EMPLOYEE-ID TO PPBARUTL-EMPLOYEE-ID    36430821
025100             MOVE PPBARUTL-EMPLOYEE-ID TO WS-EMPLOYEE-ID          36430821
025120         WHEN 'Q'                                                 36430976
025130             PERFORM 9400-QUICK-FETCH                             36430976
022011         WHEN OTHER                                               PPBNDUPD
022012             SET PPXXXUPD-INVALID-FUNCTION TO TRUE                PPBNDUPD
022013     END-EVALUATE.                                                PPBNDUPD
022100     SKIP3                                                        PPBNDUPD
022200     IF PPXXXUPD-ERROR-SWITCHES NOT = SPACES                      PPBNDUPD
022300         SET PPXXXUPD-ERROR TO TRUE                               PPBNDUPD
022400     SKIP3                                                        PPBNDUPD
022500     END-IF.                                                      PPBNDUPD
022600     GOBACK.                                                      PPBNDUPD
022700     EJECT                                                        PPBNDUPD
022800 1000-APPLY-DATA-ELEMENT-CHANGE SECTION.                          PPBNDUPD
022900     SKIP3                                                        PPBNDUPD
023000     IF XCHG-EMPLOYEE-ID NOT = SPACES                             PPBNDUPD
023100         IF XCHG-EMPLOYEE-ID NOT = PPBARUTL-EMPLOYEE-ID           PPBNDUPD
023200             MOVE XCHG-EMPLOYEE-ID TO PPBARUTL-EMPLOYEE-ID        PPBNDUPD
024430         IF NOT ENVIRON-IS-CICS                                   36430795
024432             PERFORM 8100-CALL-PPXXXUTL                           PPBNDUPD
024510         END-IF                                                   36430795
024512         END-IF                                                   PPBNDUPD
024513         PERFORM 1100-APPLY-CHANGE                                PPBNDUPD
024514     ELSE                                                         PPBNDUPD
024515         SET PPXXXUPD-APPLY-CHANGE-ERROR TO TRUE                  PPBNDUPD
024516     END-IF.                                                      PPBNDUPD
024517     EJECT                                                        PPBNDUPD
024518 1100-APPLY-CHANGE SECTION.                                       PPBNDUPD
024519     SKIP1                                                        PPBNDUPD
024520     IF XCHG-NEW-VAL2-LNGTH NOT = 0                               PPBNDUPD
024521         MOVE XCHG-NEW-VALUE2 TO TEMP-DATA-VALUE                  PPBNDUPD
024522     ELSE                                                         PPBNDUPD
024523         IF XCHG-NEW-VAL1-LNGTH NOT = 0                           PPBNDUPD
024600             MOVE XCHG-NEW-VALUE1 TO TEMP-DATA-VALUE              PPBNDUPD
024700         ELSE                                                     PPBNDUPD
024800             SET PPXXXUPD-APPLY-CHANGE-ERROR TO TRUE              PPBNDUPD
024900         END-IF                                                   PPBNDUPD
025000     END-IF.                                                      PPBNDUPD
025100     SKIP1                                                        PPBNDUPD
025200     IF NOT PPXXXUPD-APPLY-CHANGE-ERROR                           PPBNDUPD
025300         PERFORM 9100-EVALUATE-DATA-ELEMENT                       PPBNDUPD
025400     END-IF.                                                      PPBNDUPD
025500     SKIP1                                                        PPBNDUPD
025600     EJECT                                                        PPBNDUPD
025700 2000-POST-ROWS SECTION.                                          PPBNDUPD
025800     SKIP1                                                        PPBNDUPD
025900     INITIALIZE WS-IX1.                                           PPBNDUPD
026000     SKIP1                                                        PPBNDUPD
026100     MOVE WS-EMPLOYEE-ID TO EMPLOYEE-ID OF BND-ROW.               PPBNDUPD
026200     SKIP1                                                        PPBNDUPD
026300     PERFORM WITH TEST AFTER                                      PPBNDUPD
026400             UNTIL WS-IX1 = IDC-MAX-BOND-SEGS                     PPBNDUPD
026500         ADD 1 TO WS-IX1                                          PPBNDUPD
026600         IF BND-ARRAY-ENTRY   (WS-IX1) NOT =                      PPBNDUPD
026700            BND-ARRAY-ENTRY-HOLD (WS-IX1)                         PPBNDUPD
026800             PERFORM 2100-TEST-BOND-CHANGES                       PPBNDUPD
026900         END-IF                                                   PPBNDUPD
027000     END-PERFORM.                                                 PPBNDUPD
027100     EJECT                                                        PPBNDUPD
027200 2100-TEST-BOND-CHANGES SECTION.                                  PPBNDUPD
027300     SKIP1                                                        PPBNDUPD
027400     COMPUTE WS-BOND-NUMBER = WS-IX1.                             PPBNDUPD
027500         IF BND-ARRAY-ENTRY (WS-IX1) NOT =                        PPBNDUPD
027600            BND-ARRAY-ENTRY-HOLD (WS-IX1)                         PPBNDUPD
027700             MOVE WS-EMPLOYEE-ID TO EMPLOYEE-ID OF INIT-BND-ROW   PPBNDUPD
027800             MOVE WS-BOND-NUMBER TO BOND-NUM OF INIT-BND-ROW      PPBNDUPD
027900             IF (BND-ARRAY-ENTRY (WS-IX1) = INIT-BND-ROW          PPBNDUPD
028000                                        OR INIT-BND-ROW-2)        PPBNDUPD
028100                 AND BND-ARRAY-ENTRY-HOLD (WS-IX1) NOT =          PPBNDUPD
028200                    INIT-BND-ROW                                  PPBNDUPD
028300                 MOVE BND-ARRAY-ENTRY-HOLD (WS-IX1) TO BND-ROW    PPBNDUPD
028400                 MOVE 'D' TO PPXXXUTW-FUNCTION                    PPBNDUPD
028500                 PERFORM 8200-CALL-PPXXXUTW                       PPBNDUPD
028600             ELSE                                                 PPBNDUPD
028700                 MOVE BND-ARRAY-ENTRY (WS-IX1) TO BND-ROW         PPBNDUPD
028800                 MOVE WS-EMPLOYEE-ID TO EMPLOYEE-ID OF BND-ROW    PPBNDUPD
028900                 MOVE WS-BOND-NUMBER TO BOND-NUM OF    BND-ROW    PPBNDUPD
029000                 MOVE SPACE TO EMPLOYEE-ID OF INIT-BND-ROW        PPBNDUPD
029100                 MOVE SPACE TO BOND-NUM OF INIT-BND-ROW           PPBNDUPD
029200                 IF BOND-OWNERSSN OF BND-ROW > ZERO               PPBNDUPD
029300                     IF BND-ARRAY-ENTRY-HOLD (WS-IX1) =           PPBNDUPD
029400                        INIT-BND-ROW                              PPBNDUPD
029500                         MOVE 'I' TO PPXXXUTW-FUNCTION            PPBNDUPD
029600                     ELSE                                         PPBNDUPD
029700                         MOVE 'U' TO PPXXXUTW-FUNCTION            PPBNDUPD
029800                     END-IF                                       PPBNDUPD
029900                     PERFORM 8200-CALL-PPXXXUTW                   PPBNDUPD
030000                 END-IF                                           PPBNDUPD
030100             END-IF                                               PPBNDUPD
030200         END-IF.                                                  PPBNDUPD
030300     EJECT                                                        PPBNDUPD
030400 7900-FIRST-TIME SECTION.                                         PPBNDUPD
030500     SKIP1                                                        PPBNDUPD
030600     MOVE A-STND-PROG-ID TO XWHC-DISPLAY-MODULE.                  PPBNDUPD
030700     SKIP1                                                        PPBNDUPD
030800                                    COPY CPPDXWHC.                PPBNDUPD
030900     EJECT                                                        PPBNDUPD
031000 8100-CALL-PPXXXUTL SECTION.                                      PPBNDUPD
031100     SKIP1                                                        PPBNDUPD
031200     CALL PPXXXUTL-NAME USING PPBARUTL-INTERFACE,                 PPBNDUPD
031300                              BND-ARRAY                           PPBNDUPD
031400     SKIP1                                                        PPBNDUPD
031500     IF PPBARUTL-ERROR                                            PPBNDUPD
031600         PERFORM 9000-INITIALIZE-ARRAY                            PPBNDUPD
031700         SET PPXXXUPD-ERROR TO TRUE                               PPBNDUPD
031800     END-IF.                                                      PPBNDUPD
031900     SKIP1                                                        PPBNDUPD
032000     IF PPXXXUPD-DIAGNOSTICS-ON                                   PPBNDUPD
032100         DISPLAY A-STND-PROG-ID ': ' PPXXXUTL-NAME,               PPBNDUPD
032200                 '-INTERFACE "' PPBARUTL-INTERFACE '"'            PPBNDUPD
032300     END-IF.                                                      PPBNDUPD
032400     SKIP1                                                        PPBNDUPD
032500     MOVE BND-ARRAY TO                                            PPBNDUPD
032600          BND-ARRAY-HOLD.                                         PPBNDUPD
032700     SKIP1                                                        PPBNDUPD
032800     MOVE PPBARUTL-EMPLOYEE-ID TO WS-EMPLOYEE-ID.                 PPBNDUPD
032900     EJECT                                                        PPBNDUPD
033000 8200-CALL-PPXXXUTW SECTION.                                      PPBNDUPD
033100     SKIP1                                                        PPBNDUPD
033200     INITIALIZE PPXXXUTW-ERROR-SWITCHES.                          PPBNDUPD
033300     SKIP1                                                        PPBNDUPD
033400     CALL PPXXXUTW-NAME USING PPXXXUTW-INTERFACE,                 PPBNDUPD
033500                           BND-ROW.                               PPBNDUPD
033600     SKIP1                                                        PPBNDUPD
033700     IF PPXXXUTW-ERROR                                            PPBNDUPD
033800         SET PPXXXUPD-ERROR TO TRUE                               PPBNDUPD
033900     END-IF.                                                      PPBNDUPD
034000     SKIP1                                                        PPBNDUPD
034100     IF PPXXXUPD-DIAGNOSTICS-ON                                   PPBNDUPD
034200         DISPLAY A-STND-PROG-ID ': PPXXXUTW-INTERFACE "',         PPBNDUPD
034300                 PPXXXUTW-INTERFACE '"',                          PPBNDUPD
034400                 'BND-ROW="' BND-ROW '"'                          PPBNDUPD
034500     END-IF.                                                      PPBNDUPD
034600     EJECT                                                        PPBNDUPD
034700 9000-INITIALIZE-ARRAY SECTION.                                   PPBNDUPD
034800     SKIP1                                                        PPBNDUPD
034900******************************************************************PPBNDUPD
035000*                                                                *PPBNDUPD
035100* THIS SECTION INITIALIZES THE BND-ROW. THE INITIALIZE VERB IS   *PPBNDUPD
035200* SUPPLEMENTED WITH MOVES OF AN INITIAL DATE VALUE TO THE        *PPBNDUPD
035300* COLUMNS IN THE BND-TABLE ROW WHICH ARE DEFINED AS DB2 DATES.   *PPBNDUPD
035400*                                                                *PPBNDUPD
035500******************************************************************PPBNDUPD
035600     SKIP1                                                        PPBNDUPD
035700     INITIALIZE WS-IX1.                                           PPBNDUPD
035800     PERFORM WITH TEST AFTER UNTIL WS-IX1 = IDC-MAX-BOND-SEGS     PPBNDUPD
035900         ADD 1 TO WS-IX1                                          PPBNDUPD
036000         INITIALIZE BND-ARRAY-ENTRY (WS-IX1)                      PPBNDUPD
036100         MOVE ZERO TO                                             PPBNDUPD
036200              BOND-DELOWNSSN OF BND-ARRAY-ENTRY (WS-IX1)          PPBNDUPD
036300              BOND-OWNERSSN OF BND-ARRAY-ENTRY (WS-IX1)           PPBNDUPD
036400              BOND-OWNERZIP1 OF BND-ARRAY-ENTRY (WS-IX1)          PPBNDUPD
036500              BOND-OWNERZIP2 OF BND-ARRAY-ENTRY (WS-IX1)          PPBNDUPD
036600     END-PERFORM.                                                 PPBNDUPD
036700     SKIP1                                                        PPBNDUPD
036800     MOVE BND-ARRAY-ENTRY (1) TO INIT-BND-ROW.                    PPBNDUPD
036900     MOVE BND-ARRAY-ENTRY (1) TO INIT-BND-ROW-2.                  PPBNDUPD
037000     EJECT                                                        PPBNDUPD
037100 9100-EVALUATE-DATA-ELEMENT SECTION.                              PPBNDUPD
037200     SKIP1                                                        PPBNDUPD
037300******************************************************************PPBNDUPD
037400*                                                                *PPBNDUPD
037500* THIS SECTION TAKES THE DATA ELEMENT NUMBER FROM THE CHANGE     *PPBNDUPD
037600* RECORD TO DETERMINE WHICH COLUMN IS TO RECEIVE THE VALUE FROM  *PPBNDUPD
037700* THE CHANGE RECORD. WHILE IT IS MOST IMPORTANT TO MAKE SURE     *PPBNDUPD
037800* THAT THE NUMERIC FIELDS ARE MOVED TO LIKE LENGTH COLUMNS,      *PPBNDUPD
037900* THE USE OF LENGTH QUALIFIERS ON ALPHANUMERIC FIELD MOVES DOES  *PPBNDUPD
038000* PROVIDE SOME USEFUL DOCUMENTATION.                             *PPBNDUPD
038100*                                                                *PPBNDUPD
038200******************************************************************PPBNDUPD
038300     SKIP1                                                        PPBNDUPD
038400     MOVE XCHG-DATA-ELEM-NO TO WS-HOLD-KEY.                       PPBNDUPD
038500     COMPUTE WS-IX1 = WS-BOND-NUMBER.                             PPBNDUPD
038600     MOVE '1' TO WS-BOND-NUMBER                                   PPBNDUPD
038700     SKIP1                                                        PPBNDUPD
038800     EVALUATE WS-HOLD-KEY                                         PPBNDUPD
038900         WHEN '1101'                                              PPBNDUPD
039000              MOVE TEMP-DATA-VALUE TO                             PPBNDUPD
039100                   BOND-ADDCODE    OF BND-ARRAY (WS-IX1)          PPBNDUPD
039200         WHEN '1102'                                              PPBNDUPD
039300              MOVE TEMP-DATA-VALUE TO                             PPBNDUPD
039400                   BOND-DELETECODE OF BND-ARRAY (WS-IX1)          PPBNDUPD
039500         WHEN '1103'                                              PPBNDUPD
039600              MOVE TEMP-DATA-VALUE TO                             PPBNDUPD
039700                   BOND-DENOMCODE  OF BND-ARRAY (WS-IX1)          PPBNDUPD
039800         WHEN '1104'                                              PPBNDUPD
039900              COMPUTE WS-TEMP-NUMBER = TEMP-NUMBER                PPBNDUPD
040000              MOVE WS-NUM-9 TO                                    PPBNDUPD
040100                   BOND-OWNERSSN   OF BND-ARRAY (WS-IX1)          PPBNDUPD
040200         WHEN '1105'                                              PPBNDUPD
040300              MOVE TEMP-DATA-VALUE TO                             PPBNDUPD
040400                   BOND-OWNERNAME1 OF BND-ARRAY (WS-IX1)          PPBNDUPD
040500         WHEN '1106'                                              PPBNDUPD
040600              MOVE TEMP-DATA-VALUE TO                             PPBNDUPD
040700                   BOND-OWNERNAME2 OF BND-ARRAY (WS-IX1)          PPBNDUPD
040800         WHEN '1107'                                              PPBNDUPD
040900              MOVE TEMP-DATA-VALUE TO                             PPBNDUPD
041000                   BOND-OWNERSTRT1 OF BND-ARRAY (WS-IX1)          PPBNDUPD
041100         WHEN '1108'                                              PPBNDUPD
041200              MOVE TEMP-DATA-VALUE TO                             PPBNDUPD
041300                   BOND-OWNERSTRT2 OF BND-ARRAY (WS-IX1)          PPBNDUPD
041400         WHEN '1109'                                              PPBNDUPD
041500              MOVE TEMP-DATA-VALUE TO                             PPBNDUPD
041600                   BOND-OWNERCITY  OF BND-ARRAY (WS-IX1)          PPBNDUPD
041700         WHEN '1110'                                              PPBNDUPD
041800              MOVE TEMP-DATA-VALUE TO                             PPBNDUPD
041900                   BOND-OWNERSTATE OF BND-ARRAY (WS-IX1)          PPBNDUPD
042000         WHEN '1111'                                              PPBNDUPD
042100              COMPUTE WS-TEMP-NUMBER = TEMP-NUMBER                PPBNDUPD
042200              MOVE WS-NUM-5 TO                                    PPBNDUPD
042300                   BOND-OWNERZIP1  OF BND-ARRAY (WS-IX1)          PPBNDUPD
042400         WHEN '1112'                                              PPBNDUPD
042500              COMPUTE WS-TEMP-NUMBER = TEMP-NUMBER                PPBNDUPD
042600              MOVE WS-NUM-4 TO                                    PPBNDUPD
042700                   BOND-OWNERZIP2  OF BND-ARRAY (WS-IX1)          PPBNDUPD
042800         WHEN '1113'                                              PPBNDUPD
042900              MOVE TEMP-DATA-VALUE TO                             PPBNDUPD
043000                   BOND-BENEFCODE  OF BND-ARRAY (WS-IX1)          PPBNDUPD
043100         WHEN '1114'                                              PPBNDUPD
043200              MOVE TEMP-DATA-VALUE TO                             PPBNDUPD
043300                   BOND-BENEFNAME1 OF BND-ARRAY (WS-IX1)          PPBNDUPD
043400         WHEN '1115'                                              PPBNDUPD
043500              MOVE TEMP-DATA-VALUE TO                             PPBNDUPD
043600                   BOND-BENEFNAME2 OF BND-ARRAY (WS-IX1)          PPBNDUPD
043700         WHEN '1116'                                              PPBNDUPD
043800              MOVE TEMP-DATA-VALUE TO                             PPBNDUPD
043900                   BOND-DELDENOM   OF BND-ARRAY (WS-IX1)          PPBNDUPD
044000         WHEN '1117'                                              PPBNDUPD
044100              COMPUTE WS-TEMP-NUMBER = TEMP-NUMBER                PPBNDUPD
044200              MOVE WS-NUM-9 TO                                    PPBNDUPD
044300                   BOND-DELOWNSSN  OF BND-ARRAY (WS-IX1)          PPBNDUPD
044400         WHEN OTHER                                               PPBNDUPD
044500              IF PPXXXUPD-DIAGNOSTICS-ON                          PPBNDUPD
044600                  DISPLAY A-STND-PROG-ID                          PPBNDUPD
044700                          ': UNRECOGNIZED DATA ELEMENT NUMBER ('  PPBNDUPD
044800                          WS-HOLD-KEY                             PPBNDUPD
044900                          ')'                                     PPBNDUPD
045000              END-IF                                              PPBNDUPD
045100              SET PPXXXUPD-DATA-ELEM-ERROR TO TRUE                PPBNDUPD
045200     END-EVALUATE.                                                PPBNDUPD
045300     SKIP3                                                        PPBNDUPD
048920**--------------------------------------------------------------**36430976
048930 9400-QUICK-FETCH  SECTION.                                       36430976
048931     INITIALIZE WS-IX1.                                           36430976
048933     MOVE WS-EMPLOYEE-ID TO EMPLOYEE-ID OF BND-ROW.               36430976
048935     PERFORM WITH TEST AFTER                                      36430976
048936             UNTIL WS-IX1 = IDC-MAX-BOND-SEGS                     36430976
048937         ADD 1 TO WS-IX1                                          36430976
048938         IF BND-ARRAY-ENTRY      (WS-IX1) NOT =                   36430976
048939            BND-ARRAY-ENTRY-HOLD (WS-IX1)                         36430976
048940             PERFORM 9405-SIMULATE-UPDATE                         36430976
048941         END-IF                                                   36430976
048942     END-PERFORM.                                                 36430976
048943     MOVE BND-ARRAY-HOLD    TO BND-ARRAY.                         36430976
048945 9400-EXIT.    EXIT.                                              36430976
048946                                                                  36430976
048947 9405-SIMULATE-UPDATE  SECTION.                                   36430976
048948     COMPUTE WS-BOND-NUMBER = WS-IX1.                             36430976
048951     MOVE WS-EMPLOYEE-ID  TO EMPLOYEE-ID  OF INIT-BND-ROW         36430976
048952     MOVE WS-BOND-NUMBER  TO BOND-NUM     OF INIT-BND-ROW         36430976
048953     IF  (BND-ARRAY-ENTRY      (WS-IX1)     = INIT-BND-ROW        36430976
048954                                           OR INIT-BND-ROW-2)     36430976
048955      AND BND-ARRAY-ENTRY-HOLD (WS-IX1) NOT = INIT-BND-ROW        36430976
048957           MOVE INIT-BND-ROW-2  TO BND-ARRAY-ENTRY-HOLD (WS-IX1)  36430976
048960     ELSE                                                         36430976
048961           MOVE BND-ARRAY-ENTRY (WS-IX1)       TO BND-ROW         36430976
048962           MOVE WS-EMPLOYEE-ID  TO EMPLOYEE-ID OF BND-ROW         36430976
048963           MOVE WS-BOND-NUMBER  TO BOND-NUM    OF BND-ROW         36430976
048964           MOVE SPACE  TO EMPLOYEE-ID     OF INIT-BND-ROW         36430976
048965           MOVE SPACE  TO BOND-NUM        OF INIT-BND-ROW         36430976
048966           IF BOND-OWNERSSN  OF BND-ROW  > ZERO                   36430976
048967               MOVE BND-ARRAY-ENTRY      (WS-IX1)                 36430976
048968                 TO BND-ARRAY-ENTRY-HOLD (WS-IX1)                 36430976
048969               MOVE WS-EMPLOYEE-ID  TO EMPLOYEE-ID                36430976
048970                 OF BND-ARRAY-ENTRY-HOLD (WS-IX1)                 36430976
048971               MOVE WS-BOND-NUMBER  TO BOND-NUM                   36430976
048972                 OF BND-ARRAY-ENTRY-HOLD (WS-IX1)                 36430976
048977           END-IF                                                 36430976
048978     END-IF.                                                      36430976
048979*                                                                 36430976
048980 9405-EXIT.    EXIT.                                              36430976
048994                                                                  36430976
045400************************   END OF PROGRAM ************************PPBNDUPD
