000000**************************************************************/   54541281
000001*  PROGRAM: PPDEPUPD                                         */   54541281
000002*  RELEASE: ___1281______ SERVICE REQUEST(S): ____15454____  */   54541281
000003*  NAME:_______QUAN______ MODIFICATION DATE:  ___07/16/99__  */   54541281
000004*  DESCRIPTION:                                              */   54541281
000005*  -  ADDED DEPENDENT MEDICAL, DENTAL, VISION, AND LEGAL     */   54541281
000006*     COVERAGE END DATES.                                    */   54541281
000007*  -  DELETE DATA ELEMENT (EDB 0643) DEP-INS-DEENROLL        */   54541281
000009**************************************************************/   54541281
000001**************************************************************/   36430976
000002*  PROGRAM: PPDEPUPD                                         */   36430976
000003*  RELEASE: ___0976______ SERVICE REQUEST(S): _____3643____  */   36430976
000004*  NAME:_______JLT_______ MODIFICATION DATE:  __04/18/95____ */   36430976
000005*  DESCRIPTION:                                              */   36430976
000006*  - ADD "QUICK FETCH" PROGRAM FUNCTION.                     */   36430976
000007*    (ERROR REPORT #1255)                                    */   36430976
000008**************************************************************/   36430976
000000**************************************************************/   16990906
000001*  PROGRAM: PPDEPUPD                                         */   16990906
000002*  RELEASE: ___0906______ SERVICE REQUEST(S): ____11699____  */   16990906
000003*  NAME:_______QUAN______ MODIFICATION DATE:  ___05/13/94__  */   16990906
000004*  DESCRIPTION:                                              */   16990906
000005*  -  ADDED DATA ELEMENT (EDB 0643) DEP-INS-DEENROLL         */   16990906
000006*                                                            */   16990906
000007**************************************************************/   16990906
000100**************************************************************/   36430821
000200*  PROGRAM: PPDEPUPD                                         */   36430821
000300*  RELEASE: ___0821______ SERVICE REQUEST(S): _____3643____  */   36430821
000400*  NAME:_______PXP_______ MODIFICATION DATE:  __10/05/93____ */   36430821
000500*  DESCRIPTION:                                              */   36430821
000600*  ADD EMPLOYEE-ID CHANGE                                    */   36430821
000700**************************************************************/   36430821
000100**************************************************************/   36430795
000200*  PROGRAM: PPDEPUPD                                         */   36430795
000300*  RELEASE: ___0795______ SERVICE REQUEST(S): _____3643____  */   36430795
000400*  NAME:_______PXP_______ MODIFICATION DATE:  __07/15/93____ */   36430795
000500*  DESCRIPTION:                                              */   36430795
000600*  CHANGE TO INITIALIZE ON A FETCH ALL CALL;NOT ON FIRST TIME*/   36430795
000700*  MAKE INIT-DEP-ARRAY EXTERNAL                              */   36430795
000800**************************************************************/   36430795
000900**************************************************************/   36260760
001000*  PROGRAM: PPDEPUPD                                         */   36260760
001100*  RELEASE: ___0760______ SERVICE REQUEST(S): _____3626____  */   36260760
001200*  NAME:__PHIL THOMPSON__ CREATION DATE:      ___04/30/93__  */   36260760
001300*  DESCRIPTION:                                              */   36260760
001400*    EDB DEP TABLE UPDATE DRIVER MODULE.                     */   36260760
001500*                                                            */   36260760
001600**************************************************************/   36260760
001700 IDENTIFICATION DIVISION.                                         PPDEPUPD
001800 PROGRAM-ID. PPDEPUPD.                                            PPDEPUPD
001900 AUTHOR. UCOP.                                                    PPDEPUPD
002000 DATE-WRITTEN. FEBRUARY 1993.                                     PPDEPUPD
002100 DATE-COMPILED.                                                   PPDEPUPD
002200*REMARKS.                                                         PPDEPUPD
002300******************************************************************PPDEPUPD
002400*                                                                *PPDEPUPD
002500*  THIS PROGRAM DRIVES THE APPLICATION OF EMPLOYEE DATA BASE     *PPDEPUPD
002600*  DEP-TABLE ROWS. THIS PROGRAM IS CALLED BY PPEDBUPD.           *PPDEPUPD
002700*                                                                *PPDEPUPD
002800*  THE DETAILS OF THIS PROGRAMS FUNCTION ARE DESCRIBED IN THE    *PPDEPUPD
002900* PROCEDURE DIVISION COPYMEMBER CPPDEUPD. ADDITIONAL CODE IS     *PPDEPUPD
003000* HARDCODED IN THIS SOURCE TO PROVIDE THE NECESSARY MOVEMENT OF  *PPDEPUPD
003100* CHANGE-RECORD VALUES TO XXX-TABLE COLUMN ROWS, AS WELL AS      *PPDEPUPD
003200* DEP-ROW INITIALIZATION.                                        *PPDEPUPD
003300*                                                                *PPDEPUPD
003400*                                                                *PPDEPUPD
003500******************************************************************PPDEPUPD
003600     EJECT                                                        PPDEPUPD
003700 ENVIRONMENT DIVISION.                                            PPDEPUPD
003800 CONFIGURATION SECTION.                                           PPDEPUPD
003900 SOURCE-COMPUTER.                   COPY CPOTXUCS.                PPDEPUPD
004000 OBJECT-COMPUTER.                   COPY CPOTXOBJ.                PPDEPUPD
004100      EJECT                                                       PPDEPUPD
004200******************************************************************PPDEPUPD
004300*                                                                *PPDEPUPD
004400*                D A T A  D I V I S I O N                        *PPDEPUPD
004500*                                                                *PPDEPUPD
004600******************************************************************PPDEPUPD
004700 DATA DIVISION.                                                   PPDEPUPD
004800 WORKING-STORAGE SECTION.                                         PPDEPUPD
004900 01  MISCELLANEOUS-WS.                                            PPDEPUPD
005000     05  A-STND-PROG-ID      PIC X(08) VALUE 'PPDEPUPD'.          PPDEPUPD
005100     05  PPXXXUTL-NAME       PIC X(08) VALUE 'PPDEPUTL'.          PPDEPUPD
005200     05  PPXXXUTW-NAME       PIC X(08) VALUE 'PPDEPUTW'.          PPDEPUPD
005300     05  FIRST-TIME-SWITCH   PIC X(01) VALUE 'Y'.                 PPDEPUPD
005400         88  FIRST-TIME                VALUE 'Y'.                 PPDEPUPD
005500         88  NOT-FIRST-TIME            VALUE 'N'.                 PPDEPUPD
005600     05  WS-EMPLOYEE-ID      PIC X(9).                            PPDEPUPD
005700     05  WS-IX1              PIC S9(4) COMP VALUE ZERO.           PPDEPUPD
005800     05  WS-IX2              PIC S9(4) COMP VALUE ZERO.           PPDEPUPD
005900     05  WS-HOLD-KEY.                                             PPDEPUPD
006000         15  WS-PPPDEP-NUM          PIC X(02).                    PPDEPUPD
006100     05  WS-DEP-OCCURRENCE-KEY.                                   PPDEPUPD
006200         15  WS-DEP-NUM             PIC X(02).                    PPDEPUPD
006920                                                                  36430976
006930 01  QUICK-FETCH-MISC.                                            36430976
006940     05  ORIG-X                       PIC S9(4)  COMP VALUE ZERO. 36430976
006950     05  UPDT-X                       PIC S9(4)  COMP VALUE ZERO. 36430976
006960     05  RECEIVE-X                    PIC S9(4)  COMP VALUE ZERO. 36430976
006970     05  TEMP-X                       PIC S9(4)  COMP VALUE ZERO. 36430976
006980     05  NEXT-HIGHEST-X               PIC S9(4)  COMP VALUE ZERO. 36430976
006981     05  WS-PPDEPUTL-ROW-COUNT        PIC S9(4)  COMP VALUE ZERO. 36430976
006990     05  LAST-LOADED-OCCUR-KEY.                                   36430976
006991         10  FILLER                   PIC X(2).                   36430976
006992     05  NEXT-HIGHEST-OCCUR-KEY.                                  36430976
006993         10  FILLER                   PIC X(2).                   36430976
006994     05  COMPLETE-SW                  PIC X   VALUE 'N'.          36430976
006995         88  COMPLETE-SW-OFF                  VALUE 'N'.          36430976
006996         88  COMPLETE-SW-ON                   VALUE 'Y'.          36430976
006998                                                                  36430976
006300 01  WS-NUMBER-WORK-AREA.                                         36090574
006400     05  WS-AREA1.                                                36090574
006500         10  WS-TEMP-NUMBER       PIC 9(09)V9(09).                36090574
006600     05  FILLER                   REDEFINES WS-AREA1.             36090574
006700         10  WS-NUM-9             PIC 9(09).                      36090574
006800         10  FILLER               PIC X(09).                      36090574
006900     SKIP3                                                        PPDEPUPD
007000 01  TEMP-DATA-AREA.                                              PPDEPUPD
007100                                    COPY CPWSXMMM.                PPDEPUPD
007200     EJECT                                                        PPDEPUPD
007300******************************************************************PPDEPUPD
007400*                                                                *PPDEPUPD
007500*  PPPDEP-ARRAY IS THE DATA AREA THAT WILL BE PASSED             *PPDEPUPD
007600* AROUND FOR USE BY HIGHER LEVEL PROGRAMS. IT IS DEFINED AS AN   *PPDEPUPD
007700* EXTERNAL DATA AREA TO ALLOW HIGHER LEVEL PROGRAMS TO AVOID     *PPDEPUPD
007800* PASSING THE ARRAY THROUGH UNECESSARY CALLING CHAINS.           *PPDEPUPD
007900*                                                                *PPDEPUPD
008000*  PPPDEP-ARRAY-HOLD IS THE PURE ARRAY AS RETURNED BY PPDEPUTL.  *PPDEPUPD
008100* THIS ARRAY IS HELD IN WORKING-STORAGE TO ALLOW                 *PPDEPUPD
008200* THE REFRESH FUNCTION TO BE PERFORMED WITHOUT AN ADDED DATA     *PPDEPUPD
008300* BASE ACCESS. THIS ARRAY IS ALSO THE REFERENCE FOR LOGIC WHICH  *PPDEPUPD
008400* DETERMINES WHICH DEP-ROWS ARE TO BE UPDATED, DELETED AND       *PPDEPUPD
008500* INSERTED.                                                      *PPDEPUPD
008600*                                                                *PPDEPUPD
008700*  INIT-W-S-ARRAY IS THE INITIALIZED ROW. THIS IS PLACED IN      *PPDEPUPD
008800* WORKING STORAGE FOR COMPARISON PURPOSES WITHIN THE "POST"      *PPDEPUPD
008900* LOGIC OF CPPDEUPD.                                             *PPDEPUPD
009000*                                                                *PPDEPUPD
009100* ZDEC-PPPDEP-ARRAY PERFORMS A FUNCTION SIMILAR TO XDEC, TO NOTE *PPDEPUPD
009200* SOME  COLUMNS OF WHICH OCCURRENCE WERE EXPLICITLY UPDATED.     *PPDEPUPD
009300*                                                                *PPDEPUPD
009400******************************************************************PPDEPUPD
009500 01  PPPDEP-ARRAY           EXTERNAL.                             PPDEPUPD
009600                                 COPY CPWSEDEP.                   PPDEPUPD
009700     EJECT                                                        PPDEPUPD
009800 01  PPPDEP-ARRAY-HOLD      EXTERNAL.                             PPDEPUPD
009900                                 COPY CPWSEDEP.                   PPDEPUPD
010000     EJECT                                                        PPDEPUPD
010100 01  PPPDEP-ARRAY-HOLD1     EXTERNAL.                             PPDEPUPD
010200                                 COPY CPWSEDEP.                   PPDEPUPD
010300     EJECT                                                        PPDEPUPD
010400 01  ZDEC-PPPDEP-ARRAY      EXTERNAL.                             PPDEPUPD
010500                                 COPY CPWSDEPZ.                   PPDEPUPD
010600     EJECT                                                        PPDEPUPD
010700 01  PPP080-PPP120-SET-TRAN EXTERNAL.                             PPDEPUPD
010800     05  TRAN-APPLIED-SWITCH PIC X(01).                           PPDEPUPD
010900         88  TRAN-APPLIED              VALUE 'Y'.                 PPDEPUPD
011000         88  NOT-TRAN-APPLIED          VALUE 'N'.                 PPDEPUPD
011100     EJECT                                                        PPDEPUPD
011200 01  DEP-ROW.                                                     PPDEPUPD
011300     EXEC SQL                                                     PPDEPUPD
011400         INCLUDE PPPVDEP1                                         PPDEPUPD
011500     END-EXEC.                                                    PPDEPUPD
011600     EJECT                                                        PPDEPUPD
011800 01  INIT-DEP-ARRAY         EXTERNAL.                             36430795
011900                                 COPY CPWSEDEP.                   PPDEPUPD
012000     EJECT                                                        PPDEPUPD
012100 01  PPDEPUTL-INTERFACE.                                          PPDEPUPD
012200                                 COPY CPLNKDEP.                   PPDEPUPD
012300     EJECT                                                        PPDEPUPD
012400 01  PPXXXUTW-INTERFACE.                                          PPDEPUPD
012500                                 COPY CPLNWXXX.                   PPDEPUPD
012600     EJECT                                                        PPDEPUPD
012700 01  XWHC-COMPILE-WORK-AREA.                                      PPDEPUPD
012800                                 COPY CPWSXWHC.                   PPDEPUPD
012900     EJECT                                                        PPDEPUPD
013000 01  PAYROLL-CONSTANTS.                                           PPDEPUPD
013100                                 COPY CPWSXIC2.                   PPDEPUPD
013200                                                                  36430795
013300 01  ONLINE-SIGNALS                      EXTERNAL. COPY CPWSONLI. 36430795
013400     EJECT                                                        PPDEPUPD
013500 LINKAGE SECTION.                                                 PPDEPUPD
013600******************************************************************PPDEPUPD
013700*              L I N K A G E    S E C T I O N                    *PPDEPUPD
013800******************************************************************PPDEPUPD
013900*                                                                 PPDEPUPD
014000 01  PPXXXUPD-INTERFACE.            COPY CPLNUXXX.                PPDEPUPD
014100     EJECT                                                        PPDEPUPD
014200 01  EDB-CHANGE-RECORD.             COPY CPWSXCHG.                PPDEPUPD
014300     EJECT                                                        PPDEPUPD
014400 PROCEDURE DIVISION USING                                         PPDEPUPD
014500                          PPXXXUPD-INTERFACE                      PPDEPUPD
014600                          EDB-CHANGE-RECORD.                      PPDEPUPD
014700*                                                                 PPDEPUPD
014800******************************************************************PPDEPUPD
014900*            P R O C E D U R E  D I V I S I O N                  *PPDEPUPD
015000******************************************************************PPDEPUPD
015100*                                                                 PPDEPUPD
015200     SKIP3                                                        PPDEPUPD
015300 0100-MAINLINE SECTION.                                           PPDEPUPD
015400     SKIP1                                                        PPDEPUPD
015500     IF ENVIRON-IS-CICS                                           36430795
015600         MOVE PPXXXUPD-EMPLOYEE-ID TO PPDEPUTL-EMPLOYEE-ID        36430795
015700         MOVE PPDEPUTL-EMPLOYEE-ID TO WS-EMPLOYEE-ID              36430795
015800     END-IF.                                                      36430795
015900     INITIALIZE PPXXXUPD-ERROR-SWITCHES.                          PPDEPUPD
016000     SKIP1                                                        PPDEPUPD
016100     IF FIRST-TIME                                                PPDEPUPD
016200         SET NOT-FIRST-TIME TO TRUE                               PPDEPUPD
016300         PERFORM 7900-FIRST-TIME                                  PPDEPUPD
016400         IF NOT ENVIRON-IS-CICS                                   36430795
016500             PERFORM 9000-INITIALIZE-ARRAY                        36430795
016600             MOVE PPPDEP-ARRAY TO PPPDEP-ARRAY-HOLD               36430795
016700         END-IF                                                   36430795
017000     END-IF.                                                      PPDEPUPD
017100     SKIP3                                                        PPDEPUPD
017200     EVALUATE PPXXXUPD-FUNCTION                                   PPDEPUPD
017300         WHEN 'A'                                                 PPDEPUPD
017400             PERFORM 1000-APPLY-DATA-ELEMENT-CHANGE               PPDEPUPD
017500         WHEN 'C'                                                 PPDEPUPD
017600             PERFORM 9000-INITIALIZE-ARRAY                        PPDEPUPD
017700         WHEN 'F'                                                 PPDEPUPD
017800             PERFORM 9000-INITIALIZE-ARRAY                        36430795
017900             MOVE PPPDEP-ARRAY TO PPPDEP-ARRAY-HOLD               36430795
018000             MOVE PPXXXUPD-EMPLOYEE-ID TO PPDEPUTL-EMPLOYEE-ID    PPDEPUPD
018100             PERFORM 8100-CALL-PPXXXUTL                           PPDEPUPD
018200         WHEN 'H'                                                 PPDEPUPD
018300             MOVE PPPDEP-ARRAY TO PPPDEP-ARRAY-HOLD1              PPDEPUPD
018400         WHEN 'P'                                                 PPDEPUPD
018500             PERFORM 2000-POST-ROWS                               PPDEPUPD
018600         WHEN 'R'                                                 PPDEPUPD
018700             MOVE PPPDEP-ARRAY-HOLD TO PPPDEP-ARRAY               PPDEPUPD
019500         WHEN 'S'                                                 36430821
019600             MOVE PPXXXUPD-EMPLOYEE-ID TO PPDEPUTL-EMPLOYEE-ID    36430821
019700             MOVE PPDEPUTL-EMPLOYEE-ID TO WS-EMPLOYEE-ID          36430821
019720         WHEN 'Q'                                                 36430976
019730             PERFORM 9400-QUICK-FETCH                             36430976
019740             INITIALIZE ZDEC-PPPDEP-ARRAY                         36430976
018800         WHEN OTHER                                               PPDEPUPD
018900             SET PPXXXUPD-INVALID-FUNCTION TO TRUE                PPDEPUPD
019000     END-EVALUATE.                                                PPDEPUPD
019100     SKIP3                                                        PPDEPUPD
019200     IF PPXXXUPD-ERROR-SWITCHES NOT = SPACES                      PPDEPUPD
019300         SET PPXXXUPD-ERROR TO TRUE                               PPDEPUPD
019400     SKIP3                                                        PPDEPUPD
019500     END-IF.                                                      PPDEPUPD
019600     GOBACK.                                                      PPDEPUPD
019700     EJECT                                                        PPDEPUPD
019800 1000-APPLY-DATA-ELEMENT-CHANGE SECTION.                          PPDEPUPD
019900     SKIP3                                                        PPDEPUPD
020000     IF XCHG-EMPLOYEE-ID NOT = SPACES                             PPDEPUPD
020100         IF XCHG-EMPLOYEE-ID NOT = PPDEPUTL-EMPLOYEE-ID           PPDEPUPD
020200             MOVE XCHG-EMPLOYEE-ID TO PPDEPUTL-EMPLOYEE-ID        PPDEPUPD
020300         IF NOT ENVIRON-IS-CICS                                   36430795
020400             PERFORM 8100-CALL-PPXXXUTL                           PPDEPUPD
020500         END-IF                                                   36430795
020600         END-IF                                                   PPDEPUPD
020700         PERFORM 1100-APPLY-CHANGE                                PPDEPUPD
020800     ELSE                                                         PPDEPUPD
020900         SET PPXXXUPD-APPLY-CHANGE-ERROR TO TRUE                  PPDEPUPD
021000     END-IF.                                                      PPDEPUPD
021100     EJECT                                                        PPDEPUPD
021200 1100-APPLY-CHANGE SECTION.                                       PPDEPUPD
021300     SKIP1                                                        PPDEPUPD
021400     IF XCHG-NEW-VAL2-LNGTH NOT = 0                               PPDEPUPD
021500         MOVE XCHG-NEW-VALUE2 TO TEMP-DATA-VALUE                  PPDEPUPD
021600     ELSE                                                         PPDEPUPD
021700         IF XCHG-NEW-VAL1-LNGTH NOT = 0                           PPDEPUPD
021800             MOVE XCHG-NEW-VALUE1 TO TEMP-DATA-VALUE              PPDEPUPD
021900         ELSE                                                     PPDEPUPD
022000             SET PPXXXUPD-APPLY-CHANGE-ERROR TO TRUE              PPDEPUPD
022100         END-IF                                                   PPDEPUPD
022200     END-IF.                                                      PPDEPUPD
022300     SKIP1                                                        PPDEPUPD
022400     IF NOT PPXXXUPD-APPLY-CHANGE-ERROR                           PPDEPUPD
022500         PERFORM 9100-EVALUATE-DATA-ELEMENT                       PPDEPUPD
022600     END-IF.                                                      PPDEPUPD
022700     SKIP1                                                        PPDEPUPD
022800     EJECT                                                        PPDEPUPD
022900 2000-POST-ROWS SECTION.                                          PPDEPUPD
023000     SKIP1                                                        PPDEPUPD
023100*                                                                 PPDEPUPD
023200*    FIRST DELETE                                                 PPDEPUPD
023300*                                                                 PPDEPUPD
023400*                                                                 PPDEPUPD
023500     PERFORM VARYING WS-IX1 FROM 1 BY 1                           PPDEPUPD
023600             UNTIL (WS-IX1 > IDC-MAX-NO-DEP)                      PPDEPUPD
023700             OR (EDEP-OCCURRENCE-KEY                              PPDEPUPD
023800                            OF PPPDEP-ARRAY-HOLD (WS-IX1)         PPDEPUPD
024810*****                                                          CD 16990906
024000                = EDEP-OCCURRENCE-KEY OF INIT-DEP-ARRAY (1))      36430795
024100             MOVE EDEP-DEP-NUM OF PPPDEP-ARRAY-HOLD (WS-IX1)      PPDEPUPD
024200                                  TO DEP-NUM OF DEP-ROW           PPDEPUPD
024300             MOVE WS-EMPLOYEE-ID TO EMPLOYEE-ID OF DEP-ROW        PPDEPUPD
024400             MOVE 'D' TO PPXXXUTW-FUNCTION                        PPDEPUPD
024500             PERFORM 8200-CALL-PPXXXUTW                           PPDEPUPD
024600     END-PERFORM.                                                 PPDEPUPD
024700*                                                                 PPDEPUPD
024800*    SAVE POINTER TO FIRST "NEW" ARRAY ELEMENT IF ANY             PPDEPUPD
024900*                                                                 PPDEPUPD
025000     MOVE WS-IX1 TO WS-IX2.                                       PPDEPUPD
025100*                                                                 PPDEPUPD
025200*    THEN ADD; STOPPING ON FIRST INITIAL ENTRY IN THE             PPDEPUPD
025300*    "NEW" PART OF THE ARRAY                                      PPDEPUPD
025400*                                                                 PPDEPUPD
025500     SKIP1                                                        PPDEPUPD
025600     PERFORM VARYING WS-IX1 FROM 1 BY 1                           PPDEPUPD
025700             UNTIL (WS-IX1 > IDC-MAX-NO-DEP)                      PPDEPUPD
025800         OR ((EDEP-OCCURRENCE-KEY OF PPPDEP-ARRAY (WS-IX1)        PPDEPUPD
026000                =  EDEP-OCCURRENCE-KEY OF INIT-DEP-ARRAY (1))     36430795
026100                AND WS-IX1 NOT < WS-IX2)                          PPDEPUPD
026200         IF (EDEP-OCCURRENCE-KEY OF PPPDEP-ARRAY (WS-IX1)         PPDEPUPD
026400            NOT =  EDEP-OCCURRENCE-KEY OF INIT-DEP-ARRAY (1))     36430795
026500             MOVE EDEP-DEP-NUM OF PPPDEP-ARRAY (WS-IX1)           PPDEPUPD
026600               TO DEP-NUM OF DEP-ROW                              PPDEPUPD
026700             MOVE EDEP-DEP-ADC-CODE OF PPPDEP-ARRAY (WS-IX1)      PPDEPUPD
026800               TO DEP-ADC-CODE  OF DEP-ROW                        PPDEPUPD
026900             MOVE EDEP-DEP-NAME OF PPPDEP-ARRAY (WS-IX1)          PPDEPUPD
027000               TO DEP-NAME OF DEP-ROW                             PPDEPUPD
027100             MOVE EDEP-DEP-BIRTH-DATE OF PPPDEP-ARRAY (WS-IX1)    PPDEPUPD
027200               TO DEP-BIRTH-DATE OF DEP-ROW                       PPDEPUPD
027300             MOVE EDEP-DEP-REL-TO-EMP OF PPPDEP-ARRAY (WS-IX1)    PPDEPUPD
027400               TO DEP-REL-TO-EMP OF DEP-ROW                       PPDEPUPD
027500             MOVE EDEP-DEP-SSN OF PPPDEP-ARRAY (WS-IX1)           PPDEPUPD
027600               TO DEP-SSN  OF DEP-ROW                             PPDEPUPD
027700             MOVE EDEP-DEP-SEX-CODE OF PPPDEP-ARRAY (WS-IX1)      PPDEPUPD
027800               TO DEP-SEX-CODE OF DEP-ROW                         PPDEPUPD
027900             MOVE EDEP-DEP-DISABLED-CODE OF PPPDEP-ARRAY (WS-IX1) PPDEPUPD
028000               TO DEP-DISABLED-CODE OF DEP-ROW                    PPDEPUPD
028100             MOVE EDEP-DEP-HLTH-COVEFFDT OF PPPDEP-ARRAY (WS-IX1) PPDEPUPD
028200               TO DEP-HLTH-COVEFFDT OF DEP-ROW                    PPDEPUPD
028300             MOVE EDEP-DEP-DENTL-COVEFFDT                         PPDEPUPD
028400                                     OF PPPDEP-ARRAY (WS-IX1)     PPDEPUPD
028500               TO DEP-DENTL-COVEFFDT OF DEP-ROW                   PPDEPUPD
028600             MOVE EDEP-DEP-VIS-COVEFFDT OF PPPDEP-ARRAY (WS-IX1)  PPDEPUPD
028700               TO DEP-VIS-COVEFFDT OF DEP-ROW                     PPDEPUPD
028800             MOVE EDEP-DEP-LEGAL-COVEFFDT                         PPDEPUPD
028900                                     OF PPPDEP-ARRAY (WS-IX1)     PPDEPUPD
029000               TO DEP-LEGAL-COVEFFDT OF DEP-ROW                   PPDEPUPD
030010*****        MOVE EDEP-DEP-INS-DEENROLL                           54541281
030020*****                                OF PPPDEP-ARRAY (WS-IX1)     54541281
030030*****          TO DEP-INS-DEENROLL   OF DEP-ROW                   54541281
030040             MOVE EDEP-DEP-HLTH-COVENDDT                          54541281
030050                                     OF PPPDEP-ARRAY (WS-IX1)     54541281
030060               TO DEP-HLTH-COVENDDT  OF DEP-ROW                   54541281
030070             MOVE EDEP-DEP-DENTL-COVENDDT                         54541281
030080                                     OF PPPDEP-ARRAY (WS-IX1)     54541281
030090               TO DEP-DENTL-COVENDDT  OF DEP-ROW                  54541281
030091             MOVE EDEP-DEP-VIS-COVENDDT                           54541281
030092                                     OF PPPDEP-ARRAY (WS-IX1)     54541281
030093               TO DEP-VIS-COVENDDT  OF DEP-ROW                    54541281
030094             MOVE EDEP-DEP-LEGAL-COVENDDT                         54541281
030095                                     OF PPPDEP-ARRAY (WS-IX1)     54541281
030096               TO DEP-LEGAL-COVENDDT  OF DEP-ROW                  54541281
029100             MOVE WS-EMPLOYEE-ID TO EMPLOYEE-ID OF DEP-ROW        PPDEPUPD
029200             MOVE 'I' TO PPXXXUTW-FUNCTION                        PPDEPUPD
029300             PERFORM 8200-CALL-PPXXXUTW                           PPDEPUPD
029400         END-IF                                                   PPDEPUPD
029500     END-PERFORM.                                                 PPDEPUPD
029600     SKIP1                                                        PPDEPUPD
029700     EJECT                                                        PPDEPUPD
029800 7900-FIRST-TIME SECTION.                                         PPDEPUPD
029900     SKIP1                                                        PPDEPUPD
030000     MOVE A-STND-PROG-ID TO XWHC-DISPLAY-MODULE.                  PPDEPUPD
030100     SKIP1                                                        PPDEPUPD
030200                                    COPY CPPDXWHC.                PPDEPUPD
030300     EJECT                                                        PPDEPUPD
030400 8100-CALL-PPXXXUTL SECTION.                                      PPDEPUPD
030500     SKIP1                                                        PPDEPUPD
030600     CALL PPXXXUTL-NAME USING PPDEPUTL-INTERFACE,                 PPDEPUPD
030700                              PPPDEP-ARRAY                        PPDEPUPD
030800     SKIP1                                                        PPDEPUPD
030900     IF PPDEPUTL-ERROR                                            PPDEPUPD
031000         PERFORM 9000-INITIALIZE-ARRAY                            PPDEPUPD
031100         SET PPXXXUPD-ERROR TO TRUE                               PPDEPUPD
031200     END-IF.                                                      PPDEPUPD
031300     SKIP1                                                        PPDEPUPD
031400     IF PPXXXUPD-DIAGNOSTICS-ON                                   PPDEPUPD
031500         DISPLAY A-STND-PROG-ID ': ' PPXXXUTL-NAME,               PPDEPUPD
031600                 '-INTERFACE "' PPDEPUTL-INTERFACE '"'            PPDEPUPD
031700     END-IF.                                                      PPDEPUPD
031800     SKIP1                                                        PPDEPUPD
031900     INITIALIZE ZDEC-PPPDEP-ARRAY.                                PPDEPUPD
032000     MOVE PPPDEP-ARRAY TO PPPDEP-ARRAY-HOLD.                      PPDEPUPD
032100     SKIP1                                                        PPDEPUPD
032200     MOVE PPDEPUTL-EMPLOYEE-ID TO WS-EMPLOYEE-ID.                 PPDEPUPD
032300     EJECT                                                        PPDEPUPD
032400 8200-CALL-PPXXXUTW SECTION.                                      PPDEPUPD
032500     SKIP1                                                        PPDEPUPD
032600     INITIALIZE PPXXXUTW-ERROR-SWITCHES.                          PPDEPUPD
032700     SKIP1                                                        PPDEPUPD
032800     CALL PPXXXUTW-NAME USING PPXXXUTW-INTERFACE,                 PPDEPUPD
032900                           DEP-ROW.                               PPDEPUPD
033000     SKIP1                                                        PPDEPUPD
033100     IF PPXXXUTW-ERROR                                            PPDEPUPD
033200         SET PPXXXUPD-ERROR TO TRUE                               PPDEPUPD
033300     END-IF.                                                      PPDEPUPD
033400     SKIP1                                                        PPDEPUPD
033500     IF PPXXXUPD-DIAGNOSTICS-ON                                   PPDEPUPD
033600         DISPLAY A-STND-PROG-ID ': PPXXXUTW-INTERFACE "',         PPDEPUPD
033700                 PPXXXUTW-INTERFACE '"',                          PPDEPUPD
033800                 'DEP-ROW="' DEP-ROW '"'                          PPDEPUPD
033900     END-IF.                                                      PPDEPUPD
034000     EJECT                                                        PPDEPUPD
034100 9000-INITIALIZE-ARRAY SECTION.                                   PPDEPUPD
034200     SKIP1                                                        PPDEPUPD
034300******************************************************************PPDEPUPD
034400*                                                                *PPDEPUPD
034500* THIS SECTION INITIALIZES THE PPPDEP-ARRAY. INITIALIZE VERB IS  *PPDEPUPD
034600* SUPPLEMENTED WITH MOVES OF AN INITIAL DATE VALUE TO THE        *PPDEPUPD
034700* COLUMNS IN THE DEP-TABLE ROW WHICH ARE DEFINED AS DB2 DATES.   *PPDEPUPD
034800* IT ALSO INITIALIZES ZDEC-PPPDEP-ARRAY.                         *PPDEPUPD
034900******************************************************************PPDEPUPD
035000     SKIP1                                                        PPDEPUPD
035100     INITIALIZE PPPDEP-ARRAY.                                     PPDEPUPD
035200     PERFORM VARYING WS-IX1  FROM 1 BY 1                          PPDEPUPD
035300         UNTIL                                                    PPDEPUPD
035400         WS-IX1  > IDC-MAX-NO-DEP                                 PPDEPUPD
035500         MOVE '0001-01-01'   TO EDEP-DEP-BIRTH-DATE               PPDEPUPD
035600             OF PPPDEP-ARRAY (WS-IX1)                             PPDEPUPD
035700         MOVE '0001-01-01'   TO EDEP-DEP-HLTH-COVEFFDT            PPDEPUPD
035800             OF PPPDEP-ARRAY (WS-IX1)                             PPDEPUPD
035900         MOVE '0001-01-01'   TO EDEP-DEP-DENTL-COVEFFDT           PPDEPUPD
036000             OF PPPDEP-ARRAY (WS-IX1)                             PPDEPUPD
036100         MOVE '0001-01-01'   TO EDEP-DEP-VIS-COVEFFDT             PPDEPUPD
036200             OF PPPDEP-ARRAY (WS-IX1)                             PPDEPUPD
036300         MOVE '0001-01-01'   TO EDEP-DEP-LEGAL-COVEFFDT           PPDEPUPD
036400             OF PPPDEP-ARRAY (WS-IX1)                             PPDEPUPD
037410         MOVE '0001-01-01'   TO EDEP-DEP-HLTH-COVENDDT            54541281
037420             OF PPPDEP-ARRAY (WS-IX1)                             54541281
037430         MOVE '0001-01-01'   TO EDEP-DEP-DENTL-COVENDDT           54541281
037440             OF PPPDEP-ARRAY (WS-IX1)                             54541281
037450         MOVE '0001-01-01'   TO EDEP-DEP-VIS-COVENDDT             54541281
037460             OF PPPDEP-ARRAY (WS-IX1)                             54541281
037470         MOVE '0001-01-01'   TO EDEP-DEP-LEGAL-COVENDDT           54541281
037480             OF PPPDEP-ARRAY (WS-IX1)                             54541281
036500     END-PERFORM.                                                 PPDEPUPD
036700     MOVE  PPPDEP-ARRAY TO INIT-DEP-ARRAY.                        36430795
036800     EJECT                                                        PPDEPUPD
036900 9100-EVALUATE-DATA-ELEMENT SECTION.                              PPDEPUPD
037000     SKIP1                                                        PPDEPUPD
037100******************************************************************PPDEPUPD
037200*                                                                *PPDEPUPD
037300* THIS SECTION TAKES THE DATA ELEMENT NUMBER FROM THE CHANGE     *PPDEPUPD
037400* RECORD TO DETERMINE WHICH COLUMN IS TO RECEIVE THE VALUE FROM  *PPDEPUPD
037500* THE CHANGE RECORD.                                             *PPDEPUPD
037600*                                                                *PPDEPUPD
037700******************************************************************PPDEPUPD
037800     SKIP1                                                        PPDEPUPD
037900     MOVE XCHG-OCCURENCE-KEY TO WS-HOLD-KEY.                      PPDEPUPD
038000     MOVE WS-PPPDEP-NUM TO                                        PPDEPUPD
038100             WS-DEP-NUM.                                          PPDEPUPD
038200*                                                                 PPDEPUPD
038300*    LOCATE THE PROPER ARRAY ELEMENT OR THE                       PPDEPUPD
038400*    NEXT AVAILABLE                                               PPDEPUPD
038500*                                                                 PPDEPUPD
038600     PERFORM VARYING WS-IX1 FROM 1 BY 1                           PPDEPUPD
038700             UNTIL WS-IX1 > IDC-MAX-NO-DEP                        PPDEPUPD
038800         OR (EDEP-OCCURRENCE-KEY OF PPPDEP-ARRAY (WS-IX1)         PPDEPUPD
038900             = WS-DEP-OCCURRENCE-KEY)                             PPDEPUPD
039000         OR (EDEP-OCCURRENCE-KEY OF PPPDEP-ARRAY (WS-IX1)         PPDEPUPD
039200             = EDEP-OCCURRENCE-KEY OF INIT-DEP-ARRAY (1))         36430795
039300     END-PERFORM.                                                 PPDEPUPD
039400*                                                                 PPDEPUPD
039500*    RETURN WITH AN ERROR IF IT IS NOT THERE                      PPDEPUPD
039600*    OR NO NEXT AVAILABLE                                         PPDEPUPD
039700*                                                                 PPDEPUPD
039800     SET TRAN-APPLIED TO TRUE.                                    PPDEPUPD
039900     IF WS-IX1 > IDC-MAX-NO-DEP                                   PPDEPUPD
040000          IF PPXXXUPD-FUNCTION = 'A'                              PPDEPUPD
040100              SET NOT-TRAN-APPLIED TO TRUE                        PPDEPUPD
040200          ELSE                                                    PPDEPUPD
040300              SET PPXXXUPD-DATA-ELEM-ERROR TO TRUE                PPDEPUPD
040400          END-IF                                                  PPDEPUPD
040500          GO TO 9100-XIT                                          PPDEPUPD
040600     END-IF.                                                      PPDEPUPD
040700                                                                  PPDEPUPD
040800*                                                                 PPDEPUPD
040900*    LOAD KEY IF THIS IS A NEW ROW                                PPDEPUPD
041000*                                                                 PPDEPUPD
041100     IF (EDEP-OCCURRENCE-KEY OF PPPDEP-ARRAY (WS-IX1)             PPDEPUPD
041300             =  EDEP-OCCURRENCE-KEY OF INIT-DEP-ARRAY (1))        36430795
041400        MOVE WS-DEP-OCCURRENCE-KEY TO                             PPDEPUPD
041500              EDEP-OCCURRENCE-KEY OF PPPDEP-ARRAY (WS-IX1)        PPDEPUPD
041600     END-IF.                                                      PPDEPUPD
041700     SKIP1                                                        PPDEPUPD
041800     EVALUATE XCHG-DATA-ELEM-NO                                   PPDEPUPD
041900         WHEN '0631'                                              PPDEPUPD
042000              MOVE TEMP-DATA-VALUE TO                             PPDEPUPD
042100                   EDEP-DEP-ADC-CODE                              PPDEPUPD
042200                          OF PPPDEP-ARRAY (WS-IX1)                PPDEPUPD
042300         WHEN '0632'                                              PPDEPUPD
042400              MOVE WS-DEP-NUM TO                                  PPDEPUPD
042500                   EDEP-DEP-NUM                                   PPDEPUPD
042600                          OF PPPDEP-ARRAY (WS-IX1)                PPDEPUPD
042700         WHEN '0633'                                              PPDEPUPD
042800              MOVE TEMP-DATA-VALUE TO                             PPDEPUPD
042900                   EDEP-DEP-NAME                                  PPDEPUPD
043000                          OF PPPDEP-ARRAY (WS-IX1)                PPDEPUPD
043100         WHEN '0634'                                              PPDEPUPD
043200              MOVE TEMP-DATA-VALUE TO                             PPDEPUPD
043300                   EDEP-DEP-BIRTH-DATE                            PPDEPUPD
043400                          OF PPPDEP-ARRAY (WS-IX1)                PPDEPUPD
043500         WHEN '0635'                                              PPDEPUPD
043600              MOVE TEMP-DATA-VALUE TO                             PPDEPUPD
043700                   EDEP-DEP-REL-TO-EMP                            PPDEPUPD
043800                          OF PPPDEP-ARRAY (WS-IX1)                PPDEPUPD
043900         WHEN '0636'                                              PPDEPUPD
044000              MOVE TEMP-DATA-VALUE TO                             PPDEPUPD
044100                   EDEP-DEP-SSN                                   PPDEPUPD
044200                          OF PPPDEP-ARRAY (WS-IX1)                PPDEPUPD
044300         WHEN '0637'                                              PPDEPUPD
044400              MOVE TEMP-DATA-VALUE TO                             PPDEPUPD
044500                   EDEP-DEP-SEX-CODE                              PPDEPUPD
044600                          OF PPPDEP-ARRAY (WS-IX1)                PPDEPUPD
044700         WHEN '0638'                                              PPDEPUPD
044800              MOVE TEMP-DATA-VALUE TO                             PPDEPUPD
044900                   EDEP-DEP-DISABLED-CODE                         PPDEPUPD
045000                          OF PPPDEP-ARRAY (WS-IX1)                PPDEPUPD
045100         WHEN '0639'                                              PPDEPUPD
045200              MOVE TEMP-DATA-VALUE TO                             PPDEPUPD
045300                   EDEP-DEP-HLTH-COVEFFDT                         PPDEPUPD
045400                          OF PPPDEP-ARRAY (WS-IX1)                PPDEPUPD
045500              MOVE '1' TO ZDEC-DEP-HLTH-COVEFFDT (WS-IX1)         PPDEPUPD
045600         WHEN '0640'                                              PPDEPUPD
045700              MOVE TEMP-DATA-VALUE TO                             PPDEPUPD
045800                   EDEP-DEP-DENTL-COVEFFDT                        PPDEPUPD
045900                          OF PPPDEP-ARRAY (WS-IX1)                PPDEPUPD
046000              MOVE '1' TO ZDEC-DEP-DENTL-COVEFFDT (WS-IX1)        PPDEPUPD
046100         WHEN '0641'                                              PPDEPUPD
046200              MOVE TEMP-DATA-VALUE TO                             PPDEPUPD
046300                   EDEP-DEP-VIS-COVEFFDT                          PPDEPUPD
046400                          OF PPPDEP-ARRAY (WS-IX1)                PPDEPUPD
046500              MOVE '1' TO ZDEC-DEP-VIS-COVEFFDT (WS-IX1)          PPDEPUPD
046600         WHEN '0642'                                              PPDEPUPD
046700              MOVE TEMP-DATA-VALUE TO                             PPDEPUPD
046800                   EDEP-DEP-LEGAL-COVEFFDT                        PPDEPUPD
046900                          OF PPPDEP-ARRAY (WS-IX1)                PPDEPUPD
047000              MOVE '1' TO ZDEC-DEP-LEGAL-COVEFFDT (WS-IX1)        PPDEPUPD
048010*****    WHEN '0643'                                              54541281
048020*****         MOVE TEMP-DATA-VALUE TO                             54541281
048030*****              EDEP-DEP-INS-DEENROLL                          54541281
048040*****                     OF PPPDEP-ARRAY (WS-IX1)                54541281
048050         WHEN '0659'                                              54541281
048060              MOVE TEMP-DATA-VALUE TO                             54541281
048070                   EDEP-DEP-HLTH-COVENDDT                         54541281
048080                          OF PPPDEP-ARRAY (WS-IX1)                54541281
048090              MOVE '1' TO ZDEC-DEP-HLTH-COVENDDT (WS-IX1)         54541281
048091         WHEN '0656'                                              54541281
048092              MOVE TEMP-DATA-VALUE TO                             54541281
048093                   EDEP-DEP-DENTL-COVENDDT                        54541281
048094                          OF PPPDEP-ARRAY (WS-IX1)                54541281
048095              MOVE '1' TO ZDEC-DEP-DENTL-COVENDDT (WS-IX1)        54541281
048096         WHEN '0657'                                              54541281
048097              MOVE TEMP-DATA-VALUE TO                             54541281
048098                   EDEP-DEP-VIS-COVENDDT                          54541281
048099                          OF PPPDEP-ARRAY (WS-IX1)                54541281
048100              MOVE '1' TO ZDEC-DEP-VIS-COVENDDT (WS-IX1)          54541281
048101         WHEN '0658'                                              54541281
048102              MOVE TEMP-DATA-VALUE TO                             54541281
048103                   EDEP-DEP-LEGAL-COVENDDT                        54541281
048104                          OF PPPDEP-ARRAY (WS-IX1)                54541281
048105              MOVE '1' TO ZDEC-DEP-LEGAL-COVENDDT (WS-IX1)        54541281
047100      SKIP1                                                       PPDEPUPD
047200         WHEN OTHER                                               PPDEPUPD
047300              IF PPXXXUPD-DIAGNOSTICS-ON                          PPDEPUPD
047400                  DISPLAY A-STND-PROG-ID                          PPDEPUPD
047500                          ': UNRECOGNIZED DATA ELEMENT NUMBER ('  PPDEPUPD
047600                          XCHG-DATA-ELEM-NO                       PPDEPUPD
047700                          ')'                                     PPDEPUPD
047800              END-IF                                              PPDEPUPD
047900              SET PPXXXUPD-DATA-ELEM-ERROR TO TRUE                PPDEPUPD
048000     END-EVALUATE.                                                PPDEPUPD
048100 9100-XIT.                                                        PPDEPUPD
048200     EXIT.                                                        PPDEPUPD
048300     SKIP3                                                        PPDEPUPD
049320**--------------------------------------------------------------**36430976
049330*9400-QUICK-FETCH  SECTION.  <----- COPIED SECTION                36430976
049340*                                                                 36430976
049350                                     COPY CPPDQFET                36430976
049360        REPLACING IDC-MAX-NO-000       BY IDC-MAX-NO-DEP          36430976
049370                  000-OCCURRENCE-KEY   BY EDEP-OCCURRENCE-KEY     36430976
049380                  000-ARRAY-ENTRY      BY EDEP-DEPENDENT-DATA     36430976
049390                  000-ARRAY            BY PPPDEP-ARRAY            36430976
049391                  000-ARRAY-HOLD       BY PPPDEP-ARRAY-HOLD       36430976
049392                  INIT-000-ARRAY       BY INIT-DEP-ARRAY          36430976
049393                  PP000UTL-ROW-COUNT   BY WS-PPDEPUTL-ROW-COUNT.  36430976
049394**--------------------------------------------------------------**36430976
048400************************   END OF PROGRAM ************************PPDEPUPD
