000100**************************************************************/   36090553
000200*  PROGRAM:  PPEARFET                                        */   36090553
000300*  RELEASE # ____0553____ SERVICE REQUEST NO(S)___3609_______*/   36090553
000400*  NAME ______JAG______   MODIFICATION DATE ____04/08/91_____*/   36090553
000500*  DESCRIPTION                                               */   36090553
000600*    EDB EAR TABLE DATA ELEMENT FETCH MODULE.                */   36090553
000700**************************************************************/   36090553
000800 IDENTIFICATION DIVISION.                                         PPEARFET
000900 PROGRAM-ID. PPEARFET.                                            PPEARFET
001000 AUTHOR. UCOP.                                                    PPEARFET
001100 DATE-WRITTEN. DECEMBER 1990.                                     PPEARFET
001200 DATE-COMPILED.                                                   PPEARFET
001300*REMARKS.                                                         PPEARFET
001400******************************************************************PPEARFET
001500*                                                                *PPEARFET
001600*  THIS PROGRAM DRIVES THE RETRIEVAL OF EMPLOYEE DATA BASE       *PPEARFET
001700* DATA ELEMENTS, BY DATA ELEMENT NUMBER, FROM EAR-TABLE ROWS.    *PPEARFET
001800* THIS PROGRAM IS CALLED BY PPEDBFET.                            *PPEARFET
001900*                                                                *PPEARFET
002000*  THE DETAILS OF THIS PROGRAMS FUNCTION ARE DESCRIBED IN THE    *PPEARFET
002100* PROCEDURE DIVISION COPYMEMBER CPPDEFET. ADDITIONAL CODE IS     *PPEARFET
002200* HARCODED IN THIS SOURCE TO PROVIDE THE NECESSARY MOVEMENT OF   *PPEARFET
002300* EAR-TABLE ROW COLUMNS TO THE EDB FETCH COMPLEX DATA RETURN     *PPEARFET
002400* AREA.                                                          *PPEARFET
002500*                                                                *PPEARFET
002600*  AS SHOULD BE OBVIOUS, THIS PROGRAM USES COPY CODE FOR THE     *PPEARFET
002700* MAJORITY OF THE PROCEDURE DIVISION. THIS COPY CODE ADDRESSES   *PPEARFET
002800* THE ROOT FUNCTIONS WHICH ARE COMMON TO THE PPXXXFET PROGRAM    *PPEARFET
002900* SERIES.                                                        *PPEARFET
003000*                                                                *PPEARFET
003100******************************************************************PPEARFET
003200     EJECT                                                        PPEARFET
003300 ENVIRONMENT DIVISION.                                            PPEARFET
003400 CONFIGURATION SECTION.                                           PPEARFET
003500 SOURCE-COMPUTER.                   COPY CPOTXUCS.                PPEARFET
003600 OBJECT-COMPUTER.                   COPY CPOTXOBJ.                PPEARFET
003700      EJECT                                                       PPEARFET
003800******************************************************************PPEARFET
003900*                                                                *PPEARFET
004000*                D A T A  D I V I S I O N                        *PPEARFET
004100*                                                                *PPEARFET
004200******************************************************************PPEARFET
004300 DATA DIVISION.                                                   PPEARFET
004400 WORKING-STORAGE SECTION.                                         PPEARFET
004500 01  MISCELLANEOUS-WS.                                            PPEARFET
004600******************************************************************PPEARFET
004700*                                                                *PPEARFET
004800* NOTE:                                                          *PPEARFET
004900*                                                                *PPEARFET
005000*   DATA NAMES A-STND-PROG-ID AND PPXXXUTL-NAME                  *PPEARFET
005100*  ARE REFERENCED IN COPY CODE CPPDEFET. A-STND-PROG-ID IS USED  *PPEARFET
005200*  IN DIAGNOSTIC REFERENCES, WHILE PPXXXUTL-NAME                 *PPEARFET
005300*  IS USED IN DYNAMIC CALLS TO THE APPROPRIATE TABLE READ        *PPEARFET
005400*  UTILITY.                                                      *PPEARFET
005500*                                                                *PPEARFET
005600******************************************************************PPEARFET
005700     05  A-STND-PROG-ID      PIC X(08) VALUE 'PPEARFET'.          PPEARFET
005800     05  PPXXXUTL-NAME       PIC X(08) VALUE 'PPEARUTL'.          PPEARFET
005900     05  WS-INIT-DATE        PIC X(10) VALUE '01/01/0001'.        PPEARFET
006000     05  WS-ISO-INIT-DATE    PIC X(10) VALUE '0001-01-01'.        PPEARFET
006100     05  FIRST-TIME-SWITCH   PIC X(01) VALUE 'Y'.                 PPEARFET
006200         88  FIRST-TIME                VALUE 'Y'.                 PPEARFET
006300         88  NOT-FIRST-TIME            VALUE 'N'.                 PPEARFET
006400     05  INIT-VALUE-SWITCH   PIC X(01) VALUE 'Y'.                 PPEARFET
006500         88  INIT-VALUE                VALUE 'Y'.                 PPEARFET
006600         88  NON-INIT-VALUE            VALUE 'N'.                 PPEARFET
006700     05  MULTIPLE-OCCURR-SW  PIC X(01) VALUE 'N'.                 PPEARFET
006800         88  MULTIPLE-OCCURRENCE       VALUE 'Y'.                 PPEARFET
006900         88  SINGLE-OCCURRENCE         VALUE 'N'.                 PPEARFET
007000     05  DATE-VALUE-SWITCH   PIC X(01) VALUE 'N'.                 PPEARFET
007100         88  NO-DATE-VALUE             VALUE 'N'.                 PPEARFET
007200         88  ISO-DATE-VALUE            VALUE 'I'.                 PPEARFET
007300         88  USA-DATE-VALUE            VALUE 'U'.                 PPEARFET
007400         88  DATE-VALUE                VALUES 'I' 'U'.            PPEARFET
007500     05  DATE-HOLD-SWITCH    PIC X(01) VALUE 'N'.                 PPEARFET
007600     05  WS-DATA-TYPE        PIC X(01) VALUE 'A'.                 PPEARFET
007700         88  WS-DATA-TYPE-AN           VALUE 'A'.                 PPEARFET
007800         88  WS-DATA-TYPE-NUM          VALUE 'N'.                 PPEARFET
007900         88  WS-DATA-TYPE-DATE         VALUE 'D'.                 PPEARFET
008000     05  WS-EMPLOYEE-ID      PIC X(09) VALUE SPACES.              PPEARFET
008100     05  WS-DATA-ELEM-NO     PIC 9(04) VALUE ZEROES.              PPEARFET
008200     05  WS-OCCURRENCE-KEY.                                       PPEARFET
008300         10  FILLER          PIC X(18) VALUE SPACES.              PPEARFET
008400     05  WS-IX1              PIC S9(4) COMP VALUE ZERO.           PPEARFET
008500     05  WS-IX2              PIC S9(4) COMP VALUE ZERO.           PPEARFET
008600     05  WS-IX3              PIC S9(4) COMP VALUE ZERO.           PPEARFET
008700     05  WS-IX4              PIC S9(4) COMP VALUE ZERO.           PPEARFET
008800     05  WS-IX5              PIC S9(4) COMP VALUE ZERO.           PPEARFET
008900     05  WS-IX9              PIC S9(4) COMP VALUE ZERO.           PPEARFET
009000     SKIP3                                                        PPEARFET
009100 01  DATE-CONVERSION-WORK-AREAS.                                  PPEARFET
009200                                    COPY CPWSXDC2.                PPEARFET
009300     EJECT                                                        PPEARFET
009400 01  TEMP-DATA-AREA.                                              PPEARFET
009500                                    COPY CPWSXMMM.                PPEARFET
009600     EJECT                                                        PPEARFET
009700******************************************************************PPEARFET
009800*                                                                *PPEARFET
009900*  EAR-ROW IS THE ROW THAT WILL BE PASSED AROUND FOR USE BY      *PPEARFET
010000* HIGHER LEVEL PROGRAMS. IT IS DEFINED AS AN EXTERNAL DATA AREA  *PPEARFET
010100* TO ALLOW HIGHER LEVEL PROGRAMS TO AVOID PASSING THE ROW        *PPEARFET
010200* THROUGH UNNECESSARY CALLING CHAINS.                            *PPEARFET
010300*                                                                *PPEARFET
010400*  EAR-ROW-HOLD IS THE PURE ROW AS READ FROM THE EAR-TABLE. THIS *PPEARFET
010500* ROW IS RETRIEVED BY THE CORRESPONDING PPXXXUPD MODULE, AND IS  *PPEARFET
010600* REFERNCED IN THIS PPXXXFET MODULE FOR THE SOLE PURPOSE OF      *PPEARFET
010700* FILLING THE CHANGE-RETURN-DATA ARRAY.                          *PPEARFET
010800*                                                                *PPEARFET
010900*  EAR-ROW-HOLD1 IS THE ROW AS SET ASIDE, AFTER SOME UPDATE      *PPEARFET
011000* ACTIVITY, BY THE EDB UPDATE COMPLEX  TO ALLOW THE GENERATION   *PPEARFET
011100* OF THE "FIRST" CHANGE ENTRY IN CHANGE RECORDS.                 *PPEARFET
011200*                                                                *PPEARFET
011300******************************************************************PPEARFET
011400 01  EAR-ROW        EXTERNAL.                                     PPEARFET
011500                                    COPY CPWSREAR.                PPEARFET
011600     EJECT                                                        PPEARFET
011700 01  EAR-ROW-HOLD   EXTERNAL.                                     PPEARFET
011800                                    COPY CPWSREAR.                PPEARFET
011900     EJECT                                                        PPEARFET
012000 01  EAR-ROW-HOLD1  EXTERNAL.                                     PPEARFET
012100                                    COPY CPWSREAR.                PPEARFET
012200     EJECT                                                        PPEARFET
012300 01  PPEDBFET-REQUEST-ARRAY     EXTERNAL.                         PPEARFET
012400                                    COPY CPWSEREQ.                PPEARFET
012500     EJECT                                                        PPEARFET
012600 01  PPEDBFET-D-E-RETURN-ARRAY  EXTERNAL.                         PPEARFET
012700                                    COPY CPWSERET.                PPEARFET
012800     EJECT                                                        PPEARFET
012900 01  PPEDBFET-CHANGE-RETURN-ARRAY EXTERNAL.                       PPEARFET
013000                                    COPY CPWSECHG.                PPEARFET
013100     EJECT                                                        PPEARFET
013200 01  PPEDBFET-RETURN-POINTERS     EXTERNAL.                       PPEARFET
013300                                    COPY CPWSEPTR.                PPEARFET
013400     EJECT                                                        PPEARFET
013500 01  PPEARUTL-INTERFACE.                                          PPEARFET
013600                                    COPY CPLNKEAR.                PPEARFET
013700     EJECT                                                        PPEARFET
013800 01  XWHC-COMPILE-WORK-AREA.                                      PPEARFET
013900                                    COPY CPWSXWHC.                PPEARFET
014000     EJECT                                                        PPEARFET
014100 01  PPXXXFET-INTERFACE  EXTERNAL.                                PPEARFET
014200                                    COPY CPLNFXXX.                PPEARFET
014300     EJECT                                                        PPEARFET
014400 PROCEDURE DIVISION.                                              PPEARFET
014500*                                                                 PPEARFET
014600******************************************************************PPEARFET
014700*            P R O C E D U R E  D I V I S I O N                  *PPEARFET
014800******************************************************************PPEARFET
014900*                                                                 PPEARFET
015000******************************************************************PPEARFET
015100*                                                                *PPEARFET
015200*  THE PROCEDURE DIVISION OF THIS PROGRAM IS CONTAINED PRIMARILY *PPEARFET
015300* IN COPY MEMBER CPPDEFET. HERE THE GENERIC DATA-NAMES IN        *PPEARFET
015400* CPPDEFET ARE REPLACED WITH THE SPECIFIC DATA-NAMES OF THE      *PPEARFET
015500* WORKING STORAGE TABLE ROWS AND THE PPXXXUTL MODULE INTERFACE.  *PPEARFET
015600*                                                                *PPEARFET
015700*                                                                *PPEARFET
015800******************************************************************PPEARFET
015900                                    COPY CPPDEFET                 PPEARFET
016000        REPLACING PP000UTL-INTERFACE   BY PPEARUTL-INTERFACE      PPEARFET
016100                  PP000UTL-ERROR       BY PPEARUTL-ERROR          PPEARFET
016200                  PP000UTL-EMPLOYEE-ID BY PPEARUTL-EMPLOYEE-ID    PPEARFET
016300                  000-ROW              BY EAR-ROW.                PPEARFET
016400     EJECT                                                        PPEARFET
016500 7900-FIRST-TIME SECTION.                                         PPEARFET
016600     SKIP1                                                        PPEARFET
016700******************************************************************PPEARFET
016800*  THIS SECTION IS REFERENCED IN PROCEDURE DIVISION COPYMEMBER   *PPEARFET
016900* CPPDEFET AND PRESENTS THE MODULE NAME, COMPILE DATE/TIME       *PPEARFET
017000* ON THE DISPLAY SYSOUT ONLY WHEN THIS MODULE IS CALLED FOR THE  *PPEARFET
017100* FIRST TIME.                                                    *PPEARFET
017200******************************************************************PPEARFET
017300     SKIP1                                                        PPEARFET
017400     MOVE A-STND-PROG-ID TO XWHC-DISPLAY-MODULE.                  PPEARFET
017500     SKIP1                                                        PPEARFET
017600                                    COPY CPPDXWHC.                PPEARFET
017700     EJECT                                                        PPEARFET
017800 9000-RESTORE-INDEXES SECTION.                                    PPEARFET
017900     SKIP1                                                        PPEARFET
018000******************************************************************PPEARFET
018100*                                                                *PPEARFET
018200* THIS SECTION IS INCLUDED IN THIS MODULE TO RESOLVE REFERENCES  *PPEARFET
018300* IN CPPDEFET. SINCE THIS MODULE WORKS WITH A SINGLE DB2 EDB     *PPEARFET
018400* EAR ROW, THERE ARE NO INDEXES THAT NEED TO BE RESTORED WHEN    *PPEARFET
018500* PROCESSING THE "MORE-DATA" CONDITION. THEREFORE, THIS SECTION  *PPEARFET
018600* PERFORMS THE "DUMMY" ACTION OF INITIALIZING WS-IX5.            *PPEARFET
018700*                                                                *PPEARFET
018800******************************************************************PPEARFET
018900     SKIP1                                                        PPEARFET
019000     INITIALIZE WS-IX5.                                           PPEARFET
019100     EJECT                                                        PPEARFET
019200 9100-EVALUATE-DATA-ELEMENT SECTION.                              PPEARFET
019300     SKIP1                                                        PPEARFET
019400******************************************************************PPEARFET
019500* THIS SECTION TAKES THE DATA ELEMENT NUMBER FROM THE REQUEST    *PPEARFET
019600* LIST AND PLACES THE APPROPRIATE EAR TABLE ROW COLUMN VALUE(S)  *PPEARFET
019700* INTO A WORKING-STORAGE DATA AREA. THE VALUES WILL BE TESTED    *PPEARFET
019800* BY LOGIC IN PROCEDURE DIVISION COPYMEMBER CPPDEFET TO          *PPEARFET
019900* DETERMINE WHERE IN THE DATA-RETURN ARRAY THE VALUE(S) WILL     *PPEARFET
020000* BE PLACED.                                                     *PPEARFET
020100******************************************************************PPEARFET
020200     SKIP1                                                        PPEARFET
020300     EVALUATE WS-DATA-ELEM-NO                                     PPEARFET
020400         WHEN '0260'                                              PPEARFET
020500             MOVE    MTH-PAY-IND        OF EAR-ROW       TO       PPEARFET
020600                     TEMP-DATA-VALUE                              PPEARFET
020700              IF PPXXXFET-CHANGE-REQUEST                          PPEARFET
020800                  MOVE    MTH-PAY-IND        OF EAR-ROW-HOLD  TO  PPEARFET
020900                          ORIG-DATA-VALUE                         PPEARFET
021000                  MOVE    MTH-PAY-IND        OF EAR-ROW-HOLD1 TO  PPEARFET
021100                          CHG1-DATA-VALUE                         PPEARFET
021200              END-IF                                              PPEARFET
021300         WHEN '0262'                                              PPEARFET
021400             MOVE    CURR-PAY-IND       OF EAR-ROW       TO       PPEARFET
021500                     TEMP-DATA-VALUE                              PPEARFET
021600              IF PPXXXFET-CHANGE-REQUEST                          PPEARFET
021700                  MOVE    CURR-PAY-IND       OF EAR-ROW-HOLD  TO  PPEARFET
021800                          ORIG-DATA-VALUE                         PPEARFET
021900                  MOVE    CURR-PAY-IND       OF EAR-ROW-HOLD1 TO  PPEARFET
022000                          CHG1-DATA-VALUE                         PPEARFET
022100              END-IF                                              PPEARFET
022200         WHEN '0263'                                              PPEARFET
022300             MOVE    PRIOR-PAY-MTH1     OF EAR-ROW       TO       PPEARFET
022400                     TEMP-DATA-VALUE                              PPEARFET
022500              IF PPXXXFET-CHANGE-REQUEST                          PPEARFET
022600                  MOVE    PRIOR-PAY-MTH1     OF EAR-ROW-HOLD  TO  PPEARFET
022700                          ORIG-DATA-VALUE                         PPEARFET
022800                  MOVE    PRIOR-PAY-MTH1     OF EAR-ROW-HOLD1 TO  PPEARFET
022900                          CHG1-DATA-VALUE                         PPEARFET
023000              END-IF                                              PPEARFET
023100         WHEN '0264'                                              PPEARFET
023200             MOVE    PRIOR-PAY-MTH2     OF EAR-ROW       TO       PPEARFET
023300                     TEMP-DATA-VALUE                              PPEARFET
023400              IF PPXXXFET-CHANGE-REQUEST                          PPEARFET
023500                  MOVE    PRIOR-PAY-MTH2     OF EAR-ROW-HOLD  TO  PPEARFET
023600                          ORIG-DATA-VALUE                         PPEARFET
023700                  MOVE    PRIOR-PAY-MTH2     OF EAR-ROW-HOLD1 TO  PPEARFET
023800                          CHG1-DATA-VALUE                         PPEARFET
023900              END-IF                                              PPEARFET
024000         WHEN '0265'                                              PPEARFET
024100             MOVE    PRIOR-PAY-MTH3     OF EAR-ROW       TO       PPEARFET
024200                     TEMP-DATA-VALUE                              PPEARFET
024300              IF PPXXXFET-CHANGE-REQUEST                          PPEARFET
024400                  MOVE    PRIOR-PAY-MTH3     OF EAR-ROW-HOLD  TO  PPEARFET
024500                          ORIG-DATA-VALUE                         PPEARFET
024600                  MOVE    PRIOR-PAY-MTH3     OF EAR-ROW-HOLD1 TO  PPEARFET
024700                          CHG1-DATA-VALUE                         PPEARFET
024800              END-IF                                              PPEARFET
024900         WHEN '0171'                                              PPEARFET
025000             MOVE    JAN-PAY-IND        OF EAR-ROW       TO       PPEARFET
025100                     TEMP-DATA-VALUE                              PPEARFET
025200              IF PPXXXFET-CHANGE-REQUEST                          PPEARFET
025300                  MOVE    JAN-PAY-IND        OF EAR-ROW-HOLD  TO  PPEARFET
025400                          ORIG-DATA-VALUE                         PPEARFET
025500                  MOVE    JAN-PAY-IND        OF EAR-ROW-HOLD1 TO  PPEARFET
025600                          CHG1-DATA-VALUE                         PPEARFET
025700              END-IF                                              PPEARFET
025800         WHEN '0172'                                              PPEARFET
025900             MOVE    FEB-PAY-IND        OF EAR-ROW       TO       PPEARFET
026000                     TEMP-DATA-VALUE                              PPEARFET
026100              IF PPXXXFET-CHANGE-REQUEST                          PPEARFET
026200                  MOVE    FEB-PAY-IND        OF EAR-ROW-HOLD  TO  PPEARFET
026300                          ORIG-DATA-VALUE                         PPEARFET
026400                  MOVE    FEB-PAY-IND        OF EAR-ROW-HOLD1 TO  PPEARFET
026500                          CHG1-DATA-VALUE                         PPEARFET
026600              END-IF                                              PPEARFET
026700         WHEN '0173'                                              PPEARFET
026800             MOVE    MAR-PAY-IND        OF EAR-ROW       TO       PPEARFET
026900                     TEMP-DATA-VALUE                              PPEARFET
027000              IF PPXXXFET-CHANGE-REQUEST                          PPEARFET
027100                  MOVE    MAR-PAY-IND        OF EAR-ROW-HOLD  TO  PPEARFET
027200                          ORIG-DATA-VALUE                         PPEARFET
027300                  MOVE    MAR-PAY-IND        OF EAR-ROW-HOLD1 TO  PPEARFET
027400                          CHG1-DATA-VALUE                         PPEARFET
027500              END-IF                                              PPEARFET
027600         WHEN '0174'                                              PPEARFET
027700             MOVE    APR-PAY-IND        OF EAR-ROW       TO       PPEARFET
027800                     TEMP-DATA-VALUE                              PPEARFET
027900              IF PPXXXFET-CHANGE-REQUEST                          PPEARFET
028000                  MOVE    APR-PAY-IND        OF EAR-ROW-HOLD  TO  PPEARFET
028100                          ORIG-DATA-VALUE                         PPEARFET
028200                  MOVE    APR-PAY-IND        OF EAR-ROW-HOLD1 TO  PPEARFET
028300                          CHG1-DATA-VALUE                         PPEARFET
028400              END-IF                                              PPEARFET
028500         WHEN '0175'                                              PPEARFET
028600             MOVE    MAY-PAY-IND        OF EAR-ROW       TO       PPEARFET
028700                     TEMP-DATA-VALUE                              PPEARFET
028800              IF PPXXXFET-CHANGE-REQUEST                          PPEARFET
028900                  MOVE    MAY-PAY-IND        OF EAR-ROW-HOLD  TO  PPEARFET
029000                          ORIG-DATA-VALUE                         PPEARFET
029100                  MOVE    MAY-PAY-IND        OF EAR-ROW-HOLD1 TO  PPEARFET
029200                          CHG1-DATA-VALUE                         PPEARFET
029300              END-IF                                              PPEARFET
029400         WHEN '0176'                                              PPEARFET
029500             MOVE    JUN-PAY-IND        OF EAR-ROW       TO       PPEARFET
029600                     TEMP-DATA-VALUE                              PPEARFET
029700              IF PPXXXFET-CHANGE-REQUEST                          PPEARFET
029800                  MOVE    JUN-PAY-IND        OF EAR-ROW-HOLD  TO  PPEARFET
029900                          ORIG-DATA-VALUE                         PPEARFET
030000                  MOVE    JUN-PAY-IND        OF EAR-ROW-HOLD1 TO  PPEARFET
030100                          CHG1-DATA-VALUE                         PPEARFET
030200              END-IF                                              PPEARFET
030300         WHEN '0177'                                              PPEARFET
030400             MOVE    JUL-PAY-IND        OF EAR-ROW       TO       PPEARFET
030500                     TEMP-DATA-VALUE                              PPEARFET
030600              IF PPXXXFET-CHANGE-REQUEST                          PPEARFET
030700                  MOVE    JUL-PAY-IND        OF EAR-ROW-HOLD  TO  PPEARFET
030800                          ORIG-DATA-VALUE                         PPEARFET
030900                  MOVE    JUL-PAY-IND        OF EAR-ROW-HOLD1 TO  PPEARFET
031000                          CHG1-DATA-VALUE                         PPEARFET
031100              END-IF                                              PPEARFET
031200         WHEN '0178'                                              PPEARFET
031300             MOVE    AUG-PAY-IND        OF EAR-ROW       TO       PPEARFET
031400                     TEMP-DATA-VALUE                              PPEARFET
031500              IF PPXXXFET-CHANGE-REQUEST                          PPEARFET
031600                  MOVE    AUG-PAY-IND        OF EAR-ROW-HOLD  TO  PPEARFET
031700                          ORIG-DATA-VALUE                         PPEARFET
031800                  MOVE    AUG-PAY-IND        OF EAR-ROW-HOLD1 TO  PPEARFET
031900                          CHG1-DATA-VALUE                         PPEARFET
032000              END-IF                                              PPEARFET
032100         WHEN '0179'                                              PPEARFET
032200             MOVE    SEP-PAY-IND        OF EAR-ROW       TO       PPEARFET
032300                     TEMP-DATA-VALUE                              PPEARFET
032400              IF PPXXXFET-CHANGE-REQUEST                          PPEARFET
032500                  MOVE    SEP-PAY-IND        OF EAR-ROW-HOLD  TO  PPEARFET
032600                          ORIG-DATA-VALUE                         PPEARFET
032700                  MOVE    SEP-PAY-IND        OF EAR-ROW-HOLD1 TO  PPEARFET
032800                          CHG1-DATA-VALUE                         PPEARFET
032900              END-IF                                              PPEARFET
033000         WHEN '0180'                                              PPEARFET
033100             MOVE    OCT-PAY-IND        OF EAR-ROW       TO       PPEARFET
033200                     TEMP-DATA-VALUE                              PPEARFET
033300              IF PPXXXFET-CHANGE-REQUEST                          PPEARFET
033400                  MOVE    OCT-PAY-IND        OF EAR-ROW-HOLD  TO  PPEARFET
033500                          ORIG-DATA-VALUE                         PPEARFET
033600                  MOVE    OCT-PAY-IND        OF EAR-ROW-HOLD1 TO  PPEARFET
033700                          CHG1-DATA-VALUE                         PPEARFET
033800              END-IF                                              PPEARFET
033900         WHEN '0181'                                              PPEARFET
034000             MOVE    NOV-PAY-IND        OF EAR-ROW       TO       PPEARFET
034100                     TEMP-DATA-VALUE                              PPEARFET
034200              IF PPXXXFET-CHANGE-REQUEST                          PPEARFET
034300                  MOVE    NOV-PAY-IND        OF EAR-ROW-HOLD  TO  PPEARFET
034400                          ORIG-DATA-VALUE                         PPEARFET
034500                  MOVE    NOV-PAY-IND        OF EAR-ROW-HOLD1 TO  PPEARFET
034600                          CHG1-DATA-VALUE                         PPEARFET
034700              END-IF                                              PPEARFET
034800         WHEN '0182'                                              PPEARFET
034900             MOVE    DEC-PAY-IND        OF EAR-ROW       TO       PPEARFET
035000                     TEMP-DATA-VALUE                              PPEARFET
035100              IF PPXXXFET-CHANGE-REQUEST                          PPEARFET
035200                  MOVE    DEC-PAY-IND        OF EAR-ROW-HOLD  TO  PPEARFET
035300                          ORIG-DATA-VALUE                         PPEARFET
035400                  MOVE    DEC-PAY-IND        OF EAR-ROW-HOLD1 TO  PPEARFET
035500                          CHG1-DATA-VALUE                         PPEARFET
035600              END-IF                                              PPEARFET
035700         WHEN '5101'                                              PPEARFET
035800             COMPUTE TEMP-NUMBER =                                PPEARFET
035900                     YTD-TOTAL-HOURS    OF EAR-ROW                PPEARFET
036000              IF PPXXXFET-CHANGE-REQUEST                          PPEARFET
036100                  COMPUTE ORIG-NUMBER =                           PPEARFET
036200                          YTD-TOTAL-HOURS    OF EAR-ROW-HOLD      PPEARFET
036300                  COMPUTE CHG1-NUMBER =                           PPEARFET
036400                          YTD-TOTAL-HOURS    OF EAR-ROW-HOLD1     PPEARFET
036500              END-IF                                              PPEARFET
036600         WHEN '5102'                                              PPEARFET
036700             COMPUTE TEMP-NUMBER =                                PPEARFET
036800                     YTD-REG-HRS-WORK   OF EAR-ROW                PPEARFET
036900              IF PPXXXFET-CHANGE-REQUEST                          PPEARFET
037000                  COMPUTE ORIG-NUMBER =                           PPEARFET
037100                          YTD-REG-HRS-WORK   OF EAR-ROW-HOLD      PPEARFET
037200                  COMPUTE CHG1-NUMBER =                           PPEARFET
037300                          YTD-REG-HRS-WORK   OF EAR-ROW-HOLD1     PPEARFET
037400              END-IF                                              PPEARFET
037500         WHEN '5103'                                              PPEARFET
037600             COMPUTE TEMP-NUMBER =                                PPEARFET
037700                     YTD-OVERTIME       OF EAR-ROW                PPEARFET
037800              IF PPXXXFET-CHANGE-REQUEST                          PPEARFET
037900                  COMPUTE ORIG-NUMBER =                           PPEARFET
038000                          YTD-OVERTIME       OF EAR-ROW-HOLD      PPEARFET
038100                  COMPUTE CHG1-NUMBER =                           PPEARFET
038200                          YTD-OVERTIME       OF EAR-ROW-HOLD1     PPEARFET
038300              END-IF                                              PPEARFET
038400         WHEN '5104'                                              PPEARFET
038500             COMPUTE TEMP-NUMBER =                                PPEARFET
038600                     YTD-NON-WORKED     OF EAR-ROW                PPEARFET
038700              IF PPXXXFET-CHANGE-REQUEST                          PPEARFET
038800                  COMPUTE ORIG-NUMBER =                           PPEARFET
038900                          YTD-NON-WORKED     OF EAR-ROW-HOLD      PPEARFET
039000                  COMPUTE CHG1-NUMBER =                           PPEARFET
039100                          YTD-NON-WORKED     OF EAR-ROW-HOLD1     PPEARFET
039200              END-IF                                              PPEARFET
039300         WHEN '5105'                                              PPEARFET
039400             COMPUTE TEMP-NUMBER =                                PPEARFET
039500                     SPEC-VAC-MAXHRS    OF EAR-ROW                PPEARFET
039600              IF PPXXXFET-CHANGE-REQUEST                          PPEARFET
039700                  COMPUTE ORIG-NUMBER =                           PPEARFET
039800                          SPEC-VAC-MAXHRS    OF EAR-ROW-HOLD      PPEARFET
039900                  COMPUTE CHG1-NUMBER =                           PPEARFET
040000                          SPEC-VAC-MAXHRS    OF EAR-ROW-HOLD1     PPEARFET
040100              END-IF                                              PPEARFET
040200         WHEN '5136'                                              PPEARFET
040300             COMPUTE TEMP-NUMBER =                                PPEARFET
040400                     NORM-VAC-MAX       OF EAR-ROW                PPEARFET
040500              IF PPXXXFET-CHANGE-REQUEST                          PPEARFET
040600                  COMPUTE ORIG-NUMBER =                           PPEARFET
040700                          NORM-VAC-MAX       OF EAR-ROW-HOLD      PPEARFET
040800                  COMPUTE CHG1-NUMBER =                           PPEARFET
040900                          NORM-VAC-MAX       OF EAR-ROW-HOLD1     PPEARFET
041000              END-IF                                              PPEARFET
041100         WHEN '5185'                                              PPEARFET
041200             COMPUTE TEMP-NUMBER =                                PPEARFET
041300                     VAC-HRS-BALANCE    OF EAR-ROW                PPEARFET
041400              IF PPXXXFET-CHANGE-REQUEST                          PPEARFET
041500                  COMPUTE ORIG-NUMBER =                           PPEARFET
041600                          VAC-HRS-BALANCE    OF EAR-ROW-HOLD      PPEARFET
041700                  COMPUTE CHG1-NUMBER =                           PPEARFET
041800                          VAC-HRS-BALANCE    OF EAR-ROW-HOLD1     PPEARFET
041900              END-IF                                              PPEARFET
042000         WHEN '5106'                                              PPEARFET
042100             COMPUTE TEMP-NUMBER =                                PPEARFET
042200                     SPEC-SICKLV-MAX    OF EAR-ROW                PPEARFET
042300              IF PPXXXFET-CHANGE-REQUEST                          PPEARFET
042400                  COMPUTE ORIG-NUMBER =                           PPEARFET
042500                          SPEC-SICKLV-MAX    OF EAR-ROW-HOLD      PPEARFET
042600                  COMPUTE CHG1-NUMBER =                           PPEARFET
042700                          SPEC-SICKLV-MAX    OF EAR-ROW-HOLD1     PPEARFET
042800              END-IF                                              PPEARFET
042900         WHEN '5137'                                              PPEARFET
043000             COMPUTE TEMP-NUMBER =                                PPEARFET
043100                     NORM-SICKLV-MAX    OF EAR-ROW                PPEARFET
043200              IF PPXXXFET-CHANGE-REQUEST                          PPEARFET
043300                  COMPUTE ORIG-NUMBER =                           PPEARFET
043400                          NORM-SICKLV-MAX    OF EAR-ROW-HOLD      PPEARFET
043500                  COMPUTE CHG1-NUMBER =                           PPEARFET
043600                          NORM-SICKLV-MAX    OF EAR-ROW-HOLD1     PPEARFET
043700              END-IF                                              PPEARFET
043800         WHEN '5186'                                              PPEARFET
043900             COMPUTE TEMP-NUMBER =                                PPEARFET
044000                     SICK-LV-HRS-BAL    OF EAR-ROW                PPEARFET
044100              IF PPXXXFET-CHANGE-REQUEST                          PPEARFET
044200                  COMPUTE ORIG-NUMBER =                           PPEARFET
044300                          SICK-LV-HRS-BAL    OF EAR-ROW-HOLD      PPEARFET
044400                  COMPUTE CHG1-NUMBER =                           PPEARFET
044500                          SICK-LV-HRS-BAL    OF EAR-ROW-HOLD1     PPEARFET
044600              END-IF                                              PPEARFET
044700         WHEN '5107'                                              PPEARFET
044800             COMPUTE TEMP-NUMBER =                                PPEARFET
044900                     SPEC-PTO-MAX       OF EAR-ROW                PPEARFET
045000              IF PPXXXFET-CHANGE-REQUEST                          PPEARFET
045100                  COMPUTE ORIG-NUMBER =                           PPEARFET
045200                          SPEC-PTO-MAX       OF EAR-ROW-HOLD      PPEARFET
045300                  COMPUTE CHG1-NUMBER =                           PPEARFET
045400                          SPEC-PTO-MAX       OF EAR-ROW-HOLD1     PPEARFET
045500              END-IF                                              PPEARFET
045600         WHEN '5138'                                              PPEARFET
045700             COMPUTE TEMP-NUMBER =                                PPEARFET
045800                     NORM-PTO-MAX       OF EAR-ROW                PPEARFET
045900              IF PPXXXFET-CHANGE-REQUEST                          PPEARFET
046000                  COMPUTE ORIG-NUMBER =                           PPEARFET
046100                          NORM-PTO-MAX       OF EAR-ROW-HOLD      PPEARFET
046200                  COMPUTE CHG1-NUMBER =                           PPEARFET
046300                          NORM-PTO-MAX       OF EAR-ROW-HOLD1     PPEARFET
046400              END-IF                                              PPEARFET
046500         WHEN '5187'                                              PPEARFET
046600             COMPUTE TEMP-NUMBER =                                PPEARFET
046700                     PTO-HRS-BAL        OF EAR-ROW                PPEARFET
046800              IF PPXXXFET-CHANGE-REQUEST                          PPEARFET
046900                  COMPUTE ORIG-NUMBER =                           PPEARFET
047000                          PTO-HRS-BAL        OF EAR-ROW-HOLD      PPEARFET
047100                  COMPUTE CHG1-NUMBER =                           PPEARFET
047200                          PTO-HRS-BAL        OF EAR-ROW-HOLD1     PPEARFET
047300              END-IF                                              PPEARFET
047400         WHEN '5110'                                              PPEARFET
047500             COMPUTE TEMP-NUMBER =                                PPEARFET
047600                     COMP-TIME-BAL      OF EAR-ROW                PPEARFET
047700              IF PPXXXFET-CHANGE-REQUEST                          PPEARFET
047800                  COMPUTE ORIG-NUMBER =                           PPEARFET
047900                          COMP-TIME-BAL      OF EAR-ROW-HOLD      PPEARFET
048000                  COMPUTE CHG1-NUMBER =                           PPEARFET
048100                          COMP-TIME-BAL      OF EAR-ROW-HOLD1     PPEARFET
048200              END-IF                                              PPEARFET
048300         WHEN '5139'                                              PPEARFET
048400             COMPUTE TEMP-NUMBER =                                PPEARFET
048500                     LAST-STUB-VAC-BAL  OF EAR-ROW                PPEARFET
048600              IF PPXXXFET-CHANGE-REQUEST                          PPEARFET
048700                  COMPUTE ORIG-NUMBER =                           PPEARFET
048800                          LAST-STUB-VAC-BAL  OF EAR-ROW-HOLD      PPEARFET
048900                  COMPUTE CHG1-NUMBER =                           PPEARFET
049000                          LAST-STUB-VAC-BAL  OF EAR-ROW-HOLD1     PPEARFET
049100              END-IF                                              PPEARFET
049200         WHEN '5140'                                              PPEARFET
049300             COMPUTE TEMP-NUMBER =                                PPEARFET
049400                     LAST-STUB-SICK-BAL OF EAR-ROW                PPEARFET
049500              IF PPXXXFET-CHANGE-REQUEST                          PPEARFET
049600                  COMPUTE ORIG-NUMBER =                           PPEARFET
049700                          LAST-STUB-SICK-BAL OF EAR-ROW-HOLD      PPEARFET
049800                  COMPUTE CHG1-NUMBER =                           PPEARFET
049900                          LAST-STUB-SICK-BAL OF EAR-ROW-HOLD1     PPEARFET
050000              END-IF                                              PPEARFET
050100         WHEN '5141'                                              PPEARFET
050200             COMPUTE TEMP-NUMBER =                                PPEARFET
050300                     LAST-STUB-PTO-BAL  OF EAR-ROW                PPEARFET
050400              IF PPXXXFET-CHANGE-REQUEST                          PPEARFET
050500                  COMPUTE ORIG-NUMBER =                           PPEARFET
050600                          LAST-STUB-PTO-BAL  OF EAR-ROW-HOLD      PPEARFET
050700                  COMPUTE CHG1-NUMBER =                           PPEARFET
050800                          LAST-STUB-PTO-BAL  OF EAR-ROW-HOLD1     PPEARFET
050900              END-IF                                              PPEARFET
051000         WHEN '5182'                                              PPEARFET
051100             MOVE    LAST-STUB-VAC-IND  OF EAR-ROW       TO       PPEARFET
051200                     TEMP-DATA-VALUE                              PPEARFET
051300              IF PPXXXFET-CHANGE-REQUEST                          PPEARFET
051400                  MOVE    LAST-STUB-VAC-IND  OF EAR-ROW-HOLD  TO  PPEARFET
051500                          ORIG-DATA-VALUE                         PPEARFET
051600                  MOVE    LAST-STUB-VAC-IND  OF EAR-ROW-HOLD1 TO  PPEARFET
051700                          CHG1-DATA-VALUE                         PPEARFET
051800              END-IF                                              PPEARFET
051900         WHEN '5183'                                              PPEARFET
052000             MOVE    LAST-STUB-SICK-IND OF EAR-ROW       TO       PPEARFET
052100                     TEMP-DATA-VALUE                              PPEARFET
052200              IF PPXXXFET-CHANGE-REQUEST                          PPEARFET
052300                  MOVE    LAST-STUB-SICK-IND OF EAR-ROW-HOLD  TO  PPEARFET
052400                          ORIG-DATA-VALUE                         PPEARFET
052500                  MOVE    LAST-STUB-SICK-IND OF EAR-ROW-HOLD1 TO  PPEARFET
052600                          CHG1-DATA-VALUE                         PPEARFET
052700              END-IF                                              PPEARFET
052800         WHEN '5184'                                              PPEARFET
052900             MOVE    LAST-STUB-PTO-IND  OF EAR-ROW       TO       PPEARFET
053000                     TEMP-DATA-VALUE                              PPEARFET
053100              IF PPXXXFET-CHANGE-REQUEST                          PPEARFET
053200                  MOVE    LAST-STUB-PTO-IND  OF EAR-ROW-HOLD  TO  PPEARFET
053300                          ORIG-DATA-VALUE                         PPEARFET
053400                  MOVE    LAST-STUB-PTO-IND  OF EAR-ROW-HOLD1 TO  PPEARFET
053500                          CHG1-DATA-VALUE                         PPEARFET
053600              END-IF                                              PPEARFET
053700         WHEN OTHER                                               PPEARFET
053800              IF PPXXXFET-DIAGNOSTICS-ON                          PPEARFET
053900                  DISPLAY A-STND-PROG-ID                          PPEARFET
054000                          ': UNRECOGNIZED DATA ELEMENT NUMBER ('  PPEARFET
054100                          WS-DATA-ELEM-NO                         PPEARFET
054200                          ')'                                     PPEARFET
054300              END-IF                                              PPEARFET
054400              SET PPXXXFET-DATA-ELEM-NO-ERROR TO TRUE             PPEARFET
054500              MOVE WS-DATA-ELEM-NO TO PPXXXFET-D-E-IN-ERROR       PPEARFET
054600     END-EVALUATE.                                                PPEARFET
054700     SKIP3                                                        PPEARFET
054800************************   END OF PROGRAM ************************PPEARFET
