000000**************************************************************/   05201511
000001*  PROGRAM: PPEA001                                          */   05201511
000002*  RELEASE: ___1511______ SERVICE REQUEST(S): ____80520____  */   05201511
000003*  NAME:_______QUAN______ MODIFICATION DATE:  ___07/31/03__  */   05201511
000004*  DESCRIPTION:                                              */   05201511
000005*  Set BELI Eligibility Date (EDB 0361) to first day of the  */   05201511
000006*  Hire Date (EDB 0113).                                     */   05201511
000007**************************************************************/   05201511
000000**************************************************************/   04151489
000001*  PROGRAM: PPEA001                                          */   04151489
000002*  RELEASE: ___1489______ SERVICE REQUEST(S): ____80415____  */   04151489
000003*  REF RLSE:___1486______                                    */   04151489
000004*  NAME:_______QUAN______ MODIFICATION DATE:  ___04/30/03__  */   04151489
000005*  DESCRIPTION:                                              */   04151489
000006*  - ERROR REPORT 1859:                                      */   04151489
000007*    The  logic that checks the condition that an employee,  */   04151489
000008*    upon hire, must have a current or future appointment    */   04151489
000009*    with a Title Code covered by the appropriate Bargaining */   04151489
000010*    Unit identified on the PPPDUE Table is disabled.        */   04151489
000020**************************************************************/   04151489
000100**************************************************************/   17851380
000200*  PROGRAM: PPEA001                                          */   17851380
000300*  RELEASE: ___1380______ SERVICE REQUEST(S): ____17852____  */   17851380
000400*  NAME:_____J.WILCOX____ MODIFICATION DATE:  ___11/27/01__  */   17851380
000500*  DESCRIPTION:                                              */   17851380
000600*  - During hire action, establish an initial Maximum        */   17851380
000700*    Allowable Contribution (MAC) value if the employee      */   17851380
000800*    is eligible to contribute to the 403(b) program.        */   17851380
000900**************************************************************/   17851380
000172**************************************************************/   74221352
000173*  PROGRAM: PPEA001                                          */   74221352
000174*  RELEASE: ___1352______ SERVICE REQUEST(S): ____17422____  */   74221352
000175*  NAME:__PHIL THOMPSON__ MODIFICATION DATE:  ___06/15/01__  */   74221352
000176*  DESCRIPTION:                                              */   74221352
000177*  - DURING HIRE ACTION REINSTATE UDUES RETAINED DURING A    */   74221352
000178*    BREAK IN SERVICE                                        */   74221352
000179**************************************************************/   74221352
000000**************************************************************/   48441340
000001*  PROGRAM: PPEA001                                          */   48441340
000002*  RELEASE: ___1340______ SERVICE REQUEST(S): ____14844____  */   48441340
000003*  REF RLSE:___1334______                                    */   48441340
000004*  NAME:_______QUAN______ MODIFICATION DATE:  ___03/27/01__  */   48441340
000005*  DESCRIPTION:                                              */   48441340
000006*  -  THE CODE THAT SETS THE FEDERAL/STATE MAXIMUM EXEMPTIONS*/   48441340
000007*     TO 999 FOR NEW HIRES IN IMPLIED MAINT (POST-UPDATE)    */   48441340
000008*     HAS BEEN ADDED TO THE PRE-UPDATE PROCESS IN SECTION    */   48441340
000009*     1100-ACTION-EDITS-MAINLINE.                            */   48441340
000010**************************************************************/   48441340
000000**************************************************************/   32201186
000001*  PROGRAM: PPEA001                                          */   32201186
000002*  RELEASE: ___1186______ SERVICE REQUEST(S): ____13220____  */   32201186
000003*  NAME:_______QUAN______ MODIFICATION DATE:  ___04/20/98__  */   32201186
000004*  DESCRIPTION:                                              */   32201186
000005*  - CAPTURE THE NEWLY-HIRED EMPLOYEE ID AND MOVE IT TO THE  */   32201186
000006*    EXTERNAL NER-ROW FOR PPNERUTL TO INSERT THE ID IN PPP120*/   32201186
000007**************************************************************/   32201186
000008**************************************************************/   44321181
000009*  PROGRAM: PPEA001                                          */   44321181
000010*  RELEASE: ___1181______ SERVICE REQUEST(S): ___14432_____  */   44321181
000011*  NAME:_____PAYRPS______ MODIFICATION DATE:  ___03/30/98__  */   44321181
000012*  DESCRIPTION:                                              */   44321181
000013*  - COMMENTED OUT THE CODE REFERING TO ETHNIC ID.  THIS     */   44321181
000014*    FUNCTIONALITY IS NO LONGER NEEDED, SINCE ETHNIC ORIGIN  */   44321181
000015*    CODE WILL NO LONGER BE BLANKS.                          */   44321181
000016**************************************************************/   44321181
000010**************************************************************/   32021138
000020*  PROGRAM: PPEA001                                          */   32021138
000030*  RELEASE: ___1138______ SERVICE REQUEST(S): ____13202____  */   32021138
000040*  NAME:__PHIL THOMPSON__ MODIFICATION DATE:  ___08/04/97__  */   32021138
000050*  DESCRIPTION:                                              */   32021138
000060*  - MODIFIED FOR FULL ACCOUNTING UNIT.                      */   32021138
000070**************************************************************/   32021138
000100**************************************************************/   28551032
000200*  PROGRAM: PPEA001                                          */   28551032
000300*  RELEASE: ___1032______ SERVICE REQUEST(S): ___12855_____  */   28551032
000400*  NAME:_______JLT_______ MODIFICATION DATE:  ___11/14/95__  */   28551032
000500*  DESCRIPTION:                                              */   28551032
000600*  - VERIFY THAT NO PAR RECORDS EXIST FOR THE NEWLY HIRED    */   28551032
000700*    EMPLOYEE ID. IF PAR RECORDS ARE PRESENT, SET THE EDB    */   28551032
000800*    "PAR CONTROL NUMBER" TO A VALUE WHICH IS ONE HIGHER     */   28551032
000900*    THAN THE HIGHEST PAR "PAR CONTROL NUMBER".              */   28551032
001000**************************************************************/   28551032
000000**************************************************************/   28521025
000001*  PROGRAM: PPEA001                                          */   28521025
000002*  RELEASE: ___1025______ SERVICE REQUEST(S): ____12852____  */   28521025
000003*  NAME:_______QUAN______ MODIFICATION DATE:  ___08/01/95__  */   28521025
000004*  DESCRIPTION:                                              */   28521025
000005*  - DATE CONVERSION PROJECT:                                */   28521025
000006*    REPLACED CPPDXDC2 WITH CPPDXDC3.                        */   28521025
000007**************************************************************/   28521025
000100**************************************************************/   16160883
000200*  PROGRAM: PPEA001                                          */   16160883
000300*  RELEASE: ___0883______ SERVICE REQUEST(S): ____11616____  */   16160883
000400*  NAME:_____M. SANO_____ MODIFICATION DATE:  ___02/01/94__  */   16160883
000500*  DESCRIPTION:                                              */   16160883
000600*  - ERROR REPORT 1080                                       */   16160883
000700*    DERIVE BELI-CHANGEDATE (0183) AND BELI-DATE (0361) AT   */   16160883
000800*    THE TIME NEWHIRE TAKES PLACE.                           */   16160883
000900*  - ADD TURNAROUND FOR BELI EFF DATE TO 08302 MESSAGE       */   16160883
001000**************************************************************/   16160883
001510******************************************************************36410762
001520*  PROGRAM: PPEA001                                              *36410762
001530*  RELEASE: ___0762______ SERVICE REQUEST(S): _____3641____      *36410762
001540*  REF. RELEASE: ___717___                                       *36410762
001550*  NAME:__H. TRUONG _____ MODIFICATION DATE:  ___05/06/93__      *36410762
001560*  DESCRIPTION:                                                  *36410762
001570*  -  ERROR REPORT 974                                           *36410762
001580*     ADDED CODE IN 5100-IMPLIED-MAINT-MAIN SECTION TO GO TO     *36410762
001590*     END OF SECTION WHEN A VSAM READ ERROR HAS OCCURRED.        *36410762
001591******************************************************************36410762
001600*----------------------------------------------------------------*36410717
001700*|**************************************************************|*36410717
001800*|* PROGRAM: PPEA001                                           *|*36410717
001900*|*  RELEASE: __0717_______ SERVICE REQUEST(S): _____3641____  *|*36410717
002000*|*  NAME:______UCOP_______ MODIFICATION DATE:  ___11/19/92__  *|*36410717
002100*|*  DESCRIPTION:                                              *|*36410717
002200*|*  - EDB MAINTENANCE RE-ENGINEERING PROJECT                  *|*36410717
002300*|*    PERSONNEL ACTION 01 EDIT                                *|*36410717
002400*|**************************************************************|*36410717
002500*----------------------------------------------------------------*36410717
002600 IDENTIFICATION DIVISION.                                         PPEA001
002700 PROGRAM-ID. PPEA001.                                             PPEA001
002800 AUTHOR. UCOP.                                                    PPEA001
002900 INSTALLATION. UNIVERSITY OF CALIFORNIA.                          PPEA001
003000                                                                  PPEA001
003100 DATE-WRITTEN.  JULY 23,1992.                                     PPEA001
003200 DATE-COMPILED.                                                   PPEA001
003300                                                                  PPEA001
003400******************************************************************PPEA001
003500**   THIS ROUTINE WILL PERFORM THE PERSONNEL ACTION 01 EDIT     **PPEA001
003600******************************************************************PPEA001
003700                                                                  PPEA001
003800 ENVIRONMENT DIVISION.                                            PPEA001
003900 CONFIGURATION SECTION.                                           PPEA001
004000 SOURCE-COMPUTER.                                  COPY CPOTXUCS. PPEA001
004100 OBJECT-COMPUTER.                                  COPY CPOTXOBJ. PPEA001
004200 SPECIAL-NAMES.                C01 IS NEW-PAGE.                   PPEA001
004300 INPUT-OUTPUT SECTION.                                            PPEA001
004400 FILE-CONTROL.                                                    PPEA001
004500                                                                  PPEA001
004600 DATA DIVISION.                                                   PPEA001
004700 FILE SECTION.                                                    PPEA001
004800     EJECT                                                        PPEA001
004900*----------------------------------------------------------------*PPEA001
005000 WORKING-STORAGE SECTION.                                         PPEA001
005100*----------------------------------------------------------------*PPEA001
005200                                                                  PPEA001
005300 01  A-STND-PROG-ID                   PIC X(15) VALUE             PPEA001
012900*****                                                          CD 05201511
013110*****'PPEA001 /050103'.                                           05201511
013120     'PPEA001 /080103'.                                           05201511
005500                                                                  PPEA001
005600 01  A-STND-MSG-PARMS                 REDEFINES                   PPEA001
005700     A-STND-PROG-ID.                                              PPEA001
005800     05  FILLER                       PIC X(03).                  PPEA001
005900     05  WS-ROUTINE-TYPE              PIC X(01).                  PPEA001
006000     05  WS-ROUTINE-NUM               PIC 9(03).                  PPEA001
006100     05  FILLER                       PIC X(08).                  PPEA001
006200                                                                  PPEA001
006300 01  MESSAGES-USED.                                               PPEA001
006400     05  M08190                      PIC X(05) VALUE '08190'.     PPEA001
006500     05  M08191                      PIC X(05) VALUE '08191'.     PPEA001
006600     05  M08240                      PIC X(05) VALUE '08240'.     PPEA001
006700     05  M08302                      PIC X(05) VALUE '08302'.     PPEA001
006800     05  M12190                      PIC X(05) VALUE '12190'.     PPEA001
006900     05  M12191                      PIC X(05) VALUE '12191'.     PPEA001
007000     05  M12329                      PIC X(05) VALUE '12329'.     PPEA001
007100     05  M12335                      PIC X(05) VALUE '12335'.     PPEA001
009610     05  M12354                      PIC X(05) VALUE '12354'.     74221352
009612     05  M12357                      PIC X(05) VALUE '12357'.     74221352
009620     05  M12358                      PIC X(05) VALUE '12358'.     74221352
009630     05  M12359                      PIC X(05) VALUE '12359'.     74221352
007200                                                                  PPEA001
007300 01  ELEMENTS-USED.                                               PPEA001
007400     05  E0108                       PIC 9(04) VALUE 0108.        PPEA001
007500     05  E0112                       PIC 9(04) VALUE 0112.        PPEA001
007600     05  E0114                       PIC 9(04) VALUE 0114.        PPEA001
007700     05  E0120                       PIC 9(04) VALUE 0120.        PPEA001
007800     05  E0127                       PIC 9(04) VALUE 0127.        PPEA001
007900     05  E0130                       PIC 9(04) VALUE 0130.        PPEA001
008000     05  E0145                       PIC 9(04) VALUE 0145.        PPEA001
010600     05  E0151                       PIC 9(04) VALUE 0151.        28551032
008700     05  E0183                       PIC 9(04) VALUE 0183.        16160883
008100     05  E0189                       PIC 9(04) VALUE 0189.        PPEA001
008200     05  E0263                       PIC 9(04) VALUE 0263.        PPEA001
016600     05  E0279                       PIC 9(04) VALUE 0279.        17851380
008300     05  E0320                       PIC 9(04) VALUE 0320.        PPEA001
008400     05  E0321                       PIC 9(04) VALUE 0321.        PPEA001
008500     05  E0330                       PIC 9(04) VALUE 0330.        PPEA001
008600     05  E0341                       PIC 9(04) VALUE 0341.        PPEA001
008700     05  E0356                       PIC 9(04) VALUE 0356.        PPEA001
008800     05  E0360                       PIC 9(04) VALUE 0360.        PPEA001
008900     05  E0361                       PIC 9(04) VALUE 0361.        PPEA001
009000     05  E0451                       PIC 9(04) VALUE 0451.        PPEA001
009100                                                                  PPEA001
009200 01  MISC-WORK-AREAS.                                             PPEA001
009300     05  FIRST-TIME-SW               PIC X(01) VALUE LOW-VALUES.  PPEA001
009400         88  THIS-IS-THE-FIRST-TIME            VALUE LOW-VALUES.  PPEA001
009500         88  NOT-THE-FIRST-TIME                VALUE 'Y'.         PPEA001
009600     05  WRK-HOME-DEPT               PIC X(6).                    PPEA001
012400     05  WS-UNIQUE-EMPLOYEE-ID      PIC X(9).                     28551032
012500     05  WS-SAVE-PRI-GROSS-CTL      PIC X(3).                     28551032
012600     05  WS-SAVE-PRI-GROSS-CTL-9  REDEFINES                       28551032
012700         WS-SAVE-PRI-GROSS-CTL      PIC 9(3).                     28551032
012810     05  WS-PGM-PPFAU002            PIC X(08)  VALUE 'PPFAU002'.  32021138
012820     05  WS-REF-DISPLAY.                                          74221352
012821         10  WS-REF-BUC             PIC X(02).                    74221352
012822         10  FILLER                 PIC X(01)  VALUE SPACE.       74221352
012823         10  WS-REF-GTN             PIC 9(03).                    74221352
019000*****                                                          CD 05201511
012832     05  APPT-INDX                  PIC S9(03) COMP VALUE 0.      74221352
012833     05  DSA-GTN-P                  PIC S9(4) COMP VALUE +1.      74221352
019500     05  DSA-USER-P                 PIC S9(4) COMP VALUE +8.      17851380
012834     05  APPT-NUM-INDX              PIC S9(03) COMP VALUE 0.      74221352
019700     05  WS-AGE-IN-YEARS            PIC S9(04) COMP VALUE ZERO.   17851380
012838 01  GTN-FIELD-NUM.                                               74221352
012839     05  FILLER                     PIC X(01) VALUE '6'.          74221352
012840     05  GTN-PNTR                   PIC 9(03) VALUE ZEROS.        74221352
012840                                                                  32021138
012850 01  PPFAU002-INTERFACE.                           COPY CPLNF002. 32021138
009700                                                                  PPEA001
009800     EJECT                                                        PPEA001
012910 01  PPDUEUTL-INTERFACE.                           COPY CPLNKDUE. 74221352
012920                                                                  74221352
012930     EJECT                                                        74221352
009900 01  CALLED-MODULES.                               COPY CPWSXRTN. PPEA001
010000                                                                  PPEA001
010100     EJECT                                                        PPEA001
010200 01  DL-FIELD-WORK-AREA.                           COPY CPWSXDLS. PPEA001
010300                                                                  PPEA001
010400     EJECT                                                        PPEA001
011210 01  DATE-CONVERSION-WORK-AREAS.                   COPY CPWSXDC3. 28521025
013800*                                                                 28551032
013900 01  PPDB2MSG-INTERFACE.                         COPY CPLNKDB2.   28551032
010600                                                                  PPEA001
010700     EJECT                                                        PPEA001
010800 01  XWHC-COMPILE-WORK-AREA.                       COPY CPWSXWHC. PPEA001
010900                                                                  PPEA001
011000     EJECT                                                        PPEA001
011100 01  COLUMN-88-WORK.                               COPY CPWSW88S. PPEA001
011200                                                                  PPEA001
011300     EJECT                                                        PPEA001
011700 01  APPT-DIST-LOC-WORK-AREAS.                     COPY CPWSADLC. PPEA001
011800                                                                  PPEA001
011900     EJECT                                                        PPEA001
012000 01  INSTALLATION-CONSTANTS.                       COPY CPWSXIDC. PPEA001
022900     EJECT                                                        17851380
023000 01  INSTALLATION-CONSTANTS2.                      COPY CPWSXIC2. 17851380
012100                                                                  PPEA001
012200     EJECT                                                        PPEA001
012600******************************************************************PPEA001
012700**     E  X  T  E  R  N  A  L  S      S  E  C  T  I  O  N       **PPEA001
012800**--------------------------------------------------------------**PPEA001
012900** THE FOLLOWING EXTERNAL AREAS WILL BE USED BY OTHER PROCESSES **PPEA001
013000******************************************************************PPEA001
013100                                                                  PPEA001
013200 01  DATA-ELEMENT-CHANGE-INDICATORS      EXTERNAL. COPY CPWSXDEC. PPEA001
013300                                                                  PPEA001
013400     EJECT                                                        PPEA001
013500 01  XCSS-COMMON-SYSTEM-SWITCHES         EXTERNAL. COPY CPWSSWCH. PPEA001
013600                                                                  PPEA001
013700     EJECT                                                        PPEA001
013800 01  XDTS-COMMON-SYSTEM-DATES            EXTERNAL. COPY CPWSXDTS. PPEA001
013900                                                                  PPEA001
014000     EJECT                                                        PPEA001
014100 01  ECES-CON-EDIT-SWITCH                EXTERNAL. COPY CPWSECES. PPEA001
014200                                                                  PPEA001
014300 01  EGES-GTN-EDIT-SWITCH                EXTERNAL. COPY CPWSEGES. PPEA001
014400                                                                  PPEA001
014500 01  EIMS-IMPL-MAINT-SWITCH              EXTERNAL. COPY CPWSEIMS. PPEA001
014600                                                                  PPEA001
014700 01  EAXD-APPT-ARRAY-SWITCH              EXTERNAL. COPY CPWSEAXD. PPEA001
014800                                                                  PPEA001
014900     EJECT                                                        PPEA001
015000 01  XDER-DATA-ELMT-RTN-POINTERS         EXTERNAL. COPY CPWSXDER. PPEA001
015100                                                                  PPEA001
015200     EJECT                                                        PPEA001
015300 01  XDRT-DET-ROUTINE-TRIGGERS           EXTERNAL. COPY CPWSXDRT. PPEA001
015400                                                                  PPEA001
015500     EJECT                                                        PPEA001
015600 01  EDB-MAINTENANCE-PASS-AREA           EXTERNAL. COPY CPWSEMPA. PPEA001
015700                                                                  PPEA001
026500     EJECT                                                        17851380
026600 01  SYSTEM-PARAMETERS                   EXTERNAL. COPY CPWSXSP2. 17851380
026700                                                                  17851380
015800     EJECT                                                        PPEA001
015900 01  AXD-ARRAY                           EXTERNAL.                PPEA001
016000     03  FILLER      OCCURS 27.                                   PPEA001
016100         07  APP-ROW-DELETE-BYTE  PIC X(1).                       PPEA001
016200             88  APP-ROW-DELETED                                  PPEA001
016300                 VALUE HIGH-VALUES.                               PPEA001
016400         07  APP-ROW-SEG-ID          PIC X(2).                    PPEA001
016500         07  FILLER  OCCURS 3.                                    PPEA001
016600             08  APP-ROW.                                         PPEA001
016700                                                   COPY CPWSRAPP  PPEA001
016800                 REPLACING WORK-STUDY-PGM                         PPEA001
016900                        BY NULL-APPT-WORK-STUDY.                  PPEA001
017000                                                                  PPEA001
017100     03  FILLER      OCCURS 27.                                   PPEA001
017200         07  DIS-ROW-DELETE-BYTE     PIC X(1).                    PPEA001
017300             88  DIS-ROW-DELETED                                  PPEA001
017400                 VALUE HIGH-VALUES.                               PPEA001
017500         07  DIS-ROW-SEG-ID          PIC X(2).                    PPEA001
017600         07  FILLER  OCCURS 3.                                    PPEA001
017700             08  DIS-ROW.                                         PPEA001
017800                                                   COPY CPWSRDIS. PPEA001
017900                                                                  PPEA001
018000                                                                  PPEA001
018100 01  WORK-DIST-DATA          EXTERNAL.             COPY CPWSRDIS  PPEA001
018200                                                                  PPEA001
018300         REPLACING  EMPLOYEE-ID         BY WORK-DIST-EMPLOYEE-ID  PPEA001
018400                    APPT-NUM            BY WORK-DIST-APPT-NUM     PPEA001
018500                    DIST-NUM            BY WORK-DIST-NO           PPEA001
018600                    DIST-ADC-CODE       BY WORK-DIST-ADC-CODE     PPEA001
022410                    FULL-ACCT-UNIT      BY WORK-FULL-ACCT-UNIT    32021138
019100                    DIST-DEPT-CODE      BY WORK-DIST-DEPT-CODE    PPEA001
019200                    DIST-FTE            BY WORK-FTE               PPEA001
019300                    PAY-BEGIN-DATE      BY WORK-PAY-BEGN-DATE     PPEA001
019400                    PAY-END-DATE        BY WORK-PAY-END-DATE      PPEA001
019500                    DIST-PERCENT        BY WORK-DIST-PCT          PPEA001
019600                    DIST-PAYRATE        BY WORK-RATE-AMOUNT       PPEA001
019700                    DIST-DOS            BY WORK-DOS               PPEA001
019800                    DIST-PERQ           BY WORK-PERQ              PPEA001
019900                    DIST-UNIT-CODE      BY WORK-DUC               PPEA001
020000                    RANGE-ADJ-DUC       BY WORK-RNG-ADJ-DUC       PPEA001
020100                    DIST-STEP           BY WORK-DIST-STEP         PPEA001
020200                    DIST-OFF-ABOVE      BY WORK-OFF-ABV-SCALE     PPEA001
018800                    WORK-STUDY-PGM      BY WORK-WORK-STUDY-PGM.   PPEA001
021100*                                                                 PPEA001
023810 01  DEDUCTION-SEGMENT-ARRAY             EXTERNAL. COPY CPWSEDSA. 74221352
023830     EJECT                                                        74221352
023840                                                                  74221352
023850 01  BENEFIT-SEGMENT-ARRAY               EXTERNAL. COPY CPWSEBSA. 74221352
023851     EJECT                                                        74221352
023860                                                                  74221352
023870 01  BRSC-EFFDT-TABLE                    EXTERNAL. COPY CPWSBRET. 74221352
023890     EJECT                                                        74221352
021200*                                                                 PPEA001
021300     EJECT                                                        PPEA001
021400******************************************************************PPEA001
021500**  DATA BASE AREAS                                             **PPEA001
021600******************************************************************PPEA001
021700                                                                  PPEA001
021800 01  SCR-ROW                             EXTERNAL.                PPEA001
021900     EXEC SQL INCLUDE PPPVSCR1 END-EXEC.                          PPEA001
022000                                                                  PPEA001
022100     EJECT                                                        PPEA001
022200 01  PER-ROW                             EXTERNAL.                PPEA001
022300     EXEC SQL INCLUDE PPPVPER1 END-EXEC.                          PPEA001
022400                                                                  PPEA001
022500     EJECT                                                        PPEA001
022600 01  PAY-ROW                             EXTERNAL.                PPEA001
022700     EXEC SQL INCLUDE PPPVPAY1 END-EXEC.                          PPEA001
022800                                                                  PPEA001
022900     EJECT                                                        PPEA001
023000 01  EAR-ROW                             EXTERNAL.                PPEA001
023100     EXEC SQL INCLUDE PPPVEAR1 END-EXEC.                          PPEA001
023200                                                                  PPEA001
023300     EJECT                                                        PPEA001
023400 01  BEL-ROW                             EXTERNAL.                PPEA001
023500     EXEC SQL INCLUDE PPPVBEL1 END-EXEC.                          PPEA001
023600                                                                  PPEA001
023700     EJECT                                                        PPEA001
023800 01  BEN-ROW                             EXTERNAL.                PPEA001
023900     EXEC SQL INCLUDE PPPVBEN1 END-EXEC.                          PPEA001
026700                                                                  28551032
026800 01  PCM-ROW                             EXTERNAL.                28551032
026900     EXEC SQL INCLUDE PPPVPCM1 END-EXEC.                          28551032
027000                                                                  32201186
027010 01  NER-ROW                             EXTERNAL.                32201186
027020     EXEC SQL INCLUDE PPPVZNER END-EXEC.                          32201186
027100******************************************************************28551032
027200**  PAR VIEW & CURSOR                                           **28551032
027300******************************************************************28551032
027400                                                                  28551032
027500 01  EUD-ROW.                                                     28551032
027600     EXEC SQL                                                     28551032
027700           INCLUDE PPPVZEUD                                       28551032
027800     END-EXEC.                                                    28551032
027900                                                                  28551032
028000     EXEC SQL                                                     28551032
028100           DECLARE EUD-CURSOR CURSOR FOR                          28551032
028200           SELECT                                                 28551032
028300               EMPLOYEE_ID                                        28551032
028400              ,PRI_GROSS_CTL                                      28551032
028500           FROM PPPVZEUD_EUD                                      28551032
028600           WHERE  (EMPLOYEE_ID    = :WS-UNIQUE-EMPLOYEE-ID)       28551032
028700           ORDER BY PRI_GROSS_CTL                                 28551032
028800     END-EXEC.                                                    28551032
028900**                                                                28551032
029000     EXEC SQL                                                     28551032
029100         INCLUDE SQLCA                                            28551032
029200     END-EXEC.                                                    28551032
024000                                                                  PPEA001
024100     EJECT                                                        PPEA001
024200******************************************************************PPEA001
024300**          L  I  N  K  A  G  E      S  E  C  T  I  O  N        **PPEA001
024400******************************************************************PPEA001
024500                                                                  PPEA001
024600*----------------------------------------------------------------*PPEA001
024700 LINKAGE SECTION.                                                 PPEA001
024800*----------------------------------------------------------------*PPEA001
024900                                                                  PPEA001
025000******************************************************************PPEA001
025100**  THE KRMI AREA IS A COMMON AREA THAT IS USED TO PASS         **PPEA001
025200**  INFORMATION THAT IS REQUIRED FOR THIS MODULE TO EXECUTE     **PPEA001
025300******************************************************************PPEA001
025400                                                                  PPEA001
025500 01  KRMI-LINKAGE-SECTION.                         COPY CPLNKRMI. PPEA001
025600                                                                  PPEA001
025700     EJECT                                                        PPEA001
025800******************************************************************PPEA001
025900**  THIS MESSAGE TABLE ARRAY WILL CONTAIN ALL MESSAGES THAT     **PPEA001
026000**  THIS ROUTINE CAN LOGICALLY ISSUE AT ONE TIME                **PPEA001
026100******************************************************************PPEA001
026200                                                                  PPEA001
026300 01  KMTA-MESSAGE-TABLE-ARRAY.                     COPY CPLNKMTA. PPEA001
026400                                                                  PPEA001
026500     EJECT                                                        PPEA001
026600******************************************************************PPEA001
026700**    P  R  O  C  E  D  U  R  E      D  I  V  I  S  I  O  N     **PPEA001
026800******************************************************************PPEA001
026900                                                                  PPEA001
027000 PROCEDURE DIVISION USING KRMI-LINKAGE-SECTION,                   PPEA001
027100                          KMTA-MESSAGE-TABLE-ARRAY.               PPEA001
027200                                                                  PPEA001
027300                                                                  PPEA001
027400*----------------------------------------------------------------*PPEA001
027500 0000-DRIVER.                                                     PPEA001
027600*----------------------------------------------------------------*PPEA001
033000     EXEC SQL                                                     28551032
033100          INCLUDE CPPDXE99                                        28551032
033200     END-EXEC.                                                    28551032
027700                                                                  PPEA001
027800******************************************************************PPEA001
027900**  PERFORM THE INITIALIZATION ROUTINE NOW                      **PPEA001
028000******************************************************************PPEA001
028100                                                                  PPEA001
028200     IF  THIS-IS-THE-FIRST-TIME                                   PPEA001
028300         PERFORM 0100-INITIALIZE                                  PPEA001
028400     END-IF.                                                      PPEA001
028500                                                                  PPEA001
028600******************************************************************PPEA001
028700**  PERFORM THE MAIN ROUTINE NOW - AFTER WHICH WE WILL RETURN   **PPEA001
028800**  TO THE CALLING PROGRAM                                      **PPEA001
028900******************************************************************PPEA001
029000                                                                  PPEA001
029100     PERFORM 1000-MAINLINE-ROUTINE.                               PPEA001
029200                                                                  PPEA001
029300     EXIT PROGRAM.                                                PPEA001
029400                                                                  PPEA001
029500                                                                  PPEA001
029600     EJECT                                                        PPEA001
029700*----------------------------------------------------------------*PPEA001
029800 0100-INITIALIZE    SECTION.                                      PPEA001
029900*----------------------------------------------------------------*PPEA001
030000                                                                  PPEA001
030100******************************************************************PPEA001
030200**  DISPLAY THE PROGRAM ID AND DATE/TIME COMPILED               **PPEA001
030300******************************************************************PPEA001
036000*                                                                 28551032
036100     MOVE A-STND-PROG-ID           TO DB2MSG-PGM-ID.              28551032
030400                                                                  PPEA001
030500     MOVE A-STND-PROG-ID           TO XWHC-DISPLAY-MODULE.        PPEA001
030600                                                                  PPEA001
030700*                                               *-------------*   PPEA001
030800                                                 COPY CPPDXWHC.   PPEA001
030900*                                               *-------------*   PPEA001
031000                                                                  PPEA001
031400                                                                  PPEA001
031700******************************************************************PPEA001
031800**   SET FIRST CALL SWITCH OFF                                  **PPEA001
031900******************************************************************PPEA001
032000                                                                  PPEA001
032100     SET NOT-THE-FIRST-TIME        TO TRUE.                       PPEA001
032200                                                                  PPEA001
032300     EJECT                                                        PPEA001
032400*----------------------------------------------------------------*PPEA001
032500 1000-MAINLINE-ROUTINE    SECTION.                                PPEA001
032600*----------------------------------------------------------------*PPEA001
032700                                                                  PPEA001
032800     IF  KRMI-REQUESTED-BY-08                                     PPEA001
032900         PERFORM 1100-ACTION-EDITS-MAINLINE                       PPEA001
033000     ELSE                                                         PPEA001
033100         PERFORM 5100-IMPLIED-MAINT-MAINLINE                      PPEA001
033200     END-IF.                                                      PPEA001
033300                                                                  PPEA001
033400                                                                  PPEA001
033500     EJECT                                                        PPEA001
033600******************************************************************PPEA001
033700**          A C T I O N    E D I T S   M A I N L I N E          **PPEA001
033800******************************************************************PPEA001
033900*----------------------------------------------------------------*PPEA001
034000 1100-ACTION-EDITS-MAINLINE SECTION.                              PPEA001
034100*----------------------------------------------------------------*PPEA001
034200                                                                  PPEA001
040200     MOVE FICA-ELIG-CODE  OF PAY-ROW TO W88-FICA-ELIG-CODE.       28551032
034400     MOVE RET-ELIG-CODE            TO W88-RET-ELIG-CODE.          PPEA001
034500                                                                  PPEA001
034600     IF       FICA-ELIG-CODE-ELIG-MED-FICA                        PPEA001
034700         AND (   RET-ELIG-CODE-UCRS-RETR                          PPEA001
034800              OR RET-ELIG-CODE-UCRS-RETR-FY-ND                    PPEA001
034900              OR RET-ELIG-CODE-UCRS-RETR-ND)                      PPEA001
035000         ADD 1                     TO KMTA-CTR                    PPEA001
035100         MOVE M08240               TO KMTA-MSG-NUMBER   (KMTA-CTR)PPEA001
035200         MOVE 1                    TO KMTA-LENGTH       (KMTA-CTR)PPEA001
041300         MOVE FICA-ELIG-CODE OF PAY-ROW                           28551032
041400                                   TO KMTA-DATA-FIELD   (KMTA-CTR)28551032
035400         MOVE E0120                TO KMTA-FIELD-NUM    (KMTA-CTR)PPEA001
035500         MOVE WS-ROUTINE-TYPE      TO KMTA-ROUTINE-TYPE (KMTA-CTR)PPEA001
035600         MOVE WS-ROUTINE-NUM       TO KMTA-ROUTINE-NUM  (KMTA-CTR)PPEA001
035700     END-IF.                                                      PPEA001
035800                                                                  PPEA001
035900     MOVE ZEROS                    TO EXEC-LIFEFLAG.              PPEA001
036000                                                                  PPEA001
036100     IF  BELI-IND = SPACE                                         PPEA001
036200         MOVE '?'                  TO BELI-IND                    PPEA001
036300         MOVE 5                    TO BELI-NUMERIC-VALUE          PPEA001
036400         ADD 1                     TO KMTA-CTR                    PPEA001
036500         MOVE M08302               TO KMTA-MSG-NUMBER   (KMTA-CTR)PPEA001
036600         MOVE 1                    TO KMTA-LENGTH       (KMTA-CTR)PPEA001
036700         MOVE BELI-IND             TO KMTA-DATA-FIELD   (KMTA-CTR)PPEA001
036800         MOVE E0360                TO KMTA-FIELD-NUM    (KMTA-CTR)PPEA001
036900         MOVE WS-ROUTINE-TYPE      TO KMTA-ROUTINE-TYPE (KMTA-CTR)PPEA001
037000         MOVE WS-ROUTINE-NUM       TO KMTA-ROUTINE-NUM  (KMTA-CTR)PPEA001
037100         ADD 1                    TO KMTA-CTR                     16160883
037200         MOVE M08302               TO KMTA-MSG-NUMBER   (KMTA-CTR)16160883
037510         MOVE BELI-EFF-DATE       TO XDC3-ISO-DATE                28521025
037520         PERFORM XDC3-CONVERT-ISO-TO-STD                          28521025
037530         MOVE XDC3-STD-DATE       TO KMTA-DATA-FIELD (KMTA-CTR)   28521025
037600         MOVE E0341               TO KMTA-FIELD-NUM (KMTA-CTR)    16160883
037700         MOVE 06                  TO KMTA-LENGTH (KMTA-CTR)       16160883
037800         MOVE WS-ROUTINE-TYPE     TO KMTA-ROUTINE-TYPE (KMTA-CTR) 16160883
037900         MOVE WS-ROUTINE-NUM      TO KMTA-ROUTINE-NUM (KMTA-CTR)  16160883
037100     END-IF.                                                      PPEA001
044410                                                                  48441340
044411     MOVE 999                     TO  MAXFED-EXEMPT               48441340
044420                                      STATE-TAX-MAXEXMPT.         48441340
044430     MOVE E0320                   TO DL-FIELD.                    48441340
044440                                                                  48441340
044450     PERFORM 9050-AUDITING-RESPONSIBILITIES.                      48441340
044460                                                                  48441340
044470     MOVE E0321                   TO DL-FIELD.                    48441340
044480                                                                  48441340
044490     PERFORM 9050-AUDITING-RESPONSIBILITIES.                      48441340
037200                                                                  PPEA001
037300******************************************************************PPEA001
037400**   EDIT FOR MISSING SEX CODE ON NEWLY-HIRED EMPLOYEE          **PPEA001
037500******************************************************************PPEA001
037600                                                                  PPEA001
037700     IF  SEXCODE = SPACE                                          PPEA001
037800         ADD 1                     TO KMTA-CTR                    PPEA001
037900         MOVE M08190               TO KMTA-MSG-NUMBER   (KMTA-CTR)PPEA001
038000         MOVE 1                    TO KMTA-LENGTH       (KMTA-CTR)PPEA001
038100         MOVE SEXCODE              TO KMTA-DATA-FIELD   (KMTA-CTR)PPEA001
038200         MOVE E0108                TO KMTA-FIELD-NUM    (KMTA-CTR)PPEA001
038300         MOVE WS-ROUTINE-TYPE      TO KMTA-ROUTINE-TYPE (KMTA-CTR)PPEA001
038400         MOVE WS-ROUTINE-NUM       TO KMTA-ROUTINE-NUM  (KMTA-CTR)PPEA001
038500     END-IF.                                                      PPEA001
038600                                                                  PPEA001
040100                                                                  PPEA001
047400                                                                  PPEA001
040200     EJECT                                                        PPEA001
040300******************************************************************PPEA001
040400**   I M P L I E D   M A I N T E N A N C E   M A I N L I N E    **PPEA001
040500******************************************************************PPEA001
040600*----------------------------------------------------------------*PPEA001
040700 5100-IMPLIED-MAINT-MAINLINE SECTION.                             PPEA001
040800*----------------------------------------------------------------*PPEA001
040900                                                                  PPEA001
041000     MOVE 'Y'                     TO PRIOR-PAY-MTH1.              PPEA001
041100     MOVE E0263                   TO DL-FIELD.                    PPEA001
041200                                                                  PPEA001
041300     PERFORM 9050-AUDITING-RESPONSIBILITIES.                      PPEA001
041400                                                                  PPEA001
041500     MOVE 999                     TO  MAXFED-EXEMPT               PPEA001
041600                                      STATE-TAX-MAXEXMPT.         PPEA001
041700     MOVE E0320                   TO DL-FIELD.                    PPEA001
041800                                                                  PPEA001
041900     PERFORM 9050-AUDITING-RESPONSIBILITIES.                      PPEA001
042000                                                                  PPEA001
042100     MOVE E0321                   TO DL-FIELD.                    PPEA001
042200                                                                  PPEA001
042300     PERFORM 9050-AUDITING-RESPONSIBILITIES.                      PPEA001
042400                                                                  PPEA001
042500     MOVE SPACES                  TO LIFE-UCPAIDAMT.              PPEA001
042600     MOVE E0330                   TO DL-FIELD.                    PPEA001
042700                                                                  PPEA001
042800     PERFORM 9050-AUDITING-RESPONSIBILITIES.                      PPEA001
042900                                                                  PPEA001
043910     MOVE XDTS-ISO-ZERO-DATE      TO LIFE-UCPD-EFFDATE.           28521025
043100     MOVE E0451                   TO DL-FIELD.                    PPEA001
043200                                                                  PPEA001
043300     PERFORM 9050-AUDITING-RESPONSIBILITIES.                      PPEA001
043400                                                                  PPEA001
043500     MOVE ZERO                    TO EXEC-LIFEFLAG.               PPEA001
043600     MOVE E0356                   TO DL-FIELD.                    PPEA001
043700                                                                  PPEA001
043800     PERFORM 9050-AUDITING-RESPONSIBILITIES.                      PPEA001
043900                                                                  PPEA001
044000     MOVE E0145                   TO DL-FIELD.                    PPEA001
044100                                                                  PPEA001
044200     PERFORM 9050-AUDITING-RESPONSIBILITIES.                      PPEA001
044300                                                                  PPEA001
051900     IF  HOME-DEPT  OF PER-ROW = SPACES                           28551032
044500         PERFORM XXXX-HOME-DEPT-MAINTENANCE                       PPEA001
044600     END-IF.                                                      PPEA001
042401                                                                  36410762
044701     IF KRMI-RETURN-WITH-HALT                                     36410762
044702        GO TO 5100-IMPLIED-MAINT-MAIN-EXIT                        36410762
044703     END-IF.                                                      36410762
044704                                                                  PPEA001
044800     PERFORM XXXX-RETIREMENT-CODE.                                PPEA001
044900                                                                  PPEA001
045000     PERFORM XXXX-MARITAL-STATUS.                                 PPEA001
045100                                                                  PPEA001
045200******************************************************************PPEA001
045300**         L  A  S  T     D  A  Y    O  N     P  A  Y           **PPEA001
045400******************************************************************PPEA001
045500                                                                  PPEA001
046910     IF  LAST-DAY-ON-PAY  = XDTS-ISO-ZERO-DATE                    28521025
045700         MOVE E0189               TO DL-FIELD                     PPEA001
045800         PERFORM 9050-AUDITING-RESPONSIBILITIES                   PPEA001
045900     END-IF.                                                      PPEA001
046000                                                                  PPEA001
046100******************************************************************PPEA001
046200**             S  E  T     B  E  L  I     I  N  D               **PPEA001
046300******************************************************************PPEA001
046400                                                                  PPEA001
046500     IF  BELI-IND = SPACE                                         PPEA001
046600         MOVE '?'                 TO BELI-IND                     PPEA001
046700         MOVE E0360               TO DL-FIELD                     PPEA001
046800         PERFORM 9050-AUDITING-RESPONSIBILITIES                   PPEA001
046900     END-IF.                                                      PPEA001
047000                                                                  PPEA001
047100******************************************************************PPEA001
048500**            S  E  T     B  E  L  I     D  A  T  E  S          **16160883
047300******************************************************************PPEA001
047400                                                                  PPEA001
062110*---> For new hire, set Benefits Eligibility date (EDB 0361)      05201511
062120*---> to Hire Date (EDB 0113), and set to first of month.         05201511
062200     MOVE HIRE-DATE TO BELI-DATE                                  05201511
062201     MOVE '01' TO  BELI-DATE (9:2)                                05201511
062210*****MOVE XDTS-ISO-FIRST-OF-MONTH-DATE TO BELI-DATE               05201511
049500     MOVE E0361               TO DL-FIELD                         16160883
047900                                                                  PPEA001
048000     PERFORM 9050-AUDITING-RESPONSIBILITIES.                      PPEA001
049800                                                                  16160883
049900                                                                  16160883
050000     MOVE SCR-CURRENT-DATE TO BELI-CHANGEDATE                     16160883
050100     MOVE E0183               TO DL-FIELD                         16160883
050200                                                                  16160883
050300     PERFORM 9050-AUDITING-RESPONSIBILITIES.                      16160883
050400                                                                  16160883
048200******************************************************************PPEA001
048300** AT THIS POINT, BELI (-0360) SHOULD BE SET OR WILL BE SET TO  **PPEA001
048400** '?' BY PREVIOUS PARAGRAPH.  IF BELI EFF DATE IS NOT SET,     **PPEA001
048500** THEN DEFAULT TO EMPLOYMENT DATE AND ISSUE A 'SERIOUS' MSG.   **PPEA001
048600******************************************************************PPEA001
048700                                                                  PPEA001
048800     MOVE ZERO                    TO DL-STATUS.                   PPEA001
048900     MOVE E0341                   TO DL-FIELD.                    PPEA001
049000                                                                  PPEA001
049100     PERFORM 9085-DLSEARCH.                                       PPEA001
049200                                                                  PPEA001
049300     IF  DL-STATUS = ZEROS                                        PPEA001
049400         MOVE HIRE-DATE           TO BELI-EFF-DATE                PPEA001
049500         MOVE E0341               TO DL-FIELD                     PPEA001
049600         PERFORM 9050-AUDITING-RESPONSIBILITIES                   PPEA001
052110         MOVE BELI-EFF-DATE       TO XDC3-ISO-DATE                28521025
052120         PERFORM XDC3-CONVERT-ISO-TO-STD                          28521025
049900         ADD 1                    TO KMTA-CTR                     PPEA001
050000         MOVE DL-FIELD            TO KMTA-FIELD-NUM (KMTA-CTR)    PPEA001
050100         MOVE 06                  TO KMTA-LENGTH (KMTA-CTR)       PPEA001
052510         MOVE XDC3-STD-DATE       TO KMTA-DATA-FIELD (KMTA-CTR)   28521025
050300         MOVE ZEROS               TO KMTA-ADA-OFFSET (KMTA-CTR)   PPEA001
050400         MOVE WS-ROUTINE-TYPE     TO KMTA-ROUTINE-TYPE (KMTA-CTR) PPEA001
050500         MOVE WS-ROUTINE-NUM      TO KMTA-ROUTINE-NUM (KMTA-CTR)  PPEA001
050600         MOVE M12335              TO KMTA-MSG-NUMBER (KMTA-CTR)   PPEA001
050700     END-IF.                                                      PPEA001
050800                                                                  PPEA001
060000     PERFORM 7000-PRIORITY-GRS-CNTL.                              28551032
060100                                                                  28551032
050900     PERFORM XXXX-SEX-ETHNICITY.                                  PPEA001
051000                                                                  PPEA001
051100     SET RECHECK-EMPOLYMENT-STATUS TO TRUE.                       PPEA001
051200                                                                  PPEA001
066600*--->                                                             17851380
066700*---> The 403(b) U-balance containe the individual's 403(b)       17851380
066800*---> maximum (MAC). At the time of hiring, we set the MAC        17851380
066900*---> to the value of System Parameter 19 if the employee         17851380
067000*---> will not be 50 years of age by the end of the calendar      17851380
067100*---> year of hire, or to the value of System Parameter 20        17851380
067200*---> if the employee is or will be 50 by the end of the          17851380
067300*---> calendar year of hire.                                      17851380
067400*---> Newly-hired student employees are given a MAC of zero       17851380
067500*---> which may be manually reset once the student employee       17851380
067600*---> has developed an average hours per week value of 20 or      17851380
067700*---> more.                                                       17851380
067800     IF STUDENT-STATUS OF PER-ROW = '3' OR '4' OR '6' OR '7'      17851380
067900         MOVE ZERO TO EDSA-BALAMT (YTD-403B DSA-USER-P)           17851380
068000     ELSE                                                         17851380
068100         MOVE HIRE-DATE OF PER-ROW TO XDC3-ISO-DATE               17851380
068200         MOVE XDC3-ISO-CCYY TO WS-AGE-IN-YEARS                    17851380
068300         MOVE BIRTH-DATE OF PER-ROW TO XDC3-ISO-DATE              17851380
068400         SUBTRACT XDC3-ISO-CCYY FROM WS-AGE-IN-YEARS              17851380
068500         IF WS-AGE-IN-YEARS >= 50                                 17851380
068600             MOVE XSP-PARAM (DEFAULT-MAC-50PLUS) TO               17851380
068700                 EDSA-BALAMT (YTD-403B DSA-USER-P)                17851380
068800         ELSE                                                     17851380
068900             MOVE XSP-PARAM (DEFAULT-MAC-UNDER50) TO              17851380
069000                 EDSA-BALAMT (YTD-403B DSA-USER-P)                17851380
069100         END-IF                                                   17851380
069200     END-IF.                                                      17851380
069300*---> Audit the change to the MAC                                 17851380
069400     MOVE YTD-403B TO GTN-PNTR                                    17851380
069500     MOVE GTN-FIELD-NUM TO DL-FIELD.                              17851380
069600     PERFORM 9050-AUDITING-RESPONSIBILITIES.                      17851380
069700     MOVE ZERO TO GTN-PNTR.                                       17851380
069800*---> Whenever we change the MAC, we set the MAC Change           17851380
069900*---> Date to January 1 of the new calendar year.                 17851380
070000     MOVE XDTS-ISO-DATE-TODAY TO MAC-403B-CHGD-DATE OF BEN-ROW.   17851380
070100*---> Audit the change to the MAC Date                            17851380
070200     MOVE E0279 TO DL-FIELD.                                      17851380
070300     PERFORM 9050-AUDITING-RESPONSIBILITIES.                      17851380
060506******************************************************************32201186
060507** HERE WE MOVE EMPLOYEE-ID TO THE EXTERNAL NER-ROW.            **32201186
060508** ONLY HIRE DATES EFFECTIVE JULY 1, 1998 OR GREATER ARE        **32201186
060509** SELECTED PER EDD REQUIREMENTS.                                *32201186
060512******************************************************************32201186
060520     IF HIRE-DATE >= '1998-07-01'                                 32201186
060521        MOVE EMPLOYEE-ID OF PER-ROW TO EMPLOYEE-ID OF NER-ROW     32201186
060530        MOVE '01'  TO NER-ACTION-CODE                             32201186
060540     END-IF.                                                      32201186
051300                                                                  PPEA001
060542******************************************************************74221352
060543**   CHECK FOR UDUE RE-INSTATEMENT                               *74221352
060544******************************************************************74221352
060551     INITIALIZE PPDUEUTL-INTERFACE.                               74221352
060552     SET KDUE-RE-INSTATE-UDUE TO TRUE.                            74221352
060553     SET KDUE-MULTIPLE-UDUES TO TRUE.                             74221352
060560     PERFORM 5300-REINSTATE-UDUES                                 74221352
060570       UNTIL NOT KDUE-MULTIPLE-UDUES.                             74221352
060580                                                                  74221352
060590     IF KRMI-RETURN-WITH-HALT                                     74221352
060600     OR KRMI-RETURN-WITH-SQLCODE                                  74221352
060601        GO TO 5100-IMPLIED-MAINT-MAIN-EXIT                        74221352
060602     END-IF.                                                      74221352
060610                                                                  74221352
051301 5100-IMPLIED-MAINT-MAIN-EXIT.                                    36410762
051302     EXIT.                                                        36410762
060890                                                                  74221352
060891 5300-REINSTATE-UDUES        SECTION.                             74221352
060892******************************************************************74221352
060893*   ALL HIRES MUST BE CHECKED FOR UDUES REINSTATEMENT.           *74221352
060894*   CALL PPDUEUTL TO DETERMINE IF ANY RETAINED UDUE ENTRIES      *74221352
060895*   EXIST ON THE PPPDUE TABLE. PPDUEUTL CAN RETURN SEVERAL       *74221352
060896*   CONDITIONS:                                                  *74221352
060897*   - AN ERROR OCCURRED IN THE CALL.                             *74221352
060898*                                                                *74221352
060899*   - A ROW EXISTS MATCHING ON ID AND SSN.                       *74221352
060900*                  MATCHING ON ID ONLY.                          *74221352
060901*                  MATCHING ON SSN ONLY.                         *74221352
060902*   - A ROW EXISTS BUT HAS EXCEEDED ITS RETENTION.               *74221352
060903*   - NO ROW EXISTS.                                             *74221352
060904*                                                                *74221352
060905*   FOR THE THREE MATCHING CONDITIONS CHECK CURRENT OR FUTURE    *74221352
060906*   APPOINTMENTS FOR THE BARGAINING UNIT. IF ONE EXISTS FOR THE  *74221352
060907*   RETURNED UDUE'S BUC, RE-INSTATE THE UDUE.                    *74221352
060908*                                                                *74221352
060909*   THE EVALUATE BELOW CONSIDERS VARIOUS 88 VALUES THAT ARE NOT  *74221352
060910*   NECESSARILY MUTUALLY EXCLUSIVE. IF CHANGING THE CODE ENSURE  *74221352
060911*   ALL NECESSARY COMBINATIONS HAVE A RESULT.                    *74221352
060912******************************************************************74221352
060916     MOVE EMPLOYEE-ID OF PER-ROW TO KDUE-IN-EMPLOYEE-ID.          74221352
060917     MOVE SOC-SEC-NUM TO KDUE-IN-SOC-SEC-NUM.                     74221352
060918     MOVE HIRE-DATE TO KDUE-IN-EFF-DATE.                          74221352
060919     CALL PGM-PPDUEUTL USING PPDUEUTL-INTERFACE.                  74221352
060920                                                                  74221352
060921     EVALUATE TRUE                                                74221352
060922      WHEN (KDUE-INVALID-INPUT)                                   74221352
060923      WHEN (KDUE-INVALID-FUNCTION)                                74221352
060924******************************************************************74221352
060925*       CALL FAILED. BAD DATA PASSED.                            *74221352
060926******************************************************************74221352
060927        ADD 1                TO KMTA-CTR                          74221352
060928        MOVE M12359          TO KMTA-MSG-NUMBER   (KMTA-CTR)      74221352
060929        MOVE WS-ROUTINE-TYPE TO KMTA-ROUTINE-TYPE (KMTA-CTR)      74221352
060930        MOVE WS-ROUTINE-NUM  TO KMTA-ROUTINE-NUM  (KMTA-CTR)      74221352
060931        SET KRMI-RETURN-WITH-HALT TO TRUE                         74221352
060932      WHEN (KDUE-NEGATIVE-SQL)                                    74221352
060933******************************************************************74221352
060934*       SQL ERROR IN PPDUEUTL                                    *74221352
060935******************************************************************74221352
060936        ADD 1                TO KMTA-CTR                          74221352
060937        MOVE M12359          TO KMTA-MSG-NUMBER   (KMTA-CTR)      74221352
060938        MOVE WS-ROUTINE-TYPE TO KMTA-ROUTINE-TYPE (KMTA-CTR)      74221352
060939        MOVE WS-ROUTINE-NUM  TO KMTA-ROUTINE-NUM  (KMTA-CTR)      74221352
060940        SET KRMI-RETURN-WITH-SQLCODE TO TRUE                      74221352
060941      WHEN (KDUE-NO-MATCH)                                        74221352
060942******************************************************************74221352
060943*       NO RETAINED UDUES FOUND.                                 *74221352
060944******************************************************************74221352
060945        CONTINUE                                                  74221352
060946      WHEN (KDUE-RETENTION-EXCEEDED)                              74221352
060947      WHEN (KDUE-UDUE-NOT-RETAINED)                               74221352
060948      WHEN (KDUE-UDUE-NOT-FOUND)                                  74221352
060949******************************************************************74221352
060950*       RETENTION PERIOD EXCEEDED OR GTN NO LONGER RETAINED.     *74221352
060951******************************************************************74221352
060952        ADD 1                TO KMTA-CTR                          74221352
060953        MOVE M12358          TO KMTA-MSG-NUMBER   (KMTA-CTR)      74221352
060954        MOVE WS-ROUTINE-TYPE TO KMTA-ROUTINE-TYPE (KMTA-CTR)      74221352
060955        MOVE WS-ROUTINE-NUM  TO KMTA-ROUTINE-NUM  (KMTA-CTR)      74221352
060956        MOVE 6               TO KMTA-LENGTH       (KMTA-CTR)      74221352
060957        MOVE KDUE-OUT-BUC    TO WS-REF-BUC                        74221352
060958        MOVE KDUE-OUT-GTN-NUMBER TO WS-REF-GTN                    74221352
060959        MOVE WS-REF-DISPLAY  TO KMTA-DATA-FIELD   (KMTA-CTR)      74221352
060963      WHEN OTHER                                                  74221352
060964******************************************************************74221352
079900*       RETAINED UDUE FOUND.                                     *04151489
080000*       The condition that employee must come back with a current*04151489
080100*       or future appointment with a Title Code covered by the   *04151489
080110*       appropriate Bargaining Unit identified on PPPDUE  Table  *04151489
080120*       has been removed.                                        *04151489
080130*****                                                          CD 05201511
060985            IF EDSA-BALAMT (KDUE-OUT-GTN-NUMBER, DSA-GTN-P) > 0   74221352
060986******************************************************************74221352
060987*              IF A DEDUCTION WAS EXPLICITLY ENTERED DURING THE  *74221352
060988*              HIRE/REHIRE DO NOT OVERLAY IT.                    *74221352
060989******************************************************************74221352
060990               ADD 1           TO KMTA-CTR                        74221352
060991               MOVE M12357     TO KMTA-MSG-NUMBER   (KMTA-CTR)    74221352
060992               MOVE WS-ROUTINE-TYPE                               74221352
060993                               TO KMTA-ROUTINE-TYPE (KMTA-CTR)    74221352
060994               MOVE WS-ROUTINE-NUM                                74221352
060995                               TO KMTA-ROUTINE-NUM  (KMTA-CTR)    74221352
060996               MOVE 6          TO KMTA-LENGTH       (KMTA-CTR)    74221352
060998               MOVE KDUE-OUT-BUC    TO WS-REF-BUC                 74221352
060999               MOVE KDUE-OUT-GTN-NUMBER TO WS-REF-GTN             74221352
061000               MOVE WS-REF-DISPLAY TO KMTA-DATA-FIELD (KMTA-CTR)  74221352
061001            ELSE                                                  74221352
061002******************************************************************74221352
061003*              RE-INSTATE THE UDUE                               *74221352
061004******************************************************************74221352
061005               MOVE KDUE-OUT-GTN-AMOUNT TO                        74221352
061006                    EDSA-BALAMT (KDUE-OUT-GTN-NUMBER, DSA-GTN-P)  74221352
061007               ADD 1           TO KMTA-CTR                        74221352
061008               MOVE M12354     TO KMTA-MSG-NUMBER   (KMTA-CTR)    74221352
061009               MOVE WS-ROUTINE-TYPE                               74221352
061010                               TO KMTA-ROUTINE-TYPE (KMTA-CTR)    74221352
061011               MOVE WS-ROUTINE-NUM                                74221352
061012                               TO KMTA-ROUTINE-NUM  (KMTA-CTR)    74221352
061013               MOVE 6          TO KMTA-LENGTH       (KMTA-CTR)    74221352
061015               MOVE KDUE-OUT-BUC    TO WS-REF-BUC                 74221352
061016               MOVE KDUE-OUT-GTN-NUMBER TO WS-REF-GTN             74221352
061017               MOVE WS-REF-DISPLAY TO KMTA-DATA-FIELD (KMTA-CTR)  74221352
061018******************************************************************74221352
061019*              ESTABLISH AN EFFECTIVE DATE IF REQUIRED.          *74221352
061020******************************************************************74221352
061021               IF BRSC-EFFDT-ICED-IND (KDUE-OUT-GTN-NUMBER) = 'V' 74221352
061022                  MOVE HIRE-DATE TO                               74221352
061023                       EBSA-DED-EFF-DATE (KDUE-OUT-GTN-NUMBER)    74221352
061024               END-IF                                             74221352
061025******************************************************************74221352
061026*              PERFORM AUDITING RESPONSIBILITIES FOR THE GTN.    *74221352
061027******************************************************************74221352
061028               MOVE KDUE-OUT-GTN-NUMBER TO GTN-PNTR               74221352
061029               MOVE GTN-FIELD-NUM TO DL-FIELD                     74221352
061030               PERFORM 9050-AUDITING-RESPONSIBILITIES             74221352
061031               MOVE ZERO TO GTN-PNTR                              74221352
061032            END-IF                                                74221352
086500*****                                                          CD 05201511
061050     END-EVALUATE.                                                74221352
060900*                                                                 28551032
061000**************************************************************/   28551032
061100 7000-PRIORITY-GRS-CNTL  SECTION.                                 28551032
061200**************************************************************/   28551032
061300* WHEN PARS EXIST FOR EMPLOYEE ID, RESET THE EDB (PCM-ROW) PAR    28551032
061400* CONTROL NUMBER TO A VALUE ONE HIGHER THAN THAT ON THE PAR.      28551032
061500**************************************************************/   28551032
061600     MOVE EMPLOYEE-ID  OF PER-ROW  TO WS-UNIQUE-EMPLOYEE-ID.      28551032
061700     PERFORM 7010-OPEN-EUD-CURS                                   28551032
061800     IF SQLCODE  NOT = ZERO                                       28551032
061900         GO TO 7000-EXIT                                          28551032
062000     END-IF.                                                      28551032
062100     PERFORM 7020-FETCH-EUD-CURS                                  28551032
062200     IF SQLCODE  NOT = ZERO                                       28551032
062300* *       NO PAR RECORDS EXIST FOR THE EMPLOYEE ID; THIS IS       28551032
062400* *       NORMAL FOR A NEW HIRE SO NOTHING MORE NEEDS DOING.      28551032
062500         PERFORM 7030-CLOSE-EUD-CURS                              28551032
062600         GO TO 7000-EXIT                                          28551032
062700     END-IF.                                                      28551032
062800     PERFORM  UNTIL SQLCODE  NOT = ZERO                           28551032
062900* *     SAVE THE HIGHEST "PAR CONTROL NUMBER" ON THE PAR          28551032
063000         MOVE PRI-GROSS-CTL  OF EUD-ROW  TO WS-SAVE-PRI-GROSS-CTL 28551032
063100         PERFORM 7020-FETCH-EUD-CURS                              28551032
063200     END-PERFORM.                                                 28551032
063300     IF WS-SAVE-PRI-GROSS-CTL  NUMERIC                            28551032
063400         ADD 1  TO WS-SAVE-PRI-GROSS-CTL-9                        28551032
063500         MOVE      WS-SAVE-PRI-GROSS-CTL-9                        28551032
063600                        TO PRI-GROSS-CTL  OF PCM-ROW              28551032
063700         MOVE E0151               TO DL-FIELD                     28551032
063800         PERFORM 9050-AUDITING-RESPONSIBILITIES                   28551032
063900     END-IF.                                                      28551032
064000     PERFORM 7030-CLOSE-EUD-CURS.                                 28551032
064100 7000-EXIT.      EXIT.                                            28551032
064200*                                                                 28551032
064300**************************************************************    28551032
064400 7010-OPEN-EUD-CURS  SECTION.                                     28551032
064500**************************************************************    28551032
064600*    OPEN THE EUD CURSOR.                                    *    28551032
064700**************************************************************    28551032
064800     MOVE 'OPEN EUD CUR' TO DB2MSG-TAG.                           28551032
064900     EXEC SQL                                                     28551032
065000          OPEN EUD-CURSOR                                         28551032
065100     END-EXEC.                                                    28551032
065200 7010-EXIT.    EXIT.                                              28551032
065300                                                                  28551032
065400 7020-FETCH-EUD-CURS  SECTION.                                    28551032
065500**************************************************************    28551032
065600*    FETCH THE EUD CURSOR.                                   *    28551032
065700**************************************************************    28551032
065800     MOVE 'FETCH EUD CUR' TO DB2MSG-TAG.                          28551032
065900     EXEC SQL                                                     28551032
066000          FETCH EUD-CURSOR INTO                                   28551032
066100               :EUD-ROW.EMPLOYEE-ID                               28551032
066200              ,:EUD-ROW.PRI-GROSS-CTL                             28551032
066300     END-EXEC.                                                    28551032
066400 7020-EXIT.    EXIT.                                              28551032
066500                                                                  28551032
066600 7030-CLOSE-EUD-CURS SECTION.                                     28551032
066700**************************************************************    28551032
066800*    CLOSE THE EUD CURSOR.                                   *    28551032
066900**************************************************************    28551032
067000     MOVE 'CLOSE EUD CUR' TO DB2MSG-TAG.                          28551032
067100     EXEC SQL                                                     28551032
067200         CLOSE EUD-CURSOR                                         28551032
067300     END-EXEC.                                                    28551032
067400 7030-EXIT.    EXIT.                                              28551032
067500                                                                  28551032
051400     EJECT                                                        PPEA001
051500*----------------------------------------------------------------*PPEA001
051600 9050-AUDITING-RESPONSIBILITIES  SECTION.                         PPEA001
051700*----------------------------------------------------------------*PPEA001
051800                                                                  PPEA001
051900*                                                 *-------------* PPEA001
052000                                                   COPY CPPDXDEC. PPEA001
052100*                                                 *-------------* PPEA001
052200                                                                  PPEA001
052300     EJECT                                                        PPEA001
052400*----------------------------------------------------------------*PPEA001
052500 9060-APPT-DIST-LOC-CALCULATION  SECTION.                         PPEA001
052600*----------------------------------------------------------------*PPEA001
052700                                                                  PPEA001
052800*                                                 *-------------* PPEA001
052900                                                   COPY CPPDADLC. PPEA001
053000*                                                 *-------------* PPEA001
053100                                                                  PPEA001
053200     EJECT                                                        PPEA001
054100*----------------------------------------------------------------*PPEA001
054200 9300-DATE-CONVERSION-DB2  SECTION.                               PPEA001
054300*----------------------------------------------------------------*PPEA001
054400                                                                  PPEA001
054500*                                                 *-------------* PPEA001
057110                                                   COPY CPPDXDC3. 28521025
054700*                                                 *-------------* PPEA001
054800                                                                  PPEA001
054900     EJECT                                                        PPEA001
055000*--------------------------------------------------------------** PPEA001
055100 XXXX-HOME-DEPT-MAINTENANCE  SECTION.                             PPEA001
055200*--------------------------------------------------------------** PPEA001
055300******************************************************************PPEA001
071700** IF HOME DEPARTMENT NUMBER IS ZERO, USE THE FULL ACCOUNTING  ,**32021138
071800** UNIT OF THE FIRST NON-ZERO DISTRIBUTION FOR AN EMPLOYEE      **32021138
055600** TO OBTAIN THE HOME DEPARTMENT NUMBER FROM THE ACCOUNT-FUND   **PPEA001
055700** PROFILE.                                                     **PPEA001
055800******************************************************************PPEA001
055900                                                                  PPEA001
056000*                                                 *-------------* PPEA001
056100                                                   COPY CPPDHDPT. PPEA001
056200*                                                 *-------------* PPEA001
056300                                                                  PPEA001
056400*                                                 *-------------* PPEA001
056500                                                   COPY CPPDXMAM. PPEA001
056600*                                                 *-------------* PPEA001
056700                                                                  PPEA001
073100******************************************************************28551032
073200*999999-SQL-ERROR.                                               *28551032
073300******************************************************************28551032
073400*    THIS CODE IS EXECUTED IF A NEGATIVE SQLCODE IS RETURNED     *28551032
073500******************************************************************28551032
073600     EXEC SQL                                                     28551032
073700          INCLUDE CPPDXP99                                        28551032
073800     END-EXEC.                                                    28551032
073900     SET KRMI-RETURN-WITH-SQLCODE  TO TRUE.                       28551032
074000*                                                                 28551032
074100     GOBACK.                                                      28551032
074200*                                                                 28551032
056800******************************************************************PPEA001
056900**   E N D  S O U R C E   ----  PPEA001 ----                    **PPEA001
057000******************************************************************PPEA001
