000000**************************************************************/   52011307
000001*  PROGRAM: PPEC133                                          */   52011307
000002*  RELEASE: ___1307______ SERVICE REQUEST(S): ____15201____  */   52011307
000003*  NAME:_______QUAN______ MODIFICATION DATE:  ___09/06/00__  */   52011307
000004*  DESCRIPTION:                                              */   52011307
000005*  - DON'T ISSUE MESSAGE 08-005 WHEN ONLY MEDICAL COVERAGE   */   52011307
000006*    END DATE IS CHANGED AND BELI INDICATES THAT EMPLOYEE    */   52011307
000007*    IS NO LONGER ELIGIBLE FOR MEDICAL PLAN.                 */   52011307
000008**************************************************************/   52011307
000000**************************************************************/   54541281
000001*  PROGRAM: PPEC133                                          */   54541281
000002*  RELEASE: ___1281______ SERVICE REQUEST(S): ____15454____  */   54541281
000003*  NAME:_______QUAN______ MODIFICATION DATE:  ___06/16/99__  */   54541281
000004*  DESCRIPTION:                                              */   54541281
000005*  -  ADDED EDIT FOR MEDICAL COVERAGE END DATE.              */   54541281
000006*  -  CHANGED LOGIC FOR OPT-OUT AND EXPLICIT CANCEL. CANNOT  */   54541281
000007*     BLANK OUT THE PLAN DATA TO OPT-OUT OR CANCEL. MUST     */   54541281
000008*     ENTER 'XX' TO OPT-OUT OF THE PLAN, OR 'XC' TO CANCEL   */   54541281
000009*     THE PLAN.                                              */   54541281
000010**************************************************************/   54541281
000000**************************************************************/   28521025
000001*  PROGRAM: PPEC133                                          */   28521025
000002*  RELEASE: ___1025______ SERVICE REQUEST(S): ____12852____  */   28521025
000003*  NAME:_______QUAN______ MODIFICATION DATE:  ___08/27/95__  */   28521025
000004*  DESCRIPTION:                                              */   28521025
000005*  - DATE CONVERSION PROJECT:                                */   28521025
000006*    THE NAMES REFERENCED FROM COPYMEMBER CPWSXDTS HAVE      */   28521025
000007*    BEEN CHANGED TO THE NEW NAMES IN CPWSXDTS.              */   28521025
000010**************************************************************/   28521025
000000**************************************************************/   16100906
000001*  PROGRAM: PPEC133                                          */   16100906
000002*  RELEASE: ___0906______ SERVICE REQUEST(S): ____11610____  */   16100906
000003*  NAME:_______QUAN______ CREATION DATE:      ___05/24/94__  */   16100906
000004*  DESCRIPTION:                                              */   16100906
000005*  -  CONEDITS FOR PROCESS 08 WAS MOVED FROM MODULE PPEC102  */   16100906
000006*     TO THIS MODULE.                                        */   16100906
000007**************************************************************/   16100906
001100                                                                  PPEC133
001200 IDENTIFICATION DIVISION.                                         PPEC133
001300 PROGRAM-ID. PPEC133.                                             PPEC133
001400 AUTHOR. UCOP.                                                    PPEC133
001500 INSTALLATION. UNIVERSITY OF CALIFORNIA.                          PPEC133
001600                                                                  PPEC133
001700 DATE-WRITTEN.  MAY, 1994.                                        PPEC133
001800 DATE-COMPILED.                                                   PPEC133
001900                                                                  PPEC133
002000                                                                  PPEC133
002100******************************************************************PPEC133
002200** THIS MODULE EDITS MEDICAL PLAN CODE AND MEDICAL COVER  EFFECT**PPEC133
002300** DATE FOR COMPLETENESS.                                       **PPEC133
002310**                                                              **PPEC133
002320** THIS MODULE HAS BEEN CLONED FROM PPEC131, WHICH IS OBSOLETE. **PPEC133
002330** PPEC131 HAS BEEN SPLIT OUT INTO 4 DIFFERENT MODULES, ONE EACH**PPEC133
002340** FOR MEDICAL, DENTAL, OPTICAL, AND OPTICAL PLANS.             **PPEC133
002350**                                                              **PPEC133
002360** CONEDITS FOR PROCESS 08 IN PPEC102 IS MOVED TO THIS MODULE   **PPEC133
002370** FOR PROCESS 08 TRIGGERING WHILE ITS                          **PPEC133
002380** ASSOCIATIVE MODULE PPEC102(MEDICAL EDITS) IS TRIGGERED FOR  ** PPEC133
002390** PROCESS 12 ONLY. THUS, ONLY CON-EDITS FOR PROCESS 08 THAT    **PPEC133
002391** WERE IN PPEC102 HAVE BEEN MOVED TO THIS MODULE.              **PPEC133
002392******************************************************************PPEC133
002400                                                                  PPEC133
002500 ENVIRONMENT DIVISION.                                            PPEC133
002600 CONFIGURATION SECTION.                                           PPEC133
002700 SOURCE-COMPUTER.                                  COPY CPOTXUCS. PPEC133
002800 OBJECT-COMPUTER.                                  COPY CPOTXOBJ. PPEC133
002900 SPECIAL-NAMES.                C01 IS NEW-PAGE.                   PPEC133
003000                                                                  PPEC133
003100 INPUT-OUTPUT SECTION.                                            PPEC133
003200 FILE-CONTROL.                                                    PPEC133
003300                                                                  PPEC133
003400 DATA DIVISION.                                                   PPEC133
003500 FILE SECTION.                                                    PPEC133
003600     EJECT                                                        PPEC133
003700*----------------------------------------------------------------*PPEC133
003800 WORKING-STORAGE SECTION.                                         PPEC133
003900*----------------------------------------------------------------*PPEC133
004000                                                                  PPEC133
004100 01  A-STND-PROG-ID                   PIC X(15) VALUE             PPEC133
004200*****                                                          CD 52011307
004220*****'PPEC133 /061599'.                                           52011307
004230     'PPEC133 /091000'.                                           52011307
004300                                                                  PPEC133
004400 01  A-STND-MSG-PARMS                 REDEFINES                   PPEC133
004500     A-STND-PROG-ID.                                              PPEC133
004600     05  FILLER                       PIC X(03).                  PPEC133
004700     05  WS-ROUTINE-TYPE              PIC X(01).                  PPEC133
004800     05  WS-ROUTINE-NUM               PIC 9(03).                  PPEC133
004900     05  FILLER                       PIC X(08).                  PPEC133
005000                                                                  PPEC133
005100 01  MESSAGES-USED.                                               PPEC133
005200     05  M08005                       PIC X(05) VALUE '08005'.    PPEC133
005201     05  M08303                       PIC X(05) VALUE '08303'.    PPEC133
005202*****                                                          CD 52011307
005203     05  M08305                       PIC X(05) VALUE '08305'.    PPEC133
005210     05  M08494                       PIC X(05) VALUE '08494'.    PPEC133
005300     05  M08517                       PIC X(05) VALUE '08517'.    PPEC133
005400     05  M08518                       PIC X(05) VALUE '08518'.    PPEC133
005500     05  M08545                       PIC X(05) VALUE '08545'.    54541281
005510     05  M08547                       PIC X(05) VALUE '08547'.    54541281
005520     05  M08554                       PIC X(05) VALUE '08554'.    54541281
005600     05  M08565                       PIC X(05) VALUE '08565'.    54541281
005700     05  M08566                       PIC X(05) VALUE '08566'.    54541281
005710     05  M08568                       PIC X(05) VALUE '08568'.    54541281
005720     05  M08579                       PIC X(05) VALUE '08579'.    54541281
005800     05  M12545                       PIC X(05) VALUE '12545'.    54541281
005810     05  M12547                       PIC X(05) VALUE '12547'.    54541281
005820     05  M12554                       PIC X(05) VALUE '12554'.    54541281
006000     05  M12566                       PIC X(05) VALUE '12566'.    54541281
006100     05  M12568                       PIC X(05) VALUE '12568'.    54541281
006200     05  M12579                       PIC X(05) VALUE '12579'.    54541281
006400                                                                  PPEC133
006500 01  ELEMENTS-USED.                                               PPEC133
006600******************************************************************PPEC133
006700**   THE FOLLOWING ELEMENTS ARE DEFINED IN COPY MEMBER CPWSBZAP **PPEC133
006800**   BELOW:                                                     **PPEC133
006900**--------------------------------------------------------------**PPEC133
007220**   05  E0292                        PIC 9(04) VALUE 0292.     **PPEC133
007240**   05  E0294                        PIC 9(04) VALUE 0294.     **PPEC133
007250**   05  E0300                        PIC 9(04) VALUE 0300.     **54541281
007298**   05  E0653                        PIC 9(04) VALUE 0653.     **PPEC133
007300******************************************************************PPEC133
007400     05  E0377                        PIC 9(04) VALUE 0377.       PPEC133
007410     05  E0695                        PIC 9(04) VALUE 0695.       54541281
007500                                                                  PPEC133
007600 01  MISC-WORK-AREAS.                                             PPEC133
007700     05  FIRST-TIME-SW                PIC X(01) VALUE LOW-VALUES. PPEC133
007800         88  THIS-IS-THE-FIRST-TIME             VALUE LOW-VALUES. PPEC133
007900         88  NOT-THE-FIRST-TIME                 VALUE 'Y'.        PPEC133
007901                                                                  54541281
007902     05  WS-HEALTH-COVEND-LI       PIC S9(9) COMP  VALUE ZERO.    54541281
007903     05  WS-FUT-HLTH-COVEFF-LI     PIC S9(9) COMP  VALUE ZERO.    54541281
007904     05  WS-FUT-HLTH-COVEFF-LESS-1 PIC X(10) VALUE '0001-01-01'.  54541281
007905     05  WS-DAYS-DIFF              PIC S9(9) COMP  VALUE ZERO.    54541281
007906     05  OCUR-X                PIC S9(04) COMP VALUE ZEROS.       54541281
007907     05  FAST-X                PIC S9(04) COMP VALUE ZEROS.       54541281
007908     05  OK-START-X            PIC S9(04) COMP VALUE ZEROS.       54541281
007909     05  OK-BYTE-X             PIC S9(04) COMP VALUE ZEROS.       54541281
007910     05  SAVE-KMTA-CTR         PIC S9(03).                        54541281
007911     05  FCB-OCCURRENCE-KEY.                                      54541281
007912         10  FCB-OCUR-FCB-BENEFIT-TYPE                            54541281
007913                               PIC X(01)  VALUE SPACES.           54541281
007914         10  FCB-OCUR-FCB-COVEFF-DATE                             54541281
007915                               PIC X(10)  VALUE SPACES.           54541281
007916         10  FILLER            PIC X(07)  VALUE SPACES.           54541281
007917     05  SEARCH-ARGUMENTS.                                        54541281
007918         10  SEARCH-ELMT       PIC X(04)  VALUE ZEROS.            54541281
007919         10  SEARCH-TRAN       PIC X(02)  VALUE SPACES.           54541281
007920         10  SEARCH-OCCURRENCE-KEY.                               54541281
007921             15  SEARCH-OCCURRENCE-KEY-BYTE                       54541281
007922                               PIC X(01)  OCCURS 18.              54541281
007923         10  SEARCH-FCB-BEN-TYPE    PIC X(01)  VALUE SPACES.      54541281
007924         10  SEARCH-FCB-COVEFF-DATE PIC X(10)  VALUE SPACES.      54541281
007925     05  WS-FCB-HEALTH-SW       PIC X(01).                        54541281
007926         88  FCB-HEALTH-FOUND   VALUE 'Y'.                        54541281
007930         88  FCB-HEALTH-NOT-FOUND VALUE 'N'.                      54541281
008000     05  ENTRY-X                PIC S9(04) COMP VALUE ZEROS.      54541281
008010     05  ENTRY-HOLD             PIC S9(04) COMP VALUE ZEROS.      54541281
008100     05  NUM-EFCB-ENTRIES       PIC S9(04) COMP VALUE ZEROS.      54541281
008200     05  INIT-EFCB-KEY.                                           54541281
008300         10  INIT-EFCB-BEN-TYPE    PIC  X(01) VALUE SPACE.        54541281
008400         10  INIT-EFCB-COVEFFDATE  PIC  X(10) VALUE '0001-01-01'. 54541281
008500     EJECT                                                        54541281
008600 01  XMST-MESSAGE-SEVERIT-TABLE.                   COPY CPWSXMST. 54541281
008700                                                                  PPEC133
008720 01  SYSTEM-PARAMETER-NUMBERS-USED.                               PPEC133
008730     05  OPT-OUT-ENROLLMENT-PARM-NO   PIC S9(03) COMP-3 VALUE +66.PPEC133
008740                                                                  PPEC133
008750 01  SYSTEM-PARAMETER-VALUES-USED.                                PPEC133
008760     05  OPT-OUT-ENROLLMENT-SW        PIC 9(02) VALUE 0.          PPEC133
008770         88  NOT-OPT-OUT-ENROLLMENT             VALUE 0.          PPEC133
008780         88  OPT-OUT-ENROLLMENT                 VALUE 1.          PPEC133
008800     EJECT                                                        PPEC133
008810 01  INIT-DCED-LINKAGE.                            COPY CPWSDCED. PPEC133
008820                                                                  PPEC133
008830     EJECT                                                        PPEC133
008900 01  DL-FIELD-WORK-AREA.                           COPY CPWSXDLS. PPEC133
009000                                                                  PPEC133
009100     EJECT                                                        PPEC133
009210 01  DATE-CONVERSION-WORK-AREAS.                   COPY CPWSXDC3. 28521025
009300                                                                  PPEC133
009400     EJECT                                                        PPEC133
009500 01  XWHC-COMPILE-WORK-AREA.                       COPY CPWSXWHC. PPEC133
009600                                                                  PPEC133
009700     EJECT                                                        PPEC133
009800 01  COLUMN-88-WORK.                               COPY CPWSW88S. PPEC133
009900                                                                  PPEC133
010000     EJECT                                                        PPEC133
010400 01  APPT-DIST-LOC-WORK-AREAS.                     COPY CPWSADLC. PPEC133
010500                                                                  PPEC133
010600     EJECT                                                        PPEC133
010700 01  INSTALLATION-DEPENDT-CONSTANTS.               COPY CPWSXIDC. PPEC133
010800                                                                  PPEC133
010900     EJECT                                                        PPEC133
011000 01  ZAP-BENEFIT-ELEMENTS-USED.                    COPY CPWSBZAP. PPEC133
011100                                                                  PPEC133
011200     EJECT                                                        PPEC133
011300******************************************************************PPEC133
011400**     E  X  T  E  R  N  A  L  S      S  E  C  T  I  O  N       **PPEC133
011500**--------------------------------------------------------------**PPEC133
011600** THE FOLLOWING EXTERNAL AREAS WILL BE USED BY OTHER PROCESSES **PPEC133
011700******************************************************************PPEC133
011800                                                                  PPEC133
011820 01  ONLINE-SIGNALS                      EXTERNAL. COPY CPWSONLI. 54541281
011830     EJECT                                                        54541281
011840                                                                  54541281
011900 01  DATA-ELEMENT-CHANGE-INDICATORS      EXTERNAL. COPY CPWSXDEC. PPEC133
012000                                                                  PPEC133
012100     EJECT                                                        PPEC133
012200 01  XCSS-COMMON-SYSTEM-SWITCHES         EXTERNAL. COPY CPWSSWCH. PPEC133
012300                                                                  PPEC133
012400     EJECT                                                        PPEC133
012500 01  XDTS-COMMON-SYSTEM-DATES            EXTERNAL. COPY CPWSXDTS. PPEC133
012600                                                                  PPEC133
012700     EJECT                                                        PPEC133
012800 01  ECES-CON-EDIT-SWITCH                EXTERNAL. COPY CPWSECES. PPEC133
012900                                                                  PPEC133
013000 01  EGES-GTN-EDIT-SWITCH                EXTERNAL. COPY CPWSEGES. PPEC133
013100                                                                  PPEC133
013200 01  EIMS-IMPL-MAINT-SWITCH              EXTERNAL. COPY CPWSEIMS. PPEC133
013300                                                                  PPEC133
013400 01  EAXD-APPT-ARRAY-SWITCH              EXTERNAL. COPY CPWSEAXD. PPEC133
013500                                                                  PPEC133
013600     EJECT                                                        PPEC133
013700 01  XDER-DATA-ELMT-RTN-POINTERS         EXTERNAL. COPY CPWSXDER. PPEC133
013800                                                                  PPEC133
013900     EJECT                                                        PPEC133
014000 01  XDRT-DET-ROUTINE-TRIGGERS           EXTERNAL. COPY CPWSXDRT. PPEC133
014100                                                                  PPEC133
014200     EJECT                                                        PPEC133
014300 01  EDB-MAINTENANCE-PASS-AREA           EXTERNAL. COPY CPWSEMPA. PPEC133
014400                                                                  PPEC133
014410     EJECT                                                        PPEC133
014420 01  SYSTEM-PARAMETERS                   EXTERNAL. COPY CPWSXSP2. PPEC133
014421                                                                  54541281
014422     EJECT                                                        54541281
014423 01  CPWSSEVX                            EXTERNAL. COPY CPWSSEVX. 54541281
014424                                                                  54541281
014425     EJECT                                                        54541281
014426 01  CPWSXOCC                            EXTERNAL. COPY CPWSXOCC. 54541281
014427                                                                  54541281
014428     EJECT                                                        54541281
014429 01  OCCURRENCE-KEY-TABLE                EXTERNAL. COPY CPWSXOKT. 54541281
014430                                                                  54541281
014431     EJECT                                                        54541281
014440 01  PPPFCB-ARRAY                        EXTERNAL. COPY CPWSEFCB. 54541281
014450                                                                  54541281
014460     EJECT                                                        54541281
014470 01  PPPFCB-ARRAY-HOLD                   EXTERNAL.                54541281
014480                                                   COPY CPWSEFCB  54541281
014490     REPLACING EFCB-FUTURE-BENEFITS-COV-DATA                      54541281
014491                           BY HOLD-FCB-FUTURE-BEN-COV-DATA        54541281
014492               EFCB-OCCURRENCE-KEY      BY HOLD-FCB-OCCURRENCE-KEY54541281
014493               EFCB-FCB-BENEFIT-TYPE    BY HOLD-FCB-BENEFIT-TYPE  54541281
014494               EFCB-FCB-COVEFF-DATE     BY HOLD-FCB-COVEFF-DATE   54541281
014495               EFCB-FCB-COV-END-DATE    BY HOLD-FCB-COV-END-DATE  54541281
014496               EFCB-FCB-COVERAGE-CODE   BY HOLD-FCB-COVERAGE-CODE 54541281
014497               EFCB-NON-KEY-DATA        BY HOLD-FCB-NON-KEY-DATA  54541281
014498               EFCB-FCB-PLAN-INFO-DATA  BY HOLD-FCB-PLAN-INFO-DATA54541281
014499               EFCB-FCB-ENRL-REAS-CODE  BY HOLD-FCB-ENRL-REAS-CODE54541281
014500               EFCB-FCB-ADC-CODE        BY HOLD-FCB-ADC-CODE.     54541281
014500     EJECT                                                        PPEC133
014600******************************************************************PPEC133
014700**  DATA BASE AREAS                                             **PPEC133
014800******************************************************************PPEC133
014900                                                                  PPEC133
015000 01  SCR-ROW                             EXTERNAL.                PPEC133
015100     EXEC SQL INCLUDE PPPVSCR1 END-EXEC.                          PPEC133
015200                                                                  PPEC133
015210     EJECT                                                        PPEC133
015220 01  BEL-ROW                             EXTERNAL.                PPEC133
015230     EXEC SQL INCLUDE PPPVBEL1 END-EXEC.                          PPEC133
015240                                                                  PPEC133
015300     EJECT                                                        PPEC133
015800 01  BEN-ROW                             EXTERNAL.                PPEC133
015900     EXEC SQL INCLUDE PPPVBEN1 END-EXEC.                          PPEC133
016000                                                                  PPEC133
016100     EJECT                                                        PPEC133
016600******************************************************************PPEC133
016700**  DATA BASE SAVE AREAS                                        **PPEC133
016800******************************************************************PPEC133
016900                                                                  PPEC133
017000 01  BEN-ROW-HOLD                        EXTERNAL. COPY CPWSRBEN  PPEC133
017100                                                                  PPEC133
017110         REPLACING  HLTH-OPTOUT       BY SAVE-HLTH-OPTOUT         PPEC133
017120                    HLTH-PLAN         BY SAVE-HLTH-PLAN           PPEC133
017130                    HLTH-COVERCODE    BY SAVE-HLTH-COVERCODE      PPEC133
017140                    HLTH-COVEFFDATE   BY SAVE-HLTH-COVEFFDATE     PPEC133
017141                    HEALTH-COVEND-DATE BY SAVE-HEALTH-COVEND-DATE 54541281
017141                    EMP-HLTH-COVEFFDT BY SAVE-EMP-HLTH-COVEFFDT   PPEC133
017142                    MED-PROVIDER-ID   BY SAVE-MED-PROVIDER-ID     PPEC133
017150                    ADD-COVERAGE      BY SAVE-ADD-COVERAGE        PPEC133
017160                    ADD-PRINC-SUM     BY SAVE-ADD-PRINC-SUM       PPEC133
017170                    ADD-COVEFFDATE    BY SAVE-ADD-COVEFFDATE      PPEC133
017180                    EPD-SALARY-BASE   BY SAVE-EPD-SALARY-BASE     PPEC133
017190                    EPD-WAIT-PERIOD   BY SAVE-EPD-WAIT-PERIOD     PPEC133
017191                    EPD-COVRGE-DATE   BY SAVE-EPD-COVRGE-DATE     PPEC133
017192                    DENTAL-PLAN       BY SAVE-DENTAL-PLAN         PPEC133
017193                    DENTAL-COVERAGE   BY SAVE-DENTAL-COVERAGE     PPEC133
017194                    DENTAL-COVEFFDATE BY SAVE-DENTAL-COVEFFDATE   PPEC133
017195                    DENTAL-COVEND-DATE BY SAVE-DENTAL-COVEND-DATE 54541281
017195                    EMP-DENTL-COVEFFDT BY SAVE-EMP-DENTL-COVEFFDT PPEC133
017196                    DEN-PROVIDER-ID   BY SAVE-DEN-PROVIDER-ID     PPEC133
017197                    VIS-PLAN          BY SAVE-VIS-PLAN            PPEC133
017198                    VIS-COVERAGE      BY SAVE-VIS-COVERAGE        PPEC133
017199                    VIS-COVEFFDATE    BY SAVE-VIS-COVEFFDATE      PPEC133
017201                    VISION-COVEND-DATE BY SAVE-VISOPN-COVEND-DATE 54541281
017200                    EMP-VIS-COVEFFDT  BY SAVE-EMP-VIS-COVEFFDT    PPEC133
017201                    LEGAL-PLAN        BY SAVE-LEGAL-PLAN          PPEC133
017210                    LEGAL-COVERAGE    BY SAVE-LEGAL-COVERAGE      PPEC133
019001                    LEGAL-COVEFFDATE  BY SAVE-LEGAL-COVEFFDATE    PPEC133
019002                    LEGAL-COVEND-DATE BY SAVE-LEGAL-COVEND-DATE   54541281
019003                    NXT-FUTBEN-ACT-DTE BY SAVE-NXT-FUTBEN-DTE     54541281
019010                    EMP-LEGAL-COVEFFDT BY SAVE-EMP-LEGAL-COVEFFDT.PPEC133
019100                                                                  PPEC133
019200     EJECT                                                        PPEC133
019300******************************************************************PPEC133
019400**          L  I  N  K  A  G  E      S  E  C  T  I  O  N        **PPEC133
019500******************************************************************PPEC133
019600                                                                  PPEC133
019700*----------------------------------------------------------------*PPEC133
019800 LINKAGE SECTION.                                                 PPEC133
019900*----------------------------------------------------------------*PPEC133
020000                                                                  PPEC133
020100******************************************************************PPEC133
020200**  THE KRMI AREA IS A COMMON AREA THAT IS USED TO PASS         **PPEC133
020300**  INFORMATION THAT IS REQUIRED FOR THIS MODULE TO EXECUTE     **PPEC133
020400******************************************************************PPEC133
020500                                                                  PPEC133
020600 01  KRMI-LINKAGE-SECTION.                         COPY CPLNKRMI. PPEC133
020700                                                                  PPEC133
020800     EJECT                                                        PPEC133
020900******************************************************************PPEC133
021000**  THIS MESSAGE TABLE ARRAY WILL CONTAIN ALL MESSAGES THAT     **PPEC133
021100**  THIS ROUTINE CAN LOGICALLY ISSUE AT ONE TIME                **PPEC133
021200******************************************************************PPEC133
021300                                                                  PPEC133
021400 01  KMTA-MESSAGE-TABLE-ARRAY.                     COPY CPLNKMTA. PPEC133
021500                                                                  PPEC133
021600     EJECT                                                        PPEC133
021700******************************************************************PPEC133
021800**    P  R  O  C  E  D  U  R  E      D  I  V  I  S  I  O  N     **PPEC133
021900******************************************************************PPEC133
022000                                                                  PPEC133
022100 PROCEDURE DIVISION USING KRMI-LINKAGE-SECTION,                   PPEC133
022200                          KMTA-MESSAGE-TABLE-ARRAY.               PPEC133
022300                                                                  PPEC133
022400                                                                  PPEC133
022500*----------------------------------------------------------------*PPEC133
022600 0000-DRIVER.                                                     PPEC133
022700*----------------------------------------------------------------*PPEC133
022800                                                                  PPEC133
022900******************************************************************PPEC133
023000**  PERFORM THE INITIALIZATION ROUTINE NOW                      **PPEC133
023100******************************************************************PPEC133
023200                                                                  PPEC133
023300     IF  THIS-IS-THE-FIRST-TIME                                   PPEC133
023400         PERFORM 0100-INITIALIZE                                  PPEC133
023500     END-IF.                                                      PPEC133
023600                                                                  PPEC133
023700******************************************************************PPEC133
023800**  PERFORM THE MAIN ROUTINE NOW - AFTER WHICH WE WILL RETURN   **PPEC133
023900**  TO THE CALLING PROGRAM                                      **PPEC133
024000******************************************************************PPEC133
024100                                                                  PPEC133
024200     PERFORM 1000-MAINLINE-ROUTINE.                               PPEC133
024300                                                                  PPEC133
024400     EXIT PROGRAM.                                                PPEC133
024500                                                                  PPEC133
024600                                                                  PPEC133
024700     EJECT                                                        PPEC133
024800*----------------------------------------------------------------*PPEC133
024900 0100-INITIALIZE    SECTION.                                      PPEC133
025000*----------------------------------------------------------------*PPEC133
025100                                                                  PPEC133
025200******************************************************************PPEC133
025300**  DISPLAY THE PROGRAM ID AND DATE/TIME COMPILED               **PPEC133
025400******************************************************************PPEC133
025500                                                                  PPEC133
025600     MOVE A-STND-PROG-ID           TO XWHC-DISPLAY-MODULE.        PPEC133
025700                                                                  PPEC133
025800*                                               *-------------*   PPEC133
025900                                                 COPY CPPDXWHC.   PPEC133
026000*                                               *-------------*   PPEC133
026100                                                                  PPEC133
026500                                                                  PPEC133
026800******************************************************************PPEC133
026900**   SET FIRST CALL SWITCH OFF                                  **PPEC133
027000******************************************************************PPEC133
027100                                                                  PPEC133
027200     SET NOT-THE-FIRST-TIME        TO TRUE.                       PPEC133
027201                                                                  PPEC133
027210******************************************************************PPEC133
027220**   OBTAIN OPT-OUT ENROLLMENT SYSTEM PARAMETER VALUE           **PPEC133
027230******************************************************************PPEC133
027240                                                                  PPEC133
027250     MOVE XSP-PARAM(OPT-OUT-ENROLLMENT-PARM-NO)                   PPEC133
027260                                   TO OPT-OUT-ENROLLMENT-SW.      PPEC133
027300                                                                  PPEC133
027400     EJECT                                                        PPEC133
027500*----------------------------------------------------------------*PPEC133
027600 1000-MAINLINE-ROUTINE SECTION.                                   PPEC133
027700*----------------------------------------------------------------*PPEC133
027800                                                                  PPEC133
027900     IF  KRMI-REQUESTED-BY-08                                     PPEC133
028000         PERFORM 1100-CONEDITS-MAINLINE                           PPEC133
028100     ELSE                                                         PPEC133
028200         PERFORM 5100-IMPLIED-MAINT-MAINLINE                      PPEC133
028300     END-IF.                                                      PPEC133
028400                                                                  PPEC133
028500                                                                  PPEC133
028600     EJECT                                                        PPEC133
028700******************************************************************PPEC133
028800**     C O N S I S T E N C Y    E D I T S   M A I N L I N E     **PPEC133
028900******************************************************************PPEC133
029000*----------------------------------------------------------------*PPEC133
029100 1100-CONEDITS-MAINLINE SECTION.                                  PPEC133
029200*----------------------------------------------------------------*PPEC133
030000                                                                  PPEC133
030100******************************************************************PPEC133
030200**   HEALTH INSURANCE                                           **PPEC133
030300******************************************************************PPEC133
030310                                                                  PPEC133
030400     IF  BELI-IND = '?'                                           PPEC133
030500         OR SPACES                                                PPEC133
030600         MOVE 5               TO BELI-NUMERIC-VALUE               PPEC133
030700     ELSE                                                         PPEC133
030800         MOVE BELI-IND        TO BELI-NUMERIC-VALUE               PPEC133
030900     END-IF.                                                      PPEC133
031000                                                                  PPEC133
031100******************************************************************PPEC133
031200**   HEALTH INSURANCE                                           **PPEC133
031300******************************************************************PPEC133
031400                                                                  PPEC133
031500     MOVE 'Y'                 TO VERIFY-BUT-INS-SW.               PPEC133
031600                                                                  PPEC133
031700******************************************************************PPEC133
031800**   IF PROVIDER ID HAS BEEN UPDATED TO NON-SPACES AND THE PLAN **PPEC133
031900**   IS SPACES, ISSUE MESSAGE.                                  **PPEC133
032000******************************************************************PPEC133
032100     IF      HLTH-PLAN       = SPACES                             PPEC133
032200         AND XDEC-DATA-ELEMENT-CHANGED (E0653)                    PPEC133
032300         AND MED-PROVIDER-ID NOT = SPACES                         PPEC133
032400         ADD 1 TO KMTA-CTR                                        PPEC133
032500         MOVE E0653           TO KMTA-FIELD-NUM         (KMTA-CTR)PPEC133
032600         MOVE M08517          TO KMTA-MSG-NUMBER        (KMTA-CTR)PPEC133
032700         MOVE WS-ROUTINE-TYPE TO KMTA-ROUTINE-TYPE      (KMTA-CTR)PPEC133
032800         MOVE WS-ROUTINE-NUM  TO KMTA-ROUTINE-NUM       (KMTA-CTR)PPEC133
032900     END-IF.                                                      PPEC133
033000                                                                  PPEC133
033100******************************************************************PPEC133
033200**   OVERRIDE OPTOUT X DURING OPEN ENROLLMENT IF PLAN NOT BLANK **PPEC133
033300**   AND OPTOUT NOT CURRENTLY BEING UPDATED.                    **PPEC133
033400******************************************************************PPEC133
033500                                                                  PPEC133
033600     IF  HLTH-OPTOUT = 'X'                                        PPEC133
033700         AND NOT XDEC-DATA-ELEMENT-CHANGED (E0377)                PPEC133
033800         AND HLTH-PLAN NOT = SPACES                               PPEC133
033810         AND HLTH-PLAN NOT = 'XX'                                 54541281
033900         AND OPT-OUT-ENROLLMENT                                   PPEC133
034000         ADD 1                TO KMTA-CTR                         PPEC133
034100         MOVE M08518          TO KMTA-MSG-NUMBER        (KMTA-CTR)PPEC133
034200         MOVE WS-ROUTINE-TYPE TO KMTA-ROUTINE-TYPE      (KMTA-CTR)PPEC133
034300         MOVE WS-ROUTINE-NUM  TO KMTA-ROUTINE-NUM       (KMTA-CTR)PPEC133
034400         MOVE SPACE           TO HLTH-OPTOUT                      PPEC133
034500     END-IF.                                                      PPEC133
034600                                                                  PPEC133
034610*****                                                          CD 52011307
034848     IF      HLTH-PLAN       = SPACES                             54541281
034850         AND HLTH-COVEFFDATE = XDTS-ISO-ZERO-DATE                 54541281
034910*-------> CANNOT DELETE PLAN AND PCED TO OPT OUT OR CANCEL        54541281
034920*-------> MUST ENTER PCED, AND 'XX' FOR OPT OUT, 'XC' FOR CANCEL. 54541281
034982         IF   SAVE-HLTH-PLAN  NOT = SPACES                        54541281
034984         AND  SAVE-HLTH-COVEFFDATE NOT = XDC3-LOW-ISO-DATE        54541281
034990                                                                  54541281
034991              ADD 1 TO KMTA-CTR                                   54541281
034995              MOVE M08568  TO KMTA-MSG-NUMBER           (KMTA-CTR)54541281
034996              MOVE WS-ROUTINE-TYPE TO KMTA-ROUTINE-TYPE (KMTA-CTR)54541281
034997              MOVE WS-ROUTINE-NUM  TO KMTA-ROUTINE-NUM  (KMTA-CTR)54541281
034998              MOVE E0292    TO KMTA-FIELD-NUM           (KMTA-CTR)54541281
035000              MOVE HLTH-PLAN                                      54541281
035004                            TO KMTA-DATA-FIELD          (KMTA-CTR)54541281
035010              ADD 1 TO KMTA-CTR                                   54541281
035011              MOVE M08568  TO KMTA-MSG-NUMBER   (KMTA-CTR)        54541281
035014              MOVE E0294   TO KMTA-FIELD-NUM    (KMTA-CTR)        54541281
035015              MOVE HLTH-COVEFFDATE                                54541281
035016                           TO XDC3-ISO-DATE                       54541281
035017              PERFORM XDC3-CONVERT-ISO-TO-STD                     54541281
035018              MOVE XDC3-STD-DATE                                  54541281
035019                           TO KMTA-DATA-FIELD   (KMTA-CTR)        54541281
035020              MOVE 6 TO KMTA-LENGTH             (KMTA-CTR)        54541281
035021              MOVE WS-ROUTINE-TYPE                                54541281
035022                           TO KMTA-ROUTINE-TYPE (KMTA-CTR)        54541281
035023              MOVE WS-ROUTINE-NUM                                 54541281
035024                           TO KMTA-ROUTINE-NUM  (KMTA-CTR)        54541281
035041         END-IF                                                   54541281
035050     ELSE                                                         54541281
035100         IF      HLTH-PLAN  NOT      = SPACES                     54541281
035210             AND HLTH-COVEFFDATE NOT = XDTS-ISO-ZERO-DATE         54541281
035220             PERFORM 2000-HIPAA-EDITS                             54541281
038410             IF  BELI-NUMERIC-VALUE > 4                           54541281
038411                 IF SAVE-HLTH-PLAN       =  HLTH-PLAN AND         52011307
038412                    SAVE-HLTH-COVERCODE  =  HLTH-COVERCODE AND    52011307
038413                    SAVE-MED-PROVIDER-ID = MED-PROVIDER-ID AND    52011307
038414                    SAVE-HLTH-COVEFFDATE = HLTH-COVEFFDATE AND    52011307
038415                    SAVE-EMP-HLTH-COVEFFDT = EMP-HLTH-COVEFFDT AND52011307
038416                    SAVE-HEALTH-COVEND-DATE                       52011307
038417                                     NOT  = HEALTH-COVEND-DATE    52011307
038418                    CONTINUE                                      52011307
038419                 ELSE                                             52011307
038420                    ADD 1    TO KMTA-CTR                          52011307
038421                    MOVE M08005                                   52011307
038422                           TO KMTA-MSG-NUMBER        (KMTA-CTR)   52011307
038423                    MOVE WS-ROUTINE-TYPE                          52011307
038424                           TO KMTA-ROUTINE-TYPE      (KMTA-CTR)   52011307
038425                    MOVE WS-ROUTINE-NUM                           52011307
038426                           TO KMTA-ROUTINE-NUM       (KMTA-CTR)   52011307
038427                 END-IF                                           52011307
038428*****            ADD 1    TO KMTA-CTR                             52011307
038430*****            MOVE M08005                                      52011307
038440*****                      TO KMTA-MSG-NUMBER        (KMTA-CTR)   52011307
038450*****            MOVE WS-ROUTINE-TYPE                             52011307
038460*****                      TO KMTA-ROUTINE-TYPE      (KMTA-CTR)   52011307
038470*****            MOVE WS-ROUTINE-NUM                              52011307
038480*****                      TO KMTA-ROUTINE-NUM       (KMTA-CTR)   52011307
038490                 CONTINUE                                         52011307
038490             ELSE                                                 54541281
038491                 IF  BELI-NUMERIC-VALUE = 4                       54541281
038492                     IF  HLTH-PLAN NOT = ('CM' AND 'XX')          54541281
038493                         ADD 1 TO KMTA-CTR                        54541281
038494                         MOVE M08303                              54541281
038495                                 TO KMTA-MSG-NUMBER  (KMTA-CTR)   54541281
038496                         MOVE WS-ROUTINE-TYPE                     54541281
038497                                TO KMTA-ROUTINE-TYPE (KMTA-CTR)   54541281
038498                         MOVE WS-ROUTINE-NUM                      54541281
038499                                TO KMTA-ROUTINE-NUM  (KMTA-CTR)   54541281
038500                     END-IF                                       54541281
038501                 END-IF                                           54541281
038502             END-IF                                               54541281
038500         ELSE                                                     PPEC133
038600             IF          (HLTH-PLAN       NOT = SPACES            PPEC133
038710                 AND      HLTH-COVEFFDATE    = XDTS-ISO-ZERO-DATE)28521025
038800             OR          (HLTH-PLAN           = SPACES            PPEC133
038910                 AND     HLTH-COVEFFDATE NOT = XDTS-ISO-ZERO-DATE)28521025
039000                 ADD 1        TO KMTA-CTR                         PPEC133
039100                 MOVE E0292                                       PPEC133
039200                          TO KMTA-FIELD-NUM             (KMTA-CTR)PPEC133
039300                 MOVE HLTH-PLAN                                   PPEC133
039400                          TO KMTA-DATA-FIELD            (KMTA-CTR)PPEC133
039500                 MOVE 2       TO KMTA-LENGTH            (KMTA-CTR)PPEC133
039600                 MOVE M08494                                      PPEC133
039700                          TO KMTA-MSG-NUMBER            (KMTA-CTR)PPEC133
039800                 MOVE WS-ROUTINE-TYPE                             PPEC133
039900                          TO KMTA-ROUTINE-TYPE          (KMTA-CTR)PPEC133
040000                 MOVE WS-ROUTINE-NUM                              PPEC133
040100                          TO KMTA-ROUTINE-NUM           (KMTA-CTR)PPEC133
040200                                                                  PPEC133
040300                 ADD 1        TO KMTA-CTR                         PPEC133
040400                 MOVE E0294                                       PPEC133
040500                          TO KMTA-FIELD-NUM             (KMTA-CTR)PPEC133
040600                 MOVE HLTH-COVEFFDATE                             PPEC133
040910                          TO XDC3-ISO-DATE                        28521025
040920                 PERFORM XDC3-CONVERT-ISO-TO-STD                  28521025
040930                 MOVE XDC3-STD-DATE                               28521025
041000                          TO KMTA-DATA-FIELD            (KMTA-CTR)PPEC133
041100                 MOVE 6       TO KMTA-LENGTH            (KMTA-CTR)PPEC133
041200                 MOVE M08494                                      PPEC133
041300                          TO KMTA-MSG-NUMBER            (KMTA-CTR)PPEC133
041400                 MOVE WS-ROUTINE-TYPE                             PPEC133
041500                          TO KMTA-ROUTINE-TYPE          (KMTA-CTR)PPEC133
041600                 MOVE WS-ROUTINE-NUM                              PPEC133
041700                          TO KMTA-ROUTINE-NUM           (KMTA-CTR)PPEC133
041800             END-IF                                               PPEC133
041900         END-IF                                                   PPEC133
042000     END-IF.                                                      PPEC133
042100                                                                  54541281
042102     EJECT                                                        54541281
042103*---------------------------------------------------------------* 54541281
042104 2000-HIPAA-EDITS    SECTION.                                     54541281
042105*---------------------------------------------------------------* 54541281
042106                                                                  54541281
042107     PERFORM 5030-COUNT-ENTRIES.                                  54541281
042108     IF FCB-HEALTH-FOUND                                          54541281
042109        IF HLTH-PLAN  NOT = SAVE-HLTH-PLAN                        54541281
042110           IF EFCB-FCB-PLAN-INFO-DATA (ENTRY-HOLD)                54541281
042111                            = HOLD-FCB-PLAN-INFO-DATA (ENTRY-HOLD)54541281
042112           AND EFCB-FCB-PLAN-INFO-DATA (ENTRY-HOLD) (1:2)         54541281
042113                            = HLTH-PLAN                           54541281
042114           AND HEALTH-COVEND-DATE = XDC3-LOW-ISO-DATE             54541281
042115               ADD 1 TO KMTA-CTR                                  54541281
042116               MOVE M08579    TO KMTA-MSG-NUMBER      (KMTA-CTR)  54541281
042117               MOVE E0292     TO KMTA-FIELD-NUM       (KMTA-CTR)  54541281
042119               MOVE HLTH-PLAN TO KMTA-DATA-FIELD      (KMTA-CTR)  54541281
042121               MOVE 2 TO KMTA-LENGTH       (KMTA-CTR)             54541281
042122               MOVE WS-ROUTINE-TYPE                               54541281
042123                              TO KMTA-ROUTINE-TYPE    (KMTA-CTR)  54541281
042124               MOVE WS-ROUTINE-NUM                                54541281
042125                              TO KMTA-ROUTINE-NUM     (KMTA-CTR)  54541281
042126               PERFORM 5000-BUILD-EFCB-FCB-KEY                    54541281
042127               PERFORM 5010-SET-TRANS-ERROR                       54541281
042128           END-IF                                                 54541281
042129        END-IF                                                    54541281
042130        IF EFCB-FCB-COVEFF-DATE (ENTRY-HOLD)                      54541281
042131                            = HOLD-FCB-COVEFF-DATE (ENTRY-HOLD)   54541281
042132        AND HLTH-COVEFFDATE NOT = SAVE-HLTH-COVEFFDATE            54541281
042133            IF EFCB-FCB-COVEFF-DATE (ENTRY-HOLD)                  54541281
042140                         <= HLTH-COVEFFDATE                       54541281
042141               ADD 1 TO KMTA-CTR                                  54541281
042142               MOVE M08566                                        54541281
042143                        TO KMTA-MSG-NUMBER (KMTA-CTR)             54541281
042144               MOVE E0294                                         54541281
042145                        TO KMTA-FIELD-NUM       (KMTA-CTR)        54541281
042146               MOVE HLTH-COVEFFDATE TO XDC3-ISO-DATE              54541281
042147               PERFORM XDC3-CONVERT-ISO-TO-STD                    54541281
042148               MOVE XDC3-STD-DATE                                 54541281
042149                     TO KMTA-DATA-FIELD         (KMTA-CTR)        54541281
042150               MOVE 6 TO KMTA-LENGTH             (KMTA-CTR)       54541281
042151               MOVE WS-ROUTINE-TYPE                               54541281
042152                    TO KMTA-ROUTINE-TYPE        (KMTA-CTR)        54541281
042153               MOVE WS-ROUTINE-NUM                                54541281
042154                    TO KMTA-ROUTINE-NUM         (KMTA-CTR)        54541281
042155                                                                  54541281
042156               ADD 1 TO KMTA-CTR                                  54541281
042157               MOVE M08566                                        54541281
042158                     TO KMTA-MSG-NUMBER         (KMTA-CTR)        54541281
042159               MOVE E0695                                         54541281
042160                      TO KMTA-FIELD-NUM         (KMTA-CTR)        54541281
042161               MOVE EFCB-FCB-COVEFF-DATE (ENTRY-HOLD)             54541281
042162                      TO XDC3-ISO-DATE                            54541281
042163               PERFORM XDC3-CONVERT-ISO-TO-STD                    54541281
042164               MOVE XDC3-STD-DATE                                 54541281
042165                      TO KMTA-DATA-FIELD        (KMTA-CTR)        54541281
042166               MOVE 6 TO KMTA-LENGTH            (KMTA-CTR)        54541281
042167               MOVE WS-ROUTINE-TYPE                               54541281
042168                  TO KMTA-ROUTINE-TYPE          (KMTA-CTR)        54541281
042169               MOVE WS-ROUTINE-NUM                                54541281
042170                    TO KMTA-ROUTINE-NUM         (KMTA-CTR)        54541281
042171               PERFORM 5000-BUILD-EFCB-FCB-KEY                    54541281
042172               PERFORM 5010-SET-TRANS-ERROR                       54541281
042173            END-IF                                                54541281
042174        END-IF                                                    54541281
042175                                                                  54541281
042176        IF HEALTH-COVEND-DATE NOT  = XDC3-LOW-ISO-DATE            54541281
042189                                                                  54541281
042190             IF EFCB-FCB-COVEFF-DATE (ENTRY-HOLD)                 54541281
042191                                  <=  HEALTH-COVEND-DATE          54541281
042192                ADD 1   TO KMTA-CTR                               54541281
042193                MOVE M08547 TO KMTA-MSG-NUMBER         (KMTA-CTR) 54541281
042194                MOVE E0294  TO KMTA-FIELD-NUM          (KMTA-CTR) 54541281
042195                MOVE HLTH-COVEFFDATE   TO XDC3-ISO-DATE           54541281
042196                PERFORM XDC3-CONVERT-ISO-TO-STD                   54541281
042197                MOVE XDC3-STD-DATE                                54541281
042198                            TO KMTA-DATA-FIELD  (KMTA-CTR)        54541281
042199                MOVE 6      TO KMTA-LENGTH      (KMTA-CTR)        54541281
042200                MOVE WS-ROUTINE-TYPE                              54541281
042201                        TO KMTA-ROUTINE-TYPE    (KMTA-CTR)        54541281
042202                MOVE WS-ROUTINE-NUM                               54541281
042203                        TO KMTA-ROUTINE-NUM     (KMTA-CTR)        54541281
042204                                                                  54541281
042205                ADD 1  TO KMTA-CTR                                54541281
042206                MOVE M08547 TO KMTA-MSG-NUMBER     (KMTA-CTR)     54541281
042207                MOVE E0300  TO KMTA-FIELD-NUM      (KMTA-CTR)     54541281
042208                MOVE HEALTH-COVEND-DATE                           54541281
042209                    TO XDC3-ISO-DATE                              54541281
042210                PERFORM XDC3-CONVERT-ISO-TO-STD                   54541281
042211                MOVE XDC3-STD-DATE                                54541281
042212                            TO KMTA-DATA-FIELD     (KMTA-CTR)     54541281
042213                MOVE 6      TO KMTA-LENGTH         (KMTA-CTR)     54541281
042214                MOVE WS-ROUTINE-TYPE                              54541281
042215                            TO KMTA-ROUTINE-TYPE   (KMTA-CTR)     54541281
042216                MOVE WS-ROUTINE-NUM                               54541281
042217                            TO KMTA-ROUTINE-NUM    (KMTA-CTR)     54541281
042218                                                                  54541281
042219                ADD 1 TO KMTA-CTR                                 54541281
042220                MOVE M08547  TO KMTA-MSG-NUMBER    (KMTA-CTR)     54541281
042221                MOVE E0695   TO KMTA-FIELD-NUM     (KMTA-CTR)     54541281
042222                MOVE EFCB-FCB-COVEFF-DATE (ENTRY-HOLD)            54541281
042223                             TO XDC3-ISO-DATE                     54541281
042224                PERFORM XDC3-CONVERT-ISO-TO-STD                   54541281
042225                MOVE XDC3-STD-DATE                                54541281
042226                             TO KMTA-DATA-FIELD    (KMTA-CTR)     54541281
042227                MOVE 6       TO KMTA-LENGTH        (KMTA-CTR)     54541281
042228                MOVE WS-ROUTINE-TYPE                              54541281
042229                             TO KMTA-ROUTINE-TYPE  (KMTA-CTR)     54541281
042230                MOVE WS-ROUTINE-NUM                               54541281
042231                             TO KMTA-ROUTINE-NUM   (KMTA-CTR)     54541281
042232                PERFORM 5000-BUILD-EFCB-FCB-KEY                   54541281
042233                PERFORM 5010-SET-TRANS-ERROR                      54541281
042234             END-IF                                               54541281
042235                                                                  54541281
042236             MOVE HEALTH-COVEND-DATE TO XDC3-ISO-DATE             54541281
042237             PERFORM XDC3-CONVERT-ISO-TO-LILIAN                   54541281
042238             MOVE XDC3-LILIAN-DATE TO WS-HEALTH-COVEND-LI         54541281
042239             MOVE EFCB-FCB-COVEFF-DATE (ENTRY-HOLD)               54541281
042240                               TO XDC3-ISO-DATE                   54541281
042241             PERFORM XDC3-CONVERT-ISO-TO-LILIAN                   54541281
042242             MOVE XDC3-LILIAN-DATE                                54541281
042243                                 TO WS-FUT-HLTH-COVEFF-LI         54541281
042244             COMPUTE WS-DAYS-DIFF                                 54541281
042245                         = (WS-FUT-HLTH-COVEFF-LI                 54541281
042246                                    - WS-HEALTH-COVEND-LI)        54541281
042247             IF WS-DAYS-DIFF > 1                                  54541281
042248             AND EFCB-FCB-ENRL-REAS-CODE (ENTRY-HOLD)             54541281
042249                            = ('HI' OR 'BE' OR 'CV')              54541281
042250                 ADD 1 TO KMTA-CTR                                54541281
042251                 MOVE M08554    TO KMTA-MSG-NUMBER    (KMTA-CTR)  54541281
042252                 MOVE WS-ROUTINE-TYPE                             54541281
042253                                TO KMTA-ROUTINE-TYPE  (KMTA-CTR)  54541281
042254                 MOVE WS-ROUTINE-NUM                              54541281
042255                                TO KMTA-ROUTINE-NUM   (KMTA-CTR)  54541281
042256                 MOVE E0300     TO KMTA-FIELD-NUM     (KMTA-CTR)  54541281
042257                 MOVE HEALTH-COVEND-DATE  TO XDC3-ISO-DATE        54541281
042258                 PERFORM XDC3-CONVERT-ISO-TO-STD                  54541281
042259                 MOVE XDC3-STD-DATE                               54541281
042260                                TO KMTA-DATA-FIELD    (KMTA-CTR)  54541281
042261                 MOVE 6         TO KMTA-LENGTH        (KMTA-CTR)  54541281
042262                                                                  54541281
042263                 ADD 1 TO KMTA-CTR                                54541281
042264                 MOVE WS-ROUTINE-TYPE                             54541281
042265                              TO KMTA-ROUTINE-TYPE  (KMTA-CTR)    54541281
042266                 MOVE WS-ROUTINE-NUM                              54541281
042267                              TO KMTA-ROUTINE-NUM   (KMTA-CTR)    54541281
042268                 MOVE M08554  TO KMTA-MSG-NUMBER    (KMTA-CTR)    54541281
042269                 MOVE E0695   TO KMTA-FIELD-NUM     (KMTA-CTR)    54541281
042270                 MOVE EFCB-FCB-COVEFF-DATE (ENTRY-HOLD)           54541281
042271                             TO XDC3-ISO-DATE                     54541281
042272                 PERFORM XDC3-CONVERT-ISO-TO-STD                  54541281
042273                 MOVE XDC3-STD-DATE                               54541281
042274                              TO KMTA-DATA-FIELD    (KMTA-CTR)    54541281
042275                 MOVE 6       TO KMTA-LENGTH        (KMTA-CTR)    54541281
042276                 PERFORM 5000-BUILD-EFCB-FCB-KEY                  54541281
042277                 PERFORM 5010-SET-TRANS-ERROR                     54541281
042278             END-IF                                               54541281
042290*-----------> ERROR IF BOTH DATES IN SAME MONTH AND YEAR          54541281
042291*-----------> OR CURRENT END DATE IS 1 DAY PRIOR TO               54541281
042292*-----------> FUTURE COVERAGE EFFECTIVE DATE                      54541281
042293             IF HLTH-PLAN  NOT = SAVE-HLTH-PLAN                   54541281
042294                IF EFCB-FCB-PLAN-INFO-DATA (ENTRY-HOLD)           54541281
042295                            = HOLD-FCB-PLAN-INFO-DATA (ENTRY-HOLD)54541281
042296                AND EFCB-FCB-PLAN-INFO-DATA (ENTRY-HOLD) (1:2)    54541281
042297                            = HLTH-PLAN                           54541281
042298                    IF (HEALTH-COVEND-DATE (1:7)                  54541281
042299                          =  EFCB-FCB-COVEFF-DATE (ENTRY-X) (1:7))54541281
042300                    OR WS-DAYS-DIFF = 1                           54541281
042301                       ADD 1 TO KMTA-CTR                          54541281
042302                       MOVE M08579 TO KMTA-MSG-NUMBER (KMTA-CTR)  54541281
042303                       MOVE E0292 TO KMTA-FIELD-NUM   (KMTA-CTR)  54541281
042304                       MOVE HLTH-PLAN                             54541281
042305                                   TO KMTA-DATA-FIELD (KMTA-CTR)  54541281
042306                       MOVE 2 TO KMTA-LENGTH        (KMTA-CTR)    54541281
042307                       MOVE WS-ROUTINE-TYPE                       54541281
042308                              TO KMTA-ROUTINE-TYPE  (KMTA-CTR)    54541281
042309                       MOVE WS-ROUTINE-NUM                        54541281
042310                              TO KMTA-ROUTINE-NUM   (KMTA-CTR)    54541281
042311                                                                  54541281
042312                       ADD 1 TO KMTA-CTR                          54541281
042313                       MOVE M08579                                54541281
042314                              TO KMTA-MSG-NUMBER    (KMTA-CTR)    54541281
042315                       MOVE E0300                                 54541281
042316                              TO KMTA-FIELD-NUM     (KMTA-CTR)    54541281
042317                       MOVE HEALTH-COVEND-DATE TO XDC3-ISO-DATE   54541281
042318                       PERFORM XDC3-CONVERT-ISO-TO-STD            54541281
042319                       MOVE XDC3-STD-DATE                         54541281
042320                              TO KMTA-DATA-FIELD    (KMTA-CTR)    54541281
042321                       MOVE 6 TO KMTA-LENGTH        (KMTA-CTR)    54541281
042322                       MOVE WS-ROUTINE-TYPE                       54541281
042323                              TO KMTA-ROUTINE-TYPE  (KMTA-CTR)    54541281
042324                       MOVE WS-ROUTINE-NUM                        54541281
042325                              TO KMTA-ROUTINE-NUM   (KMTA-CTR)    54541281
042326                       PERFORM 5000-BUILD-EFCB-FCB-KEY            54541281
042327                       PERFORM 5010-SET-TRANS-ERROR               54541281
042328                    END-IF                                        54541281
042329                END-IF                                            54541281
042330             END-IF                                               54541281
042331        END-IF                                                    54541281
042332     END-IF.                                                      54541281
042333                                                                  54541281
042334     IF   HEALTH-COVEND-DATE  NOT = XDTS-ISO-ZERO-DATE            54541281
042335          IF  HLTH-COVEFFDATE > HEALTH-COVEND-DATE                54541281
042336              ADD 1   TO KMTA-CTR                                 54541281
042337              MOVE E0294                                          54541281
042338                      TO KMTA-FIELD-NUM         (KMTA-CTR)        54541281
042339              MOVE HLTH-COVEFFDATE  TO XDC3-ISO-DATE              54541281
042340              PERFORM XDC3-CONVERT-ISO-TO-STD                     54541281
042341              MOVE XDC3-STD-DATE                                  54541281
042342                      TO KMTA-DATA-FIELD        (KMTA-CTR)        54541281
042343              MOVE 6  TO KMTA-LENGTH            (KMTA-CTR)        54541281
042344              MOVE M08545                                         54541281
042345                     TO KMTA-MSG-NUMBER         (KMTA-CTR)        54541281
042346              MOVE WS-ROUTINE-TYPE                                54541281
042347                   TO KMTA-ROUTINE-TYPE         (KMTA-CTR)        54541281
042348              MOVE WS-ROUTINE-NUM                                 54541281
042349                   TO KMTA-ROUTINE-NUM          (KMTA-CTR)        54541281
042350              ADD 1 TO KMTA-CTR                                   54541281
042351              MOVE E0300                                          54541281
042352                    TO KMTA-FIELD-NUM           (KMTA-CTR)        54541281
042353              MOVE HEALTH-COVEND-DATE  TO XDC3-ISO-DATE           54541281
042354              PERFORM XDC3-CONVERT-ISO-TO-STD                     54541281
042355              MOVE XDC3-STD-DATE                                  54541281
042356                    TO KMTA-DATA-FIELD          (KMTA-CTR)        54541281
042357              MOVE 6  TO KMTA-LENGTH            (KMTA-CTR)        54541281
042358              MOVE WS-ROUTINE-TYPE                                54541281
042359                   TO KMTA-ROUTINE-TYPE         (KMTA-CTR)        54541281
042360              MOVE WS-ROUTINE-NUM                                 54541281
042361                    TO KMTA-ROUTINE-NUM         (KMTA-CTR)        54541281
042362           END-IF                                                 54541281
042363     END-IF.                                                      54541281
042364                                                                  54541281
042365     IF  HEALTH-COVEND-DATE NOT = XDTS-ISO-ZERO-DATE              54541281
042366     AND HLTH-PLAN = 'DM'                                         54541281
042367          ADD 1  TO KMTA-CTR                                      54541281
042368          MOVE M08565  TO KMTA-MSG-NUMBER       (KMTA-CTR)        54541281
042369          MOVE E0300                                              54541281
042370                TO KMTA-FIELD-NUM               (KMTA-CTR)        54541281
042371          MOVE HEALTH-COVEND-DATE  TO XDC3-ISO-DATE               54541281
042372          PERFORM XDC3-CONVERT-ISO-TO-STD                         54541281
042373          MOVE XDC3-STD-DATE                                      54541281
042374                TO KMTA-DATA-FIELD              (KMTA-CTR)        54541281
042375          MOVE 6   TO KMTA-LENGTH               (KMTA-CTR)        54541281
042376          MOVE WS-ROUTINE-TYPE                                    54541281
042377                TO KMTA-ROUTINE-TYPE            (KMTA-CTR)        54541281
042378          MOVE WS-ROUTINE-NUM                                     54541281
042379                TO KMTA-ROUTINE-NUM             (KMTA-CTR)        54541281
042380     END-IF.                                                      54541281
042381                                                                  54541281
042382     EJECT                                                        54541281
042383*---------------------------------------------------------------* 54541281
042390 5000-BUILD-EFCB-FCB-KEY SECTION.                                 54541281
042400*---------------------------------------------------------------* 54541281
042410     MOVE SPACES TO FCB-OCCURRENCE-KEY.                           54541281
042500     MOVE EFCB-FCB-BENEFIT-TYPE (ENTRY-HOLD)                      54541281
042600                              TO FCB-OCUR-FCB-BENEFIT-TYPE.       54541281
042610     IF NOT ENVIRON-IS-CICS                                       54541281
042620        MOVE EFCB-FCB-COVEFF-DATE  (ENTRY-HOLD)                   54541281
042630                              TO XDC3-ISO-DATE                    54541281
042640        PERFORM XDC3-CONVERT-ISO-TO-STD                           54541281
042650        MOVE XDC3-STD-DATE    TO FCB-OCUR-FCB-COVEFF-DATE         54541281
042660     ELSE                                                         54541281
042670        MOVE EFCB-FCB-COVEFF-DATE  (ENTRY-HOLD)                   54541281
042680                              TO FCB-OCUR-FCB-COVEFF-DATE         54541281
042690     END-IF.                                                      54541281
042900     MOVE FCB-OCCURRENCE-KEY  TO SEARCH-OCCURRENCE-KEY.           54541281
043000     MOVE 'FP'                TO SEARCH-TRAN.                     54541281
043100                                                                  54541281
043200     EJECT                                                        54541281
043300*---------------------------------------------------------------* 54541281
043400 5010-SET-TRANS-ERROR SECTION.                                    54541281
043500*---------------------------------------------------------------* 54541281
043600     MOVE KMTA-CTR            TO SAVE-KMTA-CTR.                   54541281
043700                                                                  54541281
043800     PERFORM WITH TEST BEFORE                                     54541281
043900         VARYING OCUR-X  FROM +1 BY +1                            54541281
044000         UNTIL OCUR-X  > OCUR-KEY-X                               54541281
044100         OR (OCUR-KEY-TRAN (OCUR-X) = SEARCH-TRAN                 54541281
044200         AND OCUR-KEY-OCCURRENCE-KEY (OCUR-X) =                   54541281
044300                                           SEARCH-OCCURRENCE-KEY) 54541281
044400     END-PERFORM.                                                 54541281
044500                                                                  54541281
044600     IF  OCUR-X > OCUR-KEY-X                                      54541281
044700         AND NOT ENVIRON-IS-CICS                                  54541281
044800         GO TO 5010-SET-TRANS-ERROR-EXIT                          54541281
044900     ELSE                                                         54541281
045000         MOVE KMTA-MSG-NUMBER (SAVE-KMTA-CTR)                     54541281
045100                              TO XMST-ERROR                       54541281
045200         PERFORM 5020-SEARCH-XMST                                 54541281
045300         MOVE XMST-SEVERITY   TO KMTA-SEVERITY (SAVE-KMTA-CTR)    54541281
045400         IF      KMTA-SEVERITY (SAVE-KMTA-CTR) NOT <              54541281
045500                                       CPWSSEVX-SERIOUS-SEV       54541281
045600             MOVE HIGH-VALUES TO OCUR-KEY-ERR-CD (OCUR-X)         54541281
045700         END-IF                                                   54541281
045800         MOVE OCUR-KEY-SET-CNTRL-NUM (OCUR-X)                     54541281
045900                            TO KMTA-SET-CNTRL-NUM (SAVE-KMTA-CTR) 54541281
046000         MOVE '1'           TO ERRWRITE-SET-TRANS-SW,             54541281
046100                               KMTA-SET-TRANS-SW (SAVE-KMTA-CTR)  54541281
046200     END-IF.                                                      54541281
046300                                                                  54541281
046400     COMPUTE OK-START-X = KMTA-LENGTH (SAVE-KMTA-CTR) + +1.       54541281
046500                                                                  54541281
046600     MOVE SEARCH-OCCURRENCE-KEY TO XOCC-OCC-KEY (SAVE-KMTA-CTR).  54541281
046700     MOVE SAVE-KMTA-CTR TO XOCC-CTR.                              54541281
046800     PERFORM WITH TEST BEFORE                                     54541281
046900         VARYING OK-BYTE-X FROM +1 BY +1                          54541281
046910         UNTIL OK-BYTE-X > MAX-OCUR-KEY-DATA                      54541281
046920            OR OK-START-X > +30                                   54541281
046930         MOVE SEARCH-OCCURRENCE-KEY-BYTE (OK-BYTE-X)              54541281
046931                TO KMTA-DATA-FIELD-R (SAVE-KMTA-CTR, OK-START-X)  54541281
046932         ADD  +1              TO OK-START-X                       54541281
046933     END-PERFORM.                                                 54541281
046934                                                                  54541281
046935 5010-SET-TRANS-ERROR-EXIT.                                       54541281
046936     EXIT.                                                        54541281
046937                                                                  54541281
046938     EJECT                                                        54541281
046939*---------------------------------------------------------------* 54541281
046940 5020-SEARCH-XMST SECTION.                                        54541281
046941*---------------------------------------------------------------* 54541281
046942                                                                  54541281
046943*                                                 *-------------* 54541281
046944                                                   COPY CPPDX030. 54541281
046945*                                                 *-------------* 54541281
046946                                                                  54541281
046947                                                                  54541281
046948    EJECT                                                         54541281
046949 5030-COUNT-ENTRIES   SECTION.                                    54541281
046950                                                                  54541281
046951****************************************************************  54541281
046952*  COUNT THE NUMBER OF ENTRIES IN THE FUTURE BENEFITS ARRAY.   *  54541281
046953****************************************************************  54541281
046954                                                                  54541281
046955     PERFORM WITH TEST BEFORE                                     54541281
046956      VARYING NUM-EFCB-ENTRIES  FROM +1 BY +1                     54541281
046957        UNTIL NUM-EFCB-ENTRIES  >  IDC-MAX-NO-FCB                 54541281
046958           OR EFCB-OCCURRENCE-KEY (NUM-EFCB-ENTRIES)              54541281
046959                                         = INIT-EFCB-KEY          54541281
046960           OR EFCB-OCCURRENCE-KEY (NUM-EFCB-ENTRIES)              54541281
046961                                         = X'0000'                54541281
046962     END-PERFORM.                                                 54541281
046963                                                                  54541281
046964     COMPUTE NUM-EFCB-ENTRIES  = NUM-EFCB-ENTRIES - +1.           54541281
046965     PERFORM  5040-SELECT-FUTURE-ENROLL.                          54541281
046966                                                                  54541281
046967    EJECT                                                         54541281
046968 5040-SELECT-FUTURE-ENROLL SECTION.                               54541281
046969                                                                  54541281
046970     SET FCB-HEALTH-NOT-FOUND TO TRUE.                            54541281
046971                                                                  54541281
046972     PERFORM WITH TEST BEFORE                                     54541281
046973      VARYING ENTRY-X   FROM +1 BY +1                             54541281
046974        UNTIL ENTRY-X > NUM-EFCB-ENTRIES                          54541281
046975                    OR  FCB-HEALTH-FOUND                          54541281
046976                                                                  54541281
046977           IF  EFCB-FCB-BENEFIT-TYPE (ENTRY-X) = 'M'              54541281
046980           AND EFCB-FCB-ADC-CODE     (ENTRY-X) NOT = 'D'          54541281
046981                                 AND FCB-HEALTH-NOT-FOUND         54541281
046982           AND EFCB-FCB-COVEFF-DATE  (ENTRY-X)                    54541281
046983                           NOT = HLTH-COVEFFDATE                  54541281
046984           AND EFCB-FCB-PLAN-INFO-DATA (ENTRY-X) (1:2)            54541281
046985                           NOT = 'XD'                             54541281
046986           AND EFCB-FCB-COVERAGE-CODE (ENTRY-X)                   54541281
046987                               = SPACES                           54541281
046988           AND EFCB-FCB-COV-END-DATE (ENTRY-X)                    54541281
046989                               = XDC3-LOW-ISO-DATE                54541281
046990*-------------> DON'T INADVERTENTLY SELECT THE CURRENT PLAN       54541281
046991*-------------> 'XX' OR 'XC' STORED IN THE  BENEFITS ARRAY AS     54541281
046992*-------------> A FUTURE PLAN DATA. THIS CAN HAPPEN WHEN USER     54541281
046993*-------------> CHANGES THE PCED ON THE 'XX' OR 'XC' PLAN CODE.   54541281
046994               IF  EFCB-FCB-PLAN-INFO-DATA (ENTRY-X) (1:2)        54541281
046995                              = ('XX' OR 'XC')                    54541281
046996               AND HLTH-PLAN  = ('XX' OR 'XC')                    54541281
046999                   CONTINUE                                       54541281
047001               ELSE                                               54541281
047002                   IF  EFCB-FCB-PLAN-INFO-DATA (ENTRY-X) (1:2)    54541281
047003                              = ('XX' OR 'XC')                    54541281
047004                   AND SAVE-HLTH-PLAN    = ('XX' OR 'XC')         54541281
047005                   AND HLTH-PLAN     NOT = ('XX' OR 'XC')         54541281
047006                       CONTINUE                                   54541281
047007                   ELSE                                           54541281
047013                       SET FCB-HEALTH-FOUND TO TRUE               54541281
047014                       MOVE ENTRY-X TO ENTRY-HOLD                 54541281
047017                   END-IF                                         54541281
047018               END-IF                                             54541281
047019           END-IF                                                 54541281
047020     END-PERFORM.                                                 54541281
047021                                                                  54541281
046938     EJECT                                                        PPEC133
046939******************************************************************PPEC133
046940**   I M P L I E D   M A I N T E N A N C E   M A I N L I N E    **PPEC133
047000******************************************************************PPEC133
047100*----------------------------------------------------------------*PPEC133
047200 5100-IMPLIED-MAINT-MAINLINE SECTION.                             PPEC133
047300*----------------------------------------------------------------*PPEC133
047400                                                                  PPEC133
047410******************************************************************PPEC133
047420**   HEALTH INSURANCE                                           **PPEC133
047430******************************************************************PPEC133
047431*****                                                          CD 52011307
047510     IF     HLTH-PLAN       NOT = SPACES                          54541281
047710        AND HLTH-COVEFFDATE NOT = XDTS-ISO-ZERO-DATE              54541281
047801                                                                  54541281
047803        PERFORM 5030-COUNT-ENTRIES                                54541281
047804        IF  FCB-HEALTH-FOUND                                      54541281
047805            IF HLTH-PLAN  NOT = SAVE-HLTH-PLAN                    54541281
047806               IF EFCB-FCB-PLAN-INFO-DATA (ENTRY-HOLD)            54541281
047807                            = HOLD-FCB-PLAN-INFO-DATA (ENTRY-HOLD)54541281
047808               AND EFCB-FCB-PLAN-INFO-DATA (ENTRY-HOLD) (1:2)     54541281
047809                            = HLTH-PLAN                           54541281
047810               AND HEALTH-COVEND-DATE = XDC3-LOW-ISO-DATE         54541281
047811                   ADD 1 TO KMTA-CTR                              54541281
047812                   MOVE M12579 TO KMTA-MSG-NUMBER     (KMTA-CTR)  54541281
047816                   MOVE WS-ROUTINE-TYPE                           54541281
047817                              TO KMTA-ROUTINE-TYPE    (KMTA-CTR)  54541281
047818                   MOVE WS-ROUTINE-NUM                            54541281
047819                              TO KMTA-ROUTINE-NUM     (KMTA-CTR)  54541281
047820               END-IF                                             54541281
047822            END-IF                                                54541281
047823            IF EFCB-FCB-COVEFF-DATE (ENTRY-HOLD)                  54541281
047824                         = HOLD-FCB-COVEFF-DATE (ENTRY-HOLD)      54541281
047825            AND HLTH-COVEFFDATE NOT = SAVE-HLTH-COVEFFDATE        54541281
047826                IF EFCB-FCB-COVEFF-DATE (ENTRY-HOLD)              54541281
047827                                        <= HLTH-COVEFFDATE        54541281
047828                   ADD 1        TO KMTA-CTR                       54541281
047829                   MOVE M12566                                    54541281
047830                          TO KMTA-MSG-NUMBER            (KMTA-CTR)54541281
047831                   MOVE WS-ROUTINE-TYPE                           54541281
047832                          TO KMTA-ROUTINE-TYPE          (KMTA-CTR)54541281
047833                   MOVE WS-ROUTINE-NUM                            54541281
047834                          TO KMTA-ROUTINE-NUM           (KMTA-CTR)54541281
047835                END-IF                                            54541281
047836            END-IF                                                54541281
047837                                                                  54541281
047838            IF  HEALTH-COVEND-DATE NOT = XDTS-ISO-ZERO-DATE       54541281
047839                IF EFCB-FCB-COVEFF-DATE (ENTRY-HOLD)              54541281
047840                                       <=  HEALTH-COVEND-DATE     54541281
047841                   ADD 1        TO KMTA-CTR                       54541281
047842                   MOVE M12547                                    54541281
047843                          TO KMTA-MSG-NUMBER            (KMTA-CTR)54541281
047844                   MOVE WS-ROUTINE-TYPE                           54541281
047845                          TO KMTA-ROUTINE-TYPE          (KMTA-CTR)54541281
047846                   MOVE WS-ROUTINE-NUM                            54541281
047847                          TO KMTA-ROUTINE-NUM           (KMTA-CTR)54541281
047848                END-IF                                            54541281
047849                                                                  54541281
047850                MOVE HEALTH-COVEND-DATE TO XDC3-ISO-DATE          54541281
047851                PERFORM XDC3-CONVERT-ISO-TO-LILIAN                54541281
047852                MOVE XDC3-LILIAN-DATE TO WS-HEALTH-COVEND-LI      54541281
047853                MOVE EFCB-FCB-COVEFF-DATE (ENTRY-HOLD)            54541281
047854                               TO XDC3-ISO-DATE                   54541281
047855                PERFORM XDC3-CONVERT-ISO-TO-LILIAN                54541281
047856                MOVE XDC3-LILIAN-DATE                             54541281
047857                                 TO WS-FUT-HLTH-COVEFF-LI         54541281
047858                COMPUTE WS-DAYS-DIFF                              54541281
047859                         = (WS-FUT-HLTH-COVEFF-LI                 54541281
047860                                    - WS-HEALTH-COVEND-LI)        54541281
047861                IF WS-DAYS-DIFF > 1                               54541281
047862                AND EFCB-FCB-ENRL-REAS-CODE (ENTRY-HOLD)          54541281
047863                            = ('HI' OR 'BE' OR 'CV')              54541281
047864                    ADD 1 TO KMTA-CTR                             54541281
047865                    MOVE M12554                                   54541281
047866                                     TO KMTA-MSG-NUMBER (KMTA-CTR)54541281
047867                    MOVE WS-ROUTINE-TYPE                          54541281
047868                          TO KMTA-ROUTINE-TYPE          (KMTA-CTR)54541281
047869                    MOVE WS-ROUTINE-NUM                           54541281
047870                          TO KMTA-ROUTINE-NUM           (KMTA-CTR)54541281
047871                END-IF                                            54541281
047872                IF HLTH-PLAN  NOT = SAVE-HLTH-PLAN                54541281
047873                   IF EFCB-FCB-PLAN-INFO-DATA (ENTRY-HOLD)        54541281
047874                            = HOLD-FCB-PLAN-INFO-DATA (ENTRY-HOLD)54541281
047875                   AND EFCB-FCB-PLAN-INFO-DATA (ENTRY-HOLD) (1:2) 54541281
047876                            = HLTH-PLAN                           54541281
047877                       IF (HEALTH-COVEND-DATE (1:7)               54541281
047878                          =  EFCB-FCB-COVEFF-DATE (ENTRY-X) (1:7))54541281
047879                       OR WS-DAYS-DIFF = 1                        54541281
047880                          ADD 1 TO KMTA-CTR                       54541281
047881                          MOVE M12579                             54541281
047882                              TO KMTA-MSG-NUMBER    (KMTA-CTR)    54541281
047883                          MOVE WS-ROUTINE-TYPE                    54541281
047884                              TO KMTA-ROUTINE-TYPE  (KMTA-CTR)    54541281
047885                          MOVE WS-ROUTINE-NUM                     54541281
047886                              TO KMTA-ROUTINE-NUM   (KMTA-CTR)    54541281
047887                       END-IF                                     54541281
047889                   END-IF                                         54541281
047890                END-IF                                            54541281
047891            END-IF                                                54541281
047892        END-IF                                                    54541281
047893                                                                  54541281
047894        IF  HLTH-OPTOUT = 'X'                                     54541281
047895        AND  HLTH-PLAN   NOT  = SAVE-HLTH-PLAN                    54541281
047896        AND  SAVE-HLTH-PLAN = 'XX'                                54541281
047897             MOVE SPACE   TO HLTH-OPTOUT                          54541281
047898             MOVE E0377   TO DL-FIELD                             54541281
047899             PERFORM 9050-AUDITING-RESPONSIBILITIES               54541281
047900        END-IF                                                    54541281
047901                                                                  54541281
047902        IF  HEALTH-COVEND-DATE NOT = XDTS-ISO-ZERO-DATE           54541281
047903            IF HLTH-COVEFFDATE >  HEALTH-COVEND-DATE              54541281
047904               ADD 1        TO KMTA-CTR                           54541281
047905               MOVE M12545                                        54541281
047906                          TO KMTA-MSG-NUMBER            (KMTA-CTR)54541281
047907               MOVE WS-ROUTINE-TYPE                               54541281
047908                          TO KMTA-ROUTINE-TYPE          (KMTA-CTR)54541281
047909               MOVE WS-ROUTINE-NUM                                54541281
047910                          TO KMTA-ROUTINE-NUM           (KMTA-CTR)54541281
047911            END-IF                                                54541281
047912            IF HLTH-PLAN = 'DM'                                   54541281
047913               MOVE SAVE-HEALTH-COVEND-DATE TO HEALTH-COVEND-DATE 54541281
047914            END-IF                                                54541281
047915        END-IF                                                    54541281
047920     ELSE                                                         54541281
048000        IF     HLTH-PLAN        = SPACES                          54541281
048210           AND HLTH-COVEFFDATE  = XDTS-ISO-ZERO-DATE              54541281
048301*----------> ATTEMPT TO EXPLICITLY CANCEL THE PLAN - UPDATE BLOCK 54541281
048310           IF   SAVE-HLTH-PLAN       NOT = SPACES                 54541281
048320           AND  SAVE-HLTH-COVEFFDATE NOT = XDC3-LOW-ISO-DATE      54541281
048323               ADD 1        TO KMTA-CTR                           54541281
048324               MOVE M12568                                        54541281
048325                          TO KMTA-MSG-NUMBER            (KMTA-CTR)54541281
048326               MOVE WS-ROUTINE-TYPE                               54541281
048327                          TO KMTA-ROUTINE-TYPE          (KMTA-CTR)54541281
048328               MOVE WS-ROUTINE-NUM                                54541281
048329                          TO KMTA-ROUTINE-NUM           (KMTA-CTR)54541281
048330               MOVE SAVE-HLTH-PLAN  TO HLTH-PLAN                  54541281
048331               MOVE SAVE-HLTH-COVEFFDATE TO HLTH-COVEFFDATE       54541281
048340               MOVE SAVE-HEALTH-COVEND-DATE TO HEALTH-COVEND-DATE 54541281
048370          END-IF                                                  54541281
048400        ELSE                                                      54541281
048513           MOVE SAVE-HLTH-PLAN         TO HLTH-PLAN               54541281
048515           MOVE SAVE-HLTH-COVEFFDATE   TO HLTH-COVEFFDATE         54541281
048516           MOVE SAVE-HEALTH-COVEND-DATE TO HEALTH-COVEND-DATE     54541281
048517           MOVE SAVE-EMP-HLTH-COVEFFDT TO EMP-HLTH-COVEFFDT       54541281
048518           MOVE SAVE-MED-PROVIDER-ID   TO MED-PROVIDER-ID         54541281
056351        END-IF                                                    54541281
056352     END-IF.                                                      54541281
056353                                                                  54541281
074950     EJECT                                                        PPEC133
074951*----------------------------------------------------------------*PPEC133
074960 9050-AUDITING-RESPONSIBILITIES  SECTION.                         PPEC133
075000*----------------------------------------------------------------*PPEC133
075100                                                                  PPEC133
075200*                                                 *-------------* PPEC133
075300                                                   COPY CPPDXDEC. PPEC133
075400*                                                 *-------------* PPEC133
075500                                                                  PPEC133
075600*----------------------------------------------------------------*PPEC133
075700 9060-APPT-DIST-LOC-CALCULATION  SECTION.                         PPEC133
075800*----------------------------------------------------------------*PPEC133
075900                                                                  PPEC133
076000*                                                 *-------------* PPEC133
076100                                                   COPY CPPDADLC. PPEC133
076200*                                                 *-------------* PPEC133
076300                                                                  PPEC133
076400     EJECT                                                        PPEC133
076500*----------------------------------------------------------------*PPEC133
076600 9300-DATE-CONVERSION-DB2  SECTION.                               PPEC133
076700*----------------------------------------------------------------*PPEC133
076800                                                                  PPEC133
076900*                                                 *-------------* PPEC133
077010                                                   COPY CPPDXDC3. 28521025
077100*                                                 *-------------* PPEC133
077200                                                                  PPEC133
077300     EJECT                                                        PPEC133
077400*----------------------------------------------------------------*PPEC133
077500 XXXX-ZAP-BENEFIT-PLANS  SECTION.                                 PPEC133
077600*----------------------------------------------------------------*PPEC133
077700                                                                  PPEC133
077800*                                                 *-------------* PPEC133
077900                                                   COPY CPPDBZAP. PPEC133
078000*                                                 *-------------* PPEC133
078100                                                                  PPEC133
078200                                                                  PPEC133
078300******************************************************************PPEC133
078400**   E N D  S O U R C E   ----  PPEC133 ----                    **PPEC133
078500******************************************************************PPEC133
