003800**************************************************************/   48881487
003900*  PROGRAM: PPEC717                                          */   48881487
004000*  RELEASE: ___1487______ SERVICE REQUEST(S): ____14888____  */   48881487
004010*  NAME:__PHIL THOMPSON__ CREATION DATE:      ___04/08/03__  */   48881487
004200*  DESCRIPTION: CONSISTENCY EDITS FOR DIRECT DEPOSIT GTN'S.  */   48881487
004300*    INITIALLY WITH SCHOLARSHARE THE ONLY EDITS WILL BE FOR  */   48881487
004310*    ADC CODE CONSISTENCY WITH EXISTING DATA, BLANK DATA AND */   48881487
004320*    A GTN DIRECT DEPOSIT INDICATOR. IT IS PRESUMED THAT THE */   48881487
004330*    MAJOR UPDATE PROCESS WILL BE VIA THE TIAA-CREF FILE.    */   48881487
004340*                                                            */   48881487
004350*    HOWEVER, AS OTHER DG TRANSACTIONS ARE PROCESSED THE     */   48881487
004360*    DATA EDITS WILL HAVE TO BE REFINED AND SETS REJECTED    */   48881487
004370*    AS APPROPRIATE FOR EACH GTN NUMBER.                     */   48881487
004400**************************************************************/   48881487
004500 IDENTIFICATION DIVISION.                                         PPEC717
004600 PROGRAM-ID. PPEC717.                                             PPEC717
004700*AUTHOR. UCOP.                                                    PPEC717
004800*INSTALLATION. UNIVERSITY OF CALIFORNIA.                          PPEC717
004900*DATE-WRITTEN.  APRIL 2003.                                       PPEC717
005000*DATE-COMPILED.                                                   PPEC717
005100                                                                  PPEC717
005200****************************************************************  PPEC717
005300**    THIS ROUTINE PERFORMS SET TRANSACTION                       PPEC717
005400**    CONSISTENCY EDITS AND ANY NEEDED OCCURRENCE-KEY             PPEC717
005500**    CONVERSIONS FOR DIRECT DEPOSIT GTN DATA.                    PPEC717
005600****************************************************************  PPEC717
005700                                                                  PPEC717
005800 ENVIRONMENT DIVISION.                                            PPEC717
005900 CONFIGURATION SECTION.                                           PPEC717
006000 SOURCE-COMPUTER.                                  COPY CPOTXUCS. PPEC717
006100 OBJECT-COMPUTER.                                  COPY CPOTXOBJ. PPEC717
006200                                                                  PPEC717
006300 INPUT-OUTPUT SECTION.                                            PPEC717
006400 FILE-CONTROL.                                                    PPEC717
006500 DATA DIVISION.                                                   PPEC717
006600 FILE SECTION.                                                    PPEC717
006700     EJECT                                                        PPEC717
006800****************************************************************  PPEC717
006900 WORKING-STORAGE SECTION.                                         PPEC717
007000****************************************************************  PPEC717
007100 01  A-STND-PROG-ID            PIC X(15) VALUE                    PPEC717
007400     'PPEC717 /042803'.                                           PPEC717
007500                                                                  PPEC717
007600 01  A-STND-MSG-PARMS          REDEFINES                          PPEC717
007700     A-STND-PROG-ID.                                              PPEC717
007800     05  FILLER                PIC X(03).                         PPEC717
007900     05  WS-ROUTINE-TYPE       PIC X(01).                         PPEC717
008000     05  WS-ROUTINE-NUM        PIC 9(03).                         PPEC717
008100     05  FILLER                PIC X(08).                         PPEC717
008200                                                                  PPEC717
008400 01  MESSAGES-USED.                                               PPEC717
008700     05  M08296                PIC 9(5)         VALUE 08296.      PPEC717
008800     05  M08297                PIC 9(5)         VALUE 08297.      PPEC717
008900     05  M08298                PIC 9(5)         VALUE 08298.      PPEC717
009000     05  M08299                PIC 9(5)         VALUE 08299.      PPEC717
009200     05  M08150                PIC 9(5)         VALUE 08150.      PPEC717
009300     05  M08151                PIC 9(5)         VALUE 08151.      PPEC717
009700     05  M12296                PIC 9(5)         VALUE 12296.      PPEC717
009800     05  M12297                PIC 9(5)         VALUE 12297.      PPEC717
009900     05  M12298                PIC 9(5)         VALUE 12298.      PPEC717
010000     05  M12299                PIC 9(5)         VALUE 12299.      PPEC717
010200     05  M12150                PIC 9(5)         VALUE 12150.      PPEC717
010300     05  M12151                PIC 9(5)         VALUE 12151.      PPEC717
010500                                                                  PPEC717
010600 01  ELEMENTS-USED.                                               PPEC717
010700     05  E0780                 PIC 9(04)  VALUE 0780.             PPEC717
010710     05  E0781                 PIC 9(04)  VALUE 0781.             PPEC717
010720     05  E0782                 PIC 9(04)  VALUE 0782.             PPEC717
010800     05  E0783                 PIC 9(04)  VALUE 0783.             PPEC717
010900     05  E0784                 PIC 9(04)  VALUE 0784.             PPEC717
011000     05  E0785                 PIC 9(04)  VALUE 0785.             PPEC717
011300                                                                  PPEC717
011400 01  MISC-WORK-AREAS.                                             PPEC717
011500     05  WS-GTN-NUM            PIC X(03).                         PPEC717
011600         88  SCHOLARSHARE-DG-TRANSACTION  VALUE '600'.            PPEC717
011800     05  FIRST-TIME-SW         PIC X(01)  VALUE 'Y'.              PPEC717
011900         88  FIRST-TIME                   VALUE 'Y'.              PPEC717
012000         88  NOT-THE-FIRST-TIME           VALUE 'N'.              PPEC717
012100     05  OK-START-X            PIC S9(4)  COMP VALUE ZERO.        PPEC717
012200     05  OK-BYTE-X             PIC S9(4)  COMP VALUE ZERO.        PPEC717
012300     05  SAVE-KMTA-CTR         PIC S9(3)       VALUE ZERO.        PPEC717
012400     05  OCUR-X                PIC S9(4)  COMP VALUE ZEROS.       PPEC717
012500     05  ENTRY-X               PIC S9(4)  COMP VALUE ZERO.        PPEC717
012600     05  NUM-DDG-ENTRIES       PIC S9(4)  COMP VALUE ZERO.        PPEC717
012700     05  HOLD-NUM-DDG-ENTRIES  PIC S9(4)  COMP VALUE ZERO.        PPEC717
012800     05  ISO-HIGH-DATE         PIC X(10)  VALUE '9999-12-31'.     PPEC717
012900     05  ISO-LOW-DATE          PIC X(10)  VALUE '0001-01-01'.     PPEC717
013000     05  INIT-KEY-FOR-DDG-ARRAY.                                  PPEC717
013100         10  INIT-DDG-GTN-NUMBER PIC X(03) VALUE SPACES.          PPEC717
013200     05  DDG-KEY-FOR-CPSWXOKT.                                    PPEC717
013300         10  DDG-GTN-NUMBER-KEY PIC X(03).                        PPEC717
013400     05  FILLER.                                                  PPEC717
013500         10  ERR-OCCURRENCE-KEY.                                  PPEC717
013600             15  ERR-OCCURRENCE-KEY-BYTE                          PPEC717
013700                               PIC X(01)  OCCURS 18.              PPEC717
013810     05  FILLER.                                                  PPEC717
013900         10  ERR-ELEM-NO       PIC X(04)       VALUE ZERO.        PPEC717
014000         10  SET-TRAN-ID       PIC X(02)       VALUE 'DG'.        PPEC717
014100     EJECT                                                        PPEC717
014200 01  DL-FIELD-WORK-AREA.                           COPY CPWSXDLS. PPEC717
014300     EJECT                                                        PPEC717
014600 01  XWHC-COMPILE-WORK-AREA.                       COPY CPWSXWHC. PPEC717
014700     EJECT                                                        PPEC717
014800 01  APPT-DIST-LOC-WORK-AREAS.                     COPY CPWSADLC. PPEC717
014900     EJECT                                                        PPEC717
015200 01  INSTALLATION-DEPENDT-CONSTATNS.               COPY CPWSXIDC. PPEC717
015300     EJECT                                                        PPEC717
015400 01  XMST-MESSAGE-SEVERITY-TABLE.                  COPY CPWSXMST. PPEC717
015500     EJECT                                                        PPEC717
015600 01  PPDB2MSG-INTERFACE.                           COPY CPLNKDB2. PPEC717
015700     EJECT                                                        PPEC717
015800****************************************************************  PPEC717
015900**     E  X  T  E  R  N  A  L  S      S  E  C  T  I  O  N         PPEC717
016000**************************************************************--  PPEC717
016100** THE FOLLOWING EXTERNAL AREAS WILL BE USED BY OTHER PROCESSES   PPEC717
016200****************************************************************  PPEC717
016400 01  ONLINE-SIGNALS                      EXTERNAL. COPY CPWSONLI. PPEC717
016500     EJECT                                                        PPEC717
016600 01  CPWSXOCC                            EXTERNAL. COPY CPWSXOCC. PPEC717
016700     EJECT                                                        PPEC717
016800 01  CPWSSEVX                            EXTERNAL. COPY CPWSSEVX. PPEC717
016900     EJECT                                                        PPEC717
017000 01  DATA-ELEMENT-CHANGE-INDICATORS      EXTERNAL. COPY CPWSXDEC. PPEC717
017100     EJECT                                                        PPEC717
017200 01  XCSS-COMMON-SYSTEM-SWITCHES         EXTERNAL. COPY CPWSSWCH. PPEC717
017300     EJECT                                                        PPEC717
017400 01  XDTS-COMMON-SYSTEM-DATES            EXTERNAL. COPY CPWSXDTS. PPEC717
017500     EJECT                                                        PPEC717
017600 01  ECES-CON-EDIT-SWITCH                EXTERNAL. COPY CPWSECES. PPEC717
017700     EJECT                                                        PPEC717
017800 01  EGES-GTN-EDIT-SWITCH                EXTERNAL. COPY CPWSEGES. PPEC717
017900     EJECT                                                        PPEC717
018000 01  EIMS-IMP-MAINT-SWITCH               EXTERNAL. COPY CPWSEIMS. PPEC717
018100     EJECT                                                        PPEC717
018200 01  EAXD-APPT-ARRAY-SWITCH              EXTERNAL. COPY CPWSEAXD. PPEC717
018300     EJECT                                                        PPEC717
018400 01  XDER-DATA-ELMT-RTN-POINTERS         EXTERNAL. COPY CPWSXDER. PPEC717
018500     EJECT                                                        PPEC717
018600 01  XDRT-DET-ROUTINE-TRIGGERS           EXTERNAL. COPY CPWSXDRT. PPEC717
018700     EJECT                                                        PPEC717
018800 01  SYSTEM-PARAMETERS                   EXTERNAL. COPY CPWSXSP2. PPEC717
018900     EJECT                                                        PPEC717
019000 01  COMM-TAB                            EXTERNAL. COPY CPOTXCMF. PPEC717
019100     EJECT                                                        PPEC717
019200 01  EDB-MAINTENANCE-PASS-AREA           EXTERNAL. COPY CPWSEMPA. PPEC717
019300     EJECT                                                        PPEC717
019400 01  OCCURRENCE-KEY-TABLE                EXTERNAL. COPY CPWSXOKT. PPEC717
019500     EJECT                                                        PPEC717
019510 01  PASS-XMST-HOLD-AREA                 EXTERNAL. COPY CPWSPMST. PPEC717
019520     EJECT                                                        PPEC717
019530**************************************************************--  PPEC717
019540**   ARRAY OF CURRENT DIRECT DEPOSIT GTN DATA.                    PPEC717
019541**   ARRAY OF PRIOR DIRECT DEPOSIT GTN DATA.                      PPEC717
019550****************************************************************  PPEC717
019600 01  PPPDDG-ARRAY                        EXTERNAL. COPY CPWSEDDG. PPEC717
019700     EJECT                                                        PPEC717
019800 01  PPPDDG-ARRAY-HOLD                   EXTERNAL. COPY CPWSEDDG  PPEC717
020000        REPLACING EDDG-OCCURRENCE-KEY BY HOLD-OCCURRENCE-KEY      PPEC717
020100                  EDDG-DIR-DEP-DATA   BY HOLD-DIR-DEP-DATA        PPEC717
020110                  EDDG-GTN-NUMBER     BY HOLD-GTN-NUMBER          PPEC717
020120                  EDDG-ADC-CODE       BY HOLD-ADC-CODE            PPEC717
020200                  EDDG-TRANSIT-NUM    BY HOLD-TRANSIT-NUM         PPEC717
020400                  EDDG-ACCT-NUM       BY HOLD-ACCT-NUM            PPEC717
020410                  EDDG-ACCT-TYPE      BY HOLD-ACCT-TYPE           PPEC717
020500                  EDDG-SPB-BANK-KEY   BY HOLD-SPB-BANK-KEY.       PPEC717
021100     EJECT                                                        PPEC717
021200******************************************************************PPEC717
021300**   DATA BASE AREAS                                            **PPEC717
021400******************************************************************PPEC717
021500                                                                  PPEC717
021510 01  GTN-ROW.                                                     PPEC717
021520     EXEC SQL                                                     PPEC717
021521       INCLUDE PPPVZGTN                                           PPEC717
021522     END-EXEC.                                                    PPEC717
021523                                                                  PPEC717
021527     EXEC SQL                                                     PPEC717
021528         INCLUDE SQLCA                                            PPEC717
021529     END-EXEC.                                                    PPEC717
021560     EJECT                                                        PPEC717
021600****************************************************************  PPEC717
021700**          L  I  N  K  A  G  E      S  E  C  T  I  O  N          PPEC717
021800****************************************************************  PPEC717
021900****************************************************************  PPEC717
022000 LINKAGE SECTION.                                                 PPEC717
022100****************************************************************  PPEC717
022200                                                                  PPEC717
022300****************************************************************  PPEC717
022400**  THE KRMI AREA IS A COMMON AREA THAT IS USED TO PASS           PPEC717
022500**  INFORMATION THAT IS REQUIRED FOR THIS MODULE TO EXECUTE       PPEC717
022600****************************************************************  PPEC717
022700                                                                  PPEC717
022800 01  KRMI-LINKAGE-SECTION.                         COPY CPLNKRMI. PPEC717
022900     EJECT                                                        PPEC717
023000****************************************************************  PPEC717
023100**  THIS MESSAGE TABLE ARRAY WILL CONTAIN ALL MESSAGES THAT       PPEC717
023200**  THIS ROUTINE CAN LOGICALLY ISSUE AT ONE TIME                  PPEC717
023300****************************************************************  PPEC717
023400                                                                  PPEC717
023500 01  KMTA-MESSAGE-TABLE-ARRAY.                     COPY CPLNKMTA. PPEC717
023600                                                                  PPEC717
023700****************************************************************  PPEC717
023800**    P  R  O  C  E  D  U  R  E      D  I  V  I  S  I  O  N       PPEC717
023900****************************************************************  PPEC717
024000 PROCEDURE DIVISION USING KRMI-LINKAGE-SECTION,                   PPEC717
024100                          KMTA-MESSAGE-TABLE-ARRAY.               PPEC717
024110***************************************************************** PPEC717
024120*    THE FOLLOWING SQL WILL CAUSE ANY 'ABNORMAL' SQLCODE TO     * PPEC717
024130*    CAUSE A BRANCH TO 999999-SQL-ERROR.                        * PPEC717
024140***************************************************************** PPEC717
024160     EXEC SQL                                                     PPEC717
024170         INCLUDE CPPDXE99                                         PPEC717
024180     END-EXEC.                                                    PPEC717
024300                                                                  PPEC717
024900 0000-MAINLINE            SECTION.                                PPEC717
025000****************************************************************  PPEC717
025100*** ON EACH CALL, DETERMINE THE LIMITS OF THE ACTIVE ARRAYS       PPEC717
025200*** FOR THE ORIGINAL DB2 ROW COPIES AND THE UPDATED COPIES.       PPEC717
025300*** THIS INFO IS IMPORTANT IN THE MATCHING PROCESS WHICH          PPEC717
025400*** DETERMINES WHICH UPDATE FUNCTION (IF ANY) IS APPROPRIATE.     PPEC717
025500***                                                               PPEC717
025600*** EDIT THE TRANSACTION DATA.                                    PPEC717
025700***                                                               PPEC717
025800*** FORMAT ERROR MESSAGES AND TURNAROUND TRANSACTIONS             PPEC717
025900*** AS REQUIRED. NOTE THAT THIS FREQUENTLY REQUIRES               PPEC717
026000*** DATE AND OTHER DATA-FORMAT CONVERSIONS.                       PPEC717
026100****************************************************************  PPEC717
026200     IF  FIRST-TIME                                               PPEC717
026300         SET NOT-THE-FIRST-TIME        TO TRUE                    PPEC717
026400         IF  NOT ENVIRON-IS-CICS                                  PPEC717
026500             PERFORM 0300-DISPLAY-COMPILE-STAMP                   PPEC717
026600         END-IF                                                   PPEC717
026800         MOVE A-STND-PROG-ID  TO DB2MSG-PGM-ID                    PPEC717
026900         MOVE PASS-XMST-HOLD-AREA TO XMST-HOLD-AREA               PPEC717
027100     END-IF.                                                      PPEC717
027200                                                                  PPEC717
027300     PERFORM 1000-DET-ARRAY-LIMITS.                               PPEC717
027400     IF COMM-ERROR-CODE = ZERO                                    PPEC717
027500         PERFORM 2000-EDIT-SET-TRAN                               PPEC717
027600     END-IF.                                                      PPEC717
027700                                                                  PPEC717
027800     EXIT PROGRAM.                                                PPEC717
027900                                                                  PPEC717
028000     EJECT                                                        PPEC717
029800 0300-DISPLAY-COMPILE-STAMP  SECTION.                             PPEC717
029900****************************************************************  PPEC717
030000* EXECUTE CODE IN COPYBOOK TO DISPLAY COMPILE TIMESTAMP.          PPEC717
030100****************************************************************  PPEC717
030200     MOVE A-STND-PROG-ID TO XWHC-DISPLAY-MODULE.                  PPEC717
030300*                                               *--------------*  PPEC717
030400                                                 COPY CPPDXWHC.   PPEC717
030500*                                               *--------------*  PPEC717
030600     EJECT                                                        PPEC717
030700 1000-DET-ARRAY-LIMITS SECTION.                                   PPEC717
030800****************************************************************  PPEC717
030900**   COUNT THE NUMBER OF ENTRIES IN THE UPDATED ARRAY.            PPEC717
031000**   COUNT THE NUMBER OF ENTRIES IN THE ORIGINAL ARRAY.           PPEC717
031100****************************************************************  PPEC717
031200                                                                  PPEC717
031300     PERFORM                                                      PPEC717
031400      VARYING NUM-DDG-ENTRIES  FROM +1 BY +1                      PPEC717
031500        UNTIL NUM-DDG-ENTRIES  > IDC-MAX-NO-DDG                   PPEC717
031600           OR  EDDG-OCCURRENCE-KEY (NUM-DDG-ENTRIES)              PPEC717
031700                               = INIT-KEY-FOR-DDG-ARRAY           PPEC717
031800     END-PERFORM.                                                 PPEC717
031900                                                                  PPEC717
032000     COMPUTE NUM-DDG-ENTRIES   = NUM-DDG-ENTRIES  - 1.            PPEC717
032100                                                                  PPEC717
032300     PERFORM                                                      PPEC717
032400      VARYING HOLD-NUM-DDG-ENTRIES  FROM +1 BY +1                 PPEC717
032500        UNTIL HOLD-NUM-DDG-ENTRIES  > IDC-MAX-NO-DDG              PPEC717
032600           OR HOLD-OCCURRENCE-KEY (HOLD-NUM-DDG-ENTRIES)          PPEC717
032700                                    = INIT-KEY-FOR-DDG-ARRAY      PPEC717
032800     END-PERFORM.                                                 PPEC717
032900                                                                  PPEC717
033000     COMPUTE HOLD-NUM-DDG-ENTRIES = HOLD-NUM-DDG-ENTRIES  - 1.    PPEC717
033100                                                                  PPEC717
033200****************************************************************  PPEC717
033300** WHEN PPEDBUPD APPLIES EXPLICIT ELEMENT ACTIVITY TO THE         PPEC717
033400** ARRAY, IF THE OCCURRENCE KEY PASSED TO PPEDBUPD MATCHES ONE    PPEC717
033500** WHICH IS ALREADY RESIDENT, THE ELEMENT CHANGE IS APPLIED TO    PPEC717
033600** THAT ARRAY ENTRY; OTHERWISE, A NEW ENTRY IS ADDED TO THE       PPEC717
033700** ARRAY.  THUS, THE UPDATED ARRAY SHOULD NEVER CONTAIN FEWER     PPEC717
033800** ENTRIES THAN THE ORIGINAL.                                     PPEC717
033900****************************************************************  PPEC717
034000                                                                  PPEC717
034100     IF  NUM-DDG-ENTRIES  < HOLD-NUM-DDG-ENTRIES                  PPEC717
034200         ADD 1                     TO KMTA-CTR                    PPEC717
034300         MOVE WS-ROUTINE-TYPE      TO KMTA-ROUTINE-TYPE (KMTA-CTR)PPEC717
034400         MOVE WS-ROUTINE-NUM       TO KMTA-ROUTINE-NUM  (KMTA-CTR)PPEC717
034500         IF  KRMI-REQUESTED-BY-08                                 PPEC717
034600             MOVE M08299           TO KMTA-MSG-NUMBER   (KMTA-CTR)PPEC717
034700         ELSE                                                     PPEC717
034800             MOVE 299              TO COMM-ERROR-CODE             PPEC717
034900             MOVE M12299           TO KMTA-MSG-NUMBER   (KMTA-CTR)PPEC717
035000         END-IF                                                   PPEC717
035100     END-IF.                                                      PPEC717
035200     EJECT                                                        PPEC717
035300 2000-EDIT-SET-TRAN      SECTION.                                 PPEC717
035400****************************************************************  PPEC717
035500** IF THE SUBSCRIPT OF THE UPDATED ARRAY ENTRY BEING PROCESSED    PPEC717
035600** IS GREATER THAN THE NUMBER OF ENTRIES IN THE ORIGINAL ARRAY,   PPEC717
035700** THE A/D/C CODE MUST BE AN "ADD", BECAUSE ROWS WITH NEW KEYS    PPEC717
035800** ARE ALWAYS ADDED TO THE END.                                   PPEC717
035900**                                                                PPEC717
036000** FOR THE REST OF THE ARRAY, PROCESSING DEPENDS UPON A           PPEC717
036100** COMPARISON OF THE "BEFORE" AND "AFTER" COPIES OF THE ROW.      PPEC717
036200**                                                                PPEC717
036300** IF THE ROW HAS NOT CHANGED, THERE IS NO REASON TO EDIT IT OR   PPEC717
036400** APPLY ITS VALUES TO THE DATABASE WHEN A "CHANGE" IS REQUESTED. PPEC717
036500** CONSEQUENTLY, THE EDIT IS SKIPPED.                             PPEC717
036600**                                                                PPEC717
036700** IF THE ROW HAS NOT CHANGED, THE REQUEST CANNOT POSSIBLY BE A   PPEC717
036800** DELETE REQUEST BECAUSE A ROW ON THE DATA BASE CANNOT           PPEC717
036900** LOGICALLY CONTAIN AN  A/D/C CODE OF 'D'.                       PPEC717
037000** CONSEQUENTLY, THE EDIT IS SKIPPED IN THIS CASE AS WELL.        PPEC717
037100**                                                                PPEC717
037200****************************************************************  PPEC717
037300     PERFORM                                                      PPEC717
037400      VARYING ENTRY-X  FROM +1 BY +1                              PPEC717
037500        UNTIL ENTRY-X  > NUM-DDG-ENTRIES                          PPEC717
037600         IF  ENTRY-X  > HOLD-NUM-DDG-ENTRIES                      PPEC717
037700             PERFORM 2100-ADD-ROW                                 PPEC717
037800         ELSE                                                     PPEC717
037900             IF  HOLD-DIR-DEP-DATA (ENTRY-X) NOT =                PPEC717
038000                 EDDG-DIR-DEP-DATA (ENTRY-X)                      PPEC717
038100                 PERFORM 2300-CHG-OR-DEL-ROW                      PPEC717
038200             END-IF                                               PPEC717
038300         END-IF                                                   PPEC717
038400     END-PERFORM.                                                 PPEC717
038500     EJECT                                                        PPEC717
038600 2100-ADD-ROW              SECTION.                               PPEC717
038700****************************************************************  PPEC717
038800*** IF THE SUBSCRIPT OF THE UPDATED ARRAY ENTRY BEING PROCESSED   PPEC717
038900*** IS GREATER THAN THE NUMBER OF ENTRIES IN THE ORIGINAL ARRAY,  PPEC717
039000*** THE A/D/C CODE MUST BE AN ADD.                                PPEC717
039100****************************************************************  PPEC717
039200     IF  EDDG-ADC-CODE (ENTRY-X) NOT = 'A'                        PPEC717
039300         ADD 1             TO KMTA-CTR                            PPEC717
039400         MOVE E0781        TO KMTA-FIELD-NUM    (KMTA-CTR)        PPEC717
039500         MOVE EDDG-ADC-CODE (ENTRY-X)                             PPEC717
039600                           TO KMTA-DATA-FIELD   (KMTA-CTR)        PPEC717
039700         MOVE WS-ROUTINE-TYPE                                     PPEC717
039800                           TO KMTA-ROUTINE-TYPE (KMTA-CTR)        PPEC717
039900         MOVE WS-ROUTINE-NUM                                      PPEC717
040000                           TO KMTA-ROUTINE-NUM  (KMTA-CTR)        PPEC717
040100         MOVE 01           TO KMTA-LENGTH       (KMTA-CTR)        PPEC717
040200         IF  KRMI-REQUESTED-BY-08                                 PPEC717
040300             MOVE M08297   TO KMTA-MSG-NUMBER   (KMTA-CTR)        PPEC717
040400         ELSE                                                     PPEC717
040500             MOVE M12297   TO KMTA-MSG-NUMBER   (KMTA-CTR)        PPEC717
040600         END-IF                                                   PPEC717
040700                                                                  PPEC717
040800         PERFORM 2162-FMT-OCC-KEY                                 PPEC717
040900         PERFORM 2164-PUT-ERROR-TO-KMTA                           PPEC717
041100     END-IF.                                                      PPEC717
041200     PERFORM 2500-EDIT-ROW.                                       PPEC717
041300     EJECT                                                        PPEC717
041400 2160-INVALID-ADC-CD       SECTION.                               PPEC717
041500****************************************************************  PPEC717
041600** IF THE SUBSCRIPT OF THE UPDATED ARRAY ENTRY BEING PROCESSED    PPEC717
041700** IS GREATER THAN THE NUMBER OF ENTRIES IN THE ORIGINAL ARRAY,   PPEC717
041800** THE A/D/C CODE MUST BE AN "ADD"; OTHERWISE (IF THE ENTRY       PPEC717
041900** DIFFERS FROM THE ORIGINAL), THE A/D/C CODE MUST INDICATE A     PPEC717
042000** "CHANGE" OR "DELETE".                                          PPEC717
042600****************************************************************  PPEC717
042700     ADD 1                       TO KMTA-CTR.                     PPEC717
042800     MOVE E0781                  TO KMTA-FIELD-NUM    (KMTA-CTR). PPEC717
043000     MOVE EDDG-ADC-CODE (ENTRY-X) TO KMTA-DATA-FIELD  (KMTA-CTR). PPEC717
043200     MOVE WS-ROUTINE-TYPE        TO KMTA-ROUTINE-TYPE (KMTA-CTR). PPEC717
043400     MOVE WS-ROUTINE-NUM         TO KMTA-ROUTINE-NUM  (KMTA-CTR). PPEC717
043500     MOVE 01                     TO KMTA-LENGTH       (KMTA-CTR). PPEC717
044000     IF  KRMI-REQUESTED-BY-08                                     PPEC717
044100         MOVE M08296             TO KMTA-MSG-NUMBER   (KMTA-CTR)  PPEC717
044300     ELSE                                                         PPEC717
044400         MOVE M12296             TO KMTA-MSG-NUMBER   (KMTA-CTR)  PPEC717
044600     END-IF.                                                      PPEC717
046900                                                                  PPEC717
047000     PERFORM 2162-FMT-OCC-KEY                                     PPEC717
047100     PERFORM 2164-PUT-ERROR-TO-KMTA.                              PPEC717
047200     EJECT                                                        PPEC717
047300 2162-FMT-OCC-KEY         SECTION.                                PPEC717
047400****************************************************************  PPEC717
047600     MOVE EDDG-GTN-NUMBER (ENTRY-X)   TO DDG-GTN-NUMBER-KEY.      PPEC717
047700     MOVE DDG-KEY-FOR-CPSWXOKT        TO ERR-OCCURRENCE-KEY.      PPEC717
047800                                                                  PPEC717
048100 2164-PUT-ERROR-TO-KMTA  SECTION.                                 PPEC717
048200****************************************************************  PPEC717
048400     MOVE KMTA-CTR                 TO SAVE-KMTA-CTR.              PPEC717
048500*** MATCH SET TRANSACTION ID                                      PPEC717
048600     PERFORM                                                      PPEC717
048700         VARYING OCUR-X  FROM +1 BY +1                            PPEC717
048800           UNTIL OCUR-X  > OCUR-KEY-X                             PPEC717
048900              OR (OCUR-KEY-TRAN (OCUR-X) =  SET-TRAN-ID           PPEC717
049000                  AND OCUR-KEY-OCCURRENCE-KEY (OCUR-X)            PPEC717
049100                                         =  ERR-OCCURRENCE-KEY)   PPEC717
049200     END-PERFORM.                                                 PPEC717
049300     IF  OCUR-X > OCUR-KEY-X                                      PPEC717
049400         AND NOT ENVIRON-IS-CICS                                  PPEC717
049500***      IF MATCH FAILED, REPORT THIS ERROR INSTEAD.              PPEC717
049600         ADD 1                     TO KMTA-CTR                    PPEC717
049700         IF  KRMI-REQUESTED-BY-08                                 PPEC717
049800             MOVE M08298           TO KMTA-MSG-NUMBER   (KMTA-CTR)PPEC717
049900         ELSE                                                     PPEC717
050000             MOVE M12298           TO KMTA-MSG-NUMBER   (KMTA-CTR)PPEC717
050100         END-IF                                                   PPEC717
050200         MOVE WS-ROUTINE-TYPE      TO KMTA-ROUTINE-TYPE (KMTA-CTR)PPEC717
050300         MOVE WS-ROUTINE-NUM       TO KMTA-ROUTINE-NUM  (KMTA-CTR)PPEC717
050400     ELSE                                                         PPEC717
050500***      FORMAT MSG                                               PPEC717
050600         MOVE KMTA-MSG-NUMBER (SAVE-KMTA-CTR)                     PPEC717
050700                                   TO XMST-ERROR                  PPEC717
050800         PERFORM 9200-LOOK-UP-MSG-SEVERITY                        PPEC717
050900         MOVE XMST-SEVERITY      TO KMTA-SEVERITY (SAVE-KMTA-CTR) PPEC717
051100         IF KMTA-SEVERITY (SAVE-KMTA-CTR) NOT <                   PPEC717
051200                                            CPWSSEVX-SERIOUS-SEV  PPEC717
051300            MOVE HIGH-VALUES TO OCUR-KEY-ERR-CD (OCUR-X)          PPEC717
051400         END-IF                                                   PPEC717
051500         MOVE OCUR-KEY-SET-CNTRL-NUM (OCUR-X)                     PPEC717
051600                            TO KMTA-SET-CNTRL-NUM (SAVE-KMTA-CTR) PPEC717
051700         MOVE 1             TO ERRWRITE-SET-TRANS-SW              PPEC717
051800                               KMTA-SET-TRANS-SW (SAVE-KMTA-CTR)  PPEC717
051900     END-IF.                                                      PPEC717
052000                                                                  PPEC717
052100     COMPUTE OK-START-X = KMTA-LENGTH (SAVE-KMTA-CTR) + 1.        PPEC717
052200                                                                  PPEC717
052300     MOVE ERR-OCCURRENCE-KEY TO XOCC-OCC-KEY (SAVE-KMTA-CTR).     PPEC717
052400     MOVE SAVE-KMTA-CTR TO XOCC-CTR.                              PPEC717
052500     PERFORM                                                      PPEC717
052600         VARYING OK-BYTE-X    FROM +1 BY +1                       PPEC717
052700           UNTIL OK-BYTE-X  > MAX-OCUR-KEY-DATA                   PPEC717
052800              OR OK-START-X > +30                                 PPEC717
052900         MOVE ERR-OCCURRENCE-KEY-BYTE (OK-BYTE-X)                 PPEC717
053000                TO KMTA-DATA-FIELD-R (SAVE-KMTA-CTR, OK-START-X)  PPEC717
053100         ADD   1                   TO OK-START-X                  PPEC717
053200     END-PERFORM.                                                 PPEC717
053300     EJECT                                                        PPEC717
062900 2300-CHG-OR-DEL-ROW       SECTION.                               PPEC717
063000******************************************************************PPEC717
063100** THE OLD AND NEW ARRAY ROWS DIFFER. THEREFORE, THE ADC CODE     PPEC717
063200** MUST BE 'C' OR 'D'                                             PPEC717
063300******************************************************************PPEC717
063400     EVALUATE EDDG-ADC-CODE (ENTRY-X)                             PPEC717
063500       WHEN 'D'                                                   PPEC717
063600         IF KRMI-REQUESTED-BY-12                                  PPEC717
063700             PERFORM 2400-DELETION-ADC-CD                         PPEC717
063800         END-IF                                                   PPEC717
063900       WHEN 'C'                                                   PPEC717
064000         PERFORM 2500-EDIT-ROW                                    PPEC717
064100       WHEN OTHER                                                 PPEC717
064200         PERFORM 2160-INVALID-ADC-CD                              PPEC717
064300     END-EVALUATE.                                                PPEC717
064400     EJECT                                                        PPEC717
064500 2400-DELETION-ADC-CD          SECTION.                           PPEC717
064600****************************************************************  PPEC717
064700* THIS SECTION PREPARES THE ROW FOR DELETION                      PPEC717
064800* FOR EACH DATA ELEMENT IN THE ROW, THE CHANGE FLAG IS TURNED ON. PPEC717
064900****************************************************************  PPEC717
065000     INITIALIZE EDDG-DIR-DEP-DATA (ENTRY-X).                      PPEC717
065200     MOVE E0780                TO DL-FIELD                        PPEC717
065300     PERFORM 9050-AUDITING-RESPONSIBILITIES                       PPEC717
065400     MOVE E0781                TO DL-FIELD                        PPEC717
065500     PERFORM 9050-AUDITING-RESPONSIBILITIES                       PPEC717
065600     MOVE E0782                TO DL-FIELD                        PPEC717
065700     PERFORM 9050-AUDITING-RESPONSIBILITIES                       PPEC717
065800     MOVE E0783                TO DL-FIELD                        PPEC717
065900     PERFORM 9050-AUDITING-RESPONSIBILITIES                       PPEC717
066000     MOVE E0784                TO DL-FIELD                        PPEC717
066100     PERFORM 9050-AUDITING-RESPONSIBILITIES                       PPEC717
066200     MOVE E0785                TO DL-FIELD                        PPEC717
066300     PERFORM 9050-AUDITING-RESPONSIBILITIES.                      PPEC717
066400     EJECT                                                        PPEC717
066410 2500-EDIT-ROW             SECTION.                               PPEC717
066420****************************************************************  PPEC717
066421*** EDIT THE DG TRANSACTION FIELDS FOR VALID VALUES               PPEC717
066422*** FIRST CHECK FOR GTN TABLE DIRECT DEPOSIT INDICATOR.           PPEC717
066423*** PERFORM EDIT 01 FOR SCHOLARSHARE DG TRANSACTION.              PPEC717
066424****************************************************************  PPEC717
066430                                                                  PPEC717
066432     MOVE EDDG-GTN-NUMBER (ENTRY-X) TO WS-GTN-NUM.                PPEC717
066433     PERFORM 8000-SELECT-GTN                                      PPEC717
066434     IF GTN-DIR-DEP-IND NOT = 'Y'                                 PPEC717
066435        PERFORM 2610-INVALID-GTN-DIR-DEP-IND                      PPEC717
066436     END-IF.                                                      PPEC717
066437                                                                  PPEC717
066438     IF  EDDG-TRANSIT-NUM (ENTRY-X) = '*'                         PPEC717
066439         MOVE SPACES TO EDDG-TRANSIT-NUM (ENTRY-X)                PPEC717
066440     END-IF.                                                      PPEC717
066441     IF  EDDG-ACCT-NUM    (ENTRY-X) = '*'                         PPEC717
066442         MOVE SPACES TO EDDG-ACCT-NUM     (ENTRY-X)               PPEC717
066443     END-IF.                                                      PPEC717
066444     IF  EDDG-ACCT-TYPE   (ENTRY-X) = '*'                         PPEC717
066445         MOVE SPACES TO EDDG-ACCT-TYPE    (ENTRY-X)               PPEC717
066446     END-IF.                                                      PPEC717
066450     IF  EDDG-SPB-BANK-KEY (ENTRY-X) = '*'                        PPEC717
066451         MOVE SPACES TO EDDG-SPB-BANK-KEY (ENTRY-X)               PPEC717
066452     END-IF.                                                      PPEC717
066453                                                                  PPEC717
066454     EVALUATE TRUE                                                PPEC717
066455       WHEN (SCHOLARSHARE-DG-TRANSACTION)                         PPEC717
066456         PERFORM 2600-DG-ROW-EDIT-01                              PPEC717
066457     END-EVALUATE.                                                PPEC717
066458                                                                  PPEC717
066459 2600-DG-ROW-EDIT-01       SECTION.                               PPEC717
066460****************************************************************  PPEC717
066461*** PERFORM EDIT 01 FOR DG TRANSACTIONS. MAY BE USED FOR OTHER    PPEC717
066462*** DG TRANSACTIONS IF EDIT IS SUFFICIENT.                        PPEC717
066463*** GTN NUMBER AND ADC CODE ARE NOT EDITED AS BLANK VALUES FOR    PPEC717
066464*** THOSE TWO FIELDS WOULD HAVE TRIGGERED PRIOR FAILURE.          PPEC717
066465****************************************************************  PPEC717
066470                                                                  PPEC717
066471****************************************************************  PPEC717
066472***  BLANK BANK TRANSIT NUMBER IS INVALID.                        PPEC717
066474****************************************************************  PPEC717
066480     IF  EDDG-TRANSIT-NUM (ENTRY-X) = SPACE                       PPEC717
066490         PERFORM 2630-INVALID-DDG-TRANSIT-NUM                     PPEC717
066491     END-IF.                                                      PPEC717
066492                                                                  PPEC717
066493****************************************************************  PPEC717
066494***  BLANK BANK ACCOUNT NUMBER IS INVALID                         PPEC717
066495****************************************************************  PPEC717
066496     IF  EDDG-ACCT-NUM    (ENTRY-X) = SPACE                       PPEC717
066497         PERFORM 2640-INVALID-DDG-ACCT-NUM                        PPEC717
066498     END-IF.                                                      PPEC717
066499                                                                  PPEC717
066500****************************************************************  PPEC717
066501***  BLANK BANK ACCOUNT TYPE IS INVALID                           PPEC717
066502****************************************************************  PPEC717
066503     IF  EDDG-ACCT-TYPE   (ENTRY-X) = SPACE                       PPEC717
066504         PERFORM 2650-INVALID-DDG-ACCT-TYPE                       PPEC717
066505     END-IF.                                                      PPEC717
066506                                                                  PPEC717
066507****************************************************************  PPEC717
066508***  SPB BANK KEY FIELD IS NOT EDITED FOR SCHOLARSHARE            PPEC717
066509***                                                               PPEC717
066510***  FOR FUTURE DG TRANSACTIONS IT IS POSSIBLE THAT THE           PPEC717
066511***  SPB BANK KEY FIELD SHOULD BE EDITED AGAINST THE SPB TABLE.   PPEC717
066512***  IF THE SPB KEY IS PRESENT, THE DDG TRANSIT FIELD SHOULD BE   PPEC717
066513***  BLANK, AND THE ACCOUNT NUMBER FORMAT EDITED AGAINST THE      PPEC717
066514***  APPROPRIATE SPB CHECKING OR SAVINGS FORMAT.                  PPEC717
066515****************************************************************  PPEC717
066516                                                                  PPEC717
066517 2610-INVALID-GTN-DIR-DEP-IND SECTION.                            PPEC717
066518****************************************************************  PPEC717
066519*** GTN TABLE DIRECT DEPOSIT INDICATOR NOT Y.                     PPEC717
066520****************************************************************  PPEC717
066521     ADD 1             TO KMTA-CTR                                PPEC717
066522     MOVE E0780        TO KMTA-FIELD-NUM    (KMTA-CTR)            PPEC717
066523     MOVE EDDG-GTN-NUMBER  (ENTRY-X)                              PPEC717
066524                       TO KMTA-DATA-FIELD   (KMTA-CTR)            PPEC717
066525     MOVE WS-ROUTINE-TYPE                                         PPEC717
066526                       TO KMTA-ROUTINE-TYPE (KMTA-CTR)            PPEC717
066527     MOVE WS-ROUTINE-NUM                                          PPEC717
066528                       TO KMTA-ROUTINE-NUM  (KMTA-CTR)            PPEC717
066529     MOVE 03           TO KMTA-LENGTH       (KMTA-CTR)            PPEC717
066530                                                                  PPEC717
066531     IF  KRMI-REQUESTED-BY-08                                     PPEC717
066532         MOVE M08151   TO KMTA-MSG-NUMBER   (KMTA-CTR)            PPEC717
066533     ELSE                                                         PPEC717
066534         MOVE M12151   TO KMTA-MSG-NUMBER   (KMTA-CTR)            PPEC717
066535     END-IF                                                       PPEC717
066536     PERFORM 2162-FMT-OCC-KEY                                     PPEC717
066537     PERFORM 2164-PUT-ERROR-TO-KMTA.                              PPEC717
066538                                                                  PPEC717
066557 2630-INVALID-DDG-TRANSIT-NUM SECTION.                            PPEC717
066558****************************************************************  PPEC717
066559*** INVALID REQUIRED FIELD                                        PPEC717
066560****************************************************************  PPEC717
066561     ADD 1             TO KMTA-CTR                                PPEC717
066562     MOVE E0782        TO KMTA-FIELD-NUM    (KMTA-CTR)            PPEC717
066563     MOVE EDDG-TRANSIT-NUM (ENTRY-X)                              PPEC717
066564                       TO KMTA-DATA-FIELD   (KMTA-CTR)            PPEC717
066565     MOVE WS-ROUTINE-TYPE                                         PPEC717
066566                       TO KMTA-ROUTINE-TYPE (KMTA-CTR)            PPEC717
066567     MOVE WS-ROUTINE-NUM                                          PPEC717
066568                       TO KMTA-ROUTINE-NUM  (KMTA-CTR)            PPEC717
066569     MOVE 09           TO KMTA-LENGTH       (KMTA-CTR)            PPEC717
066570                                                                  PPEC717
066571     IF  KRMI-REQUESTED-BY-08                                     PPEC717
066573         MOVE M08150   TO KMTA-MSG-NUMBER   (KMTA-CTR)            PPEC717
066574     ELSE                                                         PPEC717
066575         MOVE M12150   TO KMTA-MSG-NUMBER   (KMTA-CTR)            PPEC717
066576     END-IF                                                       PPEC717
066577     PERFORM 2162-FMT-OCC-KEY                                     PPEC717
066578     PERFORM 2164-PUT-ERROR-TO-KMTA.                              PPEC717
066579                                                                  PPEC717
066580 2640-INVALID-DDG-ACCT-NUM       SECTION.                         PPEC717
066581****************************************************************  PPEC717
066582*** INVALID REQUIRED FIELD                                        PPEC717
066583****************************************************************  PPEC717
066584     ADD 1             TO KMTA-CTR                                PPEC717
066585     MOVE E0783        TO KMTA-FIELD-NUM    (KMTA-CTR)            PPEC717
066586     MOVE EDDG-ACCT-NUM    (ENTRY-X)                              PPEC717
066587                       TO KMTA-DATA-FIELD   (KMTA-CTR)            PPEC717
066588     MOVE WS-ROUTINE-TYPE                                         PPEC717
066589                       TO KMTA-ROUTINE-TYPE (KMTA-CTR)            PPEC717
066590     MOVE WS-ROUTINE-NUM                                          PPEC717
066591                       TO KMTA-ROUTINE-NUM  (KMTA-CTR)            PPEC717
066592     MOVE 17           TO KMTA-LENGTH       (KMTA-CTR)            PPEC717
066593                                                                  PPEC717
066594     IF  KRMI-REQUESTED-BY-08                                     PPEC717
066596         MOVE M08150   TO KMTA-MSG-NUMBER   (KMTA-CTR)            PPEC717
066597     ELSE                                                         PPEC717
066598         MOVE M12150   TO KMTA-MSG-NUMBER   (KMTA-CTR)            PPEC717
066599     END-IF                                                       PPEC717
066600     PERFORM 2162-FMT-OCC-KEY                                     PPEC717
066601     PERFORM 2164-PUT-ERROR-TO-KMTA.                              PPEC717
066602                                                                  PPEC717
066603 2650-INVALID-DDG-ACCT-TYPE      SECTION.                         PPEC717
066604****************************************************************  PPEC717
066605*** INVALID REQUIRED FIELD                                        PPEC717
066606****************************************************************  PPEC717
066607     ADD 1             TO KMTA-CTR                                PPEC717
066608     MOVE E0784        TO KMTA-FIELD-NUM    (KMTA-CTR)            PPEC717
066609     MOVE EDDG-ACCT-TYPE   (ENTRY-X)                              PPEC717
066610                       TO KMTA-DATA-FIELD   (KMTA-CTR)            PPEC717
066611     MOVE WS-ROUTINE-TYPE                                         PPEC717
066612                       TO KMTA-ROUTINE-TYPE (KMTA-CTR)            PPEC717
066613     MOVE WS-ROUTINE-NUM                                          PPEC717
066614                       TO KMTA-ROUTINE-NUM  (KMTA-CTR)            PPEC717
066615     MOVE 1            TO KMTA-LENGTH       (KMTA-CTR)            PPEC717
066616                                                                  PPEC717
066617     IF  KRMI-REQUESTED-BY-08                                     PPEC717
066619         MOVE M08150   TO KMTA-MSG-NUMBER   (KMTA-CTR)            PPEC717
066620     ELSE                                                         PPEC717
066621         MOVE M12150   TO KMTA-MSG-NUMBER   (KMTA-CTR)            PPEC717
066622     END-IF                                                       PPEC717
066623     PERFORM 2162-FMT-OCC-KEY                                     PPEC717
066624     PERFORM 2164-PUT-ERROR-TO-KMTA.                              PPEC717
066625     EJECT                                                        PPEC717
066627 8000-SELECT-GTN   SECTION.                                       PPEC717
066628****************************************************************  PPEC717
066629***  SELECT DIRECT DEPOSIT INDICATOR FOR DG TRANSACTION GTN       PPEC717
066630****************************************************************  PPEC717
066631                                                                  PPEC717
066632     MOVE 'SELECT GTN ' TO DB2MSG-TAG.                            PPEC717
066633     EXEC SQL                                                     PPEC717
066634         SELECT  GTN_DIR_DEP_IND                                  PPEC717
066635           INTO :GTN-DIR-DEP-IND                                  PPEC717
066636           FROM  PPPVZGTN_GTN                                     PPEC717
066637          WHERE  GTN_NUMBER = :WS-GTN-NUM                         PPEC717
066638     END-EXEC.                                                    PPEC717
066639     IF SQLCODE = +100                                            PPEC717
066640        MOVE 'N' TO GTN-DIR-DEP-IND                               PPEC717
066641     END-IF.                                                      PPEC717
066642                                                                  PPEC717
066650 9050-AUDITING-RESPONSIBILITIES  SECTION.                         PPEC717
066700****************************************************************  PPEC717
066720***  COPY CODE FOR AUDITING RESPONSIBILITIES                      PPEC717
066730****************************************************************  PPEC717
066800*                                                 *--------------*PPEC717
066900                                                   COPY CPPDXDEC. PPEC717
067000*                                                 *--------------*PPEC717
067100     EJECT                                                        PPEC717
067200 9200-LOOK-UP-MSG-SEVERITY SECTION.                               PPEC717
067210****************************************************************  PPEC717
067220***  COPY CODE TO LOOK UP MESSAGE SEVERITY                        PPEC717
067230****************************************************************  PPEC717
067500*                                                 *--------------*PPEC717
067600                                                   COPY CPPDX030. PPEC717
067700*                                                 *--------------*PPEC717
067911****************************************************************  PPEC717
067912***  NEGATIVE SQL SECTION                                         PPEC717
067913****************************************************************  PPEC717
067914*999999-SQL-ERROR SECTION.                                        PPEC717
067920     EXEC SQL                                                     PPEC717
067930          INCLUDE CPPDXP99                                        PPEC717
067940     END-EXEC.                                                    PPEC717
067950     SET KRMI-RETURN-WITH-SQLCODE TO TRUE.                        PPEC717
067960     GOBACK.                                                      PPEC717
067970                                                                  PPEC717
068300************************   END OF PROGRAM ************************PPEC717
