000100*==========================================================%      UCSD0054
000200*=    PROGRAM: PPEC001                                    =%      UCSD0054
000300*=    CHANGE # DT-054       PROJ. REQUEST: LEAVE ACCRUAL  =%      UCSD0054
000400*=    NAME: JIM PIERCE      MODIFICATION DATE: 02/15/94   =%      UCSD0054
000500*=                                                        =%      UCSD0054
000600*=    NAME; G. CHIU  7/8/96                               =%      UCSD0054
000600*=    DESCRIPTION:                                        =%      UCSD0054
000700*=     CHANGE LOCAL VALUE FROM 'G' TO 'L' SINCE RELEASE   =%      UCSD0054
000500*=     1068 USED THE VALUE 'G'.                           =%      UCSD0054
000700*=     ADD LOCAL VALUE 'M' TO LIST OF 88-LEVEL VALUES OF  =%      UCSD0054
000800*=     VALID-LEAVE-ACCRUAL-CODE.                          =%      UCSD0054
000500*=                                                        =%      UCSD0054
000600*=    DESCRIPTION:                                        =%      UCSD0054
000700*=     ADD LOCAL VALUE 'G' TO LIST OF 88-LEVEL VALUES OF  =%      UCSD0054
000800*=     VALID-LEAVE-ACCRUAL-CODE.                          =%      UCSD0054
000900*==========================================================%      UCSD0054
000000**************************************************************/   06171526
000001*  PROGRAM: PPEC001                                          */   06171526
000002*  RELEASE: ___1526______ SERVICE REQUEST(S): ____80617____  */   06171526
000003*  NAME:_______QUAN______ MODIFICATION DATE:  ___09/30/03__  */   06171526
000004*  DESCRIPTION:                                              */   06171526
000005*  - ADDED APPT-DURATION OF 'S' AND 'C' TO THE EDIT RELATED  */   06171526
000006*    TO MESSAGE 08-062. REMOVED APPT-DURATION OF 'S' FROM    */   06171526
000007*    EDIT RELATED TO MESSAGE 08-069.                         */   06171526
000008**************************************************************/   06171526
000000**************************************************************/   48171242
000001*  PROGRAM: PPEC001                                          */   48171242
000002*  RELEASE: ___1242______ SERVICE REQUEST(S): ____14817____  */   48171242
000003*  NAME:___ROY STAPLES___ MODIFICATION DATE:  ___05/11/99__  */   48171242
000004*  DESCRIPTION:                                              */   48171242
000005*  - ADDED VALID APPT-DURATION OF 'B' FOR BUDGETARY END DATE */   48171242
000007**************************************************************/   48171242
000100**************************************************************/   28201068
000200*  PROGRAM: PPEC001                                          */   28201068
000300*  RELEASE: ___1068______ SERVICE REQUEST(S): ____12820____  */   28201068
000400*  NAME:______M SANO_____ MODIFICATION DATE:  ___06/14/96__  */   28201068
000500*  DESCRIPTION:                                              */   28201068
000600*  - ADDED VALID LEAVE ACCRUAL CODES G H J AND K.            */   28201068
000700**************************************************************/   28201068
000000**************************************************************/   28521025
000001*  PROGRAM: PPEC001                                          */   28521025
000002*  RELEASE: ___1025______ SERVICE REQUEST(S): ____12852____  */   28521025
000003*  NAME:_______QUAN______ MODIFICATION DATE:  ___08/25/95__  */   28521025
000004*  DESCRIPTION:                                              */   28521025
000005*  - DATE CONVERSION PROJECT:                                */   28521025
000006*    THE NAMES REFERENCED FROM COPYMEMBER CPWSXDTS HAVE      */   28521025
000007*    BEEN CHANGED TO THE NEW NAMES IN CPWSXDTS.              */   28521025
000010**************************************************************/   28521025
000100**************************************************************/   36360847
000200*  PROGRAM: PPEC001                                          */   36360847
001900*  RELEASE: ___0847______ SERVICE REQUEST(S): _____3636____  */   36360847
000400*  NAME:_____J.WILCOX____ MODIFICATION DATE:  ___12/16/93__  */   36360847
000500*  DESCRIPTION:                                              */   36360847
000600*  -REMOVE REDUNDANT CALL TO PPTCTUTL. THE APPOINTMENT'S     */   36360847
000700*   TITLE CODE DATA HAS ALREADY BEEN LOADED BY USER08.       */   36360847
000800**************************************************************/   36360847
000110**************************************************************/   36410753
000120*  PROGRAM: PPEC001                                          */   36410753
000130*  RELEASE: ___0753______ SERVICE REQUEST(S): ____3641_____  */   36410753
000140*  NAME:_____JLT_________ MODIFICATION DATE:  ___03/31/93__  */   36410753
000150*  DESCRIPTION:                                              */   36410753
000160*  - REMOVE VISA DATE/APPT END DT CONFLICT MESSAGE 08-022;   */   36410753
000170*    A SWITCH IS SET TO INITIATE THIS MESSAGE; E.R. #945.    */   36410753
000180**************************************************************/   36410753
000100******************************************************************36360750
000200*  PROGRAM: PPPTITLE                                             *36360750
000300*  RELEASE: ___0750______ SERVICE REQUEST NO(S):___3636____      *36360750
000400*  NAME:    M.CLARK______ MODIFICATION DATE:  ___03/15/93__      *36360750
000500*                                                                *36360750
000600*  DESCRIPTION: MODIFIED RETRIEVAL-PROCESSING FOR TITLE CODE     *36360750
000700*               INFORMATION.                                     *36360750
000800*                                                                *36360750
000900*       WORKING-STORAGE: 01/PPTCTUTL-INTERFACE REPLACED          *36360750
001000*               01/XTLI-INTERFACE-AREA.                          *36360750
001100*       PROCEDURE DIVISION:                                      *36360750
001200*            1000-MAINLINE-ROUTINE:                              *PPEC001
001300*               MODIFIED CONTROL LOGIC FOR TITLE CODE RETRIEVALS.*36360750
001400*            8000-CALL-PPTTLUTL:                                 *36360750
001500*               COMMENTED-OUT IN ITS ENTIRETY.                   *36360750
001600******************************************************************36360750
000100*----------------------------------------------------------------*36410717
000200*|**************************************************************|*36410717
000300*|* PROGRAM: PPEC001                                           *|*36410717
000400*|*  RELEASE: __0717_______ SERVICE REQUEST(S): _____3641____  *|*36410717
000500*|*  NAME:______UCOP_______ MODIFICATION DATE:  ___11/19/92__  *|*36410717
000600*|*  DESCRIPTION:                                              *|*36410717
000700*|*  - EDB MAINTENANCE RE-ENGINEERING PROJECT                  *|*36410717
000800*|*    APPOINTMENT BASIC CONSISTENCY EDITS                     *|*36410717
000900*|**************************************************************|*36410717
001000*----------------------------------------------------------------*36410717
001100                                                                  PPEC001
001200 IDENTIFICATION DIVISION.                                         PPEC001
001300 PROGRAM-ID. PPEC001.                                             PPEC001
001400 AUTHOR. UCOP.                                                    PPEC001
001500 INSTALLATION. UNIVERSITY OF CALIFORNIA.                          PPEC001
001600                                                                  PPEC001
001700 DATE-WRITTEN.  JULY 27,1992.                                     PPEC001
001800 DATE-COMPILED.                                                   PPEC001
001900                                                                  PPEC001
002000******************************************************************PPEC001
002100**  THIS ROUTINE WILL PERFORM THE APPOINTMENT BASIC             **PPEC001
002200**  CONSISTENCY EDITS.                                          **PPEC001
002300******************************************************************PPEC001
002400                                                                  PPEC001
002500 ENVIRONMENT DIVISION.                                            PPEC001
002600 CONFIGURATION SECTION.                                           PPEC001
002700 SOURCE-COMPUTER.                                  COPY CPOTXUCS. PPEC001
002800 OBJECT-COMPUTER.                                  COPY CPOTXOBJ. PPEC001
002900 SPECIAL-NAMES.                C01 IS NEW-PAGE.                   PPEC001
003000                                                                  PPEC001
003100 INPUT-OUTPUT SECTION.                                            PPEC001
003200 FILE-CONTROL.                                                    PPEC001
003300                                                                  PPEC001
003400 DATA DIVISION.                                                   PPEC001
003500 FILE SECTION.                                                    PPEC001
003600     EJECT                                                        PPEC001
003700*----------------------------------------------------------------*PPEC001
003800 WORKING-STORAGE SECTION.                                         PPEC001
003900*----------------------------------------------------------------*PPEC001
004000                                                                  PPEC001
004100 01  A-STND-PROG-ID                   PIC X(15) VALUE             PPEC001
009000****                                                           CD 06171526
009200*****'PPEC001 /061496'.                                           06171526
009210     'PPEC001 /100103'.                                           06171526
004300                                                                  PPEC001
004400 01  A-STND-MSG-PARMS                 REDEFINES                   PPEC001
004500     A-STND-PROG-ID.                                              PPEC001
004600     05  FILLER                       PIC X(03).                  PPEC001
004700     05  WS-ROUTINE-TYPE              PIC X(01).                  PPEC001
004800     05  WS-ROUTINE-NUM               PIC 9(03).                  PPEC001
004900     05  FILLER                       PIC X(08).                  PPEC001
005000                                                                  PPEC001
005100 01  MESSAGES-USED.                                               PPEC001
005200     05  M08019                       PIC X(05) VALUE '08019'.    PPEC001
005300     05  M08021                       PIC X(05) VALUE '08021'.    PPEC001
010400*****05  M08022                       PIC X(05) VALUE '08022'.    06171526
005500     05  M08023                       PIC X(05) VALUE '08023'.    PPEC001
005600     05  M08024                       PIC X(05) VALUE '08024'.    PPEC001
005700     05  M08025                       PIC X(05) VALUE '08025'.    PPEC001
005800     05  M08026                       PIC X(05) VALUE '08026'.    PPEC001
005900     05  M08027                       PIC X(05) VALUE '08027'.    PPEC001
006000     05  M08028                       PIC X(05) VALUE '08028'.    PPEC001
006100     05  M08030                       PIC X(05) VALUE '08030'.    PPEC001
006200     05  M08031                       PIC X(05) VALUE '08031'.    PPEC001
006300     05  M08032                       PIC X(05) VALUE '08032'.    PPEC001
006400     05  M08056                       PIC X(05) VALUE '08056'.    PPEC001
006500     05  M08058                       PIC X(05) VALUE '08058'.    PPEC001
006600     05  M08062                       PIC X(05) VALUE '08062'.    PPEC001
006700     05  M08069                       PIC X(05) VALUE '08069'.    PPEC001
006800     05  M08073                       PIC X(05) VALUE '08073'.    PPEC001
006900     05  M08250                       PIC X(05) VALUE '08250'.    PPEC001
007000     05  M08251                       PIC X(05) VALUE '08251'.    PPEC001
007100                                                                  PPEC001
007200 01  ELEMENTS-USED.                                               PPEC001
007300     05  E0113                        PIC 9(04) VALUE 0113.       PPEC001
007400     05  E0184                        PIC 9(04) VALUE 0184.       PPEC001
007500                                                                  PPEC001
007600 01  SYSTEM-PARAMETER-NUMBERS-USED.                               PPEC001
007700     05  LEAVE-ACCRUAL-PARM-NO        PIC S9(03) COMP-3 VALUE +12.PPEC001
007800                                                                  PPEC001
007900 01  SYSTEM-PARAMETER-VALUES-USED.                                PPEC001
008000     05  LEAVE-ACCRUAL-CODE           PIC 9(02).                  PPEC001
008100                                                                  PPEC001
008200 01  MISC-WORK-AREAS.                                             PPEC001
008300     05  WRK-NUMERIC-9999V9999        PIC 9(04)V9(04).            PPEC001
008400     05  WRK-DISPLAY-PICX8            REDEFINES                   PPEC001
008500         WRK-NUMERIC-9999V9999.                                   PPEC001
008600         10  FILLER                   PIC X(01).                  PPEC001
008700         10  WRK-DISPLAY-PICX7        PIC X(07).                  PPEC001
008800     05  WRK-NUMERIC-PIC9999          PIC 9(04).                  PPEC001
008900     05  WRK-DISPLAY-PICX4            REDEFINES                   PPEC001
009000         WRK-NUMERIC-PIC9999          PIC X(04).                  PPEC001
009100     05  CHECK-IF-VALID-LEAVE-ACCRUAL PIC X(01) VALUE SPACES.     PPEC001
009200         88  VALID-LEAVE-ACCRUAL-CODE           VALUES 'A' 'B' 'C'PPEC001
009300                                                       'D' 'E' 'F'PPEC001
014400                                                       'G' 'H' 'J'28201068
014500                                                       'K'        28201068
013500                                                       'L' 'M'    UCSD0054
009400                                                       'N'.       PPEC001
009500     05  NOPE                         PIC X(01) VALUE 'N'.        PPEC001
009600     05  YES                          PIC X(01) VALUE 'Y'.        PPEC001
009700     05  FIRST-TIME-SW                PIC X(01) VALUE LOW-VALUES. PPEC001
009800         88  THIS-IS-THE-FIRST-TIME             VALUE LOW-VALUES. PPEC001
009900         88  NOT-THE-FIRST-TIME                 VALUE 'Y'.        PPEC001
010000                                                                  PPEC001
010100     EJECT                                                        PPEC001
010200 01  CALLED-MODULES.                               COPY CPWSXRTN. PPEC001
010300                                                                  PPEC001
010400     EJECT                                                        PPEC001
010500 01  DL-FIELD-WORK-AREA.                           COPY CPWSXDLS. PPEC001
010600                                                                  PPEC001
010700     EJECT                                                        PPEC001
014010 01  DATE-CONVERSION-WORK-AREAS.                   COPY CPWSXDC3. 28521025
010900                                                                  PPEC001
011000     EJECT                                                        PPEC001
011100 01  XWHC-COMPILE-WORK-AREA.                       COPY CPWSXWHC. PPEC001
011200                                                                  PPEC001
011300     EJECT                                                        PPEC001
011400 01  COLUMN-88-WORK.                               COPY CPWSW88S. PPEC001
011500                                                                  PPEC001
011600     EJECT                                                        PPEC001
011700 01  DATE-WORK-AREA.                               COPY CPWSDATE. PPEC001
011800                                                                  PPEC001
011900     EJECT                                                        PPEC001
012000 01  APPT-DIST-LOC-WORK-AREAS.                     COPY CPWSADLC. PPEC001
012100                                                                  PPEC001
012400                                                                  PPEC001
012500     EJECT                                                        PPEC001
012600 01  XUTF-UTILITY-FUNCTIONS.                       COPY CPWSXUTF. PPEC001
012700                                                                  PPEC001
012800     EJECT                                                        PPEC001
012900 01  INSTALLATION-DEPENDT-CONSTANTS.               COPY CPWSXIDC. PPEC001
013000                                                                  PPEC001
013100     EJECT                                                        PPEC001
013200******************************************************************PPEC001
013300**     E  X  T  E  R  N  A  L  S      S  E  C  T  I  O  N       **PPEC001
013400**--------------------------------------------------------------**PPEC001
013500** THE FOLLOWING EXTERNAL AREAS WILL BE USED BY OTHER PROCESSES **PPEC001
013600******************************************************************PPEC001
013700                                                                  PPEC001
013800 01  DATA-ELEMENT-CHANGE-INDICATORS      EXTERNAL. COPY CPWSXDEC. PPEC001
013900                                                                  PPEC001
014000     EJECT                                                        PPEC001
014100 01  XCSS-COMMON-SYSTEM-SWITCHES         EXTERNAL. COPY CPWSSWCH. PPEC001
014200                                                                  PPEC001
014300     EJECT                                                        PPEC001
014400 01  XDTS-COMMON-SYSTEM-DATES            EXTERNAL. COPY CPWSXDTS. PPEC001
014500                                                                  PPEC001
014600     EJECT                                                        PPEC001
014700 01  ECES-CON-EDIT-SWITCH                EXTERNAL. COPY CPWSECES. PPEC001
014800                                                                  PPEC001
014900 01  EGES-GTN-EDIT-SWITCH                EXTERNAL. COPY CPWSEGES. PPEC001
015000                                                                  PPEC001
015100 01  EIMS-IMPL-MAINT-SWITCH              EXTERNAL. COPY CPWSEIMS. PPEC001
015200                                                                  PPEC001
015300 01  EAXD-APPT-ARRAY-SWITCH              EXTERNAL. COPY CPWSEAXD. PPEC001
015400                                                                  PPEC001
015500     EJECT                                                        PPEC001
015600 01  XDER-DATA-ELMT-RTN-POINTERS         EXTERNAL. COPY CPWSXDER. PPEC001
015700                                                                  PPEC001
015800     EJECT                                                        PPEC001
015900 01  XDRT-DET-ROUTINE-TRIGGERS           EXTERNAL. COPY CPWSXDRT. PPEC001
016000                                                                  PPEC001
016100     EJECT                                                        PPEC001
016200 01  EDB-MAINTENANCE-PASS-AREA           EXTERNAL. COPY CPWSEMPA. PPEC001
016300                                                                  PPEC001
016400     EJECT                                                        PPEC001
016500 01  SYSTEM-PARAMETERS                   EXTERNAL. COPY CPWSXSP2. PPEC001
016600                                                                  PPEC001
018300     EJECT                                                        36360750
018400 01  PPTCTUTL-INTERFACE                  EXTERNAL. COPY CPLNKTCL. 36360750
016700     EJECT                                                        PPEC001
016800 01  APPOINTMENT-WORK-AREA               EXTERNAL. COPY CPWSRAPP  PPEC001
016900                                                                  PPEC001
017000         REPLACING EMPLOYEE-ID       BY APPT-2000-EMPLOYEE-ID     PPEC001
017100                   APPT-NUM          BY APPT-2001-APPT-NO         PPEC001
017200                   APPT-ADC-CODE     BY APPT-2022-APPT-ADC-CODE   PPEC001
017300                   RATE-CODE         BY APPT-2015-RATE-CODE       PPEC001
017400                   PAY-SCHEDULE      BY APPT-2016-PAY-SCHED       PPEC001
017500                   TIME-REPT-CODE    BY APPT-2017-TIME-CODE       PPEC001
017600                   APPT-WOS-IND      BY APPT-2028-APPT-WOS        PPEC001
017700                   APPT-BEGIN-DATE   BY APPT-2002-APPT-BEGN-DATE  PPEC001
017800                   APPT-END-DATE     BY APPT-2003-APPT-END-DATE   PPEC001
017900                   APPT-DURATION     BY APPT-2004-DUR-EMPLMT      PPEC001
018000                   TITLE-CODE        BY APPT-2006-TITLE-CODE      PPEC001
018100                   APPT-TYPE         BY APPT-2020-APPT-TYPE       PPEC001
018200                   ACADEMIC-BASIS    BY APPT-2010-BASIS           PPEC001
018300                   WORK-STUDY-PGM    BY NULL-APPT-WORK-STUDY      PPEC001
018400                   PERSONNEL-PGM     BY APPT-2007-PERSNL-PROGRM   PPEC001
018500                   APPT-PAID-OVER    BY APPT-2011-PAID-OVER       PPEC001
018600                   PAY-RATE          BY APPT-2014-ANNL-HRLY-RATE  PPEC001
018700                   LEAVE-ACRUCODE    BY APPT-2018-LEAVE           PPEC001
018800                   RETIREMENT-CODE   BY APPT-2021-RETIRE          PPEC001
018900                   PERCENT-FULLTIME  BY APPT-2012-PCT-FULL-TIME   PPEC001
019000                   FIXED-VAR-CODE    BY APPT-2013-FXD-VAR         PPEC001
019100                   TITLE-UNIT-CODE   BY APPT-2029-TITLE-UNIT-CODE PPEC001
019200                   APPT-SPCL-HNDLG   BY APPT-2030-APPT-SPCL-HNDLG PPEC001
019300                   APPT-REP-CODE     BY APPT-2031-APPT-REP-CODE   PPEC001
019400                   APPT-DEPT         BY APPT-2032-APPT-DEPT       PPEC001
019500                   GRADE             BY APPT-2008-GRADE.          PPEC001
019600                                                                  PPEC001
019700     EJECT                                                        PPEC001
019800******************************************************************PPEC001
019900**  DATA BASE AREAS                                             **PPEC001
020000******************************************************************PPEC001
020100                                                                  PPEC001
020200 01  SCR-ROW                             EXTERNAL.                PPEC001
020300     EXEC SQL INCLUDE PPPVSCR1 END-EXEC.                          PPEC001
020400                                                                  PPEC001
020500     EJECT                                                        PPEC001
020600 01  PER-ROW                             EXTERNAL.                PPEC001
020700     EXEC SQL INCLUDE PPPVPER1 END-EXEC.                          PPEC001
020800                                                                  PPEC001
020900     EJECT                                                        PPEC001
021000 01  AXD-ARRAY                           EXTERNAL.                PPEC001
021100     03  FILLER  OCCURS 27 TIMES.                                 PPEC001
021200     05  APP-ROW-DELETE-BYTE       PIC X(01).                     PPEC001
021300         88  APP-ROW-DELETED                   VALUE HIGH-VALUES. PPEC001
021400     05  APP-ROW-SEG-ID            PIC X(02).                     PPEC001
021500     05  FILLER  OCCURS 3 TIMES.                                  PPEC001
021600         08  APP-ROW.                              COPY CPWSRAPP  PPEC001
021700                REPLACING WORK-STUDY-PGM                          PPEC001
021800                       BY NULL-APPT-WORK-STUDY.                   PPEC001
021900                                                                  PPEC001
022000     03  FILLER  OCCURS 27 TIMES.                                 PPEC001
022100     05  DIS-ROW-DELETE-BYTE       PIC X(01).                     PPEC001
022200         88  DIS-ROW-DELETED                   VALUE HIGH-VALUES. PPEC001
022300     05  DIS-ROW-SEG-ID            PIC X(02).                     PPEC001
022400     05  FILLER  OCCURS 3 TIMES.                                  PPEC001
022500         08  DIS-ROW.                              COPY CPWSRDIS. PPEC001
022600                                                                  PPEC001
022700     EJECT                                                        PPEC001
022800******************************************************************PPEC001
022900**          L  I  N  K  A  G  E      S  E  C  T  I  O  N        **PPEC001
023000******************************************************************PPEC001
023100                                                                  PPEC001
023200*----------------------------------------------------------------*PPEC001
023300 LINKAGE SECTION.                                                 PPEC001
023400*----------------------------------------------------------------*PPEC001
023500                                                                  PPEC001
023600******************************************************************PPEC001
023700**  THE KRMI AREA IS A COMMON AREA THAT IS USED TO PASS         **PPEC001
023800**  INFORMATION THAT IS REQUIRED FOR THIS MODULE TO EXECUTE     **PPEC001
023900******************************************************************PPEC001
024000                                                                  PPEC001
024100 01  KRMI-LINKAGE-SECTION.                         COPY CPLNKRMI. PPEC001
024200                                                                  PPEC001
024300     EJECT                                                        PPEC001
024400******************************************************************PPEC001
024500**  THIS MESSAGE TABLE ARRAY WILL CONTAIN ALL MESSAGES THAT     **PPEC001
024600**  THIS ROUTINE CAN LOGICALLY ISSUE AT ONE TIME                **PPEC001
024700******************************************************************PPEC001
024800                                                                  PPEC001
024900 01  KMTA-MESSAGE-TABLE-ARRAY.                     COPY CPLNKMTA. PPEC001
025000                                                                  PPEC001
025100     EJECT                                                        PPEC001
025200******************************************************************PPEC001
025300**    P  R  O  C  E  D  U  R  E      D  I  V  I  S  I  O  N     **PPEC001
025400******************************************************************PPEC001
025500                                                                  PPEC001
025600 PROCEDURE DIVISION USING KRMI-LINKAGE-SECTION,                   PPEC001
025700                          KMTA-MESSAGE-TABLE-ARRAY.               PPEC001
025800                                                                  PPEC001
025900                                                                  PPEC001
026000*----------------------------------------------------------------*PPEC001
026100 0000-DRIVER.                                                     PPEC001
026200*----------------------------------------------------------------*PPEC001
026300                                                                  PPEC001
026400******************************************************************PPEC001
026500**  PERFORM THE INITIALIZATION ROUTINE NOW                      **PPEC001
026600******************************************************************PPEC001
026700                                                                  PPEC001
026800     IF  THIS-IS-THE-FIRST-TIME                                   PPEC001
026900         PERFORM 0100-INITIALIZE                                  PPEC001
027000     END-IF.                                                      PPEC001
027100                                                                  PPEC001
027200******************************************************************PPEC001
027300**  PERFORM THE MAIN ROUTINE NOW - AFTER WHICH WE WILL RETURN   **PPEC001
027400**  TO THE CALLING PROGRAM                                      **PPEC001
027500******************************************************************PPEC001
027600                                                                  PPEC001
027700     PERFORM 1000-MAINLINE-ROUTINE.                               PPEC001
027800                                                                  PPEC001
027900     EXIT PROGRAM.                                                PPEC001
028000                                                                  PPEC001
028100                                                                  PPEC001
028200     EJECT                                                        PPEC001
028300*----------------------------------------------------------------*PPEC001
028400 0100-INITIALIZE    SECTION.                                      PPEC001
028500*----------------------------------------------------------------*PPEC001
028600                                                                  PPEC001
028700******************************************************************PPEC001
028800**  DISPLAY THE PROGRAM ID AND DATE/TIME COMPILED               **PPEC001
028900******************************************************************PPEC001
029000                                                                  PPEC001
029100     MOVE A-STND-PROG-ID      TO XWHC-DISPLAY-MODULE.             PPEC001
029200                                                                  PPEC001
029300*                                               *-------------*   PPEC001
029400                                                 COPY CPPDXWHC.   PPEC001
029500*                                               *-------------*   PPEC001
029600                                                                  PPEC001
030000                                                                  PPEC001
030300     MOVE XSP-PARAM (LEAVE-ACCRUAL-PARM-NO)                       PPEC001
030400                              TO LEAVE-ACCRUAL-CODE.              PPEC001
030500                                                                  PPEC001
030600******************************************************************PPEC001
030700**   SET FIRST CALL SWITCH OFF                                  **PPEC001
030800******************************************************************PPEC001
030900                                                                  PPEC001
031000     SET NOT-THE-FIRST-TIME   TO TRUE.                            PPEC001
031100                                                                  PPEC001
031200     EJECT                                                        PPEC001
031300*----------------------------------------------------------------*PPEC001
031400 1000-MAINLINE-ROUTINE SECTION.                                   PPEC001
031500*----------------------------------------------------------------*PPEC001
031600                                                                  PPEC001
031700******************************************************************PPEC001
031800**  CONEDIT01 - MINIMUM APPOINTMENT CONSISTENCY EDITS           **PPEC001
031900**--------------------------------------------------------------**PPEC001
032000**  THE MESSAGE ROUTINE INDICATOR WILL BE 'S' (STAFF) UNLESS    **PPEC001
032100**  THE PERSONNEL PROGRAM CD OR TITLE TYPE INDICATES ACADEMIC.  **PPEC001
032200******************************************************************PPEC001
032300                                                                  PPEC001
032400     MOVE 'S'                 TO MSSG-ACAD-STAFF-APPT.            PPEC001
032500                                                                  PPEC001
032600     IF  APPT-2006-TITLE-CODE NOT NUMERIC                         PPEC001
032700         MOVE ZEROS           TO WRK-NUMERIC-PIC9999              PPEC001
032800     ELSE                                                         PPEC001
032900         MOVE APPT-2006-TITLE-CODE                                PPEC001
033000                              TO WRK-DISPLAY-PICX4                PPEC001
033100     END-IF.                                                      PPEC001
033200                                                                  PPEC001
033300     IF  APPT-2007-PERSNL-PROGRM = SPACE                          PPEC001
036800         IF  XTCL-PERSONNEL-PROG-ACADEMIC                         36360847
036900             MOVE 'A'     TO MSSG-ACAD-STAFF-APPT                 36360847
037000         END-IF                                                   36360847
034800     ELSE                                                         PPEC001
034900         IF  APPT-2007-PERSNL-PROGRM = 'A'                        PPEC001
035000             MOVE 'A'         TO MSSG-ACAD-STAFF-APPT             PPEC001
035100         END-IF                                                   PPEC001
035200     END-IF.                                                      PPEC001
035300                                                                  PPEC001
039110     IF  APPT-2002-APPT-BEGN-DATE = XDTS-ISO-ZERO-DATE            28521025
035500         ADD 1                TO KMTA-CTR                         PPEC001
035600         MOVE 2               TO KMTA-ADA-OFFSET       (KMTA-CTR) PPEC001
035700         MOVE APPT-2002-APPT-BEGN-DATE                            PPEC001
039710                              TO XDC3-ISO-DATE                    28521025
039720         PERFORM XDC3-CONVERT-ISO-TO-STD                          28521025
039730         MOVE XDC3-STD-DATE   TO KMTA-DATA-FIELD       (KMTA-CTR) 28521025
036100         MOVE 6               TO KMTA-LENGTH           (KMTA-CTR) PPEC001
036200         MOVE M08023          TO KMTA-MSG-NUMBER       (KMTA-CTR) PPEC001
036300         MOVE MSSG-ACAD-STAFF-APPT                                PPEC001
036400                              TO KMTA-ACAD-STAFF-APPT  (KMTA-CTR) PPEC001
036500         MOVE MSSG-ACAD-STAFF-EMPL                                PPEC001
036600                              TO KMTA-ACAD-STAFF-EMPL  (KMTA-CTR) PPEC001
036700         MOVE WS-ROUTINE-TYPE TO KMTA-ROUTINE-TYPE     (KMTA-CTR) PPEC001
036800         MOVE WS-ROUTINE-NUM  TO KMTA-ROUTINE-NUM      (KMTA-CTR) PPEC001
036900     END-IF.                                                      PPEC001
037000                                                                  PPEC001
040810     IF  APPT-2003-APPT-END-DATE = XDTS-ISO-ZERO-DATE             28521025
037200         ADD 1                TO KMTA-CTR                         PPEC001
037300         MOVE 3               TO KMTA-ADA-OFFSET       (KMTA-CTR) PPEC001
037400         MOVE APPT-2003-APPT-END-DATE                             PPEC001
041410                              TO XDC3-ISO-DATE                    28521025
041420         PERFORM XDC3-CONVERT-ISO-TO-STD                          28521025
041430         MOVE XDC3-STD-DATE   TO KMTA-DATA-FIELD       (KMTA-CTR) 28521025
037800         MOVE 6               TO KMTA-LENGTH           (KMTA-CTR) PPEC001
037900         MOVE M08024          TO KMTA-MSG-NUMBER       (KMTA-CTR) PPEC001
038000         MOVE MSSG-ACAD-STAFF-APPT                                PPEC001
038100                              TO KMTA-ACAD-STAFF-APPT  (KMTA-CTR) PPEC001
038200         MOVE MSSG-ACAD-STAFF-EMPL                                PPEC001
038300                              TO KMTA-ACAD-STAFF-EMPL  (KMTA-CTR) PPEC001
038400         MOVE WS-ROUTINE-TYPE TO KMTA-ROUTINE-TYPE     (KMTA-CTR) PPEC001
038500         MOVE WS-ROUTINE-NUM  TO KMTA-ROUTINE-NUM      (KMTA-CTR) PPEC001
038600     END-IF.                                                      PPEC001
038700                                                                  PPEC001
038800     IF  APPT-2006-TITLE-CODE = ZEROS                             PPEC001
038900         ADD 1                TO KMTA-CTR                         PPEC001
039000         MOVE 6               TO KMTA-ADA-OFFSET       (KMTA-CTR) PPEC001
039100         MOVE APPT-2006-TITLE-CODE                                PPEC001
039200                              TO KMTA-DATA-FIELD       (KMTA-CTR) PPEC001
039300         MOVE 4               TO KMTA-LENGTH           (KMTA-CTR) PPEC001
039400         MOVE M08025          TO KMTA-MSG-NUMBER       (KMTA-CTR) PPEC001
039500         MOVE MSSG-ACAD-STAFF-APPT                                PPEC001
039600                              TO KMTA-ACAD-STAFF-APPT  (KMTA-CTR) PPEC001
039700         MOVE MSSG-ACAD-STAFF-EMPL                                PPEC001
039800                              TO KMTA-ACAD-STAFF-EMPL  (KMTA-CTR) PPEC001
039900         MOVE WS-ROUTINE-TYPE TO KMTA-ROUTINE-TYPE     (KMTA-CTR) PPEC001
040000         MOVE WS-ROUTINE-NUM  TO KMTA-ROUTINE-NUM      (KMTA-CTR) PPEC001
040100     END-IF.                                                      PPEC001
040200                                                                  PPEC001
040300     IF  APPT-2028-APPT-WOS = NOPE                                PPEC001
040400         PERFORM 1100-WITH-SALARY                                 PPEC001
040500     ELSE                                                         PPEC001
040600         IF  APPT-2028-APPT-WOS = YES                             PPEC001
040700             PERFORM 1200-WITHOUT-SALARY                          PPEC001
040800         END-IF                                                   PPEC001
040900     END-IF.                                                      PPEC001
041000                                                                  PPEC001
041100     IF  APPT-2007-PERSNL-PROGRM = SPACES                         PPEC001
041200         ADD 1                TO KMTA-CTR                         PPEC001
041300         MOVE 7               TO KMTA-ADA-OFFSET       (KMTA-CTR) PPEC001
041400         MOVE APPT-2007-PERSNL-PROGRM                             PPEC001
041500                              TO KMTA-DATA-FIELD       (KMTA-CTR) PPEC001
041600         MOVE WS-ROUTINE-TYPE TO KMTA-ROUTINE-TYPE     (KMTA-CTR) PPEC001
041700         MOVE WS-ROUTINE-NUM  TO KMTA-ROUTINE-NUM      (KMTA-CTR) PPEC001
041800         MOVE 1               TO KMTA-LENGTH           (KMTA-CTR) PPEC001
041900         MOVE M08251          TO KMTA-MSG-NUMBER       (KMTA-CTR) PPEC001
042000         MOVE MSSG-ACAD-STAFF-APPT                                PPEC001
042100                              TO KMTA-ACAD-STAFF-APPT  (KMTA-CTR) PPEC001
042200         MOVE MSSG-ACAD-STAFF-EMPL                                PPEC001
042300                              TO KMTA-ACAD-STAFF-EMPL  (KMTA-CTR) PPEC001
042400         MOVE WS-ROUTINE-TYPE TO KMTA-ROUTINE-TYPE     (KMTA-CTR) PPEC001
042500         MOVE WS-ROUTINE-NUM  TO KMTA-ROUTINE-NUM      (KMTA-CTR) PPEC001
042600     END-IF.                                                      PPEC001
042700                                                                  PPEC001
042800     IF  APPT-2020-APPT-TYPE = SPACES                             PPEC001
042900         ADD 1                TO KMTA-CTR                         PPEC001
043000         MOVE 20              TO KMTA-ADA-OFFSET       (KMTA-CTR) PPEC001
043100         MOVE APPT-2020-APPT-TYPE                                 PPEC001
043200                              TO KMTA-DATA-FIELD       (KMTA-CTR) PPEC001
043300         MOVE WS-ROUTINE-TYPE TO KMTA-ROUTINE-TYPE     (KMTA-CTR) PPEC001
043400         MOVE WS-ROUTINE-NUM  TO KMTA-ROUTINE-NUM      (KMTA-CTR) PPEC001
043500         MOVE 1               TO KMTA-LENGTH           (KMTA-CTR) PPEC001
043600         MOVE M08250          TO KMTA-MSG-NUMBER       (KMTA-CTR) PPEC001
043700         MOVE MSSG-ACAD-STAFF-APPT                                PPEC001
043800                              TO KMTA-ACAD-STAFF-APPT  (KMTA-CTR) PPEC001
043900         MOVE MSSG-ACAD-STAFF-EMPL                                PPEC001
044000                              TO KMTA-ACAD-STAFF-EMPL  (KMTA-CTR) PPEC001
044100         MOVE WS-ROUTINE-TYPE TO KMTA-ROUTINE-TYPE     (KMTA-CTR) PPEC001
044200         MOVE WS-ROUTINE-NUM  TO KMTA-ROUTINE-NUM      (KMTA-CTR) PPEC001
044300     END-IF.                                                      PPEC001
044400                                                                  PPEC001
044500     MOVE SPACES              TO MSSG-ACAD-STAFF-APPT.            PPEC001
044600                                                                  PPEC001
044700******************************************************************PPEC001
044800**   AN APPOINTMENT LEVEL CHANGE HAS BEEN MADE SO IT MAY BE     **PPEC001
044900**   NECESSARY TO CHECK ELIGIBILITY FOR EXECUTIVE LIFE PROGRAM  **PPEC001
045000******************************************************************PPEC001
045100                                                                  PPEC001
045200     MOVE 'Y'                 TO CHECK-EXEC-LIFE-ELIG-FLAG.       PPEC001
045300                                                                  PPEC001
045400******************************************************************PPEC001
045500**  IF  TIME REPORTING CODE IS EXCEPTION (T, L, OR E) FIXED/    **PPEC001
045600**  VARIABLE MUST BE F OR IT'S AN ERROR.                        **PPEC001
045700******************************************************************PPEC001
045800                                                                  PPEC001
045900     MOVE APPT-2017-TIME-CODE TO W88-TIME-REPT-CODE.              PPEC001
046000                                                                  PPEC001
046100     IF      TIME-REPT-CODE-EXCP-TIME                             PPEC001
046200         AND APPT-2013-FXD-VAR = 'V'                              PPEC001
046300         ADD 1                TO KMTA-CTR                         PPEC001
046400         MOVE 17              TO KMTA-ADA-OFFSET       (KMTA-CTR) PPEC001
046500         MOVE APPT-2017-TIME-CODE                                 PPEC001
046600                              TO KMTA-DATA-FIELD       (KMTA-CTR) PPEC001
046700         MOVE 1               TO KMTA-LENGTH           (KMTA-CTR) PPEC001
046800         MOVE M08073          TO KMTA-MSG-NUMBER       (KMTA-CTR) PPEC001
046900         MOVE WS-ROUTINE-TYPE TO KMTA-ROUTINE-TYPE     (KMTA-CTR) PPEC001
047000         MOVE WS-ROUTINE-NUM  TO KMTA-ROUTINE-NUM      (KMTA-CTR) PPEC001
047100         ADD 1                TO KMTA-CTR                         PPEC001
047200         MOVE 13              TO KMTA-ADA-OFFSET       (KMTA-CTR) PPEC001
047300         MOVE APPT-2013-FXD-VAR                                   PPEC001
047400                              TO KMTA-DATA-FIELD       (KMTA-CTR) PPEC001
047500         MOVE 1               TO KMTA-LENGTH           (KMTA-CTR) PPEC001
047600         MOVE M08073          TO KMTA-MSG-NUMBER       (KMTA-CTR) PPEC001
047700         MOVE WS-ROUTINE-TYPE TO KMTA-ROUTINE-TYPE     (KMTA-CTR) PPEC001
047800         MOVE WS-ROUTINE-NUM  TO KMTA-ROUTINE-NUM      (KMTA-CTR) PPEC001
047900     END-IF.                                                      PPEC001
048000                                                                  PPEC001
048100     IF  APPT-2002-APPT-BEGN-DATE > APPT-2003-APPT-END-DATE       PPEC001
048200         ADD 1                TO KMTA-CTR                         PPEC001
048300         MOVE 2               TO KMTA-ADA-OFFSET       (KMTA-CTR) PPEC001
048400         MOVE APPT-2002-APPT-BEGN-DATE                            PPEC001
052410                              TO XDC3-ISO-DATE                    28521025
052420         PERFORM XDC3-CONVERT-ISO-TO-STD                          28521025
052430         MOVE XDC3-STD-DATE   TO KMTA-DATA-FIELD       (KMTA-CTR) 28521025
048800         MOVE 6               TO KMTA-LENGTH           (KMTA-CTR) PPEC001
048900         MOVE M08056          TO KMTA-MSG-NUMBER       (KMTA-CTR) PPEC001
049000         MOVE WS-ROUTINE-TYPE TO KMTA-ROUTINE-TYPE     (KMTA-CTR) PPEC001
049100         MOVE WS-ROUTINE-NUM  TO KMTA-ROUTINE-NUM      (KMTA-CTR) PPEC001
049200         ADD 1                TO KMTA-CTR                         PPEC001
049300         MOVE 3               TO KMTA-ADA-OFFSET       (KMTA-CTR) PPEC001
049400         MOVE APPT-2003-APPT-END-DATE                             PPEC001
053410                              TO XDC3-ISO-DATE                    28521025
053420         PERFORM XDC3-CONVERT-ISO-TO-STD                          28521025
053430         MOVE XDC3-STD-DATE   TO KMTA-DATA-FIELD       (KMTA-CTR) 28521025
049800         MOVE 6               TO KMTA-LENGTH           (KMTA-CTR) PPEC001
049900         MOVE M08056          TO KMTA-MSG-NUMBER       (KMTA-CTR) PPEC001
050000         MOVE WS-ROUTINE-TYPE TO KMTA-ROUTINE-TYPE     (KMTA-CTR) PPEC001
050100         MOVE WS-ROUTINE-NUM  TO KMTA-ROUTINE-NUM      (KMTA-CTR) PPEC001
050200     END-IF.                                                      PPEC001
050300                                                                  PPEC001
050400     IF  APPT-2002-APPT-BEGN-DATE < HIRE-DATE                     PPEC001
050500         ADD 1                TO KMTA-CTR                         PPEC001
050600         MOVE 2               TO KMTA-ADA-OFFSET       (KMTA-CTR) PPEC001
050700         MOVE APPT-2002-APPT-BEGN-DATE                            PPEC001
054710                              TO XDC3-ISO-DATE                    28521025
054720         PERFORM XDC3-CONVERT-ISO-TO-STD                          28521025
054730         MOVE XDC3-STD-DATE   TO KMTA-DATA-FIELD       (KMTA-CTR) 28521025
051100         MOVE 6               TO KMTA-LENGTH           (KMTA-CTR) PPEC001
051200         MOVE M08058          TO KMTA-MSG-NUMBER       (KMTA-CTR) PPEC001
051300         MOVE WS-ROUTINE-TYPE TO KMTA-ROUTINE-TYPE     (KMTA-CTR) PPEC001
051400         MOVE WS-ROUTINE-NUM  TO KMTA-ROUTINE-NUM      (KMTA-CTR) PPEC001
051500         ADD 1                TO KMTA-CTR                         PPEC001
051600         MOVE E0113           TO KMTA-FIELD-NUM        (KMTA-CTR) PPEC001
055610         MOVE HIRE-DATE       TO XDC3-ISO-DATE                    28521025
055620         PERFORM XDC3-CONVERT-ISO-TO-STD                          28521025
055630         MOVE XDC3-STD-DATE   TO KMTA-DATA-FIELD       (KMTA-CTR) 28521025
052000         MOVE 6               TO KMTA-LENGTH           (KMTA-CTR) PPEC001
052100         MOVE M08058          TO KMTA-MSG-NUMBER       (KMTA-CTR) PPEC001
052200         MOVE WS-ROUTINE-TYPE TO KMTA-ROUTINE-TYPE     (KMTA-CTR) PPEC001
052300         MOVE WS-ROUTINE-NUM  TO KMTA-ROUTINE-NUM      (KMTA-CTR) PPEC001
052400     END-IF.                                                      PPEC001
052500                                                                  PPEC001
052600     IF       APPT-2003-APPT-END-DATE = '9999-12-31'              PPEC001
052700         AND (   APPT-2004-DUR-EMPLMT = 'N'                       PPEC001
052800              OR APPT-2004-DUR-EMPLMT = 'A'                       PPEC001
057600*****         OR APPT-2004-DUR-EMPLMT = 'S'                       06171526
053000              OR APPT-2004-DUR-EMPLMT = 'V'                       PPEC001
057710              OR APPT-2004-DUR-EMPLMT = 'B'                       48171242
053100              OR APPT-2004-DUR-EMPLMT = ' ')                      PPEC001
053200         ADD 1                TO KMTA-CTR                         PPEC001
053300         MOVE 4               TO KMTA-ADA-OFFSET       (KMTA-CTR) PPEC001
053400         MOVE APPT-2004-DUR-EMPLMT                                PPEC001
053500                              TO KMTA-DATA-FIELD       (KMTA-CTR) PPEC001
053600         MOVE 1               TO KMTA-LENGTH           (KMTA-CTR) PPEC001
053700         MOVE M08069          TO KMTA-MSG-NUMBER       (KMTA-CTR) PPEC001
053800         MOVE WS-ROUTINE-TYPE TO KMTA-ROUTINE-TYPE     (KMTA-CTR) PPEC001
053900         MOVE WS-ROUTINE-NUM  TO KMTA-ROUTINE-NUM      (KMTA-CTR) PPEC001
054000         ADD 1                TO KMTA-CTR                         PPEC001
054100         MOVE 3               TO KMTA-ADA-OFFSET       (KMTA-CTR) PPEC001
054200         MOVE APPT-2003-APPT-END-DATE                             PPEC001
058210                              TO XDC3-ISO-DATE                    28521025
058220         PERFORM XDC3-CONVERT-ISO-TO-STD                          28521025
058230         MOVE XDC3-STD-DATE   TO KMTA-DATA-FIELD       (KMTA-CTR) 28521025
054600         MOVE 6               TO KMTA-LENGTH           (KMTA-CTR) PPEC001
054700         MOVE M08069          TO KMTA-MSG-NUMBER       (KMTA-CTR) PPEC001
054800         MOVE WS-ROUTINE-TYPE TO KMTA-ROUTINE-TYPE     (KMTA-CTR) PPEC001
054900         MOVE WS-ROUTINE-NUM  TO KMTA-ROUTINE-NUM      (KMTA-CTR) PPEC001
055000     END-IF.                                                      PPEC001
055100                                                                  PPEC001
055200     IF  APPT-2003-APPT-END-DATE > VISA-END-DATE                  PPEC001
059010         AND VISA-END-DATE NOT = XDTS-ISO-ZERO-DATE               28521025
055400         MOVE '1'             TO VSA-MSG-SW                       PPEC001
055500     END-IF.                                                      PPEC001
055600                                                                  PPEC001
055700     IF       APPT-2003-APPT-END-DATE NOT = '9999-12-31'          PPEC001
055800         AND  APPT-2004-DUR-EMPLMT    NOT = ' '                   PPEC001
055900         AND  APPT-2004-DUR-EMPLMT    NOT = 'N'                   PPEC001
056000         AND  APPT-2004-DUR-EMPLMT    NOT = 'V'                   PPEC001
056100         AND  APPT-2004-DUR-EMPLMT    NOT = 'A'                   PPEC001
061101*****    AND  APPT-2004-DUR-EMPLMT    NOT = 'S'                   06171526
061110         AND  APPT-2004-DUR-EMPLMT    NOT = 'B'                   48171242
056300         ADD 1                TO KMTA-CTR                         PPEC001
056400         MOVE 3               TO KMTA-ADA-OFFSET       (KMTA-CTR) PPEC001
056500         MOVE APPT-2003-APPT-END-DATE                             PPEC001
060510                              TO XDC3-ISO-DATE                    28521025
060520         PERFORM XDC3-CONVERT-ISO-TO-STD                          28521025
060530         MOVE XDC3-STD-DATE   TO KMTA-DATA-FIELD       (KMTA-CTR) 28521025
056900         MOVE 6               TO KMTA-LENGTH           (KMTA-CTR) PPEC001
057000         MOVE M08062          TO KMTA-MSG-NUMBER       (KMTA-CTR) PPEC001
057100         MOVE WS-ROUTINE-TYPE TO KMTA-ROUTINE-TYPE     (KMTA-CTR) PPEC001
057200         MOVE WS-ROUTINE-NUM  TO KMTA-ROUTINE-NUM      (KMTA-CTR) PPEC001
057300         ADD 1                TO KMTA-CTR                         PPEC001
057400         MOVE 4               TO KMTA-ADA-OFFSET       (KMTA-CTR) PPEC001
057500         MOVE APPT-2004-DUR-EMPLMT                                PPEC001
057600                              TO KMTA-DATA-FIELD       (KMTA-CTR) PPEC001
057700         MOVE 1               TO KMTA-LENGTH           (KMTA-CTR) PPEC001
057800         MOVE M08062          TO KMTA-MSG-NUMBER       (KMTA-CTR) PPEC001
057900         MOVE WS-ROUTINE-TYPE TO KMTA-ROUTINE-TYPE     (KMTA-CTR) PPEC001
058000         MOVE WS-ROUTINE-NUM  TO KMTA-ROUTINE-NUM      (KMTA-CTR) PPEC001
058100     END-IF.                                                      PPEC001
061700     EJECT                                                        PPEC001
061800*----------------------------------------------------------------*PPEC001
061900 1100-WITH-SALARY  SECTION.                                       PPEC001
062000*----------------------------------------------------------------*PPEC001
062100                                                                  PPEC001
062200     IF  NOT (APPT-2013-FXD-VAR = 'F'                             PPEC001
062300         OR  APPT-2013-FXD-VAR = 'V')                             PPEC001
062400         ADD 1                TO KMTA-CTR                         PPEC001
062500         MOVE 13              TO KMTA-ADA-OFFSET       (KMTA-CTR) PPEC001
062600         MOVE APPT-2013-FXD-VAR                                   PPEC001
062700                              TO KMTA-DATA-FIELD       (KMTA-CTR) PPEC001
062800         MOVE 'C'             TO KMTA-ROUTINE-TYPE     (KMTA-CTR) PPEC001
062900         MOVE 001             TO KMTA-ROUTINE-NUM      (KMTA-CTR) PPEC001
063000         MOVE 1               TO KMTA-LENGTH           (KMTA-CTR) PPEC001
063100         MOVE M08019          TO KMTA-MSG-NUMBER       (KMTA-CTR) PPEC001
063200         MOVE WS-ROUTINE-TYPE TO KMTA-ROUTINE-TYPE     (KMTA-CTR) PPEC001
063300         MOVE WS-ROUTINE-NUM  TO KMTA-ROUTINE-NUM      (KMTA-CTR) PPEC001
063400     END-IF.                                                      PPEC001
063500                                                                  PPEC001
063600     IF  NOT (APPT-2015-RATE-CODE = 'A'                           PPEC001
063700         OR  APPT-2015-RATE-CODE = 'H'                            PPEC001
063800         OR  APPT-2015-RATE-CODE = 'B')                           PPEC001
063900         ADD 1                TO KMTA-CTR                         PPEC001
064000         MOVE 15              TO KMTA-ADA-OFFSET       (KMTA-CTR) PPEC001
064100         MOVE APPT-2015-RATE-CODE                                 PPEC001
064200                              TO KMTA-DATA-FIELD       (KMTA-CTR) PPEC001
064300         MOVE 'C'             TO KMTA-ROUTINE-TYPE     (KMTA-CTR) PPEC001
064400         MOVE 001             TO KMTA-ROUTINE-NUM      (KMTA-CTR) PPEC001
064500         MOVE 1               TO KMTA-LENGTH           (KMTA-CTR) PPEC001
064600         MOVE M08021          TO KMTA-MSG-NUMBER       (KMTA-CTR) PPEC001
064700         MOVE WS-ROUTINE-TYPE TO KMTA-ROUTINE-TYPE     (KMTA-CTR) PPEC001
064800         MOVE WS-ROUTINE-NUM  TO KMTA-ROUTINE-NUM      (KMTA-CTR) PPEC001
064900     END-IF.                                                      PPEC001
065000                                                                  PPEC001
065100     IF  NOT (APPT-2016-PAY-SCHED = 'SM'                          PPEC001
065200         OR  APPT-2016-PAY-SCHED = 'MO'                           PPEC001
065300         OR  APPT-2016-PAY-SCHED = 'MA'                           PPEC001
065400         OR  APPT-2016-PAY-SCHED = 'BW')                          PPEC001
065500         ADD 1                TO KMTA-CTR                         PPEC001
065600         MOVE 16              TO KMTA-ADA-OFFSET       (KMTA-CTR) PPEC001
065700         MOVE APPT-2016-PAY-SCHED                                 PPEC001
065800                              TO KMTA-DATA-FIELD       (KMTA-CTR) PPEC001
065900         MOVE 2               TO KMTA-LENGTH           (KMTA-CTR) PPEC001
066000         MOVE M08026          TO KMTA-MSG-NUMBER       (KMTA-CTR) PPEC001
066100         MOVE WS-ROUTINE-TYPE TO KMTA-ROUTINE-TYPE     (KMTA-CTR) PPEC001
066200         MOVE WS-ROUTINE-NUM  TO KMTA-ROUTINE-NUM      (KMTA-CTR) PPEC001
066300     END-IF.                                                      PPEC001
066400                                                                  PPEC001
066500     MOVE APPT-2017-TIME-CODE TO W88-TIME-REPT-CODE.              PPEC001
066600     IF  NOT (TIME-REPT-CODE-POS-TIME                             PPEC001
066700         OR  TIME-REPT-CODE-EXCP-TIME)                            PPEC001
066800         ADD 1                TO KMTA-CTR                         PPEC001
066900         MOVE 17              TO KMTA-ADA-OFFSET       (KMTA-CTR) PPEC001
067000         MOVE APPT-2017-TIME-CODE                                 PPEC001
067100                              TO KMTA-DATA-FIELD       (KMTA-CTR) PPEC001
067200         MOVE 1               TO KMTA-LENGTH           (KMTA-CTR) PPEC001
067300         MOVE M08027          TO KMTA-MSG-NUMBER       (KMTA-CTR) PPEC001
067400         MOVE WS-ROUTINE-TYPE TO KMTA-ROUTINE-TYPE     (KMTA-CTR) PPEC001
067500         MOVE WS-ROUTINE-NUM  TO KMTA-ROUTINE-NUM      (KMTA-CTR) PPEC001
067600     END-IF.                                                      PPEC001
067700                                                                  PPEC001
067800     MOVE APPT-2018-LEAVE     TO CHECK-IF-VALID-LEAVE-ACCRUAL.    PPEC001
067900                                                                  PPEC001
068000     IF       NOT VALID-LEAVE-ACCRUAL-CODE                        PPEC001
068100         AND (    LEAVE-ACCRUAL-CODE = 1                          PPEC001
068200              OR  LEAVE-ACCRUAL-CODE = 2)                         PPEC001
068300         ADD 1                TO KMTA-CTR                         PPEC001
068400         MOVE 18              TO KMTA-ADA-OFFSET       (KMTA-CTR) PPEC001
068500         MOVE APPT-2018-LEAVE TO KMTA-DATA-FIELD       (KMTA-CTR) PPEC001
068600         MOVE 1               TO KMTA-LENGTH           (KMTA-CTR) PPEC001
068700         MOVE M08028          TO KMTA-MSG-NUMBER       (KMTA-CTR) PPEC001
068800         MOVE WS-ROUTINE-TYPE TO KMTA-ROUTINE-TYPE     (KMTA-CTR) PPEC001
068900         MOVE WS-ROUTINE-NUM  TO KMTA-ROUTINE-NUM      (KMTA-CTR) PPEC001
069000     END-IF.                                                      PPEC001
069100                                                                  PPEC001
069200                                                                  PPEC001
069300     EJECT                                                        PPEC001
069400*----------------------------------------------------------------*PPEC001
069500 1200-WITHOUT-SALARY  SECTION.                                    PPEC001
069600*----------------------------------------------------------------*PPEC001
069700                                                                  PPEC001
069800     IF  APPT-2014-ANNL-HRLY-RATE NOT = ZEROS                     PPEC001
069900         ADD 1                TO KMTA-CTR                         PPEC001
070000         MOVE 14              TO KMTA-ADA-OFFSET       (KMTA-CTR) PPEC001
070100         MOVE APPT-2014-ANNL-HRLY-RATE                            PPEC001
070200                              TO WRK-NUMERIC-9999V9999            PPEC001
070300         MOVE WRK-DISPLAY-PICX8                                   PPEC001
070400                              TO KMTA-DATA-FIELD       (KMTA-CTR) PPEC001
070500         MOVE 8               TO KMTA-LENGTH           (KMTA-CTR) PPEC001
070600         MOVE M08030          TO KMTA-MSG-NUMBER       (KMTA-CTR) PPEC001
070700         MOVE WS-ROUTINE-TYPE TO KMTA-ROUTINE-TYPE     (KMTA-CTR) PPEC001
070800         MOVE WS-ROUTINE-NUM  TO KMTA-ROUTINE-NUM      (KMTA-CTR) PPEC001
070900     END-IF.                                                      PPEC001
071000                                                                  PPEC001
071100     IF  APPT-2015-RATE-CODE NOT = SPACES                         PPEC001
071200         ADD 1                TO KMTA-CTR                         PPEC001
071300         MOVE 15              TO KMTA-ADA-OFFSET       (KMTA-CTR) PPEC001
071400         MOVE APPT-2015-RATE-CODE                                 PPEC001
071500                              TO KMTA-DATA-FIELD       (KMTA-CTR) PPEC001
071600         MOVE 1               TO KMTA-LENGTH           (KMTA-CTR) PPEC001
071700         MOVE M08031          TO KMTA-MSG-NUMBER       (KMTA-CTR) PPEC001
071800         MOVE WS-ROUTINE-TYPE TO KMTA-ROUTINE-TYPE     (KMTA-CTR) PPEC001
071900         MOVE WS-ROUTINE-NUM  TO KMTA-ROUTINE-NUM      (KMTA-CTR) PPEC001
072000     END-IF.                                                      PPEC001
072100                                                                  PPEC001
072200     IF  APPT-2018-LEAVE NOT = 'N'                                PPEC001
072300         ADD 1                TO KMTA-CTR                         PPEC001
072400         MOVE 18              TO KMTA-ADA-OFFSET       (KMTA-CTR) PPEC001
072500         MOVE APPT-2018-LEAVE TO KMTA-DATA-FIELD       (KMTA-CTR) PPEC001
072600         MOVE 1               TO KMTA-LENGTH           (KMTA-CTR) PPEC001
072700         MOVE M08032          TO KMTA-MSG-NUMBER       (KMTA-CTR) PPEC001
072800         MOVE WS-ROUTINE-TYPE TO KMTA-ROUTINE-TYPE     (KMTA-CTR) PPEC001
072900         MOVE WS-ROUTINE-NUM  TO KMTA-ROUTINE-NUM      (KMTA-CTR) PPEC001
073000     END-IF.                                                      PPEC001
073500     EJECT                                                        PPEC001
073600*----------------------------------------------------------------*PPEC001
073700 9050-AUDITING-RESPONSIBILITIES  SECTION.                         PPEC001
073800*----------------------------------------------------------------*PPEC001
073100                                                                  PPEC001
076600*                                                 *-------------* PPEC001
076700                                                   COPY CPPDXDEC. PPEC001
076800*                                                 *-------------* PPEC001
076900                                                                  PPEC001
077000*----------------------------------------------------------------*PPEC001
077100 9060-APPT-DIST-LOC-CALCULATION  SECTION.                         PPEC001
077200*----------------------------------------------------------------*PPEC001
077300                                                                  PPEC001
077400*                                                 *-------------* PPEC001
077500                                                   COPY CPPDADLC. PPEC001
077600*                                                 *-------------* PPEC001
077700                                                                  PPEC001
077800     EJECT                                                        PPEC001
077900*----------------------------------------------------------------*PPEC001
078000 9300-DATE-CONVERSION-DB2  SECTION.                               PPEC001
078100*----------------------------------------------------------------*PPEC001
078200                                                                  PPEC001
078300*                                                 *-------------* PPEC001
075810                                                   COPY CPPDXDC3. 28521025
078500*                                                 *-------------* PPEC001
078600                                                                  PPEC001
078700******************************************************************PPEC001
078800**   E N D  S O U R C E   ----  PPEC001 ----                    **PPEC001
078900******************************************************************PPEC001
