000000**************************************************************/   EFIX1350
000001*  PROGRAM: PPEC130                                          */   EFIX1350
000002*  RELEASE: ___1350______ SERVICE REQUEST(S): _____EFIX____  */   EFIX1350
000003*  NAME:__PHIL THOMPSON__ MODIFICATION DATE:  ___06/11/01__  */   EFIX1350
000004*  DESCRIPTION:                                              */   EFIX1350
000005*  ERROR REPORT 1741:                                        */   EFIX1350
000006*    CORRECT AND/OR STRUCTURE FOR CITIZEN CODE/STUDENT STATUS*/   EFIX1350
000007*    EDIT.                                                   */   EFIX1350
000008**************************************************************/   EFIX1350
000110**************************************************************/   48281279
000200*  PROGRAM: PPEC130                                          */   48281279
000220*  RELEASE: ___1279______ SERVICE REQUEST(S): _14828_______  */   48281279
000230*  NAME:___S.B.ISAACS____ MODIFICATION DATE:  ___02/29/00__  */   48281279
000240*  DESCRIPTION:                                              */   48281279
000250*  - ADD EDITS AND IMPLIED MAINTENANCE FOR CITIZEN CODE "S"  */   48281279
000260**************************************************************/   48281279
000100**************************************************************/   32161191
000200*  PROGRAM: PPEC130                                          */   32161191
000220*  RELEASE: ___1191______ SERVICE REQUEST(S): ____13216____  */   32161191
000230*  NAME:______KEN FORD___ MODIFICATION DATE:  ___06/15/98__  */   32161191
000240*  DESCRIPTION:                                              */   32161191
000250*  - ADD EDITS AND IMPLIED MAINTENANCE FOR CITIZEN CODE "F"  */   32161191
000260**************************************************************/   32161191
000000**************************************************************/   28521025
000001*  PROGRAM: PPEC130                                          */   28521025
000002*  RELEASE: ___1025______ SERVICE REQUEST(S): ____12852____  */   28521025
000003*  NAME:_______QUAN______ MODIFICATION DATE:  ___08/27/95__  */   28521025
000004*  DESCRIPTION:                                              */   28521025
000005*  - DATE CONVERSION PROJECT:                                */   28521025
000006*    THE NAMES REFERENCED FROM COPYMEMBER CPWSXDTS HAVE      */   28521025
000007*    BEEN CHANGED TO THE NEW NAMES IN CPWSXDTS.              */   28521025
000010**************************************************************/   28521025
000000**************************************************************/   17880981
000001*  PROGRAM: PPEC130                                          */   17880981
000002*  RELEASE: ___0981______ SERVICE REQUEST(S): _____1788____  */   17880981
000003*  NAME:____H.__TRUONG___ MODIFICATION DATE:  ___05/10/95__  */   17880981
000004*  DESCRIPTION:                                              */   17880981
000005*                                                            */   17880981
000006*  MODIFIED CODE TO ADD AN EDIT FOR THE CITIZENSHIP STATUS   */   17880981
000007*  CODE AND COUNTRY OF RESIDENCY CODE.                       */   17880981
000008*                                                            */   17880981
000009**************************************************************/   17880981
000000**************************************************************/   15400936
000001*  PROGRAM: PPEC130                                          */   15400936
000002*  RELEASE: ___0936______ SERVICE REQUEST(S): ____11540____  */   15400936
000003*  NAME:_______QUAN______ MODIFICATION DATE:  ___08/22/94__  */   15400936
000004*  DESCRIPTION:                                              */   15400936
000005*  -  ADD CONSISTENCY EDIT FOR COUNTRY OF RESIDENCY WHEN     */   15400936
000006*     CITIZEN CODE 'E' IS ENTERED.                           */   15400936
000007**************************************************************/   15400936
000100*----------------------------------------------------------------*02200733
000200*|**************************************************************|*02200733
000300*|* PROGRAM: PPEC130                                           *|*02200733
000400*|*  RELEASE: __0733_______ SERVICE REQUEST(S): ____10220____  *|*02200733
000500*|*  NAME:_PHIL THOMPSON___ CREATION DATE: ________01/28/93__  *|*02200733
000600*|*  DESCRIPTION:                                              *|*02200733
000800*|*    CITIZENSHIP/COUNTRY OF ORIGIN CONSISTENCY EDITS         *|*02200733
000900*|**************************************************************|*02200733
001000*----------------------------------------------------------------*02200733
001100                                                                  PPEC130
001200 IDENTIFICATION DIVISION.                                         PPEC130
001300 PROGRAM-ID. PPEC130.                                             PPEC130
001400 AUTHOR. UCOP.                                                    PPEC130
001500 INSTALLATION. UNIVERSITY OF CALIFORNIA.                          PPEC130
001600                                                                  PPEC130
001700 DATE-WRITTEN.  DECEMBER 11, 1992.                                PPEC130
001800 DATE-COMPILED.                                                   PPEC130
001900                                                                  PPEC130
002000******************************************************************PPEC130
002100**    THIS ROUTINE WILL PERFORM THE CITIZENSHIP/COUNTRY OF      **PPEC130
002200**    ORIGIN CONSISTENCY EDITS.                                 **PPEC130
002300******************************************************************PPEC130
002400                                                                  PPEC130
002500 ENVIRONMENT DIVISION.                                            PPEC130
002600 CONFIGURATION SECTION.                                           PPEC130
002700 SOURCE-COMPUTER.                                  COPY CPOTXUCS. PPEC130
002800 OBJECT-COMPUTER.                                  COPY CPOTXOBJ. PPEC130
002900 SPECIAL-NAMES.                C01 IS NEW-PAGE.                   PPEC130
003000                                                                  PPEC130
003100 INPUT-OUTPUT SECTION.                                            PPEC130
003200 FILE-CONTROL.                                                    PPEC130
003300                                                                  PPEC130
003400 DATA DIVISION.                                                   PPEC130
003500 FILE SECTION.                                                    PPEC130
003600     EJECT                                                        PPEC130
003700*----------------------------------------------------------------*PPEC130
003800 WORKING-STORAGE SECTION.                                         PPEC130
003900*----------------------------------------------------------------*PPEC130
004000                                                                  PPEC130
004100 01  A-STND-PROG-ID                   PIC X(15) VALUE             PPEC130
007500*****'PPEC130 /080195'.                                           32161191
007520*****'PPEC130 /061598'.                                           48281279
007530     'PPEC130 /040300'.                                           48281279
004300                                                                  PPEC130
004400 01  A-STND-MSG-PARMS                 REDEFINES                   PPEC130
004500     A-STND-PROG-ID.                                              PPEC130
004600     05  FILLER                       PIC X(03).                  PPEC130
004700     05  WS-ROUTINE-TYPE              PIC X(01).                  PPEC130
004800     05  WS-ROUTINE-NUM               PIC 9(03).                  PPEC130
004900     05  FILLER                       PIC X(08).                  PPEC130
005000                                                                  PPEC130
005100 01  MESSAGES-USED.                                               PPEC130
005200     05  M08459                       PIC X(05) VALUE '08459'.    PPEC130
005201     05  M08430                       PIC X(05) VALUE '08430'.    15400936
008810     05  M08440                       PIC X(05) VALUE '08440'.    48281279
005202     05  M08499                       PIC X(05) VALUE '08499'.    17880981
008910     05  M08441                       PIC X(05) VALUE '08441'.    48281279
008920     05  M08442                       PIC X(05) VALUE '08442'.    48281279
008921     05  M08443                       PIC X(05) VALUE '08443'.    48281279
008930     05  M12271                       PIC X(05) VALUE '12271'.    48281279
008940     05  M12272                       PIC X(05) VALUE '12272'.    48281279
008950     05  M12273                       PIC X(05) VALUE '12273'.    48281279
005210     05  M12238                       PIC X(05) VALUE '12238'.    PPEC130
009100     05  M12270                       PIC X(05) VALUE '12270'.    48281279
009110     05  M12430                       PIC X(05) VALUE '12430'.    48281279
005230     05  M12499                       PIC X(05) VALUE '12499'.    17880981
005300                                                                  PPEC130
005400 01  ELEMENTS-USED.                                               PPEC130
005500     05  E0109                        PIC 9(04) VALUE 0109.       PPEC130
005510     05  E0110                        PIC 9(04) VALUE 0110.       17880981
009610     05  E0119                        PIC 9(04) VALUE 0119.       48281279
005600     05  E0143                        PIC 9(04) VALUE 0143.       PPEC130
005700                                                                  PPEC130
005800 01  MISC-WORK-AREAS.                                             PPEC130
005900     05  FIRST-TIME-SW                PIC X(01) VALUE LOW-VALUES. PPEC130
006000         88  THIS-IS-THE-FIRST-TIME             VALUE LOW-VALUES. PPEC130
006100         88  NOT-THE-FIRST-TIME                 VALUE 'Y'.        PPEC130
006200                                                                  PPEC130
006300     EJECT                                                        PPEC130
006700 01  DL-FIELD-WORK-AREA.                           COPY CPWSXDLS. PPEC130
006800                                                                  PPEC130
006900     EJECT                                                        PPEC130
007000*01  DATE-CONVERSION-WORK-AREAS.                   COPY CPWSXDC2. 28521025
007100                                                                  PPEC130
007200     EJECT                                                        PPEC130
007300 01  XWHC-COMPILE-WORK-AREA.                       COPY CPWSXWHC. PPEC130
007400                                                                  PPEC130
007500     EJECT                                                        PPEC130
007600 01  COLUMN-88-WORK.                               COPY CPWSW88S. PPEC130
007700                                                                  PPEC130
007800     EJECT                                                        PPEC130
007900*01  DATE-WORK-AREA.                               COPY CPWSDATE. 28521025
011710*****                                                          CD 32161191
008200 01  APPT-DIST-LOC-WORK-AREAS.                     COPY CPWSADLC. PPEC130
008300                                                                  PPEC130
008400     EJECT                                                        PPEC130
008500 01  INSTALLATION-DEPENDT-CONSTANTS.               COPY CPWSXIDC. PPEC130
008600                                                                  PPEC130
008700     EJECT                                                        PPEC130
008800******************************************************************PPEC130
008900**     E  X  T  E  R  N  A  L  S      S  E  C  T  I  O  N       **PPEC130
009000**--------------------------------------------------------------**PPEC130
009100** THE FOLLOWING EXTERNAL AREAS WILL BE USED BY OTHER PROCESSES **PPEC130
009200******************************************************************PPEC130
009300                                                                  PPEC130
009400 01  DATA-ELEMENT-CHANGE-INDICATORS      EXTERNAL. COPY CPWSXDEC. PPEC130
009500                                                                  PPEC130
009600     EJECT                                                        PPEC130
009700 01  XCSS-COMMON-SYSTEM-SWITCHES         EXTERNAL. COPY CPWSSWCH. PPEC130
009800                                                                  PPEC130
009900     EJECT                                                        PPEC130
010000 01  XDTS-COMMON-SYSTEM-DATES            EXTERNAL. COPY CPWSXDTS. PPEC130
010100                                                                  PPEC130
010200     EJECT                                                        PPEC130
010300 01  ECES-CON-EDIT-SWITCH                EXTERNAL. COPY CPWSECES. PPEC130
010400                                                                  PPEC130
010500 01  EGES-GTN-EDIT-SWITCH                EXTERNAL. COPY CPWSEGES. PPEC130
010600                                                                  PPEC130
010700 01  EIMS-IMPL-MAINT-SWITCH              EXTERNAL. COPY CPWSEIMS. PPEC130
010800                                                                  PPEC130
010900 01  EAXD-APPT-ARRAY-SWITCH              EXTERNAL. COPY CPWSEAXD. PPEC130
011000                                                                  PPEC130
011100     EJECT                                                        PPEC130
011200 01  XDER-DATA-ELMT-RTN-POINTERS         EXTERNAL. COPY CPWSXDER. PPEC130
011300                                                                  PPEC130
011400     EJECT                                                        PPEC130
011500 01  XDRT-DET-ROUTINE-TRIGGERS           EXTERNAL. COPY CPWSXDRT. PPEC130
011600                                                                  PPEC130
011700     EJECT                                                        PPEC130
011800 01  EDB-MAINTENANCE-PASS-AREA           EXTERNAL. COPY CPWSEMPA. PPEC130
011900                                                                  PPEC130
012000     EJECT                                                        PPEC130
012100******************************************************************PPEC130
012200**  DATA BASE AREAS                                             **PPEC130
012300******************************************************************PPEC130
012400                                                                  PPEC130
012500 01  SCR-ROW                             EXTERNAL.                PPEC130
012600     EXEC SQL INCLUDE PPPVSCR1 END-EXEC.                          PPEC130
012700                                                                  PPEC130
012800     EJECT                                                        PPEC130
012900 01  PAY-ROW                             EXTERNAL.                PPEC130
013000     EXEC SQL INCLUDE PPPVPAY1 END-EXEC.                          PPEC130
013100                                                                  PPEC130
013200     EJECT                                                        PPEC130
017010 01  PER-ROW                             EXTERNAL.                48281279
017020     EXEC SQL INCLUDE PPPVPER1 END-EXEC.                          48281279
017030                                                                  48281279
017040     EJECT                                                        48281279
013300******************************************************************PPEC130
013400**          L  I  N  K  A  G  E      S  E  C  T  I  O  N        **PPEC130
013500******************************************************************PPEC130
013600                                                                  PPEC130
013700*----------------------------------------------------------------*PPEC130
013800 LINKAGE SECTION.                                                 PPEC130
013900*----------------------------------------------------------------*PPEC130
014000                                                                  PPEC130
014100******************************************************************PPEC130
014200**  THE KRMI AREA IS A COMMON AREA THAT IS USED TO PASS         **PPEC130
014300**  INFORMATION THAT IS REQUIRED FOR THIS MODULE TO EXECUTE     **PPEC130
014400******************************************************************PPEC130
014500                                                                  PPEC130
014600 01  KRMI-LINKAGE-SECTION.                         COPY CPLNKRMI. PPEC130
014700                                                                  PPEC130
014800     EJECT                                                        PPEC130
014900******************************************************************PPEC130
015000**  THIS MESSAGE TABLE ARRAY WILL CONTAIN ALL MESSAGES THAT     **PPEC130
015100**  THIS ROUTINE CAN LOGICALLY ISSUE AT ONE TIME                **PPEC130
015200******************************************************************PPEC130
015300                                                                  PPEC130
015400 01  KMTA-MESSAGE-TABLE-ARRAY.                     COPY CPLNKMTA. PPEC130
015500                                                                  PPEC130
015600     EJECT                                                        PPEC130
015700******************************************************************PPEC130
015800**    P  R  O  C  E  D  U  R  E      D  I  V  I  S  I  O  N     **PPEC130
015900******************************************************************PPEC130
016000                                                                  PPEC130
016100 PROCEDURE DIVISION USING KRMI-LINKAGE-SECTION,                   PPEC130
016200                          KMTA-MESSAGE-TABLE-ARRAY.               PPEC130
016300                                                                  PPEC130
016400                                                                  PPEC130
016500*----------------------------------------------------------------*PPEC130
016600 0000-DRIVER.                                                     PPEC130
016700*----------------------------------------------------------------*PPEC130
016800                                                                  PPEC130
016900******************************************************************PPEC130
017000**  PERFORM THE INITIALIZATION ROUTINE NOW                      **PPEC130
017100******************************************************************PPEC130
017200                                                                  PPEC130
017300     IF  THIS-IS-THE-FIRST-TIME                                   PPEC130
017400         PERFORM 0100-INITIALIZE                                  PPEC130
017500     END-IF.                                                      PPEC130
017600                                                                  PPEC130
017700******************************************************************PPEC130
017800**  PERFORM THE MAIN ROUTINE NOW - AFTER WHICH WE WILL RETURN   **PPEC130
017900**  TO THE CALLING PROGRAM                                      **PPEC130
018000******************************************************************PPEC130
018100                                                                  PPEC130
018200     PERFORM 1000-MAINLINE-ROUTINE.                               PPEC130
018300                                                                  PPEC130
018400     EXIT PROGRAM.                                                PPEC130
018500                                                                  PPEC130
018600                                                                  PPEC130
018700     EJECT                                                        PPEC130
018800*----------------------------------------------------------------*PPEC130
018900 0100-INITIALIZE    SECTION.                                      PPEC130
019000*----------------------------------------------------------------*PPEC130
019100                                                                  PPEC130
019200******************************************************************PPEC130
019300**  DISPLAY THE PROGRAM ID AND DATE/TIME COMPILED               **PPEC130
019400******************************************************************PPEC130
019500                                                                  PPEC130
019600     MOVE A-STND-PROG-ID           TO XWHC-DISPLAY-MODULE.        PPEC130
019700                                                                  PPEC130
019800*                                               *-------------*   PPEC130
019900                                                 COPY CPPDXWHC.   PPEC130
020000*                                               *-------------*   PPEC130
020100                                                                  PPEC130
023910*****                                                          CD 32161191
020500                                                                  PPEC130
020800******************************************************************PPEC130
020900**   SET FIRST CALL SWITCH OFF                                  **PPEC130
021000******************************************************************PPEC130
021100                                                                  PPEC130
021200     SET NOT-THE-FIRST-TIME        TO TRUE.                       PPEC130
021300                                                                  PPEC130
021400     EJECT                                                        PPEC130
021500*----------------------------------------------------------------*PPEC130
021600 1000-MAINLINE-ROUTINE SECTION.                                   PPEC130
021700*----------------------------------------------------------------*PPEC130
021800                                                                  PPEC130
021900                                                                  PPEC130
022000     MOVE CITIZEN-CODE        TO W88-CITIZEN-CODE.                PPEC130
022010     MOVE COUNTRY-ORIGIN      TO W88-COUNTRY-ORIGIN.              PPEC130
022100                                                                  PPEC130
022300     IF CITIZEN-CODE-NONR-ALN-SPECCTRY                            PPEC130
022400        IF NOT CTRY-ORIGIN-NONR-ALN-SPECCTRY                      PPEC130
022500           ADD 1                TO KMTA-CTR                       PPEC130
022600           MOVE E0109           TO KMTA-FIELD-NUM       (KMTA-CTR)PPEC130
022700           MOVE CITIZEN-CODE    TO KMTA-DATA-FIELD      (KMTA-CTR)PPEC130
022800           MOVE 1               TO KMTA-LENGTH          (KMTA-CTR)PPEC130
022810           IF KRMI-REQUESTED-BY-08                                PPEC130
022900               MOVE M08459      TO KMTA-MSG-NUMBER      (KMTA-CTR)PPEC130
022901           ELSE                                                   PPEC130
022910               MOVE M12238      TO KMTA-MSG-NUMBER      (KMTA-CTR)PPEC130
022920           END-IF                                                 PPEC130
023000           MOVE WS-ROUTINE-TYPE TO KMTA-ROUTINE-TYPE    (KMTA-CTR)PPEC130
023100           MOVE WS-ROUTINE-NUM  TO KMTA-ROUTINE-NUM     (KMTA-CTR)PPEC130
023200                                                                  PPEC130
023300           ADD 1                TO KMTA-CTR                       PPEC130
023400           MOVE E0143           TO KMTA-FIELD-NUM       (KMTA-CTR)PPEC130
023500           MOVE COUNTRY-ORIGIN  TO KMTA-DATA-FIELD      (KMTA-CTR)PPEC130
023600           MOVE 2               TO KMTA-LENGTH          (KMTA-CTR)PPEC130
023610           IF KRMI-REQUESTED-BY-08                                PPEC130
023620              MOVE M08459       TO KMTA-MSG-NUMBER      (KMTA-CTR)PPEC130
023630           ELSE                                                   PPEC130
023640              MOVE M12238       TO KMTA-MSG-NUMBER      (KMTA-CTR)PPEC130
023650           END-IF                                                 PPEC130
023800           MOVE WS-ROUTINE-TYPE TO KMTA-ROUTINE-TYPE    (KMTA-CTR)PPEC130
023900           MOVE WS-ROUTINE-NUM  TO KMTA-ROUTINE-NUM     (KMTA-CTR)PPEC130
024000        END-IF                                                    PPEC130
024010     END-IF.                                                      PPEC130
024100                                                                  PPEC130
024101     IF CITIZEN-CODE-NONRESID-ALN-EXMP                            15400936
029000     OR CITIZEN-CODE-RESID-ALN-EXMP                               32161191
024110        IF COUNTRY-ORIGIN = SPACES                                15400936
024120           ADD 1                TO KMTA-CTR                       15400936
024130           MOVE E0109           TO KMTA-FIELD-NUM       (KMTA-CTR)15400936
024140           MOVE CITIZEN-CODE    TO KMTA-DATA-FIELD      (KMTA-CTR)15400936
024150           MOVE 1               TO KMTA-LENGTH          (KMTA-CTR)15400936
024160           IF KRMI-REQUESTED-BY-08                                15400936
024170               MOVE M08430      TO KMTA-MSG-NUMBER      (KMTA-CTR)15400936
024180           ELSE                                                   15400936
024190               MOVE M12430      TO KMTA-MSG-NUMBER      (KMTA-CTR)15400936
024191           END-IF                                                 15400936
024192           MOVE WS-ROUTINE-TYPE TO KMTA-ROUTINE-TYPE    (KMTA-CTR)15400936
024193           MOVE WS-ROUTINE-NUM  TO KMTA-ROUTINE-NUM     (KMTA-CTR)15400936
024194                                                                  15400936
024195           ADD 1                TO KMTA-CTR                       15400936
024196           MOVE E0143           TO KMTA-FIELD-NUM       (KMTA-CTR)15400936
024197           MOVE COUNTRY-ORIGIN  TO KMTA-DATA-FIELD      (KMTA-CTR)15400936
024198           MOVE 2               TO KMTA-LENGTH          (KMTA-CTR)15400936
024199           IF KRMI-REQUESTED-BY-08                                15400936
024200              MOVE M08430       TO KMTA-MSG-NUMBER      (KMTA-CTR)15400936
024201           ELSE                                                   15400936
024202              MOVE M12430       TO KMTA-MSG-NUMBER      (KMTA-CTR)15400936
024203           END-IF                                                 15400936
024204           MOVE WS-ROUTINE-TYPE TO KMTA-ROUTINE-TYPE    (KMTA-CTR)15400936
024205           MOVE WS-ROUTINE-NUM  TO KMTA-ROUTINE-NUM     (KMTA-CTR)15400936
024206        END-IF                                                    15400936
024207     END-IF.                                                      15400936
024208                                                                  17880981
024209     IF CITIZEN-CODE-NON-RESID-ALIEN-T                            17880981
024210        IF CTRY-ORIGIN-NONR-ALN-SPECCTRY                          17880981
024212                                                                  17880981
024213           ADD 1                TO KMTA-CTR                       17880981
024214           MOVE E0109           TO KMTA-FIELD-NUM    (KMTA-CTR)   17880981
024215           MOVE CITIZEN-CODE    TO KMTA-DATA-FIELD   (KMTA-CTR)   17880981
024216           MOVE 1               TO KMTA-LENGTH       (KMTA-CTR)   17880981
024217           IF KRMI-REQUESTED-BY-08                                17880981
024218              MOVE M08499      TO KMTA-MSG-NUMBER    (KMTA-CTR)   17880981
024219           ELSE                                                   17880981
024220              MOVE M12499       TO KMTA-MSG-NUMBER   (KMTA-CTR)   17880981
024225           END-IF                                                 17880981
024226           MOVE WS-ROUTINE-TYPE TO KMTA-ROUTINE-TYPE (KMTA-CTR)   17880981
024227           MOVE WS-ROUTINE-NUM  TO KMTA-ROUTINE-NUM  (KMTA-CTR)   17880981
024228                                                                  17880981
024229           ADD 1                TO KMTA-CTR                       17880981
024230           MOVE E0110           TO KMTA-FIELD-NUM    (KMTA-CTR)   17880981
024231           MOVE VISA-TYPE       TO KMTA-DATA-FIELD   (KMTA-CTR)   17880981
024232           MOVE 2               TO KMTA-LENGTH       (KMTA-CTR)   17880981
024233           IF KRMI-REQUESTED-BY-08                                17880981
024234              MOVE M08499       TO KMTA-MSG-NUMBER   (KMTA-CTR)   17880981
024235           ELSE                                                   17880981
024237              MOVE M12499       TO KMTA-MSG-NUMBER   (KMTA-CTR)   17880981
024240           END-IF                                                 17880981
024241           MOVE WS-ROUTINE-TYPE TO KMTA-ROUTINE-TYPE (KMTA-CTR)   17880981
024242           MOVE WS-ROUTINE-NUM  TO KMTA-ROUTINE-NUM  (KMTA-CTR)   17880981
024243                                                                  17880981
024244           ADD 1                TO KMTA-CTR                       17880981
024245           MOVE E0143           TO KMTA-FIELD-NUM    (KMTA-CTR)   17880981
024246           MOVE COUNTRY-ORIGIN  TO KMTA-DATA-FIELD   (KMTA-CTR)   17880981
024247           MOVE 2               TO KMTA-LENGTH       (KMTA-CTR)   17880981
024248           IF KRMI-REQUESTED-BY-08                                17880981
024249              MOVE M08499       TO KMTA-MSG-NUMBER   (KMTA-CTR)   17880981
024250           ELSE                                                   17880981
024251              MOVE M12499       TO KMTA-MSG-NUMBER   (KMTA-CTR)   17880981
024254           END-IF                                                 17880981
024255           MOVE WS-ROUTINE-TYPE TO KMTA-ROUTINE-TYPE (KMTA-CTR)   17880981
024256           MOVE WS-ROUTINE-NUM  TO KMTA-ROUTINE-NUM  (KMTA-CTR)   17880981
024257                                                                  17880981
024258        END-IF                                                    17880981
024260     END-IF.                                                      17880981
035801                                                                  48281279
035802     IF ( COUNTRY-ORIGIN = 'IN' )                                 48281279
035803      AND ( STUDENT-STATUS = '3' OR  '4' OR  '6' OR '7' )         48281279
035810       AND ( NOT CITIZEN-CODE-STUDENT-EMPLOYEE )                  48281279
035830           ADD 1                TO KMTA-CTR                       48281279
035840           MOVE E0109           TO KMTA-FIELD-NUM       (KMTA-CTR)48281279
035850           MOVE CITIZEN-CODE    TO KMTA-DATA-FIELD      (KMTA-CTR)48281279
035860           MOVE 1               TO KMTA-LENGTH          (KMTA-CTR)48281279
035870           IF KRMI-REQUESTED-BY-08                                48281279
035880               MOVE M08440      TO KMTA-MSG-NUMBER      (KMTA-CTR)48281279
035890           ELSE                                                   48281279
035891               MOVE M12270      TO KMTA-MSG-NUMBER      (KMTA-CTR)48281279
035892           END-IF                                                 48281279
035893                                                                  48281279
035894           MOVE WS-ROUTINE-TYPE TO KMTA-ROUTINE-TYPE    (KMTA-CTR)48281279
035895           MOVE WS-ROUTINE-NUM  TO KMTA-ROUTINE-NUM     (KMTA-CTR)48281279
035896                                                                  48281279
035897           ADD 1                 TO KMTA-CTR                      48281279
035898           MOVE E0143            TO KMTA-FIELD-NUM      (KMTA-CTR)48281279
035899           MOVE COUNTRY-ORIGIN   TO KMTA-DATA-FIELD     (KMTA-CTR)48281279
035900           MOVE 2                TO KMTA-LENGTH         (KMTA-CTR)48281279
035901           IF KRMI-REQUESTED-BY-08                                48281279
035902              MOVE M08440        TO KMTA-MSG-NUMBER     (KMTA-CTR)48281279
035903           ELSE                                                   48281279
035904              MOVE M12270        TO KMTA-MSG-NUMBER     (KMTA-CTR)48281279
035905           END-IF                                                 48281279
035906                                                                  48281279
035907           MOVE WS-ROUTINE-TYPE TO KMTA-ROUTINE-TYPE    (KMTA-CTR)48281279
035908           MOVE WS-ROUTINE-NUM   TO KMTA-ROUTINE-NUM    (KMTA-CTR)48281279
035910     END-IF.                                                      48281279
035911                                                                  48281279
035912     IF CITIZEN-CODE-STUDENT-EMPLOYEE                             48281279
035913*****   AND STUDENT-STATUS = '1' OR '2' OR '5'                    EFIX1350
035914        AND (STUDENT-STATUS = '1' OR '2' OR '5')                  EFIX1350
035914           ADD 1                TO KMTA-CTR                       48281279
035915           MOVE E0109           TO KMTA-FIELD-NUM       (KMTA-CTR)48281279
035916           MOVE CITIZEN-CODE    TO KMTA-DATA-FIELD      (KMTA-CTR)48281279
035917           MOVE 1               TO KMTA-LENGTH          (KMTA-CTR)48281279
035918           IF KRMI-REQUESTED-BY-08                                48281279
035919               MOVE M08441      TO KMTA-MSG-NUMBER      (KMTA-CTR)48281279
035920           ELSE                                                   48281279
035921               MOVE M12271      TO KMTA-MSG-NUMBER      (KMTA-CTR)48281279
035922           END-IF                                                 48281279
035923                                                                  48281279
035924           MOVE WS-ROUTINE-TYPE TO KMTA-ROUTINE-TYPE    (KMTA-CTR)48281279
035925           MOVE WS-ROUTINE-NUM  TO KMTA-ROUTINE-NUM     (KMTA-CTR)48281279
035926                                                                  48281279
035935           ADD 1                 TO KMTA-CTR                      48281279
035936           MOVE E0119            TO KMTA-FIELD-NUM      (KMTA-CTR)48281279
035937           MOVE STUDENT-STATUS   TO KMTA-DATA-FIELD     (KMTA-CTR)48281279
035938           MOVE 1                TO KMTA-LENGTH         (KMTA-CTR)48281279
035939           IF KRMI-REQUESTED-BY-08                                48281279
035940              MOVE M08441        TO KMTA-MSG-NUMBER     (KMTA-CTR)48281279
035941           ELSE                                                   48281279
035942              MOVE M12271        TO KMTA-MSG-NUMBER     (KMTA-CTR)48281279
035943           END-IF                                                 48281279
035944                                                                  48281279
035945           MOVE WS-ROUTINE-TYPE TO KMTA-ROUTINE-TYPE    (KMTA-CTR)48281279
035946           MOVE WS-ROUTINE-NUM   TO KMTA-ROUTINE-NUM    (KMTA-CTR)48281279
035948     END-IF.                                                      48281279
035949                                                                  48281279
035951     IF CITIZEN-CODE-STUDENT-EMPLOYEE                             48281279
035953       AND COUNTRY-ORIGIN     NOT = 'IN'                          48281279
035954           ADD 1                TO KMTA-CTR                       48281279
035955           MOVE E0109           TO KMTA-FIELD-NUM       (KMTA-CTR)48281279
035956           MOVE CITIZEN-CODE    TO KMTA-DATA-FIELD      (KMTA-CTR)48281279
035957           MOVE 1               TO KMTA-LENGTH          (KMTA-CTR)48281279
035958           IF KRMI-REQUESTED-BY-08                                48281279
035959               MOVE M08443      TO KMTA-MSG-NUMBER      (KMTA-CTR)48281279
035960           ELSE                                                   48281279
035961               MOVE M12273      TO KMTA-MSG-NUMBER      (KMTA-CTR)48281279
035962           END-IF                                                 48281279
035963                                                                  48281279
035964           MOVE WS-ROUTINE-TYPE TO KMTA-ROUTINE-TYPE    (KMTA-CTR)48281279
035965           MOVE WS-ROUTINE-NUM  TO KMTA-ROUTINE-NUM     (KMTA-CTR)48281279
035966                                                                  48281279
035967           ADD 1                 TO KMTA-CTR                      48281279
035968           MOVE E0119            TO KMTA-FIELD-NUM      (KMTA-CTR)48281279
035969           MOVE STUDENT-STATUS   TO KMTA-DATA-FIELD     (KMTA-CTR)48281279
035970           MOVE 1                TO KMTA-LENGTH         (KMTA-CTR)48281279
035971           IF KRMI-REQUESTED-BY-08                                48281279
035972               MOVE M08443      TO KMTA-MSG-NUMBER      (KMTA-CTR)48281279
035973           ELSE                                                   48281279
035974               MOVE M12273      TO KMTA-MSG-NUMBER      (KMTA-CTR)48281279
035975           END-IF                                                 48281279
035976                                                                  48281279
035977           MOVE WS-ROUTINE-TYPE TO KMTA-ROUTINE-TYPE    (KMTA-CTR)48281279
035978           MOVE WS-ROUTINE-NUM  TO KMTA-ROUTINE-NUM     (KMTA-CTR)48281279
035979                                                                  48281279
035980           ADD 1                 TO KMTA-CTR                      48281279
035981           MOVE E0143            TO KMTA-FIELD-NUM      (KMTA-CTR)48281279
035982           MOVE COUNTRY-ORIGIN   TO KMTA-DATA-FIELD     (KMTA-CTR)48281279
035983           MOVE 2                TO KMTA-LENGTH         (KMTA-CTR)48281279
035984                                                                  48281279
035985           IF KRMI-REQUESTED-BY-08                                48281279
035986              MOVE M08443        TO KMTA-MSG-NUMBER     (KMTA-CTR)48281279
035987           ELSE                                                   48281279
035988              MOVE M12273        TO KMTA-MSG-NUMBER     (KMTA-CTR)48281279
035989           END-IF                                                 48281279
035990           MOVE WS-ROUTINE-TYPE TO KMTA-ROUTINE-TYPE    (KMTA-CTR)48281279
035991           MOVE WS-ROUTINE-NUM   TO KMTA-ROUTINE-NUM    (KMTA-CTR)48281279
035993     END-IF.                                                      48281279
035995                                                                  48281279
024200     EJECT                                                        PPEC130
024300*----------------------------------------------------------------*PPEC130
024400 9050-AUDITING-RESPONSIBILITIES  SECTION.                         PPEC130
024500*----------------------------------------------------------------*PPEC130
024600                                                                  PPEC130
024700*                                                 *-------------* PPEC130
024800                                                   COPY CPPDXDEC. PPEC130
024900*                                                 *-------------* PPEC130
025000                                                                  PPEC130
036710*****                                                          CD 32161191
026300                                                                  PPEC130
026800******************************************************************PPEC130
026900**   E N D  S O U R C E   ----  PPEC130 ----                    **PPEC130
027000******************************************************************PPEC130
