000000**************************************************************/   05871512
000001*  PROGRAM: PPEC715                                          */   05871512
000002*  RELEASE: ___1512______ SERVICE REQUEST(S): ____80587____  */   05871512
000003*  NAME:____J KENNEDY____ MODIFICATION DATE:  ___08/20/03__  */   05871512
000004*  DESCRIPTION:                                              */   05871512
000006*  -      ADDED TYPES 11 (MILITARY LEAVE) AND 09 (WORKERS    */   05871512
000007*    COMPENSATION) TO LIST WHICH QUALIFIES FOR UCI           */   05871512
000008**************************************************************/   05871512
000100**************************************************************/   03891472
000200*  PROGRAM: PPEC715                                          */   03891472
000300*  RELEASE: __1472_______ SERVICE REQUEST(S): ____08389____  */   03891472
000400*  NAME:__S.ISAACS_______ MODIFICATION DATE:  ___03/04/03__  */   03891472
000500*  DESCRIPTION:                                              */   03891472
000600*  - ADDED TEMPORARY LAYOFF (17) TO LIST OF  VALID-LOA-TYPE  */   03891472
000800**************************************************************/   03891472
000100**************************************************************/   48601397
000200*  PROGRAM: PPEC715                                          */   48601397
000300*  RELEASE: __1397_______ SERVICE REQUEST(S): ____14860____  */   48601397
000400*  NAME:______JLT________ MODIFICATION DATE:  ___03/06/02__  */   48601397
000500*  DESCRIPTION:                                              */   48601397
000600*  - REMOVED FBA ARRAY PROCESSING (UCI PROCESS IS NO LONGER  */   48601397
000700*    CONECTED TO FBA PROCESS)                                */   48601397
000800**************************************************************/   48601397
000101**************************************************************/   32021138
000102*  PROGRAM: PPEC715                                          */   32021138
000103*  RELEASE: ___1138______ SERVICE REQUEST(S): ____13202____  */   32021138
000104*  NAME:__PHIL THOMPSON__ MODIFICATION DATE:  ___08/04/97__  */   32021138
000105*  DESCRIPTION:                                              */   32021138
000106*  - MODIFIED FOR FULL ACCOUNTING UNIT.                      */   32021138
000107**************************************************************/   32021138
000100**************************************************************/   34221114
000200*  PROGRAM: PPEC715                                          */   34221114
000300*  RELEASE: ___1114______ SERVICE REQUEST(S): _____3422____  */   34221114
000400*  NAME:______M SANO_____ MODIFICATION DATE:  ___02/21/97__  */   34221114
000500*  DESCRIPTION:                                              */   34221114
000600*  - ADDED PROJECT CODE                                      */   34221114
000700**************************************************************/   34221114
000000**************************************************************/   28521025
000001*  PROGRAM: PPEC715                                          */   28521025
000002*  RELEASE: ___1025______ SERVICE REQUEST(S): ____12852____  */   28521025
000003*  REF RLSE ___0809______ CHANGE MARKS (12681025)            */   28521025
000004*  NAME:_______QUAN______ MODIFICATION DATE:  ___08/28/95__  */   28521025
000005*  DESCRIPTION:                                              */   28521025
000018*  - DATE CONVERSION PROJECT:                                */   28521025
000019*    THE NAMES REFERENCED FROM COPYMEMBER CPWSXDTS HAVE      */   28521025
000020*    BEEN CHANGED TO THE NEW NAMES IN CPWSXDTS.              */   28521025
000021*  - ERROR RPT 1058:                                         */   28521025
000022*    FIXED UCI BEG-DATE IN CONDITION SET APPEARING TWICE IN  */   28521025
000023*    THE SAME CONDITION SET.                                 */   28521025
000024**************************************************************/   28521025
000000**************************************************************/   17690915
000001*  PROGRAM: PPEC715                                          */   17690915
000002*  RELEASE: ___0915______ SERVICE REQUEST(S): _____1769____  */   17690915
000003*  NAME:___H. TRUONG_____ MODIFICATION DATE:  ___06/22/94__  */   17690915
000004*  DESCRIPTION:                                              */   17690915
000005*    MODIFIED CODE TO EDIT ACAD-PROG-UNIT-CD    (DE 0660).   */   17690915
000006*                                                            */   17690915
000007**************************************************************/   17690915
000000**************************************************************/   36500893
000001*  PROGRAM: PPEC715                                          */   36500893
000300*  RELEASE: ____0893____  SERVICE REQUEST(S): ____3650____   */   36500893
000400*  NAME:  ____BIT/RAB___  DATE MODIFIED:      __02/11/94__   */   36500893
000500*  DESCRIPTION:                                              */   36500893
000600*     MODIFIED FOR COST CENTER ENHANCEMENT                   */   36500893
000700**************************************************************/   36500893
000000**************************************************************/   15870844
000001*  PROGRAM: PPEC715                                          */   15870844
000002*  RELEASE: ___0844______ SERVICE REQUEST(S): ____11587____  */   15870844
000003*  NAME:_H. TRUONG  _____ MODIFICATION DATE:  ___12/01/93__  */   15870844
000004*  DESCRIPTION:                                              */   15870844
000005*  --- MODIFIED CODE TO CHECK FOR THE NEW LEAVE REASON CODE  */   15870844
000006*      (FAMILY AND MEDICAL LEAVE, 15) FOR DE # 0139.         */   15870844
000007**************************************************************/   15870844
000100**************************************************************/   12680809
000200*  PROGRAM: PPEC715                                          */   12680809
000300*  REL: _0809_ REF._0800_ SERVICE REQUEST(S): ____11268____  */   12680809
000400*  NAME:_____M. SANO_____ MODIFICATION DATE:  ___08/27/93__  */   12680809
000500*  DESCRIPTION:                                              */   12680809
000600*  - E. R. 1055 FIX: MODIFIED USER08 PROCESSING TO SET       */   12680809
000700*    VALID-UCI-FLAG BEFORE DETERMINING WHETHER TO BLOCK      */   12680809
000800*    CHANGES TO UCI DATA.                                    */   12680809
000100**************************************************************/   12680809
000100**************************************************************/   12680800
000200*  PROGRAM: PPEC715                                          */   12680800
001200*  REL:_0800_ REF:_0786_  SERVICE REQUEST(S): ____11268____  */   12680800
000400*  NAME:_____M. SANO_____ MODIFICATION DATE:  ___07/27/93__  */   12680800
000500*  DESCRIPTION:                                              */   12680800
000600*  - E. R. 1037 FIX: MODIFIED USER08 PROCESSING TO BLOCK     */   12680800
000700*    CHANGES TO UCI DATA.  THIS IS REQUIRED BY SET           */   12680800
000800*    TRANSACTION PROCESSING OF FBA TABLE DATA.  FBA TABLE    */   12680800
000900*    ROWS CANNOT BE ADDED WITHOUT VALID UCI DATA.  EBT       */   12680800
001000*    EMPLOYEE-ID IS THE FOREIGN KEY FOR THE FBA TABLE ROW.   */   12680800
001100**************************************************************/   12680800
000100**************************************************************/   12680786
000200*  PROGRAM: PPEC715                                          */   12680786
000300*  RELEASE: ___0786______ SERVICE REQUEST(S): ____11268____  */   12680786
000400*  NAME:_____M. SANO_____ MODIFICATION DATE:  ___05/26/93__  */   12680786
000500*  DESCRIPTION:                                              */   12680786
000600*  - EDIT OF UNIVERSITY CONTRIBUTION INDICATOR (UCI) DATA    */   12680786
000700*    ELEMENTS WHICH RESIDE ON THE EBT TABLE OF THE EDB       */   12680786
000800**************************************************************/   12680786
000900                                                                  PPEC715
001000 IDENTIFICATION DIVISION.                                         PPEC715
001100 PROGRAM-ID. PPEC715.                                             PPEC715
001200 AUTHOR. UCOP.                                                    PPEC715
001300 INSTALLATION. UNIVERSITY OF CALIFORNIA.                          PPEC715
001400                                                                  PPEC715
001500 DATE-WRITTEN.  MAY 1993.                                         PPEC715
001600 DATE-COMPILED.                                                   PPEC715
001700                                                                  PPEC715
001800******************************************************************PPEC715
002000******************************************************************PPEC715
002100                                                                  PPEC715
002200 ENVIRONMENT DIVISION.                                            PPEC715
002300 CONFIGURATION SECTION.                                           PPEC715
002400 SOURCE-COMPUTER.                                  COPY CPOTXUCS. PPEC715
002500 OBJECT-COMPUTER.                                  COPY CPOTXOBJ. PPEC715
002600 SPECIAL-NAMES.                C01 IS NEW-PAGE.                   PPEC715
002700                                                                  PPEC715
002800 INPUT-OUTPUT SECTION.                                            PPEC715
002900 FILE-CONTROL.                                                    PPEC715
003000                                                                  PPEC715
003100 DATA DIVISION.                                                   PPEC715
003200 FILE SECTION.                                                    PPEC715
003300     EJECT                                                        PPEC715
003400*----------------------------------------------------------------*PPEC715
003500 WORKING-STORAGE SECTION.                                         PPEC715
003600*----------------------------------------------------------------*PPEC715
003700                                                                  PPEC715
003800 01  A-STND-PROG-ID                   PIC X(15) VALUE             PPEC715
011900****                                                           CD 05871512
012000**** 'PPEC715 /080497'.                                           05871512
012010     'PPEC715 /082003'.                                           05871512
004000                                                                  PPEC715
004100 01  A-STND-MSG-PARMS                 REDEFINES                   PPEC715
004200     A-STND-PROG-ID.                                              PPEC715
004300     05  FILLER                       PIC X(03).                  PPEC715
004400     05  WS-ROUTINE-TYPE              PIC X(01).                  PPEC715
004500     05  WS-ROUTINE-NUM               PIC 9(03).                  PPEC715
004600     05  FILLER                       PIC X(08).                  PPEC715
004700                                                                  PPEC715
004800                                                                  PPEC715
004900 01  MESSAGES-USED.                                               PPEC715
005000     05  M08510                       PIC X(05) VALUE '08510'.    PPEC715
005100     05  M08511                       PIC X(05) VALUE '08511'.    PPEC715
005200     05  M08512                       PIC X(05) VALUE '08512'.    PPEC715
005300     05  M08513                       PIC X(05) VALUE '08513'.    PPEC715
005400     05  M08514                       PIC X(05) VALUE '08514'.    PPEC715
005500     05  M08515                       PIC X(05) VALUE '08515'.    PPEC715
005600     05  M08518                       PIC X(05) VALUE '08518'.    PPEC715
009210     05  M08374                       PIC X(05) VALUE '08374'.    17690915
005700     05  M12455                       PIC X(05) VALUE '12455'.    PPEC715
005800     05  M12456                       PIC X(05) VALUE '12456'.    PPEC715
005900     05  M12457                       PIC X(05) VALUE '12457'.    PPEC715
006000     05  M12458                       PIC X(05) VALUE '12458'.    PPEC715
006100     05  M12459                       PIC X(05) VALUE '12459'.    PPEC715
006200     05  M12460                       PIC X(05) VALUE '12460'.    PPEC715
006300                                                                  PPEC715
006400 01  ELEMENTS-USED.                                               PPEC715
006500     05  E0644                        PIC 9(04) VALUE 0644.       PPEC715
006600     05  E0645                        PIC 9(04) VALUE 0645.       PPEC715
006700     05  E0646                        PIC 9(04) VALUE 0646.       PPEC715
006800     05  E0647                        PIC 9(04) VALUE 0647.       PPEC715
006900     05  E0648                        PIC 9(04) VALUE 0648.       PPEC715
007000     05  E0649                        PIC 9(04) VALUE 0649.       PPEC715
007100     05  E0650                        PIC 9(04) VALUE 0650.       PPEC715
007200     05  E0651                        PIC 9(04) VALUE 0651.       PPEC715
010900     05  E0652                        PIC 9(04) VALUE 0652.       36500893
010910     05  E0660                        PIC 9(04) VALUE 0660.       17690915
007300     05  E0139                        PIC 9(04) VALUE 0139.       PPEC715
007400                                                                  PPEC715
007500 01  MISC-WORK-AREAS.                                             PPEC715
007600     05  FIRST-TIME-SW                PIC X(01) VALUE LOW-VALUES. PPEC715
007700         88  THIS-IS-THE-FIRST-TIME             VALUE LOW-VALUES. PPEC715
007800         88  NOT-THE-FIRST-TIME                 VALUE 'Y'.        PPEC715
011510     05  APUC-SW                      PIC X(01) VALUE 'Y'.        17690915
011520         88  APUC-FOUND                         VALUE 'Y'.        17690915
011530         88  APUC-NOT-FOUND                     VALUE 'N'.        17690915
007900     05  WRK-TA-DATE.                                             PPEC715
008000         10  WRK-TA-MM                PIC 9(02).                  PPEC715
008100         10  WRK-TA-DD                PIC 9(02).                  PPEC715
008200         10  WRK-TA-YY                PIC 9(02).                  PPEC715
008300     05  UCI-CHECK-AREA.                                          PPEC715
008400         07  UCI-CODE-FLAG            PIC X(01).                  PPEC715
008500             88  VALID-UCI-CODE      VALUE  'A'                   PPEC715
008600                                            'M'                   PPEC715
008700                                            'E'.                  PPEC715
008800             88  NO-UCI-CODE      VALUE  ' '.                     PPEC715
008900         07  UCI-BEG-DATE-FLAG        PIC 9(01).                  PPEC715
009000             88  VALID-UCI-BEG-DATE VALUE 1 .                     PPEC715
009100             88  NO-UCI-BEG-DATE  VALUE  0 .                      PPEC715
009200         07  UCI-END-DATE-FLAG        PIC 9(01).                  PPEC715
009300             88  VALID-UCI-END-DATE VALUE 1 .                     PPEC715
009400             88  NO-UCI-END-DATE  VALUE  0 .                      PPEC715
009500         07  VALID-UCI-FLAG           PIC 9(01).                  PPEC715
009600             88  VALID-UCI        VALUE  1 .                      PPEC715
009700             88  NO-VALID-UCI     VALUE  0 .                      PPEC715
009800         07  LOA-TYPE-CHECK           PIC X(02).                  PPEC715
009900             88  VALID-LOA-TYPE      VALUE  '04'                  PPEC715
010000                                            '05'                  PPEC715
018800                                            '09'                  05871512
012110                                            '10'                  15870844
018802                                            '11'                  05871512
018810                                            '17'                  03891472
012120                                            '15'.                 15870844
010200     05  WS-DATE-HOLD.                                            PPEC715
010300         10  WS-H-YEAR           PIC 9(04) VALUE 0.               PPEC715
010400         10  WS-H-YR REDEFINES WS-H-YEAR.                         PPEC715
010500             15  WS-H-CC             PIC 9(02).                   PPEC715
010600             15  WS-H-YY             PIC 9(02).                   PPEC715
010700         10  WS-H-SEP-1          PIC X(01).                       PPEC715
010800         10  WS-H-MM             PIC 9(02)      VALUE 0.          PPEC715
010900         10  WS-H-SEP-2          PIC X(01).                       PPEC715
011000         10  WS-H-DD             PIC 9(02)      VALUE 0.          PPEC715
011100     05  WS-CHECK-DATE.                                           PPEC715
011200         10  WS-CHECK-YEAR       PIC 9(04) VALUE 0.               PPEC715
011300         10  WS-CHECK-YR REDEFINES WS-CHECK-YEAR.                 PPEC715
011400             15  WS-CHECK-CC         PIC 9(02).                   PPEC715
011500             15  WS-CHECK-YY         PIC 9(02).                   PPEC715
011600         10  WS-CHECK-MM         PIC 9(02)      VALUE 0.          PPEC715
011700         10  WS-CHECK-DD         PIC 9(02)      VALUE 0.          PPEC715
011800     05  WS-LOA-BEGIN-DATE       PIC 9(08)      VALUE 0.          PPEC715
011900     05  WS-UCI-BEGIN-DATE       PIC 9(08)      VALUE 0.          PPEC715
012000     05  WS-LOA-RETURN-DATE      PIC 9(08)      VALUE 0.          PPEC715
012100     05  WS-UCI-END-DATE         PIC 9(08)      VALUE 0.          PPEC715
016010     05  WS-APU-CODE             PIC X(06)      VALUE SPACES.     17690915
012200     05  WS-ECED-DATE-M          PIC 9(08)      VALUE 0.          PPEC715
012300     05  WS-ECED-DATE-D          PIC 9(08)      VALUE 0.          PPEC715
012400     05  WS-ECED-DATE-V          PIC 9(08)      VALUE 0.          PPEC715
012900                                                                  PPEC715
013000 01  DL-FIELD-WORK-AREA.                           COPY CPWSXDLS. PPEC715
013100                                                                  PPEC715
013200     EJECT                                                        PPEC715
017210 01  DATE-CONVERSION-WORK-AREAS.                   COPY CPWSXDC3. 28521025
013400                                                                  PPEC715
013500     EJECT                                                        PPEC715
013600 01  XWHC-COMPILE-WORK-AREA.                       COPY CPWSXWHC. PPEC715
013700                                                                  PPEC715
013800     EJECT                                                        PPEC715
013900 01  COLUMN-88-WORK.                               COPY CPWSW88S. PPEC715
014000                                                                  PPEC715
014100     EJECT                                                        PPEC715
014500 01  APPT-DIST-LOC-WORK-AREAS.                     COPY CPWSADLC. PPEC715
014600                                                                  PPEC715
014700     EJECT                                                        PPEC715
014800 01  INSTALLATION-DEPENDT-CONSTANTS.               COPY CPWSXIDC. PPEC715
014900                                                                  PPEC715
015000     EJECT                                                        PPEC715
018901 01  PPDB2MSG-INTERFACE.                           COPY CPLNKDB2. 17690915
018910     EJECT                                                        17690915
015100******************************************************************PPEC715
015200**     E  X  T  E  R  N  A  L  S      S  E  C  T  I  O  N       **PPEC715
015300**--------------------------------------------------------------**PPEC715
015400** THE FOLLOWING EXTERNAL AREAS WILL BE USED BY OTHER PROCESSES **PPEC715
015500******************************************************************PPEC715
015600                                                                  PPEC715
015700 01  DATA-ELEMENT-CHANGE-INDICATORS      EXTERNAL. COPY CPWSXDEC. PPEC715
015800                                                                  PPEC715
015900     EJECT                                                        PPEC715
016000 01  XCSS-COMMON-SYSTEM-SWITCHES         EXTERNAL. COPY CPWSSWCH. PPEC715
016100                                                                  PPEC715
016200     EJECT                                                        PPEC715
016300 01  XDTS-COMMON-SYSTEM-DATES            EXTERNAL. COPY CPWSXDTS. PPEC715
016400                                                                  PPEC715
016500     EJECT                                                        PPEC715
016600 01  ECES-CON-EDIT-SWITCH                EXTERNAL. COPY CPWSECES. PPEC715
016700                                                                  PPEC715
016800 01  EGES-GTN-EDIT-SWITCH                EXTERNAL. COPY CPWSEGES. PPEC715
016900                                                                  PPEC715
017000 01  EIMS-IMPL-MAINT-SWITCH              EXTERNAL. COPY CPWSEIMS. PPEC715
017100                                                                  PPEC715
017200 01  EAXD-APPT-ARRAY-SWITCH              EXTERNAL. COPY CPWSEAXD. PPEC715
017300                                                                  PPEC715
017400     EJECT                                                        PPEC715
017500 01  XDER-DATA-ELMT-RTN-POINTERS         EXTERNAL. COPY CPWSXDER. PPEC715
017600                                                                  PPEC715
017700     EJECT                                                        PPEC715
017800 01  XDRT-DET-ROUTINE-TRIGGERS           EXTERNAL. COPY CPWSXDRT. PPEC715
017900                                                                  PPEC715
018000     EJECT                                                        PPEC715
018100 01  EDB-MAINTENANCE-PASS-AREA           EXTERNAL. COPY CPWSEMPA. PPEC715
018200                                                                  PPEC715
018300     EJECT                                                        PPEC715
018400******************************************************************PPEC715
018500**  DATA BASE AREAS                                             **PPEC715
018600******************************************************************PPEC715
018700                                                                  PPEC715
018800 01  SCR-ROW                             EXTERNAL.                PPEC715
018900     EXEC SQL INCLUDE PPPVSCR1 END-EXEC.                          PPEC715
019000                                                                  PPEC715
019100     EJECT                                                        PPEC715
019200 01  PER-ROW                             EXTERNAL.                PPEC715
019300     EXEC SQL INCLUDE PPPVPER1 END-EXEC.                          PPEC715
019400                                                                  PPEC715
019500 01  BEN-ROW                             EXTERNAL.                PPEC715
019600     EXEC SQL INCLUDE PPPVBEN1 END-EXEC.                          PPEC715
019700                                                                  PPEC715
019800 01  EBT-ROW                             EXTERNAL.                PPEC715
019900     EXEC SQL INCLUDE PPPVEBT1 END-EXEC.                          PPEC715
020100                                                                  PPEC715
021700 01  EBT-ROW-HOLD                        EXTERNAL. COPY CPWSREBT  PPEC715
021800         REPLACING  UCI-CODE          BY HOLD-UCI-CODE            PPEC715
021900                    UCI-END-DATE      BY HOLD-UCI-END-DATE        PPEC715
025600                    ACAD-PROG-UNIT-CD BY HOLD-ACAD-PROG-UNIT-CD   17690915
022000                    UCI-BEGIN-DATE    BY HOLD-UCI-BEGIN-DATE.     PPEC715
022100                                                                  PPEC715
022200     EJECT                                                        PPEC715
025801                                                                  17690915
025810 01  APU-ROW.                                                     17690915
025820     EXEC SQL                                                     17690915
025830         INCLUDE PPPVZAPU                                         17690915
025831     END-EXEC.                                                    17690915
025850                                                                  17690915
025851     EXEC SQL                                                     17690915
025852         DECLARE APU_ROW CURSOR FOR                               17690915
025853            SELECT                                                17690915
025854               APU_CODE                                           17690915
025857         FROM PPPVZAPU_APU                                        17690915
025858         WHERE APU_CODE = :WS-APU-CODE                            17690915
025859     END-EXEC.                                                    17690915
025861                                                                  17690915
025870     EXEC SQL                                                     17690915
025880         INCLUDE SQLCA                                            17690915
025890     END-EXEC.                                                    17690915
025891     EJECT                                                        17690915
022300******************************************************************PPEC715
022400**          L  I  N  K  A  G  E      S  E  C  T  I  O  N        **PPEC715
022500******************************************************************PPEC715
022600                                                                  PPEC715
022700*----------------------------------------------------------------*PPEC715
022800 LINKAGE SECTION.                                                 PPEC715
022900*----------------------------------------------------------------*PPEC715
023000                                                                  PPEC715
023100******************************************************************PPEC715
023200**  THE KRMI AREA IS A COMMON AREA THAT IS USED TO PASS         **PPEC715
023300**  INFORMATION THAT IS REQUIRED FOR THIS MODULE TO EXECUTE     **PPEC715
023400******************************************************************PPEC715
023500                                                                  PPEC715
023600 01  KRMI-LINKAGE-SECTION.                         COPY CPLNKRMI. PPEC715
023700                                                                  PPEC715
023800     EJECT                                                        PPEC715
023900******************************************************************PPEC715
024000**  THIS MESSAGE TABLE ARRAY WILL CONTAIN ALL MESSAGES THAT     **PPEC715
024100**  THIS ROUTINE CAN LOGICALLY ISSUE AT ONE TIME                **PPEC715
024200******************************************************************PPEC715
024300                                                                  PPEC715
024400 01  KMTA-MESSAGE-TABLE-ARRAY.                     COPY CPLNKMTA. PPEC715
024500                                                                  PPEC715
024600     EJECT                                                        PPEC715
024700******************************************************************PPEC715
024800**    P  R  O  C  E  D  U  R  E      D  I  V  I  S  I  O  N     **PPEC715
024900******************************************************************PPEC715
025000                                                                  PPEC715
025100 PROCEDURE DIVISION USING KRMI-LINKAGE-SECTION,                   PPEC715
025200                          KMTA-MESSAGE-TABLE-ARRAY.               PPEC715
025300                                                                  PPEC715
028910     EXEC SQL                                                     17690915
028920         INCLUDE CPPDXE99                                         17690915
028930     END-EXEC.                                                    17690915
025400                                                                  PPEC715
025500*----------------------------------------------------------------*PPEC715
025600 0000-DRIVER.                                                     PPEC715
025700*----------------------------------------------------------------*PPEC715
025800                                                                  PPEC715
025900******************************************************************PPEC715
026000**  PERFORM THE INITIALIZATION ROUTINE NOW                      **PPEC715
026100******************************************************************PPEC715
026200                                                                  PPEC715
026300     IF  THIS-IS-THE-FIRST-TIME                                   PPEC715
026400         PERFORM 0100-INITIALIZE                                  PPEC715
026500     END-IF.                                                      PPEC715
026600                                                                  PPEC715
026700******************************************************************PPEC715
026800**  PERFORM THE MAIN ROUTINE NOW - AFTER WHICH WE WILL RETURN   **PPEC715
026900**  TO THE CALLING PROGRAM                                      **PPEC715
027000******************************************************************PPEC715
027100                                                                  PPEC715
027200     PERFORM 1000-MAINLINE-ROUTINE.                               PPEC715
027300                                                                  PPEC715
027400     EXIT PROGRAM.                                                PPEC715
027500                                                                  PPEC715
027600                                                                  PPEC715
027700     EJECT                                                        PPEC715
027800*----------------------------------------------------------------*PPEC715
027900 0100-INITIALIZE    SECTION.                                      PPEC715
028000*----------------------------------------------------------------*PPEC715
028100                                                                  PPEC715
028200******************************************************************PPEC715
028300**  DISPLAY THE PROGRAM ID AND DATE/TIME COMPILED               **PPEC715
028400******************************************************************PPEC715
028500         MOVE A-STND-PROG-ID TO XWHC-DISPLAY-MODULE.              PPEC715
028600                                                                  PPEC715
028700*                                               *-------------*   PPEC715
028800                                                 COPY CPPDXWHC.   PPEC715
028900*                                               *-------------*   PPEC715
029000                                                                  PPEC715
029400                                                                  PPEC715
029700******************************************************************PPEC715
029800**   SET FIRST CALL SWITCH OFF                                  **PPEC715
029900******************************************************************PPEC715
030000                                                                  PPEC715
030100     SET NOT-THE-FIRST-TIME        TO TRUE.                       PPEC715
030200                                                                  PPEC715
030300     EJECT                                                        PPEC715
030400*----------------------------------------------------------------*PPEC715
030500 1000-MAINLINE-ROUTINE SECTION.                                   PPEC715
030600*----------------------------------------------------------------*PPEC715
030700                                                                  PPEC715
030800     IF  KRMI-REQUESTED-BY-08                                     PPEC715
030900         PERFORM 1100-CONEDITS-MAINLINE                           PPEC715
031000     ELSE                                                         PPEC715
031100         PERFORM 5100-IMPLIED-MAINT-MAINLINE                      PPEC715
031200     END-IF.                                                      PPEC715
031300                                                                  PPEC715
031400                                                                  PPEC715
031500     EJECT                                                        PPEC715
031600******************************************************************PPEC715
031700**     C O N S I S T E N C Y    E D I T S   M A I N L I N E     **PPEC715
031800******************************************************************PPEC715
031900*----------------------------------------------------------------*PPEC715
032000 1100-CONEDITS-MAINLINE SECTION.                                  PPEC715
032100*----------------------------------------------------------------*PPEC715
032200     MOVE 0 TO VALID-UCI-FLAG.                                    PPEC715
032300     MOVE UCI-CODE            TO UCI-CODE-FLAG.                   PPEC715
032400                                                                  PPEC715
036110     IF  UCI-BEGIN-DATE = XDTS-ISO-ZERO-DATE                      28521025
032600         MOVE ZERO            TO UCI-BEG-DATE-FLAG                PPEC715
032700     ELSE                                                         PPEC715
032800         MOVE 1               TO UCI-BEG-DATE-FLAG                PPEC715
032900     END-IF.                                                      PPEC715
036610     IF  UCI-END-DATE = XDTS-ISO-ZERO-DATE                        28521025
033100         MOVE ZERO            TO UCI-END-DATE-FLAG                PPEC715
033200     ELSE                                                         PPEC715
033300         MOVE 1               TO UCI-END-DATE-FLAG                PPEC715
033400     END-IF.                                                      PPEC715
033500                                                                  PPEC715
033600*---------> IF THERE IS NO VALUE RANGE ERROR ON ANY OF THE        PPEC715
033700*---------> THREE DATA ELEMENTS, CONTINUE THE EDIT.               PPEC715
033800*---------> OTHERWISE ISSUE MESSAGE 08510 FOR ALL THREE           PPEC715
033900*---------> DATA ELEMENTS.  NOTE THAT IF ALL THREE ELEMENTS       PPEC715
034000*---------> HAVE BEEN CHANGED TO INITIAL VALUES IN ORDER TO       PPEC715
034100*---------> DELETE THEM, THEN THIS IS ALSO VALID.                 PPEC715
034200                                                                  PPEC715
034300     IF (VALID-UCI-CODE AND                                       PPEC715
034400         VALID-UCI-BEG-DATE AND                                   PPEC715
034500         VALID-UCI-END-DATE)                                      PPEC715
034600            PERFORM 2500-LOA-ECED-EDITS                           PPEC715
034700     ELSE                                                         PPEC715
034800        IF (NO-UCI-CODE AND                                       PPEC715
038410            NO-UCI-BEG-DATE AND                                   12681025
035000            NO-UCI-END-DATE)                                      PPEC715
035100                NEXT SENTENCE                                     PPEC715
035200        ELSE                                                      PPEC715
035300            ADD 1             TO KMTA-CTR                         PPEC715
035400            MOVE E0644           TO KMTA-FIELD-NUM    (KMTA-CTR)  PPEC715
035500            MOVE UCI-CODE        TO KMTA-DATA-FIELD   (KMTA-CTR)  PPEC715
035600            MOVE 1               TO KMTA-LENGTH       (KMTA-CTR)  PPEC715
035700            MOVE M08510          TO KMTA-MSG-NUMBER   (KMTA-CTR)  PPEC715
035800            MOVE WS-ROUTINE-TYPE TO KMTA-ROUTINE-TYPE (KMTA-CTR)  PPEC715
035900            MOVE WS-ROUTINE-NUM  TO KMTA-ROUTINE-NUM  (KMTA-CTR)  PPEC715
036000                                                                  PPEC715
036100                                                                  PPEC715
036200            ADD 1             TO KMTA-CTR                         PPEC715
036300            MOVE E0645           TO KMTA-FIELD-NUM   (KMTA-CTR)   PPEC715
040210            MOVE UCI-BEGIN-DATE TO XDC3-ISO-DATE                  28521025
040220            PERFORM XDC3-CONVERT-ISO-TO-STD                       28521025
040230            MOVE XDC3-STD-DATE   TO KMTA-DATA-FIELD  (KMTA-CTR)   28521025
036700            MOVE 6               TO KMTA-LENGTH      (KMTA-CTR)   PPEC715
036800            MOVE M08510          TO KMTA-MSG-NUMBER  (KMTA-CTR)   PPEC715
036900            MOVE WS-ROUTINE-TYPE TO KMTA-ROUTINE-TYPE (KMTA-CTR)  PPEC715
037000            MOVE WS-ROUTINE-NUM  TO KMTA-ROUTINE-NUM (KMTA-CTR)   PPEC715
037100                                                                  PPEC715
037200            ADD 1                TO KMTA-CTR                      PPEC715
037300            MOVE E0646           TO KMTA-FIELD-NUM   (KMTA-CTR)   PPEC715
041210            MOVE UCI-END-DATE TO XDC3-ISO-DATE                    28521025
041220            PERFORM XDC3-CONVERT-ISO-TO-STD                       28521025
041230            MOVE XDC3-STD-DATE   TO KMTA-DATA-FIELD   (KMTA-CTR)  28521025
037700            MOVE 6               TO KMTA-LENGTH       (KMTA-CTR)  PPEC715
037800            MOVE M08510          TO KMTA-MSG-NUMBER   (KMTA-CTR)  PPEC715
037900            MOVE WS-ROUTINE-TYPE TO KMTA-ROUTINE-TYPE (KMTA-CTR)  PPEC715
038000            MOVE WS-ROUTINE-NUM  TO KMTA-ROUTINE-NUM  (KMTA-CTR)  PPEC715
038100        END-IF                                                    PPEC715
038200     END-IF.                                                      PPEC715
039500     IF (VALID-UCI-CODE AND                                       12680809
039500         VALID-UCI-BEG-DATE AND                                   12680809
039500         VALID-UCI-END-DATE)                                      12680809
039500                 OR                                               12680809
039500        (NO-UCI-CODE AND                                          12680809
042310         NO-UCI-BEG-DATE AND                                      12681025
039500         NO-UCI-END-DATE)                                         12680809
039500             MOVE 1 TO VALID-UCI-FLAG                             12680809
039500     ELSE                                                         12680809
039500             MOVE 0 TO VALID-UCI-FLAG                             12680809
039500     END-IF.                                                      12680809
039000*--->                                                             12680800
039100*--->   REPLACE WITH OLD VALUES SO THAT PPEC716 CAN               12680800
041200*--->   CORRECTLY PERFORM CON-EDITS FOR FBA TABLE DATA DEPENDENT  12680800
041300*--->   ON VALID UCI DATA                                         12680800
041400*-- >                                                             12680800
039500     IF NO-VALID-UCI                                              12680800
039600        MOVE HOLD-UCI-CODE TO UCI-CODE                            12680800
039700        MOVE HOLD-UCI-BEGIN-DATE TO UCI-BEGIN-DATE                12680800
039800        MOVE HOLD-UCI-END-DATE TO UCI-END-DATE                    12680800
039900     END-IF.                                                      12680800
038300                                                                  PPEC715
044001                                                                  17690915
044010     IF ACAD-PROG-UNIT-CD   = HOLD-ACAD-PROG-UNIT-CD              17690915
044020        CONTINUE                                                  17690915
044021     ELSE                                                         17690915
044022        IF ACAD-PROG-UNIT-CD   = SPACES                           17690915
044023           CONTINUE                                               17690915
044024        ELSE                                                      17690915
044025           MOVE ACAD-PROG-UNIT-CD TO WS-APU-CODE                  17690915
044026           SET APUC-FOUND TO TRUE                                 17690915
044027           PERFORM 9070-OPEN-APU-CURSOR                           17690915
044028           PERFORM 9071-FETCH-APU-TBL                             17690915
044029           PERFORM 9072-CLOSE-APU-CURSOR                          17690915
044030           IF APUC-NOT-FOUND                                      17690915
044031              ADD 1             TO KMTA-CTR                       17690915
044032              MOVE E0660        TO KMTA-FIELD-NUM     (KMTA-CTR)  17690915
044033              MOVE ACAD-PROG-UNIT-CD                              17690915
044034                                   TO KMTA-DATA-FIELD (KMTA-CTR)  17690915
044035              MOVE 6            TO KMTA-LENGTH        (KMTA-CTR)  17690915
044036              MOVE M08374       TO KMTA-MSG-NUMBER    (KMTA-CTR)  17690915
044037              MOVE WS-ROUTINE-TYPE TO                             17690915
044038                                     KMTA-ROUTINE-TYPE (KMTA-CTR) 17690915
044039              MOVE WS-ROUTINE-NUM TO KMTA-ROUTINE-NUM  (KMTA-CTR) 17690915
044040           END-IF                                                 17690915
044041        END-IF                                                    17690915
044042     END-IF.                                                      17690915
044050                                                                  17690915
038400 EJECT                                                            PPEC715
038500 2000-CONEDIT-CONTINUE SECTION.                                   PPEC715
038600 2500-LOA-ECED-EDITS.                                             PPEC715
038700     MOVE LOA-TYPE-CODE       TO LOA-TYPE-CHECK.                  PPEC715
038800                                                                  PPEC715
038900     IF NOT VALID-LOA-TYPE                                        PPEC715
039000         ADD 1                TO KMTA-CTR                         PPEC715
039100         IF KRMI-REQUESTED-BY-08                                  PPEC715
039200            MOVE M08511     TO KMTA-MSG-NUMBER  (KMTA-CTR)        PPEC715
039300         ELSE                                                     PPEC715
039400            MOVE M12456     TO KMTA-MSG-NUMBER  (KMTA-CTR)        PPEC715
039500         END-IF                                                   PPEC715
039600         MOVE E0139       TO KMTA-FIELD-NUM    (KMTA-CTR)         PPEC715
039700         MOVE 2           TO KMTA-LENGTH   (KMTA-CTR)             PPEC715
039800         MOVE LOA-TYPE-CODE   TO KMTA-DATA-FIELD   (KMTA-CTR)     PPEC715
039900         MOVE WS-ROUTINE-TYPE TO KMTA-ROUTINE-TYPE      (KMTA-CTR)PPEC715
040000         MOVE WS-ROUTINE-NUM  TO KMTA-ROUTINE-NUM       (KMTA-CTR)PPEC715
040100         MOVE 'X'             TO UCI-CODE-FLAG                    PPEC715
040200     END-IF                                                       PPEC715
040300                                                                  PPEC715
040400     MOVE UCI-BEGIN-DATE TO WS-DATE-HOLD                          PPEC715
040500     PERFORM 8050-MOVE-HOLD-TO-CHECK.                             PPEC715
040600     MOVE WS-CHECK-DATE TO WS-UCI-BEGIN-DATE.                     PPEC715
040700     MOVE LOA-BEGIN-DATE TO WS-DATE-HOLD.                         PPEC715
040800     PERFORM 8050-MOVE-HOLD-TO-CHECK.                             PPEC715
040900     MOVE WS-CHECK-DATE TO WS-LOA-BEGIN-DATE.                     PPEC715
041000                                                                  PPEC715
041100     IF WS-UCI-BEGIN-DATE < WS-LOA-BEGIN-DATE                     PPEC715
041200        MOVE 2               TO UCI-BEG-DATE-FLAG                 PPEC715
041300        ADD 1                TO KMTA-CTR                          PPEC715
041400        IF KRMI-REQUESTED-BY-08                                   PPEC715
041500            MOVE M08512     TO KMTA-MSG-NUMBER  (KMTA-CTR)        PPEC715
041600            MOVE E0645       TO KMTA-FIELD-NUM    (KMTA-CTR)      PPEC715
047610            MOVE UCI-BEGIN-DATE TO XDC3-ISO-DATE                  28521025
047620            PERFORM XDC3-CONVERT-ISO-TO-STD                       28521025
047630            MOVE XDC3-STD-DATE   TO KMTA-DATA-FIELD   (KMTA-CTR)  28521025
042000            MOVE 6               TO KMTA-LENGTH   (KMTA-CTR)      PPEC715
042100        ELSE                                                      PPEC715
042200            MOVE M12457     TO KMTA-MSG-NUMBER  (KMTA-CTR)        PPEC715
042300        END-IF                                                    PPEC715
042400        MOVE WS-ROUTINE-TYPE TO KMTA-ROUTINE-TYPE (KMTA-CTR)      PPEC715
042500        MOVE WS-ROUTINE-NUM  TO KMTA-ROUTINE-NUM  (KMTA-CTR)      PPEC715
042600     END-IF.                                                      PPEC715
042700                                                                  PPEC715
042800     IF UCI-CODE = 'M'                                            PPEC715
048610        IF HLTH-COVEFFDATE = XDTS-ISO-ZERO-DATE                   28521025
043000           ADD 1                TO KMTA-CTR                       PPEC715
043100           IF KRMI-REQUESTED-BY-08                                PPEC715
043200              MOVE M08514     TO KMTA-MSG-NUMBER  (KMTA-CTR)      PPEC715
043300           ELSE                                                   PPEC715
043400              MOVE M12459     TO KMTA-MSG-NUMBER  (KMTA-CTR)      PPEC715
043500           END-IF                                                 PPEC715
043600           MOVE WS-ROUTINE-TYPE TO KMTA-ROUTINE-TYPE (KMTA-CTR)   PPEC715
043700           MOVE WS-ROUTINE-NUM  TO KMTA-ROUTINE-NUM  (KMTA-CTR)   PPEC715
043800           MOVE 'X'             TO UCI-CODE-FLAG                  PPEC715
043900        ELSE                                                      PPEC715
044000           MOVE HLTH-COVEFFDATE TO WS-DATE-HOLD                   PPEC715
044100           PERFORM 8050-MOVE-HOLD-TO-CHECK                        PPEC715
044200           MOVE WS-CHECK-DATE TO WS-ECED-DATE-M                   PPEC715
044300           IF WS-ECED-DATE-M > WS-UCI-BEGIN-DATE                  PPEC715
044400              MOVE 2               TO UCI-BEG-DATE-FLAG           PPEC715
044500              ADD 1                TO KMTA-CTR                    PPEC715
044600              IF KRMI-REQUESTED-BY-08                             PPEC715
044700                 MOVE E0645         TO KMTA-FIELD-NUM (KMTA-CTR)  PPEC715
050710                 MOVE UCI-BEGIN-DATE TO XDC3-ISO-DATE             28521025
050720                 PERFORM XDC3-CONVERT-ISO-TO-STD                  28521025
050730                 MOVE XDC3-STD-DATE TO KMTA-DATA-FIELD (KMTA-CTR) 28521025
045100                 MOVE 6            TO KMTA-LENGTH (KMTA-CTR)      PPEC715
045200                 MOVE M08515     TO KMTA-MSG-NUMBER (KMTA-CTR)    PPEC715
045300              ELSE                                                PPEC715
045400                 MOVE M12460     TO KMTA-MSG-NUMBER  (KMTA-CTR)   PPEC715
045500              END-IF                                              PPEC715
045600              MOVE WS-ROUTINE-TYPE TO KMTA-ROUTINE-TYPE (KMTA-CTR)PPEC715
045700              MOVE WS-ROUTINE-NUM  TO KMTA-ROUTINE-NUM  (KMTA-CTR)PPEC715
045800          END-IF                                                  PPEC715
045900        END-IF.                                                   PPEC715
046000                                                                  PPEC715
046100     IF UCI-CODE = 'A'                                            PPEC715
052110        IF HLTH-COVEFFDATE = XDTS-ISO-ZERO-DATE AND               28521025
052120           DENTAL-COVEFFDATE = XDTS-ISO-ZERO-DATE AND             28521025
052130           VIS-COVEFFDATE = XDTS-ISO-ZERO-DATE                    28521025
046500              MOVE 'X'             TO UCI-CODE-FLAG               PPEC715
046600              ADD 1                TO KMTA-CTR                    PPEC715
046700              IF KRMI-REQUESTED-BY-08                             PPEC715
046800                 MOVE M08514     TO KMTA-MSG-NUMBER  (KMTA-CTR)   PPEC715
046900              ELSE                                                PPEC715
047000                 MOVE M12459     TO KMTA-MSG-NUMBER  (KMTA-CTR)   PPEC715
047100              END-IF                                              PPEC715
047200              MOVE WS-ROUTINE-TYPE TO KMTA-ROUTINE-TYPE (KMTA-CTR)PPEC715
047300              MOVE WS-ROUTINE-NUM  TO KMTA-ROUTINE-NUM  (KMTA-CTR)PPEC715
047400        ELSE                                                      PPEC715
053210           IF HLTH-COVEFFDATE  = XDTS-ISO-ZERO-DATE               28521025
047600              MOVE ZERO          TO WS-ECED-DATE-M                PPEC715
047700           ELSE                                                   PPEC715
047800              MOVE HLTH-COVEFFDATE TO WS-DATE-HOLD                PPEC715
047900              PERFORM 8050-MOVE-HOLD-TO-CHECK                     PPEC715
048000              MOVE WS-CHECK-DATE TO WS-ECED-DATE-M                PPEC715
048100           END-IF                                                 PPEC715
053910           IF VIS-COVEFFDATE  = XDTS-ISO-ZERO-DATE                28521025
048300              MOVE ZERO          TO WS-ECED-DATE-V                PPEC715
048400           ELSE                                                   PPEC715
048500              MOVE VIS-COVEFFDATE TO WS-DATE-HOLD                 PPEC715
048600              PERFORM 8050-MOVE-HOLD-TO-CHECK                     PPEC715
048700              MOVE WS-CHECK-DATE TO WS-ECED-DATE-V                PPEC715
048800           END-IF                                                 PPEC715
054610           IF DENTAL-COVEFFDATE = XDTS-ISO-ZERO-DATE              28521025
049000              MOVE ZERO          TO WS-ECED-DATE-D                PPEC715
049100           ELSE                                                   PPEC715
049200              MOVE DENTAL-COVEFFDATE TO WS-DATE-HOLD              PPEC715
049300              PERFORM 8050-MOVE-HOLD-TO-CHECK                     PPEC715
049400              MOVE WS-CHECK-DATE TO WS-ECED-DATE-D                PPEC715
049500           END-IF                                                 PPEC715
049600           IF (WS-ECED-DATE-M NOT > WS-UCI-BEGIN-DATE AND         PPEC715
049700                              NOT = 0)                            PPEC715
049800                      OR                                          PPEC715
049900              (WS-ECED-DATE-V NOT > WS-UCI-BEGIN-DATE AND         PPEC715
050000                              NOT = 0)                            PPEC715
050100                      OR                                          PPEC715
050200              (WS-ECED-DATE-D NOT > WS-UCI-BEGIN-DATE  AND        PPEC715
050300                              NOT = 0)                            PPEC715
050400               CONTINUE                                           PPEC715
050500           ELSE                                                   PPEC715
050600               MOVE 2   TO UCI-BEG-DATE-FLAG                      PPEC715
050700               ADD 1             TO KMTA-CTR                      PPEC715
050800               IF KRMI-REQUESTED-BY-08                            PPEC715
050900                  MOVE E0645     TO KMTA-FIELD-NUM (KMTA-CTR)     PPEC715
056910                  MOVE UCI-BEGIN-DATE TO XDC3-ISO-DATE            28521025
056920                  PERFORM XDC3-CONVERT-ISO-TO-STD                 28521025
056930                  MOVE XDC3-STD-DATE TO KMTA-DATA-FIELD (KMTA-CTR)28521025
051300                  MOVE 6         TO KMTA-LENGTH       (KMTA-CTR)  PPEC715
051400                  MOVE M08515     TO KMTA-MSG-NUMBER  (KMTA-CTR)  PPEC715
051500               ELSE                                               PPEC715
051600                  MOVE M12460     TO KMTA-MSG-NUMBER  (KMTA-CTR)  PPEC715
051700               END-IF                                             PPEC715
051800               MOVE WS-ROUTINE-TYPE TO                            PPEC715
051900                             KMTA-ROUTINE-TYPE (KMTA-CTR)         PPEC715
052000               MOVE WS-ROUTINE-NUM TO                             PPEC715
052100                             KMTA-ROUTINE-NUM  (KMTA-CTR)         PPEC715
052200           END-IF                                                 PPEC715
052300     END-IF.                                                      PPEC715
052400                                                                  PPEC715
052500     MOVE UCI-END-DATE TO WS-DATE-HOLD.                           PPEC715
052600     PERFORM 8050-MOVE-HOLD-TO-CHECK.                             PPEC715
052700     MOVE WS-CHECK-DATE TO WS-UCI-END-DATE.                       PPEC715
052800     MOVE LOA-RETURN-DATE TO WS-DATE-HOLD.                        PPEC715
052900     PERFORM 8050-MOVE-HOLD-TO-CHECK.                             PPEC715
053000     MOVE WS-CHECK-DATE TO WS-LOA-RETURN-DATE.                    PPEC715
053100     IF WS-UCI-END-DATE > WS-LOA-RETURN-DATE                      PPEC715
053200        MOVE 2               TO UCI-END-DATE-FLAG                 PPEC715
053300        ADD 1                TO KMTA-CTR                          PPEC715
053400        IF KRMI-REQUESTED-BY-08                                   PPEC715
053500           MOVE E0646      TO KMTA-FIELD-NUM    (KMTA-CTR)        PPEC715
059510           MOVE UCI-END-DATE TO XDC3-ISO-DATE                     28521025
059520           PERFORM XDC3-CONVERT-ISO-TO-STD                        28521025
059530           MOVE XDC3-STD-DATE TO KMTA-DATA-FIELD   (KMTA-CTR)     28521025
053900           MOVE 6            TO KMTA-LENGTH       (KMTA-CTR)      PPEC715
054000           MOVE M08513     TO KMTA-MSG-NUMBER  (KMTA-CTR)         PPEC715
054100        ELSE                                                      PPEC715
054200           MOVE M12458     TO KMTA-MSG-NUMBER  (KMTA-CTR)         PPEC715
054300        END-IF                                                    PPEC715
054400        MOVE WS-ROUTINE-TYPE TO KMTA-ROUTINE-TYPE (KMTA-CTR)      PPEC715
054500        MOVE WS-ROUTINE-NUM  TO KMTA-ROUTINE-NUM  (KMTA-CTR)      PPEC715
054600     END-IF.                                                      PPEC715
054700     EJECT                                                        PPEC715
054800******************************************************************PPEC715
054900**   I M P L I E D   M A I N T E N A N C E   M A I N L I N E    **PPEC715
055000******************************************************************PPEC715
055100*----------------------------------------------------------------*PPEC715
055200 5100-IMPLIED-MAINT-MAINLINE SECTION.                             PPEC715
055300*----------------------------------------------------------------*PPEC715
055400                                                                  PPEC715
055500******************************************************************PPEC715
055600**  UCI DATA ELEMENT MAINTENANCE                                **PPEC715
055700******************************************************************PPEC715
055800                                                                  PPEC715
055900     MOVE 0 TO VALID-UCI-FLAG.                                    PPEC715
056000     MOVE UCI-CODE            TO UCI-CODE-FLAG.                   PPEC715
056100                                                                  PPEC715
061910     IF  UCI-BEGIN-DATE = XDTS-ISO-ZERO-DATE                      28521025
056300         MOVE ZERO            TO UCI-BEG-DATE-FLAG                PPEC715
056400     ELSE                                                         PPEC715
056500         MOVE 1               TO UCI-BEG-DATE-FLAG                PPEC715
056600     END-IF.                                                      PPEC715
062410     IF  UCI-END-DATE = XDTS-ISO-ZERO-DATE                        28521025
056800         MOVE ZERO            TO UCI-END-DATE-FLAG                PPEC715
056900     ELSE                                                         PPEC715
057000         MOVE 1               TO UCI-END-DATE-FLAG                PPEC715
057100     END-IF.                                                      PPEC715
057200                                                                  PPEC715
057300     IF (VALID-UCI-CODE AND                                       PPEC715
057400         VALID-UCI-BEG-DATE AND                                   PPEC715
057500         VALID-UCI-END-DATE)                                      PPEC715
057600            PERFORM 2500-LOA-ECED-EDITS                           PPEC715
057700     ELSE                                                         PPEC715
057800         IF (NO-UCI-CODE AND                                      PPEC715
063510             NO-UCI-BEG-DATE AND                                  12681025
058000             NO-UCI-END-DATE)                                     PPEC715
074800             CONTINUE                                             48601397
058700         ELSE                                                     PPEC715
058800             ADD 1                TO KMTA-CTR                     PPEC715
058900             MOVE M12455          TO KMTA-MSG-NUMBER    (KMTA-CTR)PPEC715
059000             MOVE WS-ROUTINE-TYPE TO KMTA-ROUTINE-TYPE  (KMTA-CTR)PPEC715
059100             MOVE WS-ROUTINE-NUM  TO KMTA-ROUTINE-NUM   (KMTA-CTR)PPEC715
059200         END-IF.                                                  PPEC715
059300                                                                  PPEC715
059400     IF (VALID-UCI-CODE AND                                       PPEC715
059500         VALID-UCI-BEG-DATE AND                                   PPEC715
059600         VALID-UCI-END-DATE)                                      PPEC715
059700                 OR                                               PPEC715
059800        (NO-UCI-CODE AND                                          PPEC715
065510         NO-UCI-BEG-DATE AND                                      12681025
060000         NO-UCI-END-DATE)                                         PPEC715
060100             MOVE 1 TO VALID-UCI-FLAG                             PPEC715
060200     ELSE                                                         PPEC715
060300             MOVE 0 TO VALID-UCI-FLAG                             PPEC715
060400     END-IF.                                                      PPEC715
060500                                                                  PPEC715
060600     IF VALID-UCI                                                 PPEC715
060700         IF  UCI-CODE NOT = HOLD-UCI-CODE                         PPEC715
060800             MOVE E0644           TO DL-FIELD                     PPEC715
060900             PERFORM 9050-AUDITING-RESPONSIBILITIES               PPEC715
061000         END-IF                                                   PPEC715
061100                                                                  PPEC715
061200         IF  UCI-END-DATE NOT = HOLD-UCI-END-DATE                 PPEC715
061300             MOVE E0646           TO DL-FIELD                     PPEC715
061400             PERFORM 9050-AUDITING-RESPONSIBILITIES               PPEC715
061500         END-IF                                                   PPEC715
061600                                                                  PPEC715
061700         IF  UCI-BEGIN-DATE NOT = HOLD-UCI-BEGIN-DATE             PPEC715
061800             MOVE E0645           TO DL-FIELD                     PPEC715
061900             PERFORM 9050-AUDITING-RESPONSIBILITIES               PPEC715
062000         END-IF                                                   PPEC715
062100     ELSE                                                         PPEC715
062200         MOVE HOLD-UCI-CODE TO UCI-CODE                           PPEC715
062300         MOVE HOLD-UCI-BEGIN-DATE TO UCI-BEGIN-DATE               PPEC715
062400         MOVE HOLD-UCI-END-DATE TO UCI-END-DATE                   PPEC715
062500     END-IF.                                                      PPEC715
062600                                                                  PPEC715
062700*----------------------------------------------------------------*PPEC715
062800 8000-MISC-ROUTINES              SECTION.                         PPEC715
062900 8050-MOVE-HOLD-TO-CHECK.                                         PPEC715
063000     MOVE WS-H-DD TO WS-CHECK-DD                                  PPEC715
063100     MOVE WS-H-MM TO WS-CHECK-MM                                  PPEC715
063200     MOVE WS-H-YEAR TO WS-CHECK-YR.                               PPEC715
064800                                                                  PPEC715
064900     EJECT                                                        PPEC715
065000*----------------------------------------------------------------*PPEC715
065100 9050-AUDITING-RESPONSIBILITIES  SECTION.                         PPEC715
065200*----------------------------------------------------------------*PPEC715
065300                                                                  PPEC715
065400*                                                 *-------------* PPEC715
065500                                                   COPY CPPDXDEC. PPEC715
065600*                                                 *-------------* PPEC715
065700                                                                  PPEC715
065800*----------------------------------------------------------------*PPEC715
065900 9060-APPT-DIST-LOC-CALCULATION  SECTION.                         PPEC715
066000*----------------------------------------------------------------*PPEC715
066100                                                                  PPEC715
066200*                                                 *-------------* PPEC715
066300                                                   COPY CPPDADLC. PPEC715
066400*                                                 *-------------* PPEC715
066500                                                                  PPEC715
066600     EJECT                                                        PPEC715
072310                                                                  17690915
072311*----------------------------------------------------------------*17690915
072320 9070-OPEN-APU-CURSOR SECTION.                                    17690915
072321*----------------------------------------------------------------*17690915
072322                                                                  17690915
072323     MOVE 'OPEN APU_ROW CURSOR' TO DB2MSG-TAG.                    17690915
072324                                                                  17690915
072325     EXEC SQL                                                     17690915
072326                                                                  17690915
072327        OPEN APU_ROW                                              17690915
072333                                                                  17690915
072334     END-EXEC.                                                    17690915
072335                                                                  17690915
072339 9070-EXIT. EXIT.                                                 17690915
072340     EJECT                                                        17690915
072341                                                                  17690915
072350 9071-FETCH-APU-TBL SECTION.                                      17690915
072360*----------------------------------------------------------------*17690915
072370                                                                  17690915
072371     MOVE 'FETCH APU_ROW CURSOR' TO DB2MSG-TAG.                   17690915
072380     EXEC SQL                                                     17690915
072390                                                                  17690915
072391        FETCH APU_ROW                                             17690915
072393         INTO                                                     17690915
072394             :APU-ROW.APU-CODE                                    17690915
072397                                                                  17690915
072398     END-EXEC.                                                    17690915
072399                                                                  17690915
072400     IF SQLCODE = +100                                            17690915
072401        SET APUC-NOT-FOUND TO TRUE                                17690915
072402     END-IF.                                                      17690915
072403 9071-EXIT. EXIT.                                                 17690915
072404     EJECT                                                        17690915
072405                                                                  17690915
072406 9072-CLOSE-APU-CURSOR SECTION.                                   17690915
072407*----------------------------------------------------------------*17690915
072408                                                                  17690915
072409     MOVE 'CLOSE APU_ROW CURSOR' TO DB2MSG-TAG.                   17690915
072410                                                                  17690915
072411     EXEC SQL                                                     17690915
072412                                                                  17690915
072413        CLOSE APU_ROW                                             17690915
072414                                                                  17690915
072415     END-EXEC.                                                    17690915
072416                                                                  17690915
072419 9072-EXIT. EXIT.                                                 17690915
072420     EJECT                                                        17690915
072421                                                                  17690915
066700*----------------------------------------------------------------*PPEC715
066800 9300-DATE-CONVERSION-DB2  SECTION.                               PPEC715
066900*----------------------------------------------------------------*PPEC715
067000                                                                  PPEC715
067100*                                                 *-------------* PPEC715
072910                                                   COPY CPPDXDC3. 28521025
067300*                                                 *-------------* PPEC715
067400                                                                  PPEC715
073110*----------------------------------------------------------------*17690915
073120*999999-SQL-ERROR.                                               *17690915
073130*----------------------------------------------------------------*17690915
073140     EXEC SQL                                                     17690915
073150          INCLUDE CPPDXP99                                        17690915
073160     END-EXEC.                                                    17690915
073170                                                                  17690915
073180     SET KRMI-RETURN-WITH-SQLCODE TO TRUE.                        17690915
073190                                                                  17690915
073191     GOBACK.                                                      17690915
073192                                                                  17690915
067500******************************************************************PPEC715
067600**   E N D  S O U R C E   ----  PPEC715 ----                    **PPEC715
067700******************************************************************PPEC715
