000001**************************************************************/   01341440
000002*  PROGRAM: PPEC723                                          */   01341440
000003*  RELEASE: ___1440______ SERVICE REQUEST(S): ____80134____  */   01341440
000004*  NAME:_______QUAN______ MODIFICATION DATE:  ___11/08/02__  */   01341440
000005*  DESCRIPTION:                                              */   01341440
000007*  - MODIFIED TO CALL PPCOVEDB TO CALCULATE COVERAGE CODE    */   01341440
000008**************************************************************/   01341440
000004**************************************************************/   54541281
000005*  PROGRAM: PPEC723                                          */   54541281
000006*  RELEASE: ___1281______ SERVICE REQUEST(S): ____15454____  */   54541281
000007*  NAME:_______QUAN______ MODIFICATION DATE:  ___07/21/99__  */   54541281
000008*  DESCRIPTION:                                              */   54541281
000009*  -  COUNT NUMBER OF DEPENDENTS WHOSE COVERAGE IS EQUAL TO  */   54541281
000010*     PRIOR TO CURRENT DATE. ADDITIONALLY, IF COVERAGE END   */   54541281
000011*     DATE IS NOT INITIAL VALUE, DO NOT COUNT DEPENDENT      */   54541281
000012*     IF THE COVERAGE END DATE IS PRIOR TO THE CURRENT DATE. */   54541281
000013*  -  MODIFIED LOGIC TO NOT DERIVE COVERAGE LEVEL FOR PLAN   */   54541281
000014*     CODES 'XX', 'XC', OR 'XD'.                             */   54541281
000020**************************************************************/   54541281
000048**************************************************************/   32181188
000049*  PROGRAM: PPEC723                                          */   32181188
000050*  RELEASE: ___1188______ SERVICE REQUEST(S): ____13218____  */   32181188
000051*  NAME:__PHIL THOMPSON__ MODIFICATION DATE:  ___06/01/98__  */   32181188
000052*  DESCRIPTION:                                              */   32181188
000053*   ADDED COVERAGE CODES WITHOUT DOMESTIC PARTNER            */   32181188
000054**************************************************************/   32181188
000001**************************************************************/   3259117R
000002*  PROGRAM: PPEC723                                          */   32591173
000003*  RELEASE: ___1173______ ERROR REPORT(S): ______1533______  */   32591173
000004*  NAME:__ROY_STAPLES____ MODIFICATION DATE:  ___02/10/98__  */   32591173
000005*  DESCRIPTION:                                              */   32591173
000006*  - PREVENT SETTING PCED TO SCR DATE FOR PROCESS '5'.       */   32591173
000007**************************************************************/   32591173
000001**************************************************************/   32591157
000002*  PROGRAM: PPEC723                                          */   32591157
000003*  RELEASE: ___1157______ SERVICE REQUEST(S): ____13259____  */   32591157
000004*  NAME:__PHIL THOMPSON__ MODIFICATION DATE:  ___12/15/97__  */   32591157
000005*  DESCRIPTION:                                              */   32591157
000009*  - EVALUATE EARLIEST DCED FOR SCR-SPEC-PROCESS 5           */   32591157
000010**************************************************************/   32591157
000000**************************************************************/   28521025
000001*  PROGRAM: PPEC723                                          */   28521025
000002*  RELEASE: ___1025______ SERVICE REQUEST(S): ____12852____  */   28521025
000003*  NAME:_______QUAN______ MODIFICATION DATE:  ___08/01/95__  */   28521025
000004*  DESCRIPTION:                                              */   28521025
000005*  - DATE CONVERSION PROJECT:                                */   28521025
000006*    THE DATE COMPARE LOGICS HAVE BEEN MODIFIED TO INCLUDE   */   28521025
000007*    THE CENTURY IN THE DATE COMPARES.                       */   28521025
000009**************************************************************/   28521025
000000**************************************************************/   17010906
000001*  PROGRAM: PPEC723                                          */   17010906
000002*  RELEASE: ___0906______ SERVICE REQUEST(S): ____11701____  */   17010906
000003*  NAME:_______QUAN______ CREATION DATE:      ___05/11/94__  */   17010906
000004*  DESCRIPTION:                                              */   17010906
000005*  NEW MODULE  TO DERIVE THE DENTAL PLAN COVERAGE LEVEL      */   17010906
000006*  CODE BASED ON                                             */   17010906
000007*  THE NUMBER OF CURRENTLY ENROLLED DEPENDENTS IN THE PLAN.  */   17010906
000009**************************************************************/   17010906
001100                                                                  PPEC723
001200 IDENTIFICATION DIVISION.                                         PPEC723
001300 PROGRAM-ID. PPEC723.                                             PPEC723
001400 AUTHOR. UCOP.                                                    PPEC723
001500 INSTALLATION. UNIVERSITY OF CALIFORNIA.                          PPEC723
001600 DATE-WRITTEN.  MAY, 1994.                                        PPEC723
001700 DATE-COMPILED.                                                   PPEC723
001800                                                                  PPEC723
001900******************************************************************PPEC723
002000**    THIS ROUTINE WILL DERIVE THE DENTAL PLAN COVERAGE LEVEL   **PPEC723
002100**    CODE BY COUNTING THE NUMBER OF ENROLLED DEPENDENTS IN DEN.**PPEC723
002200******************************************************************PPEC723
002300                                                                  PPEC723
002400 ENVIRONMENT DIVISION.                                            PPEC723
002500 CONFIGURATION SECTION.                                           PPEC723
002600 SOURCE-COMPUTER.                                  COPY CPOTXUCS. PPEC723
002700 OBJECT-COMPUTER.                                  COPY CPOTXOBJ. PPEC723
002800 SPECIAL-NAMES.                C01 IS NEW-PAGE.                   PPEC723
002900                                                                  PPEC723
003000 INPUT-OUTPUT SECTION.                                            PPEC723
003100 FILE-CONTROL.                                                    PPEC723
003200 DATA DIVISION.                                                   PPEC723
003300 FILE SECTION.                                                    PPEC723
003400     EJECT                                                        PPEC723
003500*----------------------------------------------------------------*PPEC723
003600 WORKING-STORAGE SECTION.                                         PPEC723
003700*----------------------------------------------------------------*PPEC723
003800 01  A-STND-PROG-ID            PIC X(15) VALUE                    PPEC723
005220*****                                                          CD 01341440
005230*****'PPEC723 /072099'.                                           01341440
005231     'PPEC723 /110802'.                                           01341440
005240                                                                  54541281
005250 01  A-STND-MSG-PARMS                 REDEFINES                   54541281
005260     A-STND-PROG-ID.                                              54541281
005270     05  FILLER                       PIC X(03).                  54541281
005280     05  WS-ROUTINE-TYPE              PIC X(01).                  54541281
005290     05  WS-ROUTINE-NUM               PIC 9(03).                  54541281
005291     05  FILLER                       PIC X(08).                  54541281
007600                                                                  PPEC723
007700 01  ELEMENTS-USED.                                               PPEC723
007800     05  E0273                 PIC 9(04)  VALUE 0273.             PPEC723
007900     05  E0274                 PIC 9(04)  VALUE 0274.             PPEC723
005610     05  E0285                 PIC 9(04)  VALUE 0285.             32181188
009600                                                                  PPEC723
005620 01  MESSAGES-USED.                                               54541281
005630     05  M08577                PIC X(05) VALUE '08577'.           54541281
005660     05  M12577                PIC X(05) VALUE '12577'.           54541281
005662     05  M12946                PIC X(05) VALUE '12946'.           01341440
005663     05  M12948                PIC X(05) VALUE '12948'.           01341440
005670     05  M13577                PIC X(05) VALUE '13577'.           54541281
005690     05  M13946                PIC X(05) VALUE '13946'.           01341440
005691     05  M13947                PIC X(05) VALUE '13947'.           01341440
005700                                                                  54541281
009700 01  MISC-WORK-AREAS.                                             PPEC723
010100     05  FIRST-TIME-SW          PIC X(01)  VALUE LOW-VALUES.      PPEC723
010200         88  THIS-IS-THE-FIRST-TIME        VALUE LOW-VALUES.      PPEC723
010300         88  NOT-THE-FIRST-TIME            VALUE 'Y'.             PPEC723
006101     05  DEP-DEENROLL-DENTAL-SW PIC X(01)  VALUE SPACE.           54541281
006102         88  DEP-DEENROLL-DENTAL-INITIAL   VALUE SPACE.           54541281
006103         88  DEP-DEENROLL-DENTAL           VALUE 'Y'.             54541281
006110     05  CHECK-COVEND-DATE-SW   PIC X(01)  VALUE SPACE.           54541281
006120         88  INITIAL-CHECK-COVEND-DATE     VALUE SPACE.           54541281
006130         88  COUNT-THIS-DEPENDENT          VALUE 'Y'.             54541281
006131     05  WS-PPCOVEDB             PIC X(08) VALUE 'PPCOVEDB'.      01341440
006140     05  WS-TODAYS-DATE-ISO    PIC X(10)   VALUE '0001-01-01'.    54541281
010610     05  INITIAL-PCED-CHG-SW    PIC X(01)  VALUE SPACE.           PPEC723
010700         88  PROCEED-TO-CHANGE-PCED        VALUE '1'.             PPEC723
012300     05  ENTRY-X               PIC S9(4)  COMP VALUE ZERO.        PPEC723
012400     05  NUM-DEP-ENTRIES       PIC S9(4)  COMP VALUE ZERO.        PPEC723
012500     05  HOLD-NUM-DEP-ENTRIES  PIC S9(4)  COMP VALUE ZERO.        PPEC723
012600     05  INIT-DEP-KEY          PIC X(02)  VALUE SPACES.           PPEC723
012611     05  EARLIEST-ISO-DCED-DATE    PIC X(10)  VALUE HIGH-VALUES.  28521025
006910     05  LATEST-ISO-DCED-DATE PIC X(10)    VALUE LOW-VALUES.      54541281
012611     05  EDEP-DEP-ENROLLED-DENTAL PIC S9(4)  COMP VALUE ZERO.     PPEC723
007010     05  DEP-ENROLLED-DENTAL-WODD PIC S9(4)  COMP VALUE ZERO.     32181188
012620     05  WS-DB2-WORK-DATE.                                        PPEC723
012621         07  WS-DB2-CCYY       PIC 9(04).                         28521025
012622         07  WS-DB2-CCYY-R REDEFINES WS-DB2-CCYY.                 28521025
012623             09  WS-DB2-CC         PIC 9(02).                     28521025
012624             09  WS-DB2-YY         PIC 9(02).                     28521025
012623         07  WS-DB2-SEP1       PIC X(01).                         PPEC723
012624         07  WS-DB2-MM         PIC 9(02).                         PPEC723
012625         07  WS-DB2-SEP2       PIC X(01).                         PPEC723
012626         07  WS-DB2-DD         PIC 9(02).                         PPEC723
012631     05  DERIVED-DENTAL-COVERAGE-IND  PIC X(03) VALUE SPACES.     PPEC723
008300*****    88  DERIVED-NO-COVERAGE            VALUE '   '.          01341440
008400*****    88  DERIVED-SINGLE-COVERAGE        VALUE 'U  '.          01341440
008500*****    88  DERIVED-TWO-PARTY-COVERAGE     VALUE 'UU '.          01341440
008600*****    88  DERIVED-FAMILY-COVERAGE        VALUE 'UUU'.          01341440
012662                                                                  PPEC723
012663     05 HOLD-COVERAGE-CODE-IND PIC X(03)   VALUE SPACE.           PPEC723
008900*****    88  HOLD-NO-COVERAGE               VALUE '   '.          01341440
009000*****    88  HOLD-SINGLE-COVERAGE           VALUE 'U  '.          01341440
009100*****    88  HOLD-TWO-PARTY-COVERAGE        VALUE 'UU '.          01341440
009200*****    88  HOLD-FAMILY-COVERAGE           VALUE 'UUU'.          01341440
013660                                                                  PPEC723
013700     EJECT                                                        PPEC723
014100 01  DL-FIELD-WORK-AREA.                           COPY CPWSXDLS. PPEC723
014200                                                                  PPEC723
014300     EJECT                                                        PPEC723
010000 01  DATE-WORK-AREA.                               COPY CPWSDATE. 54541281
010010                                                                  54541281
010020     EJECT                                                        54541281
010030 01  DATE-CONVERSION-WORK-AREAS.                   COPY CPWSXDC3. 54541281
010040                                                                  54541281
014700 01  XWHC-COMPILE-WORK-AREA.                       COPY CPWSXWHC. PPEC723
014800                                                                  PPEC723
015800     EJECT                                                        PPEC723
015900 01  INSTALLATION-DEPENDT-CONSTATNS.               COPY CPWSXIDC. PPEC723
016000                                                                  PPEC723
016010     EJECT                                                        PPEC723
016020 01  APPT-DIST-LOC-WORK-AREAS.                     COPY CPWSADLC. PPEC723
016100     EJECT                                                        PPEC723
016200 01  XMST-MESSAGE-SEVERITY-TABLE.                  COPY CPWSXMST. PPEC723
010910     EJECT                                                        01341440
010920 01  PPCOVEDB-INTERFACE.                           COPY CPLNKCV2. 01341440
016600                                                                  PPEC723
016700     EJECT                                                        PPEC723
016800******************************************************************PPEC723
016900**     E  X  T  E  R  N  A  L  S      S  E  C  T  I  O  N       **PPEC723
017000**--------------------------------------------------------------**PPEC723
017100** THE FOLLOWING EXTERNAL AREAS WILL BE USED BY OTHER PROCESSES **PPEC723
017200******************************************************************PPEC723
017300                                                                  PPEC723
018802 01  ONLINE-SIGNALS                      EXTERNAL. COPY CPWSONLI. PPEC723
018803                                                                  PPEC723
018804     EJECT                                                        PPEC723
018805 01  DATA-ELEMENT-CHANGE-INDICATORS      EXTERNAL. COPY CPWSXDEC. PPEC723
018806                                                                  PPEC723
018807     EJECT                                                        PPEC723
018808 01  XCSS-COMMON-SYSTEM-SWITCHES         EXTERNAL. COPY CPWSSWCH. PPEC723
018809                                                                  PPEC723
018810     EJECT                                                        PPEC723
018811 01  XDTS-COMMON-SYSTEM-DATES            EXTERNAL. COPY CPWSXDTS. PPEC723
018812                                                                  PPEC723
018813     EJECT                                                        PPEC723
018814 01  ECES-CON-EDIT-SWITCH                EXTERNAL. COPY CPWSECES. PPEC723
018815                                                                  PPEC723
018816 01  EGES-GTN-EDIT-SWITCH                EXTERNAL. COPY CPWSEGES. PPEC723
018817                                                                  PPEC723
018818 01  EIMS-IMPL-MAINT-SWITCH              EXTERNAL. COPY CPWSEIMS. PPEC723
018819                                                                  PPEC723
018900 01  EAXD-APPT-ARRAY-SWITCH              EXTERNAL. COPY CPWSEAXD. PPEC723
019000                                                                  PPEC723
019100     EJECT                                                        PPEC723
019200 01  XDER-DATA-ELMT-RTN-POINTERS         EXTERNAL. COPY CPWSXDER. PPEC723
019300                                                                  PPEC723
019400     EJECT                                                        PPEC723
019500 01  XDRT-DET-ROUTINE-TRIGGERS           EXTERNAL. COPY CPWSXDRT. PPEC723
019600                                                                  PPEC723
019700     EJECT                                                        PPEC723
020100 01  COMM-TAB                            EXTERNAL. COPY CPOTXCMF. PPEC723
020200                                                                  PPEC723
020300     EJECT                                                        PPEC723
020400 01  EDB-MAINTENANCE-PASS-AREA           EXTERNAL. COPY CPWSEMPA. PPEC723
020800                                                                  PPEC723
020900     EJECT                                                        PPEC723
021000 01  PPPDEP-ARRAY                        EXTERNAL. COPY CPWSEDEP. PPEC723
021100                                                                  PPEC723
021101     EJECT                                                        PPEC723
021110 01  PPPDEP-ARRAY-HOLD             EXTERNAL.       COPY CPWSEDEP  PPEC723
021120     REPLACING  EDEP-DEPENDENT-DATA     BY HOLD-DEPENDENT-DATA    PPEC723
021130                EDEP-OCCURRENCE-KEY     BY HOLD-OCCURRENCE-KEY    PPEC723
021140                EDEP-DEP-NUM            BY HOLD-DEP-NUM           PPEC723
021150                EDEP-DEP-ADC-CODE       BY HOLD-DEP-ADC-CODE      PPEC723
021160                EDEP-DEP-NAME           BY HOLD-DEP-NAME          PPEC723
021170                EDEP-DEP-BIRTH-DATE     BY HOLD-DEP-BIRTH-DATE    PPEC723
021180                EDEP-DEP-REL-TO-EMP     BY HOLD-DEP-REL-TO-EMP    PPEC723
021190                EDEP-DEP-SSN            BY HOLD-DEP-SSN           PPEC723
021191                EDEP-DEP-SEX-CODE       BY HOLD-DEP-SEX-CODE      PPEC723
021192                EDEP-DEP-DISABLED-CODE  BY HOLD-DEP-DISABLED-CODE PPEC723
021193                EDEP-DEP-HLTH-COVEFFDT  BY                        PPEC723
021194                                        HOLD-DEP-HLTH-COVEFFDT    PPEC723
021195                EDEP-DEP-DENTL-COVEFFDT BY                        PPEC723
021196                                        HOLD-DEP-DENTL-COVEFFDT   PPEC723
021197                EDEP-DEP-VIS-COVEFFDT   BY                        PPEC723
021198                                        HOLD-DEP-VIS-COVEFFDT     PPEC723
021199                EDEP-DEP-LEGAL-COVEFFDT BY                        PPEC723
021201                                        HOLD-DEP-LEGAL-COVEFFDT   PPEC723
017210                EDEP-DEP-HLTH-COVENDDT  BY                        54541281
017220                                        HOLD-DEP-HLTH-COVENDDT    54541281
017230                EDEP-DEP-DENTL-COVENDDT BY                        54541281
017240                                        HOLD-DEP-DENTL-COVENDDT   54541281
017250                EDEP-DEP-VIS-COVENDDT   BY                        54541281
017260                                        HOLD-DEP-VIS-COVENDDT     54541281
017270                EDEP-DEP-LEGAL-COVENDDT BY                        54541281
017280                                        HOLD-DEP-LEGAL-COVENDDT.  54541281
017300*****           EDEP-DEP-INS-DEENROLL   BY                        54541281
017400*****                                   HOLD-DEP-INS-DEENROLL.    54541281
021204     EJECT                                                        PPEC723
021205******************************************************************PPEC723
021206**  DATA BASE AREAS                                             **PPEC723
021207******************************************************************PPEC723
021208                                                                  PPEC723
021210 01  BEN-ROW                             EXTERNAL. COPY CPWSRBEN. PPEC723
021220     EJECT                                                        PPEC723
021221******************************************************************PPEC723
021222**  DATA BASE SAVE AREAS                                        **PPEC723
021223******************************************************************PPEC723
021224                                                                  PPEC723
021225 01  BEN-ROW-HOLD                        EXTERNAL. COPY CPWSRBEN  PPEC723
021226                                                                  PPEC723
021210         REPLACING DENTAL-PLAN        BY SAVE-DENTAL-PLAN         32181188
021220                   DENTAL-COVERAGE    BY SAVE-DENTAL-COVERAGE     32181188
021230                   DENTAL-COVEFFDATE  BY SAVE-DENTAL-COVEFFDATE   32181188
021231                   DENTAL-COVEND-DATE BY SAVE-DENTAL-COVEND-DATE  54541281
021240                   DEN-COVERAGE-WODD  BY SAVE-DEN-COVERAGE-WODD.  32181188
021252     EJECT                                                        PPEC723
021253                                                                  PPEC723
021254 01  SCR-ROW                             EXTERNAL.                PPEC723
021255     EXEC SQL INCLUDE PPPVSCR1 END-EXEC.                          PPEC723
021260                                                                  PPEC723
021270     EJECT                                                        PPEC723
024400                                                                  PPEC723
031400******************************************************************PPEC723
031500**          L  I  N  K  A  G  E      S  E  C  T  I  O  N        **PPEC723
031600******************************************************************PPEC723
031700*----------------------------------------------------------------*PPEC723
031800 LINKAGE SECTION.                                                 PPEC723
031900*----------------------------------------------------------------*PPEC723
032000                                                                  PPEC723
032100******************************************************************PPEC723
032200**  THE KRMI AREA IS A COMMON AREA THAT IS USED TO PASS         **PPEC723
032300**  INFORMATION THAT IS REQUIRED FOR THIS MODULE TO EXECUTE     **PPEC723
032400******************************************************************PPEC723
032500                                                                  PPEC723
032600 01  KRMI-LINKAGE-SECTION.                         COPY CPLNKRMI. PPEC723
032700                                                                  PPEC723
032800     EJECT                                                        PPEC723
032900******************************************************************PPEC723
033000**  THIS MESSAGE TABLE ARRAY WILL CONTAIN ALL MESSAGES THAT     **PPEC723
033100**  THIS ROUTINE CAN LOGICALLY ISSUE AT ONE TIME                **PPEC723
033200******************************************************************PPEC723
033300                                                                  PPEC723
033400 01  KMTA-MESSAGE-TABLE-ARRAY.                     COPY CPLNKMTA. PPEC723
033500                                                                  PPEC723
033600     EJECT                                                        PPEC723
033700******************************************************************PPEC723
033800**    P  R  O  C  E  D  U  R  E      D  I  V  I  S  I  O  N     **PPEC723
033900******************************************************************PPEC723
034000 PROCEDURE DIVISION USING KRMI-LINKAGE-SECTION,                   PPEC723
034100                          KMTA-MESSAGE-TABLE-ARRAY.               PPEC723
035200                                                                  PPEC723
035300*----------------------------------------------------------------*PPEC723
035400 0000-DRIVER.                                                     PPEC723
035500*----------------------------------------------------------------*PPEC723
035600******************************************************************PPEC723
035700**  PERFORM THE INITIALIZATION ROUTINE IF FIRST TIME            **PPEC723
035800******************************************************************PPEC723
035900                                                                  PPEC723
036000     IF  THIS-IS-THE-FIRST-TIME                                   PPEC723
036100         PERFORM 0100-INITIALIZE                                  PPEC723
036200     END-IF.                                                      PPEC723
036300                                                                  PPEC723
036400******************************************************************PPEC723
036500**  PERFORM THE MAINLINE ROUTINE                                **PPEC723
036700******************************************************************PPEC723
036800                                                                  PPEC723
036900     PERFORM 1000-MAINLINE-ROUTINE.                               PPEC723
037000                                                                  PPEC723
037100     EXIT PROGRAM.                                                PPEC723
037300                                                                  PPEC723
037400     EJECT                                                        PPEC723
037500*----------------------------------------------------------------*PPEC723
037600 0100-INITIALIZE    SECTION.                                      PPEC723
037700*----------------------------------------------------------------*PPEC723
037800******************************************************************PPEC723
037900**  DISPLAY THE PROGRAM ID AND DATE/TIME COMPILED               **PPEC723
038000******************************************************************PPEC723
038100                                                                  PPEC723
038200     MOVE A-STND-PROG-ID           TO XWHC-DISPLAY-MODULE.        PPEC723
038400                                                                  PPEC723
038500*                                               *-------------*   PPEC723
038600                                                 COPY CPPDXWHC.   PPEC723
038700*                                               *-------------*   PPEC723
044700******************************************************************PPEC723
044800**   SET FIRST CALL SWITCH OFF                                  **PPEC723
044900******************************************************************PPEC723
045000                                                                  PPEC723
045100     SET NOT-THE-FIRST-TIME        TO TRUE.                       PPEC723
045200                                                                  PPEC723
045371     IF KRMI-REQUESTED-BY-13                                      28521025
045372        MOVE XDTS-ISO-FIRST-OF-MONTH-DATE TO WS-DB2-WORK-DATE     28521025
045375     ELSE                                                         28521025
045376        MOVE SCR-CURRENT-DATE TO WS-DB2-WORK-DATE                 28521025
045377     END-IF.                                                      28521025
045371                                                                  PPEC723
045372     MOVE  1 TO WS-DB2-DD.                                        PPEC723
045373     ADD   1 TO WS-DB2-MM.                                        PPEC723
045374     IF  WS-DB2-MM = 13                                           PPEC723
045375         MOVE 1  TO  WS-DB2-MM                                    PPEC723
045384         ADD  1  TO  WS-DB2-CCYY                                  28521025
045377     END-IF.                                                      PPEC723
030610                                                                  54541281
030611*                                               *-------------*   54541281
030620                                                 COPY CPPDDATE.   54541281
030630*                                               *-------------*   54541281
030640                                                                  54541281
030650     MOVE PRE-EDIT-DATE   TO XDC3-STD-DATE.                       54541281
030660     PERFORM XDC3-CONVERT-STD-TO-ISO.                             54541281
030670     MOVE XDC3-ISO-DATE TO WS-TODAYS-DATE-ISO.                    54541281
045380                                                                  PPEC723
045400     EJECT                                                        PPEC723
045500*----------------------------------------------------------------*PPEC723
045600 1000-MAINLINE-ROUTINE SECTION.                                   PPEC723
045700*----------------------------------------------------------------*PPEC723
046000                                                                  PPEC723
046011                                                                  PPEC723
046020     PERFORM 1000-COUNT-DEPS.                                     PPEC723
046027                                                                  PPEC723
031510     INITIALIZE PPCOVEDB-INTERFACE.                               01341440
031520     IF DENTAL-PLAN = SPACES                                      01341440
031530        OR DENTAL-PLAN = ('XX' OR 'XC' OR 'XD')                   01341440
031540        CONTINUE                                                  01341440
031550     ELSE                                                         01341440
031560        PERFORM 1500-CALL-COVERAGE-UTILITY                        01341440
031570     END-IF.                                                      01341440
031580                                                                  01341440
031590     IF KCV2-NORMAL                                               01341440
031591        PERFORM 2000-DERIVE-DENTAL-COVERAGE                       01341440
031592        PERFORM 2200-DERIVE-DENTAL-WODD                           01341440
031593     END-IF.                                                      01341440
031600*****PERFORM 2000-DERIVE-DENTAL-COVERAGE.                         01341440
031610*****PERFORM 2200-DERIVE-DENTAL-WODD.                             01341440
046030                                                                  PPEC723
046034                                                                  PPEC723
046040                                                                  PPEC723
046150     EJECT                                                        PPEC723
046151*----------------------------------------------------------------*PPEC723
046153 1000-COUNT-DEPS          SECTION.                                PPEC723
046154*----------------------------------------------------------------*PPEC723
046240                                                                  PPEC723
032500*****MOVE ZEROES TO EDEP-DEP-ENROLLED-DENTAL.                     01341440
032510*****MOVE ZEROES  TO DEP-ENROLLED-DENTAL-WODD.                    01341440
046242                                                                  PPEC723
046250******************************************************************PPEC723
046260** COUNT THE NUMBER OF ENTRIES IN THE UPDATED ARRAY.            **PPEC723
046261******************************************************************PPEC723
046262                                                                  PPEC723
046263     PERFORM                                                      PPEC723
046264      VARYING NUM-DEP-ENTRIES   FROM +1 BY +1                     PPEC723
046265        UNTIL NUM-DEP-ENTRIES   > IDC-MAX-NO-DEP  OR              PPEC723
046266              EDEP-OCCURRENCE-KEY (NUM-DEP-ENTRIES)               PPEC723
046267                   = INIT-DEP-KEY                                 PPEC723
033520*****                                                          CD 01341440
034301*****         IF  EDEP-DEP-DENTL-COVEFFDT (NUM-DEP-ENTRIES)       01341440
034302*****                          NOT = XDTS-ISO-ZERO-DATE           01341440
034310*****             IF  EDEP-DEP-DENTL-COVEFFDT (NUM-DEP-ENTRIES)   01341440
034320*****                        <= WS-TODAYS-DATE-ISO                01341440
034330*****                 SET INITIAL-CHECK-COVEND-DATE TO TRUE       01341440
034340*****                 PERFORM 1100-CHECK-COVERAGE-DATES           01341440
034350*****                 IF  COUNT-THIS-DEPENDENT                    01341440
034360*****                     ADD +1 TO EDEP-DEP-ENROLLED-DENTAL      01341440
034370*****                     IF EDEP-DEP-REL-TO-EMP (NUM-DEP-ENTRIES)01341440
034380*****                                    NOT  = 'D' AND 'K'       01341440
034390*****                        ADD +1 TO DEP-ENROLLED-DENTAL-WODD   01341440
034391*****                     END-IF                                  01341440
034392*****                 END-IF                                      01341440
034393*****             END-IF                                          01341440
034394*****         END-IF                                              01341440
046275     END-PERFORM.                                                 PPEC723
046276                                                                  PPEC723
046277     COMPUTE NUM-DEP-ENTRIES   = NUM-DEP-ENTRIES - (+1).          PPEC723
046278                                                                  PPEC723
046279******************************************************************PPEC723
046280** COUNT THE NUMBER OF ENTRIES IN THE ORIGINAL ARRAY.           **PPEC723
046281******************************************************************PPEC723
046282                                                                  PPEC723
046283     PERFORM                                                      PPEC723
046284      VARYING HOLD-NUM-DEP-ENTRIES   FROM +1 BY +1                PPEC723
046285        UNTIL HOLD-NUM-DEP-ENTRIES   > IDC-MAX-NO-DEP  OR         PPEC723
046286              HOLD-OCCURRENCE-KEY (HOLD-NUM-DEP-ENTRIES)          PPEC723
046287                   = INIT-DEP-KEY                                 PPEC723
046288     END-PERFORM.                                                 PPEC723
046289                                                                  PPEC723
046290     COMPUTE HOLD-NUM-DEP-ENTRIES   = HOLD-NUM-DEP-ENTRIES - (+1).PPEC723
035901                                                                  01341440
035902     EJECT                                                        01341440
035903*----------------------------------------------------------------*01341440
035904 1500-CALL-COVERAGE-UTILITY      SECTION.                         01341440
035905*----------------------------------------------------------------*01341440
035906                                                                  01341440
035907******************************************************************01341440
035908** CALL COVERAGE CODE DERIVATION UTILITY PPCOVEDB.              **01341440
035909******************************************************************01341440
035910     MOVE 'D' TO KCV2-BENEFIT-TYPE.                               01341440
035912     MOVE DENTAL-COVEND-DATE     TO KCV2-PLAN-END-DATE.           01341440
035913     MOVE WS-TODAYS-DATE-ISO     TO KCV2-EFFECTIVE-DATE.          01341440
035914                                                                  01341440
035915     CALL WS-PPCOVEDB USING PPCOVEDB-INTERFACE                    01341440
035916                                  PPPDEP-ARRAY.                   01341440
035917     IF KCV2-CALL-FAILED                                          01341440
035918        ADD 1        TO KMTA-CTR                                  01341440
035919        MOVE WS-ROUTINE-TYPE                                      01341440
035920                       TO KMTA-ROUTINE-TYPE      (KMTA-CTR)       01341440
035921        MOVE WS-ROUTINE-NUM                                       01341440
035922                       TO KMTA-ROUTINE-NUM       (KMTA-CTR)       01341440
035923                                                                  01341440
035924        EVALUATE TRUE                                             01341440
035931            WHEN KCV2-INVALID-BENEFIT-TYPE                        01341440
035932               IF KRMI-REQUESTED-BY-12                            01341440
035933                  MOVE M12946 TO KMTA-MSG-NUMBER  (KMTA-CTR)      01341440
035934               ELSE                                               01341440
035935                   MOVE M13946 TO KMTA-MSG-NUMBER (KMTA-CTR)      01341440
035936               END-IF                                             01341440
035937            WHEN KCV2-INVALID-DATE                                01341440
035938               IF KRMI-REQUESTED-BY-12                            01341440
035939                  MOVE M12948 TO KMTA-MSG-NUMBER  (KMTA-CTR)      01341440
035940               ELSE                                               01341440
035941                   MOVE M13947 TO KMTA-MSG-NUMBER (KMTA-CTR)      01341440
035942               END-IF                                             01341440
035943        END-EVALUATE                                              01341440
035944                                                                  01341440
035945     END-IF.                                                      01341440
035910                                                                  54541281
035947*****EJECT                                                        01341440
035948*****------------------------------------------------------------*01341440
035949*1100-CHECK-COVERAGE-DATES   SECTION.                             01341440
035950*****------------------------------------------------------------*01341440
035960*****                                                             01341440
035970*****IF  DENTAL-COVEND-DATE  = XDTS-ISO-ZERO-DATE                 01341440
035980*****AND EDEP-DEP-DENTL-COVENDDT (NUM-DEP-ENTRIES)                01341440
035990*****                        = XDTS-ISO-ZERO-DATE                 01341440
035991*****    SET COUNT-THIS-DEPENDENT TO TRUE                         01341440
035992*****ELSE                                                         01341440
035993*****   IF  DENTAL-COVEND-DATE NOT = XDTS-ISO-ZERO-DATE           01341440
035994*****   AND EDEP-DEP-DENTL-COVENDDT (NUM-DEP-ENTRIES)             01341440
035995*****                           = XDTS-ISO-ZERO-DATE              01341440
035996*****      IF EDEP-DEP-DENTL-COVEFFDT (NUM-DEP-ENTRIES)           01341440
035997*****                                 < DENTAL-COVEND-DATE        01341440
035998*****         SET COUNT-THIS-DEPENDENT TO TRUE                    01341440
035999*****      END-IF                                                 01341440
036000*****   ELSE                                                      01341440
036001*****      IF  DENTAL-COVEND-DATE = XDTS-ISO-ZERO-DATE            01341440
036002*****      AND EDEP-DEP-DENTL-COVENDDT (NUM-DEP-ENTRIES)          01341440
036003*****                          NOT = XDTS-ISO-ZERO-DATE           01341440
036004*****          IF EDEP-DEP-DENTL-COVENDDT (NUM-DEP-ENTRIES)       01341440
036005*****                           >= WS-TODAYS-DATE-ISO             01341440
036006*****             SET COUNT-THIS-DEPENDENT TO TRUE                01341440
036007*****          END-IF                                             01341440
036008*****      ELSE                                                   01341440
036009*****         IF  DENTAL-COVEND-DATE NOT = XDTS-ISO-ZERO-DATE     01341440
036010*****         AND EDEP-DEP-DENTL-COVENDDT (NUM-DEP-ENTRIES)       01341440
036011*****                                NOT = XDTS-ISO-ZERO-DATE     01341440
036012*****             IF EDEP-DEP-DENTL-COVENDDT (NUM-DEP-ENTRIES)    01341440
036013*****                                >= WS-TODAYS-DATE-ISO        01341440
036014*****             AND EDEP-DEP-DENTL-COVEFFDT (NUM-DEP-ENTRIES)   01341440
036015*****                                 < DENTAL-COVEND-DATE        01341440
036016*****                 SET COUNT-THIS-DEPENDENT TO TRUE            01341440
036017*****             END-IF                                          01341440
036018*****         END-IF                                              01341440
036019*****      END-IF                                                 01341440
036020*****   END-IF                                                    01341440
036021*****END-IF.                                                      01341440
046291                                                                  PPEC723
046292     EJECT                                                        PPEC723
046293*----------------------------------------------------------------*PPEC723
046294 2000-DERIVE-DENTAL-COVERAGE         SECTION.                     PPEC723
046295*----------------------------------------------------------------*PPEC723
046296                                                                  PPEC723
046297     MOVE DENTAL-COVERAGE TO HOLD-COVERAGE-CODE-IND.              PPEC723
036700*****MOVE SPACES         TO  DERIVED-DENTAL-COVERAGE-IND.         01341440
036710     MOVE KCV2-COV-CODE  TO  DERIVED-DENTAL-COVERAGE-IND.         01341440
046299                                                                  PPEC723
036900*****EVALUATE     TRUE                                            01341440
037000*****                                                             01341440
037100*****   WHEN     (EDEP-DEP-ENROLLED-DENTAL = ZERO)                01341440
037200*****        IF DENTAL-PLAN NOT = SPACES                          01341440
037210*****        AND  DENTAL-PLAN NOT = ('XX' AND 'XC' AND 'XD')      01341440
037300*****           MOVE 'U  ' TO DERIVED-DENTAL-COVERAGE-IND         01341440
037400*****        ELSE                                                 01341440
037500*****           MOVE '   ' TO DERIVED-DENTAL-COVERAGE-IND         01341440
037600*****        END-IF                                               01341440
037700*****                                                             01341440
037800*****   WHEN     (EDEP-DEP-ENROLLED-DENTAL =  1)                  01341440
037900*****        MOVE 'UU ' TO DERIVED-DENTAL-COVERAGE-IND            01341440
038000*****                                                             01341440
038100*****   WHEN     (EDEP-DEP-ENROLLED-DENTAL  > 1)                  01341440
038200*****        MOVE 'UUU' TO DERIVED-DENTAL-COVERAGE-IND            01341440
038300*****                                                             01341440
038400*****END-EVALUATE.                                                01341440
046301                                                                  PPEC723
046317*----------------------------------------------------------------*PPEC723
046318*======> AT THIS POINT COMPARE DERIVED COVERAGE LEVEL             PPEC723
046319*======> TO ORIGINAL COVERAGE LEVEL.                              PPEC723
046320*----------------------------------------------------------------*PPEC723
046321     IF  DERIVED-DENTAL-COVERAGE-IND NOT = DENTAL-COVERAGE        PPEC723
046322         MOVE DERIVED-DENTAL-COVERAGE-IND TO DENTAL-COVERAGE      PPEC723
046330         MOVE E0273 TO DL-FIELD                                   PPEC723
046400         PERFORM 9050-AUDITING-RESPONSIBILITIES                   PPEC723
074547                                                                  PPEC723
074551         MOVE HIGH-VALUES TO EARLIEST-ISO-DCED-DATE               28521025
039610         MOVE LOW-VALUES  TO LATEST-ISO-DCED-DATE                 54541281
074552         IF    KRMI-REQUESTED-BY-08                               PPEC723
074553            OR KRMI-REQUESTED-BY-12                               PPEC723
074554            OR (KRMI-REQUESTED-BY-13 AND                          32591157
074555               SCR-SPEC-PROCESS = '5')                            32591157
074554               PERFORM  3100-GET-EARLIEST-DCED-DATE               PPEC723
074555         END-IF                                                   PPEC723
074560                                                                  PPEC723
074561*----------------------------------------------------------------*PPEC723
074563*======>  IF EARLIEST-ISO-DCED-DATE STILL HAS HIGH-VALUES, THEN   28521025
040600*======>     THERE MUST BE NO ADDS, BUT SOME DE-ENROLLMENTS.      54541281
040610*======>     IF DE-ENROLLMENT IS FROM DELETING THE DEP RECORD OR  54541281
040620*======>     INITIALIZING THE DCED, THEN MOVE TODAY'S DATE TO     54541281
040630*======>     EARLIEST-ISO-DCED-DATE. IF DE-ENROLLMENT IS CAUSED BY54541281
040640*======>     DEP END DATES, THEN THE LATER OF THE (DEP COV END    54541281
040650*======>     DATE + 1 DAY) IS MOVED TO EARLIEST-ISO-DCED-DATE.    54541281
074566*----------------------------------------------------------------*PPEC723
041500*****                                                          CD 01341440
041710         IF EARLIEST-ISO-DCED-DATE = HIGH-VALUES                  54541281
041720            IF DEP-DEENROLL-DENTAL                                54541281
041730               MOVE WS-TODAYS-DATE-ISO  TO EARLIEST-ISO-DCED-DATE 54541281
041740               ADD 1        TO KMTA-CTR                           54541281
041750               MOVE WS-ROUTINE-TYPE                               54541281
041760                          TO KMTA-ROUTINE-TYPE      (KMTA-CTR)    54541281
041770               MOVE WS-ROUTINE-NUM                                54541281
041780                          TO KMTA-ROUTINE-NUM       (KMTA-CTR)    54541281
041790                                                                  54541281
041791               IF KRMI-REQUESTED-BY-08                            54541281
041792                   MOVE M08577 TO KMTA-MSG-NUMBER     (KMTA-CTR)  54541281
041793               ELSE                                               54541281
041794                   IF KRMI-REQUESTED-BY-12                        54541281
041795                      MOVE M12577 TO KMTA-MSG-NUMBER (KMTA-CTR)   54541281
041796                   ELSE                                           54541281
041797                      MOVE M13577 TO KMTA-MSG-NUMBER (KMTA-CTR)   54541281
041798                   END-IF                                         54541281
041799                END-IF                                            54541281
041800            ELSE                                                  54541281
041801               IF LATEST-ISO-DCED-DATE NOT = LOW-VALUES           54541281
041802                  MOVE LATEST-ISO-DCED-DATE TO XDC3-ISO-DATE      54541281
041803                  PERFORM XDC3-CONVERT-ISO-TO-LILIAN              54541281
041804                  ADD 1 TO XDC3-LILIAN-DATE                       54541281
041805                  PERFORM XDC3-CONVERT-LILIAN-TO-ISO              54541281
041806                  MOVE XDC3-ISO-DATE TO EARLIEST-ISO-DCED-DATE    54541281
041807               END-IF                                             54541281
041808            END-IF                                                54541281
041809         END-IF                                                   54541281
074572                                                                  PPEC723
074573*----------------------------------------------------------------*PPEC723
074574*======> IF EXISTING EMPLOYEE IS ENROLLING IN PLAN OR CHGING PCED,PPEC723
074575*======> THEN PCED IS ENTERED BY USER AND SHOULD NOT BE DERIVED INPPEC723
074576*======> THIS PROGRAM. FOR NEW HIRES, PCED = BELI EFF DATE.       PPEC723
074577*======> SO, TURN OFF THE PROCEED-TO-CHANGE-PCED SWITCH.          PPEC723
074578*----------------------------------------------------------------*PPEC723
074588         IF       (DENTAL-PLAN   NOT = SPACES                     PPEC723
074589               AND SAVE-DENTAL-PLAN  = SPACES)                    PPEC723
074591            OR    (SAVE-DENTAL-COVEFFDATE NOT = XDTS-ISO-ZERO-DATE28521025
074591               AND DENTAL-COVEFFDATE NOT = SAVE-DENTAL-COVEFFDATE)PPEC723
074592               MOVE SPACES TO INITIAL-PCED-CHG-SW                 PPEC723
074593         END-IF                                                   PPEC723
074594                                                                  PPEC723
074597         IF    (KRMI-REQUESTED-BY-13   AND                        32591173
074598               SCR-SPEC-PROCESS NOT = '5')                        32591173
074596             OR   PROCEED-TO-CHANGE-PCED                          PPEC723
074597                  PERFORM 3000-DERIVE-DENTAL-PCED                 PPEC723
074598         END-IF                                                   PPEC723
074599                                                                  PPEC723
074600     END-IF.                                                      PPEC723
074653                                                                  PPEC723
074654     EJECT                                                        PPEC723
044210*----------------------------------------------------------------*32181188
044220 2200-DERIVE-DENTAL-WODD             SECTION.                     32181188
044230*----------------------------------------------------------------*32181188
044240                                                                  32181188
044251     MOVE DENTAL-COVERAGE TO HOLD-COVERAGE-CODE-IND.              32181188
044260*****MOVE SPACES TO  DERIVED-DENTAL-COVERAGE-IND.                 01341440
044261     MOVE KCV2-COV-CODE-WOD TO  DERIVED-DENTAL-COVERAGE-IND.      01341440
044270*****                                                             01341440
044280*****EVALUATE     TRUE                                            01341440
044290*****   WHEN     (DEP-ENROLLED-DENTAL-WODD = ZERO)                01341440
044291*****        IF DENTAL-PLAN NOT = SPACES                          01341440
044292*****        AND  DENTAL-PLAN NOT = ('XX' AND 'XC' AND 'XD')      01341440
044293*****           MOVE 'U  ' TO DERIVED-DENTAL-COVERAGE-IND         01341440
044294*****        ELSE                                                 01341440
044295*****           MOVE '   ' TO DERIVED-DENTAL-COVERAGE-IND         01341440
044296*****        END-IF                                               01341440
044297*****   WHEN     (DEP-ENROLLED-DENTAL-WODD =  1)                  01341440
044298*****        MOVE 'UU ' TO DERIVED-DENTAL-COVERAGE-IND            01341440
044299*****   WHEN     (DEP-ENROLLED-DENTAL-WODD  > 1)                  01341440
044300*****        MOVE 'UUU' TO DERIVED-DENTAL-COVERAGE-IND            01341440
044301*****END-EVALUATE.                                                01341440
044270                                                                  32181188
044304     IF DERIVED-DENTAL-COVERAGE-IND NOT = DENTAL-COVERAGE         32181188
044305        MOVE DERIVED-DENTAL-COVERAGE-IND TO DEN-COVERAGE-WODD     32181188
044306******* PERFORM 2250-X-DEN-WODD                                   01341440
044307     ELSE                                                         32181188
044308        MOVE SPACES TO DEN-COVERAGE-WODD                          32181188
044309     END-IF.                                                      32181188
044310     IF DEN-COVERAGE-WODD NOT = SAVE-DEN-COVERAGE-WODD            32181188
044312        MOVE E0285 TO DL-FIELD                                    32181188
044313        PERFORM 9050-AUDITING-RESPONSIBILITIES                    32181188
044314     END-IF.                                                      32181188
044315*****------------------------------------------------------------*01341440
044316*2250-X-DEN-WODD                     SECTION.                     01341440
044317*****------------------------------------------------------------*01341440
044318*****RK WOD COVERAGE TO INDICATE MISSING COVERAGE. X INDICATES U *01341440
044319*****IF DEN-COVERAGE-WODD (2:1) = SPACE                           01341440
044320*****AND DENTAL-COVERAGE (2:1) = 'U'                              01341440
044321*****   MOVE 'X' TO DEN-COVERAGE-WODD (2:1)                       01341440
044322*****END-IF.                                                      01341440
044323*****IF DEN-COVERAGE-WODD (3:1) = SPACE                           01341440
044324*****AND DENTAL-COVERAGE (3:1) = 'U'                              01341440
044325*****   MOVE 'X' TO DEN-COVERAGE-WODD (3:1)                       01341440
044326*****END-IF.                                                      01341440
044335*****------------------------------------------------------------*01341440
044337     EJECT                                                        32181188
074655*----------------------------------------------------------------*PPEC723
074660 3000-DERIVE-DENTAL-PCED    SECTION.                              PPEC723
074700*----------------------------------------------------------------*PPEC723
075031                                                                  PPEC723
075040*----------------------------------------------------------------*PPEC723
075041*======> FROM FILE MAINTENANCE, COVERAGE LEVEL EITHER UP/DOWN.   *PPEC723
075042*======> FROM PERIODIC MAINTENANCE, COVERAGE LEVEL DOWN ONLY.    *PPEC723
075043*----------------------------------------------------------------*PPEC723
075046                                                                  PPEC723
075068     IF  EARLIEST-ISO-DCED-DATE NOT = DENTAL-COVEFFDATE           28521025
046100*****                                                          CD 01341440
046410         IF EARLIEST-ISO-DCED-DATE >  DENTAL-COVEFFDATE           54541281
046420            MOVE EARLIEST-ISO-DCED-DATE TO DENTAL-COVEFFDATE      54541281
046430            MOVE E0274 TO DL-FIELD                                54541281
046440            PERFORM 9050-AUDITING-RESPONSIBILITIES                54541281
046450         END-IF                                                   54541281
075073     END-IF.                                                      28521025
075066     EJECT                                                        PPEC723
075067*----------------------------------------------------------------*PPEC723
075068 3100-GET-EARLIEST-DCED-DATE SECTION.                             PPEC723
075069*----------------------------------------------------------------*PPEC723
075070                                                                  PPEC723
075071*----------------------------------------------------------------*PPEC723
075072*- WHEN PROCESS IS FROM REGULAR FILE MAINTENANCE, WE NEED TO    -*PPEC723
075073*- DETERMINE THE EARLIEST DCED DATE FOR MULTIPLE ADDED DEPENDENTS*PPEC723
075074*- IF ONLY ONE DEPENDENT ADDED, THEN DCED WILL BE THE EARLIEST. -*PPEC723
075075*-                                                              -*PPEC723
075076*- CHANGE THE PCED, BUT ONLY FOR ACTUAL ADDS AND/OR DELETES.    -*PPEC723
075077*- SO WE WILL SET A SWITCH IN THIS SECTION TO SIGNAL PCED CHG.  -*PPEC723
075078*- THIS WILL PREVENT THE PCED FROM CHANGING WHEN EXPLICIT       -*PPEC723
075079*- BIRTH DATE OR DISABLED CODE HAS CHANGED AND DE-ENROLLMENT    -*PPEC723
075080*- IND IS 'D'  BECAUSE ORIGINAL PCED CAN'T BE DETERMINED.       -*PPEC723
075081*----------------------------------------------------------------*PPEC723
075082                                                                  PPEC723
075084     MOVE SPACE  TO INITIAL-PCED-CHG-SW.                          PPEC723
048310     SET DEP-DEENROLL-DENTAL-INITIAL TO TRUE.                     54541281
075085                                                                  PPEC723
075086     PERFORM                                                      PPEC723
075087      VARYING ENTRY-X FROM +1 BY +1                               PPEC723
075088        UNTIL ENTRY-X > NUM-DEP-ENTRIES                           PPEC723
075089                                                                  PPEC723
075098        IF  EDEP-DEP-DENTL-COVEFFDT (ENTRY-X)                     28521025
075099                                        NOT = XDTS-ISO-ZERO-DATE  28521025
075091                                                                  PPEC723
049110            IF   ENTRY-X  <= HOLD-NUM-DEP-ENTRIES                 54541281
049111                 IF  (EDEP-DEP-DENTL-COVEFFDT (ENTRY-X)           54541281
049112                                  NOT = XDTS-ISO-ZERO-DATE        54541281
049113                 AND  EDEP-DEP-DENTL-COVENDDT (ENTRY-X)           54541281
049114                                      = XDTS-ISO-ZERO-DATE        54541281
049115                 AND  HOLD-DEP-DENTL-COVEFFDT (ENTRY-X)           54541281
049116                                      = XDTS-ISO-ZERO-DATE)       54541281
049117                     SET PROCEED-TO-CHANGE-PCED TO TRUE           54541281
049118                     IF  EDEP-DEP-DENTL-COVEFFDT (ENTRY-X)        54541281
049119                                  < EARLIEST-ISO-DCED-DATE        54541281
049120                         MOVE EDEP-DEP-DENTL-COVEFFDT (ENTRY-X)   54541281
049121                                       TO EARLIEST-ISO-DCED-DATE  54541281
049122                     END-IF                                       54541281
049123                 ELSE                                             54541281
049124                    IF   EDEP-DEP-DENTL-COVENDDT (ENTRY-X)        54541281
049130                                  NOT = XDTS-ISO-ZERO-DATE        54541281
049131                    AND  EDEP-DEP-DENTL-COVENDDT (ENTRY-X)        54541281
049132                           NOT = HOLD-DEP-DENTL-COVENDDT (ENTRY-X)54541281
049140                    AND  EDEP-DEP-DENTL-COVENDDT (ENTRY-X)        54541281
049150                                  <  WS-TODAYS-DATE-ISO           54541281
049160                         IF EDEP-DEP-DENTL-COVENDDT (ENTRY-X)     54541281
049170                                  > LATEST-ISO-DCED-DATE          54541281
049180                            SET PROCEED-TO-CHANGE-PCED TO TRUE    54541281
049190                            MOVE EDEP-DEP-DENTL-COVENDDT (ENTRY-X)54541281
049191                                       TO LATEST-ISO-DCED-DATE    54541281
049192                         END-IF                                   54541281
049193                    END-IF                                        54541281
049194                 END-IF                                           54541281
049195            ELSE                                                  54541281
049196*===========>  CHECK FOR NEW DEPENDENTS                           54541281
049197                IF   (ENTRY-X  >  HOLD-NUM-DEP-ENTRIES)           54541281
049198                     OR  (EDEP-DEP-DENTL-COVEFFDT (ENTRY-X)       54541281
049199                                  NOT = XDTS-ISO-ZERO-DATE        54541281
049200                     AND  HOLD-DEP-DENTL-COVEFFDT (ENTRY-X)       54541281
049201                                      = XDTS-ISO-ZERO-DATE)       54541281
049202                     SET PROCEED-TO-CHANGE-PCED TO TRUE           54541281
049203                     IF  EDEP-DEP-DENTL-COVEFFDT (ENTRY-X)        54541281
049204                                  < EARLIEST-ISO-DCED-DATE        54541281
049205                         MOVE EDEP-DEP-DENTL-COVEFFDT (ENTRY-X)   54541281
049206                                       TO EARLIEST-ISO-DCED-DATE  54541281
049207                     END-IF                                       54541281
049208                END-IF                                            54541281
049209             END-IF                                               54541281
049210*****                                                          CD 01341440
075112        ELSE                                                      PPEC723
075113           IF  EDEP-DEP-ADC-CODE (ENTRY-X) = 'D'                  PPEC723
075114               SET PROCEED-TO-CHANGE-PCED TO TRUE                 PPEC723
051710               SET DEP-DEENROLL-DENTAL TO TRUE                    54541281
075115           ELSE                                                   PPEC723
075116               IF  EDEP-DEP-ADC-CODE (ENTRY-X) = 'C'              PPEC723
075117                  AND EDEP-DEP-DENTL-COVEFFDT (ENTRY-X)           PPEC723
075130                                           = XDTS-ISO-ZERO-DATE   28521025
075119                  AND HOLD-DEP-DENTL-COVEFFDT (ENTRY-X)           PPEC723
075133                                      NOT  = XDTS-ISO-ZERO-DATE   28521025
075121                  SET PROCEED-TO-CHANGE-PCED TO TRUE              PPEC723
052610                  SET DEP-DEENROLL-DENTAL TO TRUE                 54541281
075122               END-IF                                             PPEC723
075123           END-IF                                                 PPEC723
075124                                                                  PPEC723
075125        END-IF                                                    PPEC723
075126                                                                  PPEC723
075130     END-PERFORM.                                                 PPEC723
075200     EJECT                                                        PPEC723
136100*----------------------------------------------------------------*PPEC723
136200 9050-AUDITING-RESPONSIBILITIES  SECTION.                         PPEC723
136300*----------------------------------------------------------------*PPEC723
136400                                                                  PPEC723
136500*                                                 *-------------* PPEC723
136600                                                   COPY CPPDXDEC. PPEC723
136700*                                                 *-------------* PPEC723
136800                                                                  PPEC723
054910*----------------------------------------------------------------*54541281
054920 9300-DATE-CONVERSION-DB2  SECTION.                               54541281
054930*----------------------------------------------------------------*54541281
054940                                                                  54541281
054950*                                                 *-------------* 54541281
054960                                                   COPY CPPDXDC3. 54541281
054970*                                                 *-------------* 54541281
147900******************************************************************PPEC723
148000**   E N D  S O U R C E   ----  PPEC723 ----                    **PPEC723
148100******************************************************************PPEC723
