000000**************************************************************/   05911531
000001*  PROGRAM: PPEI199                                          */   05911531
000002*  RELEASE: ___1531______ SERVICE REQUEST(S): ____80591____  */   05911531
000003*  NAME:_______QUAN______ MODIFICATION DATE:  ___10/22/03__  */   05911531
000004*  DESCRIPTION:                                              */   05911531
000005*  - CHANGED LEGAL PLAN J1 TO J2.                            */   05911531
000007**************************************************************/   05911531
000000**************************************************************/   01941440
000001*  PROGRAM: PPEI199                                          */   01941440
000002*  RELEASE: ___1440______ SERVICE REQUEST(S): ____80194____  */   01941440
000003*  NAME:__PHIL THOMPSON__ MODIFICATION DATE:  ___11/08/02__  */   01941440
000004*  DESCRIPTION:                                              */   01941440
000005*  - ADDED NEW BLUE CROSS MEDICAL PLAN CODES TO SUSPENDED    */   01941440
000006*    BALANCE DELETION.                                       */   01941440
000009**************************************************************/   01941440
000076**************************************************************/   74221352
000077*  PROGRAM: PPEI199                                          */   74221352
000078*  RELEASE: ___1352______ SERVICE REQUEST(S): ____17422____  */   74221352
000079*  NAME:__PHIL THOMPSON__ MODIFICATION DATE:  ___06/15/01__  */   74221352
000080*  DESCRIPTION:                                              */   74221352
000081*  - DO NOT ZERO GTN BALANCES FOR GTN'S IDENTIFIED ON THE    */   74221352
000082*    BUT TABLE FOR UDUE RETENTION                            */   74221352
000083**************************************************************/   74221352
000000**************************************************************/   54541281
000001*  PROGRAM: PPEI199                                          */   54541281
000002*  RELEASE: ___1281______ SERVICE REQUEST(S): ____15454____  */   54541281
000003*  NAME:_______QUAN______ MODIFICATION DATE:  ___11/05/99__  */   54541281
000004*  DESCRIPTION:                                              */   54541281
000005*  - INITIALIZE THE BENEFIT COVERAGE END DATE FOR MEDICAL,   */   54541281
000006*    DENTAL, VISION, AND LEGAL PLANS WHEN DEENROLLING.       */   54541281
000007**************************************************************/   54541281
000000**************************************************************/   28521025
000001*  PROGRAM: PPEI199                                          */   28521025
000002*  RELEASE: ___1025______ SERVICE REQUEST(S): ____12852____  */   28521025
000003*  NAME:_______QUAN______ MODIFICATION DATE:  ___08/01/95__  */   28521025
000004*  DESCRIPTION:                                              */   28521025
000005*  - DATE CONVERSION PROJECT:                                */   28521025
000006*    DATE COMPARISON LOGIC HAS BEEN MODIFIED TO INCLUDE THE  */   28521025
000007*    CENTURY IN THE DATE COMPARE.                            */   28521025
000008**************************************************************/   28521025
000101**************************************************************/   36430795
000200*  PROGRAM: PPEI199                                          */   36430795
000300*  RELEASE: ___0795______ SERVICE REQUEST(S): _____3643____  */   36430795
000400*  NAME:_______PXP_______ MODIFICATION DATE:  __07/15/93____ */   36430795
000500*  DESCRIPTION:                                              */   36430795
000600*  CHANGED TO CALL DATANAME FOR DUAL USE                     */   36430795
000700**************************************************************/   36430795
000703**************************************************************/   05550788
000704*  PROGRAM: PPEI199                                          */   05550788
000705*  RELEASE: ___0788______ SERVICE REQUEST(S): ____10555____  */   05550788
000706*  NAME:__PHIL THOMPSON__ MODIFICATION DATE:  ___06/29/93__  */   05550788
000707*  DESCRIPTION:                                              */   05550788
000708*    INITIALIZE MED-PROVIDER-ID OR DEN-PROVIDER-ID WHEN      */   05550788
000709*    DE-ENROLLING FROM RELATED PLAN.                         */   05550788
000710**************************************************************/   05550788
000712**************************************************************/   36260760
000713*  PROGRAM: PPEI199                                          */   36260760
000714*  RELEASE: ___0760______ SERVICE REQUEST(S): _____3626____  */   36260760
000715*  NAME:__PHIL THOMPSON__ MODIFICATION DATE:  ___04/30/93__  */   36260760
000716*  DESCRIPTION:                                              */   36260760
000717*    WHEN DE-ENROLLING FROM PLANS RELATED TO BENEFITS        */   36260760
000718*    MEMBERSHIP, ALSO INITIALIZE THE EMPLOYEE COVERAGE       */   36260760
000719*    EFFECTIVE DATE (ECED) AND DEPENDENT COVERAGE EFFECTIVE  */   36260760
000720*    DATES (DCED).                                           */   36260760
000721**************************************************************/   36260760
000722**************************************************************/   12640734
000723*  PROGRAM: PPEI199                                          */   12640734
000724*  RELEASE: ___0734______ SERVICE REQUEST(S): ____11264____  */   12640734
000725*  NAME:_____M. SANO_____ MODIFICATION DATE:  ___01/11/93__  */   12640734
000726*  DESCRIPTION:                                              */   12640734
000727*  - IF ALL DEDUCTION G BALANCES ARE BEING ZEROED OUT BECAUSE*/   12640734
000728*    ALL BENEFITS ARE BEING DE-ENROLLED, THEN MOVE THE       */   12640734
000800*    AFT G BALANCE TO A U BALANCE BEFORE ZEROING IT OUT.     */   12640734
000900*  - INCORRECT COMMENTS MODIFIED.                            */   12640734
001000**************************************************************/   12640734
001100**************************************************************/   36410733
001200*  PROGRAM: PPEI199                                          */   36410733
001300*  RELEASE: ___0733______ SERVICE REQUEST(S): _____3641____  */   36410733
001400*  NAME:__PHIL THOMPSON__ MODIFICATION DATE:  ___01/28/93__  */   36410733
001500*  DESCRIPTION:                                              */   36410733
001600*     ERROR REPORT 900:                                      */   36410733
001700*     PERFORM ZEROING DEDUCTIONS EXCEEDED RANGE, SINCE INCRE-*/   36410733
001800*     MENTED INSIDE PERFORM. CHANGE > TO = IN PERFORM TEST   */   36410733
001810**************************************************************/   36410733
001900*----------------------------------------------------------------*36410717
002000*|**************************************************************|*36410717
002100*|* PROGRAM: PPEI199                                           *|*36410717
002200*|*  RELEASE: __0717_______ SERVICE REQUEST(S): _____3641____  *|*36410717
002300*|*  NAME:______UCOP_______ MODIFICATION DATE:  ___11/19/92__  *|*36410717
002400*|*  DESCRIPTION:                                              *|*36410717
002500*|*  - EDB MAINTENANCE RE-ENGINEERING PROJECT                  *|*36410717
002600*|*    PAYROLL BENEFIT DE-ENROLLMENTS                          *|*36410717
002700*|**************************************************************|*36410717
002800*----------------------------------------------------------------*36410717
002900                                                                  PPEI199
003000 IDENTIFICATION DIVISION.                                         PPEI199
003100 PROGRAM-ID. PPEI199.                                             PPEI199
003200 AUTHOR. BUSINESS INFORMATION TECHNOLOGY.                         PPEI199
003300 INSTALLATION. UNIVERSITY OF CALIFORNIA.                          PPEI199
003400                                                                  PPEI199
003500 DATE-WRITTEN.  AUGUST 27,1992.                                   PPEI199
003600 DATE-COMPILED.                                                   PPEI199
003700                                                                  PPEI199
003800 ENVIRONMENT DIVISION.                                            PPEI199
003900 CONFIGURATION SECTION.                                           PPEI199
004000 SOURCE-COMPUTER.                       COPY CPOTXUCS.            PPEI199
004100 OBJECT-COMPUTER.                       COPY CPOTXOBJ.            PPEI199
004200 SPECIAL-NAMES.                C01 IS NEW-PAGE.                   PPEI199
004300                                                                  PPEI199
004400 INPUT-OUTPUT SECTION.                                            PPEI199
004500 FILE-CONTROL.                                                    PPEI199
004600                                                                  PPEI199
004700 DATA DIVISION.                                                   PPEI199
004800 FILE SECTION.                                                    PPEI199
004900     EJECT                                                        PPEI199
005000*----------------------------------------------------------------*PPEI199
005100 WORKING-STORAGE SECTION.                                         PPEI199
005200*----------------------------------------------------------------*PPEI199
005300                                                                  PPEI199
005400 01  A-STND-PROG-ID                   PIC X(15) VALUE             PPEI199
005500*****                                                          CD 05911531
005540*****'PPEI199 /110802'.                                           05911531
005550     'PPEI199 /110103'.                                           05911531
005600                                                                  PPEI199
005700 01  A-STND-MSG-PARMS                 REDEFINES                   PPEI199
005800     A-STND-PROG-ID.                                              PPEI199
005900     05  FILLER                       PIC X(03).                  PPEI199
006000     05  WS-ROUTINE-TYPE              PIC X(01).                  PPEI199
006100     05  WS-ROUTINE-NUM               PIC 9(03).                  PPEI199
006200     05  FILLER                       PIC X(08).                  PPEI199
008010                                                                  36430795
008020 01  CALLED-MODULES.                               COPY CPWSXRTN. 36430795
008022                                                                  PPEI199
008023 01  MESSAGES-USED.                                               PPEI199
008024     05  M12022                PIC 9(05)  VALUE 12022.            PPEI199
008025     05  M12030                PIC 9(05)  VALUE 12030.            PPEI199
008026     05  M12031                PIC 9(05)  VALUE 12031.            PPEI199
008027     05  M12033                PIC 9(05)  VALUE 12033.            PPEI199
008028     05  M12034                PIC 9(05)  VALUE 12034.            PPEI199
008029     05  M12035                PIC 9(05)  VALUE 12035.            PPEI199
008030     05  M12036                PIC 9(05)  VALUE 12036.            PPEI199
008031     05  M12037                PIC 9(05)  VALUE 12037.            PPEI199
008032     05  M12038                PIC 9(05)  VALUE 12038.            PPEI199
008033     05  M12359                PIC X(05) VALUE '12359'.           74221352
008037 01  PPDUEUTL-INTERFACE.                           COPY CPLNKDUE. 74221352
008038     EJECT                                                        74221352
008033                                                                  PPEI199
008034 01  ELEMENTS-USED.                                               PPEI199
008035     05  E0155                 PIC 9(04)  VALUE 0155.             PPEI199
008036     05  E0156                 PIC 9(04)  VALUE 0156.             PPEI199
008037     05  E0158                 PIC 9(04)  VALUE 0158.             PPEI199
008038     05  E0159                 PIC 9(04)  VALUE 0159.             PPEI199
008039     05  E0165                 PIC 9(04)  VALUE 0165.             PPEI199
008100     05  E0166                 PIC 9(04)  VALUE 0166.             PPEI199
008200     05  E0187                 PIC 9(04)  VALUE 0187.             PPEI199
008300     05  E0188                 PIC 9(04)  VALUE 0188.             PPEI199
008400     05  E0231                 PIC 9(04)  VALUE 0231.             PPEI199
008500     05  E0232                 PIC 9(04)  VALUE 0232.             PPEI199
008600     05  E0233                 PIC 9(04)  VALUE 0233.             PPEI199
008700     05  E0234                 PIC 9(04)  VALUE 0234.             PPEI199
008800     05  E0271                 PIC 9(04)  VALUE 0271.             54541281
008800     05  E0272                 PIC 9(04)  VALUE 0272.             PPEI199
008900     05  E0273                 PIC 9(04)  VALUE 0273.             PPEI199
009000     05  E0274                 PIC 9(04)  VALUE 0274.             PPEI199
009100     05  E0275                 PIC 9(04)  VALUE 0275.             PPEI199
009200     05  E0276                 PIC 9(04)  VALUE 0276.             PPEI199
009300     05  E0277                 PIC 9(04)  VALUE 0277.             PPEI199
009400     05  E0278                 PIC 9(04)  VALUE 0278.             PPEI199
009500     05  E0280                 PIC 9(04)  VALUE 0280.             PPEI199
009600     05  E0281                 PIC 9(04)  VALUE 0281.             PPEI199
009700     05  E0282                 PIC 9(04)  VALUE 0282.             PPEI199
009800     05  E0292                 PIC 9(04)  VALUE 0292.             PPEI199
009900     05  E0293                 PIC 9(04)  VALUE 0293.             PPEI199
010000     05  E0294                 PIC 9(04)  VALUE 0294.             PPEI199
010010     05  E0300                 PIC 9(04)  VALUE 0300.             54541281
010020     05  E0346                 PIC 9(04)  VALUE 0346.             54541281
010100     05  E0347                 PIC 9(04)  VALUE 0347.             PPEI199
010200     05  E0348                 PIC 9(04)  VALUE 0348.             PPEI199
010300     05  E0349                 PIC 9(04)  VALUE 0349.             PPEI199
010400     05  E0353                 PIC 9(04)  VALUE 0353.             PPEI199
010500     05  E0354                 PIC 9(04)  VALUE 0354.             PPEI199
010600     05  E0355                 PIC 9(04)  VALUE 0355.             PPEI199
010700     05  E0377                 PIC 9(04)  VALUE 0377.             PPEI199
010800     05  E0378                 PIC 9(04)  VALUE 0378.             PPEI199
010900     05  E0379                 PIC 9(04)  VALUE 0379.             PPEI199
010901     05  E0380                 PIC 9(04)  VALUE 0380.             54541281
010910     05  E0454                 PIC 9(04)  VALUE 0454.             36260760
010920     05  E0455                 PIC 9(04)  VALUE 0455.             36260760
010930     05  E0456                 PIC 9(04)  VALUE 0456.             36260760
010940     05  E0457                 PIC 9(04)  VALUE 0457.             36260760
010950     05  E0653                 PIC 9(04)  VALUE 0653.             05550788
010960     05  E0654                 PIC 9(04)  VALUE 0654.             05550788
011000     05  E6000                 PIC 9(04)  VALUE 6000.             PPEI199
011100                                                                  PPEI199
011210 01  MISC-WORK-AREAS.                                             PPEI199
011300     05  FIRST-TIME-SW        PIC X(01) VALUE LOW-VALUES.         PPEI199
011400         88  THIS-IS-THE-FIRST-TIME            VALUE LOW-VALUES.  PPEI199
011500         88  NOT-THE-FIRST-TIME                VALUE 'Y'.         PPEI199
011600     05  BALANCE-INDX         PIC S9(4) COMP      VALUE ZERO.     PPEI199
011700     05  ELEMENT-INDX         PIC S9(4) COMP      VALUE ZERO.     PPEI199
013100                                                                  PPEI199
013200 01  GTN-WORK-AREAS.                                              PPEI199
013300     03  DSA-MAX-BAL-TYP                     PIC S9(3) VALUE +008.PPEI199
013400     03  DSA-BALANCE-TYPES  COMP-3.                               PPEI199
013500         05  DSA-GTN-P                       PIC S9(4) VALUE +001.PPEI199
013600         05  DSA-SUSP-P                      PIC S9(4) VALUE +002.PPEI199
013700         05  DSA-QTD-P                       PIC S9(4) VALUE +003.PPEI199
013800         05  DSA-DECL-P                      PIC S9(4) VALUE +004.PPEI199
013900         05  DSA-YTD-P                       PIC S9(4) VALUE +005.PPEI199
014000         05  DSA-ETD-P                       PIC S9(4) VALUE +006.PPEI199
014100         05  DSA-FTD-P                       PIC S9(4) VALUE +007.PPEI199
014200         05  DSA-USER-P                      PIC S9(4) VALUE +008.PPEI199
014300     03  GTN-NUMBERS         COMP.                                PPEI199
014400         05  AD-D-GTN-NO                     PIC S9(4) VALUE +040.PPEI199
014500*****    05  HLTH-BC-GTN-NO                  PIC S9(4) VALUE +041.01941440
014600         05  DEP-LI-GTN-NO                   PIC S9(4) VALUE +043.PPEI199
014700         05  HLTH-FN-GTN-NO                  PIC S9(4) VALUE +044.PPEI199
014800         05  HLTH-PH-GTN-NO                  PIC S9(4) VALUE +045.PPEI199
014900         05  HLTH2-PH-GTN-NO                 PIC S9(4) VALUE +045.PPEI199
015000         05  HLTH-KN-GTN-NO                  PIC S9(4) VALUE +047.PPEI199
015100         05  HLTH-KS-GTN-NO                  PIC S9(4) VALUE +048.PPEI199
015200         05  LI-GTN-NO                       PIC S9(4) VALUE +050.PPEI199
015300         05  HLTH-HA-GTN-NO                  PIC S9(4) VALUE +053.PPEI199
015400         05  HLTH-NA-GTN-NO                  PIC S9(4) VALUE +061.PPEI199
015500         05  HLTH-HN-GTN-NO                  PIC S9(4) VALUE +062.PPEI199
015600         05  DNTL-D1-GTN-NO                  PIC S9(4) VALUE +065.PPEI199
015700         05  DNTL-D2-GTN-NO                  PIC S9(4) VALUE +067.PPEI199
015800         05  HLTH-HF-GTN-NO                  PIC S9(4) VALUE +142.PPEI199
015900         05  HLTH-HG-GTN-NO                  PIC S9(4) VALUE +144.PPEI199
015910*****                                                          CD 01941440
016100*****    05  HLTH-CM-GTN-NO                  PIC S9(4) VALUE +206.01941440
016110         05  HLTH-AETNA-CM-GTN-NO            PIC S9(4) VALUE +206.01941440
016200         05  HLTH-UC-GTN-NO                  PIC S9(4) VALUE +208.PPEI199
016300         05  HLTH-FP-GTN-NO                  PIC S9(4) VALUE +220.PPEI199
016400         05  DEPCARE-GTN-NO                  PIC S9(4) VALUE +225.PPEI199
016500         05  VISN-VI-GTN-NO                  PIC S9(4) VALUE +240.PPEI199
016600         05  DNTL-D3-GTN-NO                  PIC S9(4) VALUE +244.PPEI199
016700         05  LEGL-JD-GTN-NO                  PIC S9(4) VALUE +250.PPEI199
016800         05  SPCL-DCP-GTN-NO                 PIC S9(4) VALUE +283.PPEI199
016900         05  EPD-GTN-NO                      PIC S9(4) VALUE +297.PPEI199
016910         05  HLTH-BH-GTN-NO                  PIC S9(4) VALUE +302.01941440
016920         05  HLTH-BC-GTN-NO                  PIC S9(4) VALUE +304.01941440
016930         05  HLTH-BP-GTN-NO                  PIC S9(4) VALUE +306.01941440
016940         05  HLTH-CM-GTN-NO                  PIC S9(4) VALUE +308.01941440
017000                                                                  PPEI199
017100******************************************************************PPEI199
017200**           GROUP LIFE INSURANCE VALIDATION AREA               **PPEI199
017300******************************************************************PPEI199
017400                                                                  PPEI199
017500 01  GLI-VALIDATION.                                              PPEI199
017600     05  GLI-CHECK-AREA.                                          PPEI199
017700         07  GLI-PLAN-FLAG      PIC  X.                           PPEI199
017800         07  GLI-SAL-FLAG       PIC  9.                           PPEI199
017900         07  GLI-DATE-FLAG      PIC  9.                           PPEI199
018000                                                                  PPEI199
018100     05  GLI-CHECK-AREA-R       REDEFINES                         PPEI199
018200         GLI-CHECK-AREA         PIC X(3).                         PPEI199
018300         88  VALID-GLI                               VALUES ARE   PPEI199
018400             ' 00', 'F01', 'N11'.                                 PPEI199
018500                                                                  PPEI199
018600     EJECT                                                        PPEI199
018610 01  INIT-DCED-LINKAGE.                            COPY CPWSDCED. 36260760
018670                                                                  36260760
018680     EJECT                                                        36260760
018700 01  DL-FIELD-WORK-AREA.                           COPY CPWSXDLS. PPEI199
018800                                                                  PPEI199
018900     EJECT                                                        PPEI199
019300 01  XWHC-COMPILE-WORK-AREA.                       COPY CPWSXWHC. PPEI199
019100                                                                  PPEI199
019200     EJECT                                                        PPEI199
019600 01  COLUMN-88-WORK.                               COPY CPWSW88S. PPEI199
019400                                                                  PPEI199
019500     EJECT                                                        PPEI199
020200 01  APPT-DIST-LOC-WORK-AREAS.                     COPY CPWSADLC. PPEI199
020300                                                                  PPEI199
020400     EJECT                                                        PPEI199
020500 01  INSTALLATION-DEPENDT-CONSTANTS.               COPY CPWSXIDC. PPEI199
020600                                                                  PPEI199
020700     EJECT                                                        PPEI199
020800******************************************************************PPEI199
020900**     E  X  T  E  R  N  A  L  S      S  E  C  T  I  O  N       **PPEI199
021000**--------------------------------------------------------------**PPEI199
021100** THE FOLLOWING EXTERNAL AREAS WILL BE USED BY OTHER PROCESSES **PPEI199
021200******************************************************************PPEI199
021300                                                                  PPEI199
021400 01  DATA-ELEMENT-CHANGE-INDICATORS      EXTERNAL. COPY CPWSXDEC. PPEI199
021500                                                                  PPEI199
021600     EJECT                                                        PPEI199
021700 01  XCSS-COMMON-SYSTEM-SWITCHES         EXTERNAL. COPY CPWSSWCH. PPEI199
021800                                                                  PPEI199
021900     EJECT                                                        PPEI199
022000 01  XDTS-COMMON-SYSTEM-DATES            EXTERNAL. COPY CPWSXDTS. PPEI199
022100                                                                  PPEI199
022200     EJECT                                                        PPEI199
022300 01  ECES-CON-EDIT-SWITCH                EXTERNAL. COPY CPWSECES. PPEI199
022400                                                                  PPEI199
022500 01  EGES-GTN-EDIT-SWITCH                EXTERNAL. COPY CPWSEGES. PPEI199
022600                                                                  PPEI199
022700 01  EIMS-IMPL-MAINT-SWITCH              EXTERNAL. COPY CPWSEIMS. PPEI199
022800                                                                  PPEI199
022900 01  EAXD-APPT-ARRAY-SWITCH              EXTERNAL. COPY CPWSEAXD. PPEI199
023000                                                                  PPEI199
023100     EJECT                                                        PPEI199
023200 01  XDER-DATA-ELMT-RTN-POINTERS         EXTERNAL. COPY CPWSXDER. PPEI199
023300                                                                  PPEI199
023400     EJECT                                                        PPEI199
023500 01  XDRT-DET-ROUTINE-TRIGGERS           EXTERNAL. COPY CPWSXDRT. PPEI199
023600                                                                  PPEI199
023700     EJECT                                                        PPEI199
023800 01  EDB-MAINTENANCE-PASS-AREA           EXTERNAL. COPY CPWSEMPA. PPEI199
023900                                                                  PPEI199
024000     EJECT                                                        PPEI199
024100 01  DEDUCTION-SEGMENT-ARRAY             EXTERNAL. COPY CPWSEDSA. PPEI199
024110                                                                  54541281
024111     EJECT                                                        54541281
024120 01  PPPFCB-ARRAY                        EXTERNAL. COPY CPWSEFCB. 54541281
024130                                                                  54541281
024200                                                                  PPEI199
024300     EJECT                                                        PPEI199
024400******************************************************************PPEI199
024500**  DATA BASE AREAS                                             **PPEI199
024600******************************************************************PPEI199
024700                                                                  PPEI199
024800 01  SCR-ROW                             EXTERNAL.                PPEI199
024900     EXEC SQL INCLUDE PPPVSCR1 END-EXEC.                          PPEI199
025000                                                                  PPEI199
025100     EJECT                                                        PPEI199
025200 01  PER-ROW                             EXTERNAL.                PPEI199
025300     EXEC SQL INCLUDE PPPVPER1 END-EXEC.                          PPEI199
025400                                                                  PPEI199
025500     EJECT                                                        PPEI199
025600 01  PAY-ROW                             EXTERNAL.                PPEI199
025700     EXEC SQL INCLUDE PPPVPAY1 END-EXEC.                          PPEI199
025800                                                                  PPEI199
025900     EJECT                                                        PPEI199
026000 01  BEL-ROW                             EXTERNAL.                PPEI199
026100     EXEC SQL INCLUDE PPPVBEL1 END-EXEC.                          PPEI199
026200                                                                  PPEI199
026300     EJECT                                                        PPEI199
026400 01  BEN-ROW                             EXTERNAL.                PPEI199
026500     EXEC SQL INCLUDE PPPVBEN1 END-EXEC.                          PPEI199
026600                                                                  PPEI199
026700     EJECT                                                        PPEI199
026800 01  PCM-ROW                             EXTERNAL.                PPEI199
026900     EXEC SQL INCLUDE PPPVPCM1 END-EXEC.                          PPEI199
027000                                                                  PPEI199
027100     EJECT                                                        PPEI199
027200******************************************************************PPEI199
027300**          L  I  N  K  A  G  E      S  E  C  T  I  O  N        **PPEI199
027400******************************************************************PPEI199
027500                                                                  PPEI199
027600*----------------------------------------------------------------*PPEI199
027700 LINKAGE SECTION.                                                 PPEI199
027800*----------------------------------------------------------------*PPEI199
027900                                                                  PPEI199
028000******************************************************************PPEI199
028100**  THE KRMI AREA IS A COMMON AREA THAT IS USED TO PASS         **PPEI199
028200**  INFORMATION THAT IS REQUIRED FOR THIS MODULE TO EXECUTE     **PPEI199
028300******************************************************************PPEI199
028400                                                                  PPEI199
028500 01  KRMI-LINKAGE-SECTION.                         COPY CPLNKRMI. PPEI199
028600                                                                  PPEI199
028700     EJECT                                                        PPEI199
028800******************************************************************PPEI199
028900**  THIS MESSAGE TABLE ARRAY WILL CONTAIN ALL MESSAGES THAT     **PPEI199
029000**  THIS ROUTINE CAN LOGICALLY ISSUE AT ONE TIME                **PPEI199
029100******************************************************************PPEI199
029200                                                                  PPEI199
029300 01  KMTA-MESSAGE-TABLE-ARRAY.                     COPY CPLNKMTA. PPEI199
029400                                                                  PPEI199
029500     EJECT                                                        PPEI199
029600******************************************************************PPEI199
029700**    P  R  O  C  E  D  U  R  E      D  I  V  I  S  I  O  N     **PPEI199
029800******************************************************************PPEI199
029900                                                                  PPEI199
030000 PROCEDURE DIVISION USING KRMI-LINKAGE-SECTION,                   PPEI199
030100                          KMTA-MESSAGE-TABLE-ARRAY.               PPEI199
030200                                                                  PPEI199
030300                                                                  PPEI199
030400*----------------------------------------------------------------*PPEI199
030500 0000-DRIVER.                                                     PPEI199
030600*----------------------------------------------------------------*PPEI199
030700                                                                  PPEI199
030800******************************************************************PPEI199
030900**  PERFORM THE INITIALIZATION ROUTINE NOW                      **PPEI199
031000******************************************************************PPEI199
031100                                                                  PPEI199
031200     IF  THIS-IS-THE-FIRST-TIME                                   PPEI199
031300         PERFORM 0100-INITIALIZE                                  PPEI199
031400     END-IF.                                                      PPEI199
031500                                                                  PPEI199
031600******************************************************************PPEI199
031700**  PERFORM THE MAIN ROUTINE NOW - AFTER WHICH WE WILL RETURN   **PPEI199
031800**  TO THE CALLING PROGRAM                                      **PPEI199
031900******************************************************************PPEI199
032000                                                                  PPEI199
032100     PERFORM 1000-MAINLINE-ROUTINE.                               PPEI199
032200                                                                  PPEI199
032300     EXIT PROGRAM.                                                PPEI199
032400                                                                  PPEI199
032500                                                                  PPEI199
032600     EJECT                                                        PPEI199
032700*----------------------------------------------------------------*PPEI199
032800 0100-INITIALIZE    SECTION.                                      PPEI199
032900*----------------------------------------------------------------*PPEI199
033000                                                                  PPEI199
033100******************************************************************PPEI199
033200**  DISPLAY THE PROGRAM ID AND DATE/TIME COMPILED               **PPEI199
033300******************************************************************PPEI199
033400                                                                  PPEI199
033500     MOVE A-STND-PROG-ID           TO XWHC-DISPLAY-MODULE.        PPEI199
033600                                                                  PPEI199
033700*                                               *-------------*   PPEI199
033800                                                 COPY CPPDXWHC.   PPEI199
033900*                                               *-------------*   PPEI199
034000                                                                  PPEI199
034400                                                                  PPEI199
034700******************************************************************PPEI199
034800**   SET FIRST CALL SWITCH OFF                                  **PPEI199
034900******************************************************************PPEI199
035000                                                                  PPEI199
035100     SET NOT-THE-FIRST-TIME        TO TRUE.                       PPEI199
035200                                                                  PPEI199
035300     EJECT                                                        PPEI199
035400*----------------------------------------------------------------*PPEI199
035500 1000-MAINLINE-ROUTINE SECTION.                                   PPEI199
035600*----------------------------------------------------------------*PPEI199
035700******************************************************************PPEI199
035800** ANY MAINTENANCE REQUIRED EACH TIME THE DATA BASE IS UPDATED  **PPEI199
035900** IS INSERTED HERE.                                            **PPEI199
036000******************************************************************PPEI199
036100                                                                  PPEI199
036200******************************************************************PPEI199
036300** AUTOMATIC DE-ENROLLMENT FROM BENEFITS PLANS                  **PPEI199
036400******************************************************************PPEI199
036500                                                                  PPEI199
036600     IF  LIFE-DEENROLL     NOT = SPACE                            PPEI199
036700         PERFORM 3010-LIFE-DE-ENROLLMENT                          PPEI199
036800     END-IF.                                                      PPEI199
036900                                                                  PPEI199
037000                                                                  PPEI199
037100     IF  DEP-LIFE-DEENROLL NOT = SPACE                            PPEI199
037200         PERFORM 3020-DEP-LIFE-DE-ENROLLMENT                      PPEI199
037300     END-IF.                                                      PPEI199
037400                                                                  PPEI199
037500                                                                  PPEI199
037600     IF  ADD-DEENROLL      NOT = SPACE                            PPEI199
037700         PERFORM 3030-ADD-DE-ENROLLMENT                           PPEI199
037800     END-IF.                                                      PPEI199
037900                                                                  PPEI199
038000                                                                  PPEI199
038100     IF  EPD-DEENROLL      NOT = SPACE                            PPEI199
038200         PERFORM 3040-EPD-DE-ENROLLMENT                           PPEI199
038300     END-IF.                                                      PPEI199
038400                                                                  PPEI199
038500                                                                  PPEI199
038600     IF  HLTH-DEENROLL     NOT = SPACE                            PPEI199
038700         PERFORM 3050-HEALTH-DE-ENROLLMENT                        PPEI199
038800     END-IF.                                                      PPEI199
038900                                                                  PPEI199
039000                                                                  PPEI199
039100     IF  DENTAL-DEENROLL   NOT = SPACE                            PPEI199
039200         PERFORM 3060-DENTAL-DE-ENROLLMENT                        PPEI199
039300     END-IF.                                                      PPEI199
039400                                                                  PPEI199
039500                                                                  PPEI199
039600     IF  VIS-DEENROLL      NOT = SPACE                            PPEI199
039700         PERFORM 3070-VISION-DE-ENROLLMENT                        PPEI199
039800     END-IF.                                                      PPEI199
039900                                                                  PPEI199
040000                                                                  PPEI199
040100     IF  LEGAL-DEENROLL    NOT = SPACE                            PPEI199
040200         PERFORM 3080-LEGAL-DE-ENROLLMENT                         PPEI199
040300     END-IF.                                                      PPEI199
040400                                                                  PPEI199
040500                                                                  PPEI199
040600     IF      LIFE-DEENROLL         = SPACE                        PPEI199
040700         OR  ADD-DEENROLL          = SPACE                        PPEI199
040800         OR  EPD-DEENROLL          = SPACE                        PPEI199
040900         OR  HLTH-DEENROLL         = SPACE                        PPEI199
041000         OR  DENTAL-DEENROLL       = SPACE                        PPEI199
041100         OR  LEGAL-DEENROLL        = SPACE                        PPEI199
041200         OR  DEP-LIFE-DEENROLL     = SPACE                        PPEI199
041300         OR  VIS-DEENROLL          = SPACE                        PPEI199
041400         OR (    EMP-STATUS    NOT = 'I'                          PPEI199
041500             AND EMP-STATUS    NOT = 'S'  )                       PPEI199
041600         CONTINUE                                                 PPEI199
041700     ELSE                                                         PPEI199
043010         IF      SEPARATE-DATE     >  XDTS-ISO-2-MO-PRIOR-DATE    28521025
043020             AND LAST-PAY-DATE     >  XDTS-ISO-2-MO-PRIOR-DATE    28521025
043030             CONTINUE                                             28521025
043040         ELSE                                                     28521025
043050             PERFORM 3090-DE-ENROLL-ALL                           28521025
043060         END-IF                                                   28521025
043070     END-IF.                                                      28521025
043100                                                                  PPEI199
043200                                                                  PPEI199
043300     MOVE SPACE                   TO LIFE-DEENROLL,               PPEI199
043400                                     ADD-DEENROLL,                PPEI199
043500                                     EPD-DEENROLL,                PPEI199
043600                                     HLTH-DEENROLL,               PPEI199
043700                                     DENTAL-DEENROLL,             PPEI199
043800                                     LEGAL-DEENROLL,              PPEI199
043900                                     DEP-LIFE-DEENROLL,           PPEI199
044000                                     VIS-DEENROLL.                PPEI199
044100                                                                  PPEI199
044200     EJECT                                                        PPEI199
044300*----------------------------------------------------------------*PPEI199
044400 3010-LIFE-DE-ENROLLMENT  SECTION.                                PPEI199
044500*----------------------------------------------------------------*PPEI199
044600******************************************************************PPEI199
044700**   L I F E    I N S U R A N C E   D E - E N R O L L M E N T   **PPEI199
044800**--------------------------------------------------------------**PPEI199
044900**   IF  LIFE INSURANCE DE-ENROLLMENT INDICATOR HAS BEEN TURNED **PPEI199
045000**   ON DURING GROSS-TO-NET PROCESS (PPP400), CLEAR SUSPENDED   **PPEI199
045100**   LIFE INSURANCE BALANCES IN EMPLOYEES GROSS-TO-NET          **PPEI199
045200**   SEGMENTS.                                                  **PPEI199
045300**   SET ALL LIFE INSURANCE DATA ELEMENTS TO INITIAL VALUES     **PPEI199
045400**   AND ISSUE LIFE INSURANCE DE-ENROLLMENT MESSAGE.            **PPEI199
045500******************************************************************PPEI199
045600                                                                  PPEI199
045700     MOVE E0155                   TO DL-FIELD.                    PPEI199
045800     PERFORM 9050-AUDITING-RESPONSIBILITIES.                      PPEI199
045900                                                                  PPEI199
046000     MOVE ZERO TO EDSA-BALAMT (LI-GTN-NO,  DSA-SUSP-P).           PPEI199
046100                                                                  PPEI199
046200     MOVE E6000                   TO DL-FIELD.                    PPEI199
046300     PERFORM 9050-AUDITING-RESPONSIBILITIES.                      PPEI199
046400                                                                  PPEI199
046500     MOVE SPACE                   TO LIFEINS-PLAN.                PPEI199
046600     MOVE ZEROS                   TO LIFE-SALARY-BASE.            PPEI199
046710     MOVE XDTS-ISO-ZERO-DATE      TO LIFE-COVEFFDATE.             28521025
046800                                                                  PPEI199
046900     MOVE E0275                   TO DL-FIELD.                    PPEI199
047000     PERFORM 9050-AUDITING-RESPONSIBILITIES.                      PPEI199
047100                                                                  PPEI199
047200     MOVE E0276                   TO DL-FIELD.                    PPEI199
047300     PERFORM 9050-AUDITING-RESPONSIBILITIES.                      PPEI199
047400                                                                  PPEI199
047500     MOVE E0277                   TO DL-FIELD.                    PPEI199
047600     PERFORM 9050-AUDITING-RESPONSIBILITIES.                      PPEI199
047700                                                                  PPEI199
047800     ADD 1                        TO KMTA-CTR.                    PPEI199
047900     MOVE WS-ROUTINE-TYPE         TO KMTA-ROUTINE-TYPE (KMTA-CTR).PPEI199
048000     MOVE WS-ROUTINE-NUM          TO KMTA-ROUTINE-NUM  (KMTA-CTR).PPEI199
048100     MOVE M12030                  TO KMTA-MSG-NUMBER   (KMTA-CTR).PPEI199
048200                                                                  PPEI199
048300                                                                  PPEI199
048400     EJECT                                                        PPEI199
048500*----------------------------------------------------------------*PPEI199
048600 3020-DEP-LIFE-DE-ENROLLMENT  SECTION.                            PPEI199
048700*----------------------------------------------------------------*PPEI199
048800******************************************************************PPEI199
048900** D E P  L I F E  I N S U R A N C E  D E - E N R O L L M E N T **PPEI199
049000**--------------------------------------------------------------**PPEI199
049100**   IF  DEPENDENT LIFE INSURANCE DE-ENROLLMENT INDICATOR HAS   **PPEI199
049200**   BEEN TURNED ON DURING GROSS-TO-NET PROCESS (PPP400),       **PPEI199
049300**   CLEAR SUSPENDED DEPENDENT LIFE INSURANCE BALANCES IN       **PPEI199
049400**   EMPLOYEE'S GROSS-TO-NET SEGMENTS.                          **PPEI199
049500**   SET DEP LIFE INSURANCE DATA ELEMENTS TO INITIAL VALUES     **PPEI199
049600**   AND ISSUE DEP LIFE INSURANCE DE-ENROLLMENT MESSAGE.        **PPEI199
049700******************************************************************PPEI199
049800                                                                  PPEI199
049900     MOVE E0166                   TO DL-FIELD.                    PPEI199
050000     PERFORM 9050-AUDITING-RESPONSIBILITIES.                      PPEI199
050100                                                                  PPEI199
050200     MOVE ZERO TO EDSA-BALAMT (DEP-LI-GTN-NO,  DSA-SUSP-P).       PPEI199
050300                                                                  PPEI199
050400     MOVE E6000                   TO DL-FIELD.                    PPEI199
050500     PERFORM 9050-AUDITING-RESPONSIBILITIES.                      PPEI199
050600                                                                  PPEI199
050700     MOVE SPACE                   TO DEP-LIFE-IND.                PPEI199
050810     MOVE XDTS-ISO-ZERO-DATE      TO DEPLIFE-COVEFFDATE.          28521025
050900                                                                  PPEI199
051000     MOVE E0188                   TO DL-FIELD.                    PPEI199
051100     PERFORM 9050-AUDITING-RESPONSIBILITIES.                      PPEI199
051200                                                                  PPEI199
051300     MOVE E0278                   TO DL-FIELD.                    PPEI199
051400     PERFORM 9050-AUDITING-RESPONSIBILITIES.                      PPEI199
051500                                                                  PPEI199
051600     ADD 1                        TO KMTA-CTR.                    PPEI199
051700     MOVE WS-ROUTINE-TYPE         TO KMTA-ROUTINE-TYPE (KMTA-CTR).PPEI199
051800     MOVE WS-ROUTINE-NUM          TO KMTA-ROUTINE-NUM  (KMTA-CTR).PPEI199
051900     MOVE M12038                  TO KMTA-MSG-NUMBER   (KMTA-CTR).PPEI199
052000                                                                  PPEI199
052100                                                                  PPEI199
052200     EJECT                                                        PPEI199
052300*----------------------------------------------------------------*PPEI199
052400 3030-ADD-DE-ENROLLMENT  SECTION.                                 PPEI199
052500*----------------------------------------------------------------*PPEI199
052600******************************************************************PPEI199
052700**   A D & D    I N S U R A N C E   D E - E N R O L L M E N T   **PPEI199
052800**--------------------------------------------------------------**PPEI199
052900** IF  AD & D DE-ENROLLMENT INDICATOR HAS BEEN TURNED ON DURING **PPEI199
053000** GROSS-TO-NET PROCESS (PPP400), CLEAR SUSPENDED AD & D        **PPEI199
053100** BALANCE IN EMPLOYEE'S GROSS-TO-NET SEGMENTS.                 **PPEI199
053200** SET ALL AD & D DATA ELEMENTS TO INITIAL VALUES AND ISSUE     **PPEI199
053300** AD & D DE-ENROLLMENT MESSAGE.                                **PPEI199
053400******************************************************************PPEI199
053500                                                                  PPEI199
053600     MOVE E0156                   TO DL-FIELD.                    PPEI199
053700     PERFORM 9050-AUDITING-RESPONSIBILITIES.                      PPEI199
053800                                                                  PPEI199
053900     MOVE ZERO TO EDSA-BALAMT (AD-D-GTN-NO,  DSA-SUSP-P).         PPEI199
054000                                                                  PPEI199
054100     MOVE E6000                   TO DL-FIELD.                    PPEI199
054200     PERFORM 9050-AUDITING-RESPONSIBILITIES.                      PPEI199
054300                                                                  PPEI199
054400     MOVE SPACES                  TO ADD-COVERAGE.                PPEI199
054500     MOVE ZEROS                   TO ADD-PRINC-SUM.               PPEI199
054610     MOVE XDTS-ISO-ZERO-DATE      TO ADD-COVEFFDATE.              28521025
054700                                                                  PPEI199
054800     MOVE E0280                   TO DL-FIELD.                    PPEI199
054900     PERFORM 9050-AUDITING-RESPONSIBILITIES.                      PPEI199
055000                                                                  PPEI199
055100     MOVE E0281                   TO DL-FIELD.                    PPEI199
055200     PERFORM 9050-AUDITING-RESPONSIBILITIES.                      PPEI199
055300                                                                  PPEI199
055400     MOVE E0282                   TO DL-FIELD.                    PPEI199
055500     PERFORM 9050-AUDITING-RESPONSIBILITIES.                      PPEI199
055600                                                                  PPEI199
055700     ADD 1                        TO KMTA-CTR.                    PPEI199
055800     MOVE WS-ROUTINE-TYPE         TO KMTA-ROUTINE-TYPE (KMTA-CTR).PPEI199
055900     MOVE WS-ROUTINE-NUM          TO KMTA-ROUTINE-NUM  (KMTA-CTR).PPEI199
056000     MOVE M12031                  TO KMTA-MSG-NUMBER   (KMTA-CTR).PPEI199
056100                                                                  PPEI199
056200     EJECT                                                        PPEI199
056300*----------------------------------------------------------------*PPEI199
056400 3040-EPD-DE-ENROLLMENT  SECTION.                                 PPEI199
056500*----------------------------------------------------------------*PPEI199
056600******************************************************************PPEI199
056700**    E P D    I N S U R A N C E   D E - E N R O L L M E N T    **PPEI199
056800**--------------------------------------------------------------**PPEI199
056900** IF  EMPLOYEE-PAID DISABILITY DE-ENROLLMENT INDICATOR HAS BEEN *PPEI199
057000** TURNED ON DURING GROSS-TO-NET PROCESS (PPP400), CLEAR        **PPEI199
057100** SUSPENDED EPD BALANCE IN EMPLOYEE'S GROSS-TO-NET SEGMENTS.   **PPEI199
057200** SET ALL EPD DATA ELEMENTS TO INITIAL VALUES AND ISSUE EPD    **PPEI199
057300** DE-ENROLLMENT MESSAGE.                                       **PPEI199
057400******************************************************************PPEI199
057500                                                                  PPEI199
057600     MOVE E0234                   TO DL-FIELD.                    PPEI199
057700     PERFORM 9050-AUDITING-RESPONSIBILITIES.                      PPEI199
057800                                                                  PPEI199
057900     MOVE ZERO TO EDSA-BALAMT (EPD-GTN-NO,  DSA-SUSP-P).          PPEI199
058000                                                                  PPEI199
058100     MOVE E6000                   TO DL-FIELD.                    PPEI199
058200     PERFORM 9050-AUDITING-RESPONSIBILITIES.                      PPEI199
058300                                                                  PPEI199
058400     MOVE ZEROS                   TO EPD-SALARY-BASE,             PPEI199
058500                                     EPD-WAIT-PERIOD.             PPEI199
058610     MOVE XDTS-ISO-ZERO-DATE      TO EPD-COVRGE-DATE.             28521025
058700                                                                  PPEI199
058800     MOVE E0231                   TO DL-FIELD.                    PPEI199
058900     PERFORM 9050-AUDITING-RESPONSIBILITIES.                      PPEI199
059000                                                                  PPEI199
059100     MOVE E0232                   TO DL-FIELD.                    PPEI199
059200     PERFORM 9050-AUDITING-RESPONSIBILITIES.                      PPEI199
059300                                                                  PPEI199
059400     MOVE E0233                   TO DL-FIELD.                    PPEI199
059500     PERFORM 9050-AUDITING-RESPONSIBILITIES.                      PPEI199
059600                                                                  PPEI199
059700     ADD 1                        TO KMTA-CTR.                    PPEI199
059800     MOVE WS-ROUTINE-TYPE         TO KMTA-ROUTINE-TYPE (KMTA-CTR).PPEI199
059900     MOVE WS-ROUTINE-NUM          TO KMTA-ROUTINE-NUM  (KMTA-CTR).PPEI199
060000     MOVE M12022                  TO KMTA-MSG-NUMBER   (KMTA-CTR).PPEI199
060100                                                                  PPEI199
060200                                                                  PPEI199
060300     EJECT                                                        PPEI199
060400*----------------------------------------------------------------*PPEI199
060500 3050-HEALTH-DE-ENROLLMENT  SECTION.                              PPEI199
060600*----------------------------------------------------------------*PPEI199
060700******************************************************************PPEI199
060800** H E A L T H   I N S U R A N C E   D E - E N R O L L M E N T  **PPEI199
060900**--------------------------------------------------------------**PPEI199
061000** IF  HEALTH INSURANCE DE-ENROLLMENT INDICATOR HAS BEEN SET    **PPEI199
061100** ON DURING GROSS-TO-NET PROCESS (PPP400), CLEAR THE SUSPENDED **PPEI199
061200** HEALTH INSURANCE BALANCE AND THE SECONDARY HEALTH INSURANCE  **PPEI199
061300** DEDUCTION FROM THE EMPLOYEE'S GROSS-TO-NET SEGMENTS,         **PPEI199
061400**                                                              **PPEI199
061500** SET ALL HEALTH INSURANCE DATA ELEMENTS TO INITIAL VALUES AND **PPEI199
061600** ISSUE HEALTH INSURANCE DE-ENROLLMENT MESSAGE.                **PPEI199
061700******************************************************************PPEI199
061800                                                                  PPEI199
061900     MOVE E0158                   TO DL-FIELD.                    PPEI199
062000     PERFORM 9050-AUDITING-RESPONSIBILITIES.                      PPEI199
062100                                                                  PPEI199
062200                                                                  PPEI199
062300     EVALUATE HLTH-PLAN                                           PPEI199
062400                                                                  PPEI199
062500         WHEN 'BC'                                                PPEI199
062600             MOVE ZERO TO EDSA-BALAMT (HLTH-BC-GTN-NO, DSA-SUSP-P)PPEI199
062700                                                                  PPEI199
062710         WHEN 'BH'                                                01941440
062720             MOVE ZERO TO EDSA-BALAMT (HLTH-BH-GTN-NO, DSA-SUSP-P)01941440
062730                                                                  01941440
062740         WHEN 'BP'                                                01941440
062750             MOVE ZERO TO EDSA-BALAMT (HLTH-BP-GTN-NO, DSA-SUSP-P)01941440
062760                                                                  01941440
062800         WHEN 'FN'                                                PPEI199
062900             MOVE ZERO TO EDSA-BALAMT (HLTH-FN-GTN-NO, DSA-SUSP-P)PPEI199
063000                                                                  PPEI199
063100         WHEN 'PH'                                                PPEI199
063200             MOVE ZERO TO EDSA-BALAMT (HLTH-PH-GTN-NO, DSA-SUSP-P)PPEI199
063300                                                                  PPEI199
063400         WHEN 'KN'                                                PPEI199
063500             MOVE ZERO TO EDSA-BALAMT (HLTH-KN-GTN-NO, DSA-SUSP-P)PPEI199
063600                                                                  PPEI199
063700         WHEN 'KS'                                                PPEI199
063800             MOVE ZERO TO EDSA-BALAMT (HLTH-KS-GTN-NO, DSA-SUSP-P)PPEI199
063900                                                                  PPEI199
064000         WHEN 'HN'                                                PPEI199
064100             MOVE ZERO TO EDSA-BALAMT (HLTH-HN-GTN-NO, DSA-SUSP-P)PPEI199
064200                                                                  PPEI199
064300         WHEN 'HA'                                                PPEI199
064400             MOVE ZERO TO EDSA-BALAMT (HLTH-HA-GTN-NO, DSA-SUSP-P)PPEI199
064500                                                                  PPEI199
064600         WHEN 'HF'                                                PPEI199
064700             MOVE ZERO TO EDSA-BALAMT (HLTH-HF-GTN-NO, DSA-SUSP-P)PPEI199
064800                                                                  PPEI199
064900         WHEN 'HG'                                                PPEI199
065000             MOVE ZERO TO EDSA-BALAMT (HLTH-HG-GTN-NO, DSA-SUSP-P)PPEI199
065100                                                                  PPEI199
065200         WHEN 'CM'                                                PPEI199
065300*****        MOVE ZERO TO EDSA-BALAMT (HLTH-CM-GTN-NO, DSA-SUSP-P)01941440
065310             MOVE ZERO TO                                         01941440
065320                  EDSA-BALAMT (HLTH-AETNA-CM-GTN-NO, DSA-SUSP-P)  01941440
065340             MOVE ZERO TO EDSA-BALAMT (HLTH-CM-GTN-NO, DSA-SUSP-P)01941440
065400                                                                  PPEI199
065500         WHEN 'UC'                                                PPEI199
065600             MOVE ZERO TO EDSA-BALAMT (HLTH-UC-GTN-NO, DSA-SUSP-P)PPEI199
065700                                                                  PPEI199
065800         WHEN 'FP'                                                PPEI199
065900             MOVE ZERO TO EDSA-BALAMT (HLTH-FP-GTN-NO, DSA-SUSP-P)PPEI199
066000                                                                  PPEI199
066100         WHEN 'NA'                                                PPEI199
066200             MOVE ZERO TO EDSA-BALAMT (HLTH-NA-GTN-NO, DSA-SUSP-P)PPEI199
066300                                                                  PPEI199
066400      END-EVALUATE.                                               PPEI199
066500                                                                  PPEI199
066600                                                                  PPEI199
066700     MOVE E6000                   TO DL-FIELD.                    PPEI199
066800     PERFORM 9050-AUDITING-RESPONSIBILITIES.                      PPEI199
066900                                                                  PPEI199
067000     MOVE SPACES                  TO HLTH-PLAN,                   PPEI199
067010                                     MED-PROVIDER-ID,             05550788
067100                                     HLTH-COVERCODE.              PPEI199
067120     IF HEALTH-COVEND-DATE NOT = XDTS-ISO-ZERO-DATE               54541281
067121        MOVE E0300                   TO DL-FIELD                  54541281
067130        PERFORM 9050-AUDITING-RESPONSIBILITIES                    54541281
067140     END-IF.                                                      54541281
067211     MOVE XDTS-ISO-ZERO-DATE      TO HLTH-COVEFFDATE              28521025
067212                                     HEALTH-COVEND-DATE           54541281
067212                                     EMP-HLTH-COVEFFDT.           28521025
067220                                                                  36260760
067221     SET INIT-CURRENT-OCCURRENCES TO TRUE.                        36260760
067230     SET INIT-HEALTH-PLAN-DCED    TO TRUE.                        36260760
070300     CALL PGM-PPDEPINT USING INIT-DCED-LINKAGE.                   36430795
070305                                                                  36260760
070306                                                                  PPEI199
070307     MOVE E0292                   TO DL-FIELD.                    PPEI199
070308     PERFORM 9050-AUDITING-RESPONSIBILITIES.                      PPEI199
070309                                                                  PPEI199
070310     MOVE E0293                   TO DL-FIELD.                    PPEI199
070311     PERFORM 9050-AUDITING-RESPONSIBILITIES.                      PPEI199
070312                                                                  PPEI199
070313     MOVE E0294                   TO DL-FIELD.                    PPEI199
070314     PERFORM 9050-AUDITING-RESPONSIBILITIES.                      PPEI199
070315                                                                  PPEI199
070316     MOVE E0454                   TO DL-FIELD.                    36260760
070317     PERFORM 9050-AUDITING-RESPONSIBILITIES.                      36260760
070318                                                                  36260760
070320     MOVE E0653                   TO DL-FIELD.                    05550788
070321     PERFORM 9050-AUDITING-RESPONSIBILITIES.                      05550788
070322                                                                  05550788
070324     MOVE 'D'                     TO HLTH-OPTOUT.                 PPEI199
070325     MOVE E0377                   TO DL-FIELD.                    PPEI199
070326                                                                  PPEI199
070327     PERFORM 9050-AUDITING-RESPONSIBILITIES.                      PPEI199
070328                                                                  PPEI199
070329     ADD 1                        TO KMTA-CTR.                    PPEI199
070330     MOVE WS-ROUTINE-TYPE         TO KMTA-ROUTINE-TYPE (KMTA-CTR).PPEI199
070331     MOVE WS-ROUTINE-NUM          TO KMTA-ROUTINE-NUM  (KMTA-CTR).PPEI199
070332     MOVE M12033                  TO KMTA-MSG-NUMBER   (KMTA-CTR).PPEI199
070333                                                                  PPEI199
070334                                                                  PPEI199
070335     EJECT                                                        PPEI199
070336*----------------------------------------------------------------*PPEI199
070337 3060-DENTAL-DE-ENROLLMENT  SECTION.                              PPEI199
070338*----------------------------------------------------------------*PPEI199
070339******************************************************************PPEI199
070340** D E N T A L   I N S U R A N C E   D E - E N R O L L M E N T  **PPEI199
070341******************************************************************PPEI199
070342                                                                  PPEI199
070343     MOVE E0159                   TO DL-FIELD.                    PPEI199
070344     PERFORM 9050-AUDITING-RESPONSIBILITIES.                      PPEI199
070400                                                                  PPEI199
070500                                                                  PPEI199
070600     EVALUATE DENTAL-PLAN                                         PPEI199
070700                                                                  PPEI199
070800         WHEN 'D1'                                                PPEI199
070900             MOVE ZERO TO EDSA-BALAMT (DNTL-D1-GTN-NO, DSA-SUSP-P)PPEI199
071000                                                                  PPEI199
071100         WHEN 'D3'                                                PPEI199
071200             MOVE ZERO TO EDSA-BALAMT (DNTL-D3-GTN-NO, DSA-SUSP-P)PPEI199
071300                                                                  PPEI199
071400         WHEN 'D2'                                                PPEI199
071500             MOVE ZERO TO EDSA-BALAMT (DNTL-D2-GTN-NO, DSA-SUSP-P)PPEI199
071600                                                                  PPEI199
071700     END-EVALUATE.                                                PPEI199
071800                                                                  PPEI199
071900                                                                  PPEI199
072000     MOVE E6000                   TO DL-FIELD.                    PPEI199
072100     PERFORM 9050-AUDITING-RESPONSIBILITIES.                      PPEI199
072200                                                                  PPEI199
072300     MOVE SPACES                  TO DENTAL-PLAN                  PPEI199
072310                                     DEN-PROVIDER-ID,             05550788
072400                                     DENTAL-COVERAGE.             PPEI199
072420     IF DENTAL-COVEND-DATE NOT = XDTS-ISO-ZERO-DATE               54541281
072430        MOVE E0271                   TO DL-FIELD                  54541281
072440        PERFORM 9050-AUDITING-RESPONSIBILITIES                    54541281
072450     END-IF.                                                      54541281
072511     MOVE XDTS-ISO-ZERO-DATE      TO DENTAL-COVEFFDATE            28521025
072512                                     DENTAL-COVEND-DATE           54541281
072512                                     EMP-DENTL-COVEFFDT.          28521025
072520                                                                  36260760
072531     SET INIT-CURRENT-OCCURRENCES TO TRUE.                        36260760
072532     SET INIT-DENTAL-PLAN-DCED    TO TRUE.                        36260760
076600     CALL PGM-PPDEPINT USING INIT-DCED-LINKAGE.                   36430795
076605                                                                  PPEI199
076606     MOVE E0272                   TO DL-FIELD.                    PPEI199
076607     PERFORM 9050-AUDITING-RESPONSIBILITIES.                      PPEI199
076608                                                                  PPEI199
076609     MOVE E0273                   TO DL-FIELD.                    PPEI199
076610     PERFORM 9050-AUDITING-RESPONSIBILITIES.                      PPEI199
076611                                                                  PPEI199
076612     MOVE E0274                   TO DL-FIELD.                    PPEI199
076613     PERFORM 9050-AUDITING-RESPONSIBILITIES.                      PPEI199
076614                                                                  36260760
076615     MOVE E0455                   TO DL-FIELD.                    36260760
076616     PERFORM 9050-AUDITING-RESPONSIBILITIES.                      36260760
076618                                                                  05550788
076619     MOVE E0654                   TO DL-FIELD.                    05550788
076620     PERFORM 9050-AUDITING-RESPONSIBILITIES.                      05550788
076622                                                                  PPEI199
076623     MOVE 'D'                     TO DENTAL-OPTOUT.               PPEI199
076624     MOVE E0378                   TO DL-FIELD.                    PPEI199
076625                                                                  PPEI199
076626     PERFORM 9050-AUDITING-RESPONSIBILITIES.                      PPEI199
076627                                                                  PPEI199
076628     ADD 1                        TO KMTA-CTR.                    PPEI199
076629     MOVE WS-ROUTINE-TYPE         TO KMTA-ROUTINE-TYPE (KMTA-CTR).PPEI199
076630     MOVE WS-ROUTINE-NUM          TO KMTA-ROUTINE-NUM  (KMTA-CTR).PPEI199
076631     MOVE M12036                  TO KMTA-MSG-NUMBER   (KMTA-CTR).PPEI199
076632                                                                  PPEI199
076633                                                                  PPEI199
076634     EJECT                                                        PPEI199
076635*----------------------------------------------------------------*PPEI199
076636 3070-VISION-DE-ENROLLMENT  SECTION.                              PPEI199
076637*----------------------------------------------------------------*PPEI199
076638******************************************************************PPEI199
076639** V I S I O N   I N S U R A N C E   D E - E N R O L L M E N T  **PPEI199
076640******************************************************************PPEI199
076641                                                                  PPEI199
076642     MOVE E0187                   TO DL-FIELD.                    PPEI199
076643     PERFORM 9050-AUDITING-RESPONSIBILITIES.                      PPEI199
076644                                                                  PPEI199
076645     IF  VIS-PLAN = 'VI'                                          PPEI199
076646         MOVE ZERO TO EDSA-BALAMT (VISN-VI-GTN-NO,  DSA-SUSP-P)   PPEI199
076647     END-IF.                                                      PPEI199
076648                                                                  PPEI199
076649     MOVE E6000                   TO DL-FIELD.                    PPEI199
076650     PERFORM 9050-AUDITING-RESPONSIBILITIES.                      PPEI199
076651                                                                  PPEI199
076652     MOVE SPACES                  TO VIS-PLAN                     PPEI199
076653                                       VIS-COVERAGE.              PPEI199
076658     IF VISION-COVEND-DATE NOT = XDTS-ISO-ZERO-DATE               54541281
076659        MOVE E0346                   TO DL-FIELD                  54541281
076660        PERFORM 9050-AUDITING-RESPONSIBILITIES                    54541281
076670     END-IF.                                                      54541281
076711     MOVE XDTS-ISO-ZERO-DATE      TO VIS-COVEFFDATE               28521025
076712                                     VISION-COVEND-DATE           54541281
076712                                     EMP-VIS-COVEFFDT.            28521025
076720                                                                  36260760
076721     SET INIT-CURRENT-OCCURRENCES TO TRUE.                        36260760
076730     SET INIT-VISION-PLAN-DCED    TO TRUE.                        36260760
081700     CALL PGM-PPDEPINT USING INIT-DCED-LINKAGE.                   36430795
081705                                                                  PPEI199
081706     MOVE E0347                   TO DL-FIELD.                    PPEI199
081707     PERFORM 9050-AUDITING-RESPONSIBILITIES.                      PPEI199
081708                                                                  PPEI199
081709     MOVE E0348                   TO DL-FIELD.                    PPEI199
081710     PERFORM 9050-AUDITING-RESPONSIBILITIES.                      PPEI199
081711                                                                  PPEI199
081712     MOVE E0349                   TO DL-FIELD.                    PPEI199
081713     PERFORM 9050-AUDITING-RESPONSIBILITIES.                      PPEI199
081714                                                                  36260760
081715     MOVE E0456                   TO DL-FIELD.                    36260760
081716     PERFORM 9050-AUDITING-RESPONSIBILITIES.                      36260760
081717                                                                  PPEI199
081718     MOVE 'D'                     TO VIS-OPTOUT.                  PPEI199
081719     MOVE E0379                   TO DL-FIELD.                    PPEI199
081720                                                                  PPEI199
081721     PERFORM 9050-AUDITING-RESPONSIBILITIES.                      PPEI199
081722                                                                  PPEI199
081723     ADD 1                        TO KMTA-CTR.                    PPEI199
081724     MOVE WS-ROUTINE-TYPE         TO KMTA-ROUTINE-TYPE (KMTA-CTR).PPEI199
081725     MOVE WS-ROUTINE-NUM          TO KMTA-ROUTINE-NUM  (KMTA-CTR).PPEI199
081726     MOVE M12035                  TO KMTA-MSG-NUMBER   (KMTA-CTR).PPEI199
081727                                                                  PPEI199
081728     EJECT                                                        PPEI199
081729*----------------------------------------------------------------*PPEI199
081730 3080-LEGAL-DE-ENROLLMENT  SECTION.                               PPEI199
081731*----------------------------------------------------------------*PPEI199
081732******************************************************************PPEI199
081733**  L E G A L   I N S U R A N C E   D E - E N R O L L M E N T   **PPEI199
081734******************************************************************PPEI199
081735                                                                  PPEI199
081736     MOVE E0165                   TO DL-FIELD.                    PPEI199
081737     PERFORM 9050-AUDITING-RESPONSIBILITIES.                      PPEI199
081738                                                                  PPEI199
081742*****IF  LEGAL-PLAN = 'J1'                                        05911531
081743     IF  LEGAL-PLAN = 'J2'                                        05911531
081740         MOVE ZERO TO EDSA-BALAMT (LEGL-JD-GTN-NO,  DSA-SUSP-P)   PPEI199
081741     END-IF.                                                      PPEI199
081742                                                                  PPEI199
081743     MOVE E6000                   TO DL-FIELD.                    PPEI199
081744     PERFORM 9050-AUDITING-RESPONSIBILITIES.                      PPEI199
081745                                                                  PPEI199
081746     MOVE SPACES                  TO LEGAL-PLAN                   PPEI199
081747                                     LEGAL-COVERAGE.              PPEI199
081752     IF LEGAL-COVEND-DATE NOT = XDTS-ISO-ZERO-DATE                54541281
081753        MOVE E0380                   TO DL-FIELD                  54541281
081754        PERFORM 9050-AUDITING-RESPONSIBILITIES                    54541281
081755     END-IF.                                                      54541281
081750     MOVE XDTS-ISO-ZERO-DATE      TO LEGAL-COVEFFDATE             28521025
081757                                     LEGAL-COVEND-DATE            54541281
081751                                     EMP-LEGAL-COVEFFDT.          28521025
081750                                                                  36260760
081751     SET INIT-CURRENT-OCCURRENCES TO TRUE.                        36260760
081752     SET INIT-LEGAL-PLAN-DCED     TO TRUE.                        36260760
086700     CALL PGM-PPDEPINT USING INIT-DCED-LINKAGE.                   36430795
086705                                                                  PPEI199
086706     MOVE E0353                   TO DL-FIELD.                    PPEI199
086707     PERFORM 9050-AUDITING-RESPONSIBILITIES.                      PPEI199
086708                                                                  PPEI199
086709     MOVE E0354                   TO DL-FIELD.                    PPEI199
086710     PERFORM 9050-AUDITING-RESPONSIBILITIES.                      PPEI199
086711                                                                  PPEI199
086712     MOVE E0355                   TO DL-FIELD.                    PPEI199
086713     PERFORM 9050-AUDITING-RESPONSIBILITIES.                      PPEI199
086714                                                                  36260760
086715     MOVE E0457                   TO DL-FIELD.                    36260760
086716     PERFORM 9050-AUDITING-RESPONSIBILITIES.                      36260760
086717                                                                  PPEI199
086718     ADD 1                        TO KMTA-CTR.                    PPEI199
086719     MOVE WS-ROUTINE-TYPE         TO KMTA-ROUTINE-TYPE (KMTA-CTR).PPEI199
086720     MOVE WS-ROUTINE-NUM          TO KMTA-ROUTINE-NUM  (KMTA-CTR).PPEI199
086721     MOVE M12037                  TO KMTA-MSG-NUMBER   (KMTA-CTR).PPEI199
086722                                                                  PPEI199
086723                                                                  PPEI199
086724     EJECT                                                        PPEI199
086725*----------------------------------------------------------------*PPEI199
086726 3090-DE-ENROLL-ALL  SECTION.                                     PPEI199
086727*----------------------------------------------------------------*PPEI199
086728******************************************************************PPEI199
086729**     A L L   B E N E F I T S   D E - E N R O L L M E N T      **PPEI199
086730**--------------------------------------------------------------**PPEI199
086731**                                                              **PPEI199
086732**   EACH EMPLOYEE WHO MEETS ALL OF THE FOLLOWING CONDITIONS    **PPEI199
086733**   IS DE-ENROLLED FROM ALL BENEFITS.                          **PPEI199
086734**   1.  ALL EIGHT DE-ENROLLMENT INDICATORS HAVE BEEN SET       **PPEI199
086735**       ON DURING THE GROSS-TO-NET PROCESS (PPP400).           **PPEI199
086736**   2.  EMPLOYMENT STATUS IS 'I' OR 'S'.                       **PPEI199
086737**   3.  SEPARATION DATE OR LAST PAYROLL ACTIVITY DATE IS       **PPEI199
086738**       MORE THAN TWO MONTHS OLD.                              **PPEI199
086739**                                                              **PPEI199
086740******************************************************************PPEI199
086741                                                                  PPEI199
086742******************************************************************PPEI199
086743** IF  WE GET TO HERE, EMPLOYEE IS TO BE DE-ENROLLED FROM ALL   **PPEI199
086744** BENEFITS.                                                    **PPEI199
086745**                                                              **PPEI199
086746** CLEAR DEDUCTION AMOUNTS ('G' BALANCES) FOR ALL GROSS-TO-NET  **PPEI199
086747** ITEMS.                                                       **12640734
086750*****                                                          CD 01941440
086750******************************************************************PPEI199
086754*****                                                          CD 01941440
086756                                                                  PPEI199
086757     MOVE  DSA-GTN-P              TO BALANCE-INDX.                PPEI199
086758                                                                  PPEI199
086759     PERFORM 6640-ZERO-G-D-DED.                                   PPEI199
086760                                                                  PPEI199
086761******************************************************************PPEI199
086762** CLEAR DECLINING BALANCES ('D' BALANCES) FOR ALL GROSS-TO-NET **PPEI199
086763** ITEMS.                                                       **12640734
086764**                                                              **12640734
086765******************************************************************PPEI199
086766                                                                  PPEI199
086767     MOVE  DSA-DECL-P             TO BALANCE-INDX.                PPEI199
086768                                                                  PPEI199
086769     PERFORM 6640-ZERO-G-D-DED.                                   PPEI199
086770                                                                  PPEI199
086771******************************************************************PPEI199
086772**   CLEAR SUSPENDED BALANCES ('S' BALANCES GREATER THAN ZERO)  **PPEI199
086800**   AND ISSUE WARNING MESSAGES FOR PREPAID BALANCES ('S'       **PPEI199
086900**   BALANCES LESS THAN ZERO) FOR ALL GROSS-TO-NET ITEMS.       **12640734
087000**                                                              **12640734
087100**                                                              **12640734
087200******************************************************************PPEI199
087300                                                                  PPEI199
087400     MOVE  DSA-SUSP-P             TO BALANCE-INDX.                PPEI199
087500                                                                  PPEI199
087600     PERFORM 6640-ZERO-G-D-DED.                                   PPEI199
087700                                                                  PPEI199
087800******************************************************************PPEI199
087900**   ISSUE DE-ENROLLMENT MESSAGE                                **PPEI199
088000******************************************************************PPEI199
088100                                                                  PPEI199
088200     ADD 1                        TO KMTA-CTR.                    PPEI199
088300     MOVE WS-ROUTINE-TYPE         TO KMTA-ROUTINE-TYPE (KMTA-CTR).PPEI199
088400     MOVE WS-ROUTINE-NUM          TO KMTA-ROUTINE-NUM  (KMTA-CTR).PPEI199
088500     MOVE M12034                  TO KMTA-MSG-NUMBER   (KMTA-CTR).PPEI199
088600                                                                  PPEI199
088700                                                                  PPEI199
088800*-----------------------------------------------------------------PPEI199
088900 6640-ZERO-G-D-DED  SECTION.                                      PPEI199
089000*-----------------------------------------------------------------PPEI199
089100                                                                  PPEI199
089200     MOVE E6000                   TO DL-FIELD.                    PPEI199
089300                                                                  PPEI199
089400     PERFORM 9050-AUDITING-RESPONSIBILITIES.                      PPEI199
089500                                                                  PPEI199
089600     MOVE ZERO                    TO ELEMENT-INDX.                PPEI199
089700                                                                  PPEI199
089800     PERFORM WITH TEST BEFORE                                     PPEI199
090000       UNTIL ELEMENT-INDX = IDC-MAX-NO-GTN                        36410733
090100                                                                  PPEI199
090200         ADD 1                    TO ELEMENT-INDX                 PPEI199
090201                                                                  74221352
090211         IF BALANCE-INDX = DSA-GTN-P                              74221352
090212            IF EDSA-BALAMT (ELEMENT-INDX, BALANCE-INDX) > 0       74221352
090220               PERFORM 6700-RETAIN-UDUE                           74221352
090231               IF NOT KDUE-UDUE-RETAINED                          74221352
090232                  MOVE ZERO                                       74221352
090233                     TO EDSA-BALAMT (ELEMENT-INDX, BALANCE-INDX)  74221352
090234               END-IF                                             74221352
090235            END-IF                                                74221352
090240         ELSE                                                     74221352
090241           MOVE ZERO TO EDSA-BALAMT (ELEMENT-INDX, BALANCE-INDX)  74221352
090250         END-IF                                                   74221352
090260*****                                                          CD 01941440
091100                                                                  PPEI199
091200     END-PERFORM.                                                 PPEI199
091300                                                                  PPEI199
091400******************************************************************74221352
091410**       DETERMINE IF UDUE GTN NEEDS TO BE RETAINED             **74221352
091420******************************************************************74221352
091430 6700-RETAIN-UDUE                SECTION.                         74221352
091440******************************************************************74221352
091450**   DETERMINE IF ANY GTN BALANCES NEED TO BE RETAINED AS UDUE. **74221352
091460**   FIRST CALL PPDUEUTL TO CHECK IF THE GTN IS TO BE RETAINED. **74221352
091470**   IF SO, CALL PPDUEUTL WITH ALL THE REQUIRED DATA IN         **74221352
091471**   PPDUEUTL-INTERFACE.                                        **74221352
091472******************************************************************74221352
091473                                                                  74221352
091474     INITIALIZE PPDUEUTL-INTERFACE.                               74221352
091475     SET KDUE-CHECK-UDUE TO TRUE.                                 74221352
091476     MOVE ELEMENT-INDX TO KDUE-IN-GTN-NUMBER.                     74221352
091477     CALL PGM-PPDUEUTL USING PPDUEUTL-INTERFACE.                  74221352
091478                                                                  74221352
091479     IF KDUE-CALL-OK                                              74221352
091480        IF KDUE-UDUE-RETAINED                                     74221352
091481           SET KDUE-RETAIN-UDUE TO TRUE                           74221352
091482           MOVE EMPLOYEE-ID OF PER-ROW TO KDUE-IN-EMPLOYEE-ID     74221352
091483           MOVE KDUE-OUT-GTN-NUMBER TO KDUE-IN-GTN-NUMBER         74221352
091484           MOVE SOC-SEC-NUM OF PAY-ROW TO KDUE-IN-SOC-SEC-NUM     74221352
091485           MOVE EMP-NAME OF PER-ROW TO KDUE-IN-EMP-NAME           74221352
091486           MOVE KDUE-OUT-BUC TO KDUE-IN-BUC                       74221352
091487           MOVE EDSA-BALAMT (ELEMENT-INDX, BALANCE-INDX)          74221352
091488                                       TO KDUE-IN-GTN-AMOUNT      74221352
091489           MOVE SEPARATE-DATE OF PER-ROW TO KDUE-IN-EFF-DATE      74221352
091490           CALL PGM-PPDUEUTL USING PPDUEUTL-INTERFACE             74221352
091491           IF NOT KDUE-CALL-OK                                    74221352
091492              PERFORM 6710-PPDUEUTL-ERROR                         74221352
091493              MOVE IDC-MAX-NO-GTN TO ELEMENT-INDX                 74221352
091494           END-IF                                                 74221352
091495        END-IF                                                    74221352
091496     ELSE                                                         74221352
091497        PERFORM 6710-PPDUEUTL-ERROR                               74221352
091498        MOVE IDC-MAX-NO-GTN TO ELEMENT-INDX                       74221352
091499     END-IF.                                                      74221352
091500                                                                  74221352
091501*----------------------------------------------------------------*74221352
091502 6710-PPDUEUTL-ERROR             SECTION.                         74221352
091503*----------------------------------------------------------------*74221352
091504******************************************************************74221352
091505**   AN ERROR CODE WAS PASSED BACK BY PPDUEUTL. ISSUE A MESSAGE,**74221352
091506**   AND SET KRMI FLAG.                                         **74221352
091507******************************************************************74221352
091508     EVALUATE TRUE                                                74221352
091509      WHEN (KDUE-INVALID-INPUT)                                   74221352
091510      WHEN (KDUE-INVALID-FUNCTION)                                74221352
091511******************************************************************74221352
091512*       CALL FAILED. BAD DATA PASSED.                            *74221352
091513******************************************************************74221352
091514        ADD 1                TO KMTA-CTR                          74221352
091515        MOVE M12359          TO KMTA-MSG-NUMBER   (KMTA-CTR)      74221352
091516        MOVE WS-ROUTINE-TYPE TO KMTA-ROUTINE-TYPE (KMTA-CTR)      74221352
091517        MOVE WS-ROUTINE-NUM  TO KMTA-ROUTINE-NUM  (KMTA-CTR)      74221352
091518        SET KRMI-RETURN-WITH-HALT TO TRUE                         74221352
091519      WHEN (KDUE-NEGATIVE-SQL)                                    74221352
091520******************************************************************74221352
091521*       SQL ERROR IN PPDUEUTL                                    *74221352
091522******************************************************************74221352
091523        ADD 1                TO KMTA-CTR                          74221352
091524        MOVE M12359          TO KMTA-MSG-NUMBER   (KMTA-CTR)      74221352
091525        MOVE WS-ROUTINE-TYPE TO KMTA-ROUTINE-TYPE (KMTA-CTR)      74221352
091526        MOVE WS-ROUTINE-NUM  TO KMTA-ROUTINE-NUM  (KMTA-CTR)      74221352
091527        SET KRMI-RETURN-WITH-SQLCODE TO TRUE                      74221352
091528     END-EVALUATE.                                                74221352
091400     EJECT                                                        PPEI199
091500*----------------------------------------------------------------*PPEI199
091600 9050-AUDITING-RESPONSIBILITIES  SECTION.                         PPEI199
091700*----------------------------------------------------------------*PPEI199
091800                                                                  PPEI199
091900*                                                 *-------------* PPEI199
092000                                                   COPY CPPDXDEC. PPEI199
092100*                                                 *-------------* PPEI199
092200                                                                  PPEI199
092300*----------------------------------------------------------------*PPEI199
092400 9060-APPT-DIST-LOC-CALCULATION  SECTION.                         PPEI199
092500*----------------------------------------------------------------*PPEI199
092600                                                                  PPEI199
092700*                                                 *-------------* PPEI199
092800                                                   COPY CPPDADLC. PPEI199
092900*                                                 *-------------* PPEI199
093000                                                                  PPEI199
093500                                                                  PPEI199
094000******************************************************************PPEI199
094100**   E N D  S O U R C E   ----  PPEI199 ----                    **PPEI199
094200******************************************************************PPEI199
