000000**************************************************************/   73151304
000001*  PROGRAM: PPEI507                                          */   73151304
000002*  RELEASE: ___1304______ SERVICE REQUEST(S): ____17315____  */   73151304
000003*  NAME:_______WJG_______ MODIFICATION DATE:  ___03/24/00__  */   73151304
000004*  DESCRIPTION:                                              */   73151304
000005*                                                            */   73151304
000006*  MODIFIED TO USE PPTCTUTL TO ACCESS TITLE DATA RATHER THAN */   73151304
000007*  DIRECT DB2 ACCESS TO PPPVZTCI                             */   73151304
000008*                                                            */   73151304
000009**************************************************************/   73151304
000000**************************************************************/   37020996
000001*  PROGRAM: PPEI507                                          */   37020996
000002*  RELEASE: ___0996______ SERVICE REQUEST(S): ____13702____  */   37020996
000003*  NAME:_______QUAN______ MODIFICATION DATE:  ___06/14/95__  */   37020996
000004*  DESCRIPTION:                                              */   37020996
000005*  UNCOMMENT OUT 01 LEVEL FOR PPPVZTCI TO FOLLOW BASE        */   37020996
000006*  STANDARDS.                                                */   37020996
000009**************************************************************/   37020996
000100**************************************************************/   36560949
000200*  PROGRAM: PPEI507                                          */   36560949
000300*  RELEASE: ___0949______ SERVICE REQUEST(S): _____3656____  */   36560949
000400*  NAME:_______JYL_______ MODIFICATION DATE:  __12/14/94____ */   36560949
000500*  DESCRIPTION: NEW MODULE USED TO DERIVE A GRADUATE         */   36560949
000600*    STUDENT FLAG AND ESTABLISH THE BEGIN DATE AND END       */   36560949
000700*    OF THE CURRENT ACADEMIC TERM.                           */   36560949
000800**************************************************************/   36560949
000900 IDENTIFICATION DIVISION.                                         PPEI507
001000 PROGRAM-ID. PPEI507.                                             PPEI507
001100*                                                                 PPEI507
001200**--------------------------------------------------------------- PPEI507
001300**  THIS MODULE WILL PERFORM THE DERIVATION OF A GRADUATE         PPEI507
001400**  STUDENT FLAG TO BE USED IN GRADUATE STUDENT REPORTING AND     PPEI507
001500**  WILL DERIVE THE CURRENT ACADEMIC TERM DATES.                  PPEI507
001600**--------------------------------------------------------------- PPEI507
001700**                                                                PPEI507
001800*AUTHOR. UCOP.                                                    PPEI507
001900*INSTALLATION. UNIVERSITY OF CALIFORNIA.                          PPEI507
002000*DATE-WRITTEN.  DECEMBER 1994.                                    PPEI507
002100*DATE-COMPILED.                                                   PPEI507
002200*                                                                 PPEI507
002300**--------------------------------------------------------------- PPEI507
002400***************************************************************** PPEI507
002500*                                                                 PPEI507
002600 ENVIRONMENT DIVISION.                                            PPEI507
002700 CONFIGURATION SECTION.                                           PPEI507
002800 SOURCE-COMPUTER.                                  COPY CPOTXUCS. PPEI507
002900 OBJECT-COMPUTER.                                  COPY CPOTXOBJ. PPEI507
003000*                                                                 PPEI507
003100 INPUT-OUTPUT SECTION.                                            PPEI507
003200 FILE-CONTROL.                                                    PPEI507
003300 DATA DIVISION.                                                   PPEI507
003400 FILE SECTION.                                                    PPEI507
003500     EJECT                                                        PPEI507
003600****************************************************************  PPEI507
003700 WORKING-STORAGE SECTION.                                         PPEI507
003800****************************************************************  PPEI507
003900 01  A-STND-PROG-ID            PIC X(15) VALUE                    PPEI507
004000     'PPEI507 /121494'.                                           PPEI507
004100*                                                                 PPEI507
004200 01  A-STND-MSG-PARMS          REDEFINES                          PPEI507
004300     A-STND-PROG-ID.                                              PPEI507
004400     05  FILLER                PIC X(03).                         PPEI507
004500     05  WS-ROUTINE-TYPE       PIC X(01).                         PPEI507
004600     05  WS-ROUTINE-NUM        PIC 9(03).                         PPEI507
004700     05  FILLER                PIC X(08).                         PPEI507
004800*                                                                 73151304
004900 01  WS-CALLED-ROUTINES.                                          73151304
005000     05  PGM-PPTCTUTL          PIC X(08)  VALUE 'PPTCTUTL'.       73151304
004800*                                                                 PPEI507
004900 01  MISC-WORK-AREAS.                                             PPEI507
005000     05  FIRST-TIME-SW         PIC X(01)  VALUE 'Y'.              PPEI507
005100         88  FIRST-TIME                   VALUE 'Y'.              PPEI507
005200         88  NOT-THE-FIRST-TIME           VALUE 'N'.              PPEI507
005300*                                                                 PPEI507
005400     05  WS-CTO                PIC X(03)  VALUE SPACES.           PPEI507
005500         88  VALID-GSR-CTO     VALUE '426', '436', '456',         PPEI507
005600                                     '467', '477'.                PPEI507
005700*                                                                 PPEI507
005800 01  MISC-DATA-AREAS.                                             PPEI507
005900     05  WS-TERM-PARM-NO       PIC S9(4) USAGE COMP VALUE +060.   PPEI507
006000     05  WS-EMP-CHG-TIMESTAMP.                                    PPEI507
006100         07  WS-TIMESTAMP-DATE.                                   PPEI507
006200             09  WS-TS-YYYY        PIC X(04).                     PPEI507
006300             09  FILLER            PIC X(01).                     PPEI507
006400             09  WS-TS-MM          PIC X(02).                     PPEI507
006500             09  FILLER            PIC X(01).                     PPEI507
006600             09  WS-TS-DD          PIC X(02).                     PPEI507
006700         07  FILLER            PIC X(16).                         PPEI507
006800     05  WS-YEAR               PIC 9(04) VALUE ZERO.              PPEI507
006900*                                                                 PPEI507
007000     05  WS-TERM-BEGIN.                                           PPEI507
007100         07  WS-TERM-BEGIN-YYYY  PIC X(04).                       PPEI507
007200         07  FILLER            PIC X     VALUE '-'.               PPEI507
007300         07  WS-TERM-BEGIN-MM-DD PIC X(05).                       PPEI507
007400*                                                                 PPEI507
007500     05  WS-TERM-END.                                             PPEI507
007600         07  WS-TERM-END-YYYY  PIC X(04).                         PPEI507
007700         07  FILLER            PIC X     VALUE '-'.               PPEI507
007800         07  WS-TERM-END-MM-DD PIC X(05).                         PPEI507
007900     05  WS-APPT-BEGIN         PIC X(10).
008000     05  WS-APPT-END           PIC X(10).
008100*                                                                 PPEI507
008200     05  WS-USA-CURRENT-DATE.                                     PPEI507
008300         07  WS-USA-MM         PIC X(02).                         PPEI507
008400         07  FILLER            PIC X     VALUE '/'.               PPEI507
008500         07  WS-USA-DD         PIC X(02).                         PPEI507
008600         07  FILLER            PIC X     VALUE '/'.               PPEI507
008700         07  WS-USA-YYYY       PIC X(04).                         PPEI507
008800*                                                                 PPEI507
008900     05  WS-TERM-DATES-MM-DD.                                     PPEI507
009000         07  TERM1-BEGIN       PIC X(5).                          PPEI507
009100         07  TERM1-END         PIC X(5).                          PPEI507
009200         07  TERM2-BEGIN       PIC X(5).                          PPEI507
009300         07  TERM2-END         PIC X(5).                          PPEI507
009400         07  TERM3-BEGIN       PIC X(5).                          PPEI507
009500         07  TERM3-END         PIC X(5).                          PPEI507
009600         07  TERM4-BEGIN       PIC X(5).                          PPEI507
009700         07  TERM4-END         PIC X(5).                          PPEI507
009800*                                                                 PPEI507
009900 01  APPT-DIST-SUBSCRIPTS.                                        PPEI507
010000     05  SEG-SUB                  PIC 9(02)  VALUE ZERO.          PPEI507
010100         88  SEG-SUB-IS-APPT                 VALUES 1  4  7 10    PPEI507
010200                                                   13 16 19 22    PPEI507
010300                                                   25.            PPEI507
010400     05  ELEMENT-SUB               PIC 9(01)  VALUE ZERO.         PPEI507
010500*                                                                 PPEI507
010600 01  CPWSTERM-TERM-DATES.                        COPY CPWSTERM.   PPEI507
010700*                                                                 PPEI507
010800 01  PPDB2MSG-INTERFACE.                         COPY CPLNKDB2.   PPEI507
010900     EJECT                                                        PPEI507
011000 01  XWHC-COMPILE-WORK-AREA.                     COPY CPWSXWHC.   PPEI507
011100     EJECT                                                        PPEI507
011200 01  PRM-ROW.                                                     PPEI507
011300     EXEC SQL INCLUDE PPPVZPRM  END-EXEC.                         PPEI507
011400*                                                                 PPEI507
011500*01  TCI-ROW.                                                     PPEI507
011510*01**DCLPPPVZTCI-TCI.                                             73151304
011600*****EXEC SQL INCLUDE PPPVZTCI END-EXEC.                          73151304
011700*****EJECT                                                        73151304
011800****************************************************************  PPEI507
011900**     E  X  T  E  R  N  A  L  S      S  E  C  T  I  O  N         PPEI507
012000****************************************************************  PPEI507
012100** THE FOLLOWING EXTERNAL AREAS WILL BE USED BY OTHER PROCESSES   PPEI507
012200****************************************************************  PPEI507
012300*                                                                 PPEI507
012400 01  PER-ROW                             EXTERNAL.                PPEI507
012500     EXEC SQL INCLUDE PPPVPER1 END-EXEC.                          PPEI507
012600     EJECT                                                        PPEI507
012700 01  AXD-ARRAY                     EXTERNAL.                      PPEI507
012800     03  FILLER      OCCURS 27.                                   PPEI507
012900         07  APP-ROW-DELETE-BYTE  PIC X(01).                      PPEI507
013000             88  APP-ROW-DELETED             VALUE HIGH-VALUES.   PPEI507
013100         07  APP-ROW-SEG-ID       PIC X(02).                      PPEI507
013200         07  FILLER  OCCURS 3.                                    PPEI507
013300             08  APP-ROW.                    COPY CPWSRAPP        PPEI507
013400                 REPLACING WORK-STUDY-PGM                         PPEI507
013500                        BY NULL-APPT-WORK-STUDY.                  PPEI507
013600     03  FILLER      OCCURS 27.                                   PPEI507
013700         07  DIS-ROW-DELETE-BYTE  PIC X(01).                      PPEI507
013800             88  DIS-ROW-DELETED             VALUE HIGH-VALUES.   PPEI507
013900         07  DIS-ROW-SEG-ID       PIC X(02).                      PPEI507
014000         07  FILLER  OCCURS 3.                                    PPEI507
014100             08  DIS-ROW.                    COPY CPWSRDIS.       PPEI507
014200*
014300 01  AXD-ARRAY-HOLD                EXTERNAL.
014400     03  FILLER      OCCURS 27.
014500         07  FILLER                PIC X(03).
014600         07  FILLER  OCCURS 3.
014700             08  PREV-APPT-ROW.              COPY CPWSRAPP
014800                 REPLACING
014900                  EMPLOYEE-ID         BY PREV-APPT-EMPLOYEE-ID
015000                  APPT-NUM            BY PREV-APPT-APPT-NUM
015100                  APPT-BEGIN-DATE     BY PREV-APPT-BEGN-DATE
015200                  APPT-END-DATE       BY PREV-APPT-END-DATE
015300                  TITLE-CODE          BY PREV-APPT-TITLE-CODE.
015400     03  FILLER      OCCURS 27 TIMES.
015500         07  FILLER                PIC X(03).
015600         07  FILLER  OCCURS 3 TIMES.
015700             08  PREV-DIST-ROW.              COPY CPWSRDIS.
015800     EJECT
015900*                                                                 PPEI507
016000 01  CPWSWORK                            EXTERNAL. COPY CPWSWORK. PPEI507
016100*                                                                 PPEI507
016200 01  ONLINE-SIGNALS                      EXTERNAL. COPY CPWSONLI. PPEI507
016300     EJECT                                                        PPEI507
016400 01  EDB-MAINTENANCE-PASS-AREA           EXTERNAL. COPY CPWSEMPA. PPEI507
016500     EJECT                                                        PPEI507
016510 01  PPTCTUTL-INTERFACE  EXTERNAL.               COPY CPLNKTCL.   73151304
016520     EJECT                                                        73151304
016600******************************************************************PPEI507
016700**                                                                PPEI507
016800     EXEC SQL                                                     PPEI507
016900         INCLUDE SQLCA                                            PPEI507
017000     END-EXEC.                                                    PPEI507
017100**                                                                PPEI507
017200******************************************************************PPEI507
017300     EJECT                                                        PPEI507
017400****************************************************************  PPEI507
017500**          L  I  N  K  A  G  E      S  E  C  T  I  O  N          PPEI507
017600****************************************************************  PPEI507
017700****************************************************************  PPEI507
017800 LINKAGE SECTION.                                                 PPEI507
017900****************************************************************  PPEI507
018000**  THE KRMI AREA IS A COMMON AREA THAT IS USED TO PASS           PPEI507
018100**  INFORMATION THAT IS REQUIRED FOR THIS MODULE TO EXECUTE       PPEI507
018200****************************************************************  PPEI507
018300*                                                                 PPEI507
018400 01  KRMI-LINKAGE-SECTION.                         COPY CPLNKRMI. PPEI507
018500     EJECT                                                        PPEI507
018600****************************************************************  PPEI507
018700**  THIS MESSAGE TABLE ARRAY WILL CONTAIN ALL MESSAGES THAT       PPEI507
018800**  THIS ROUTINE CAN LOGICALLY ISSUE AT ONE TIME                  PPEI507
018900****************************************************************  PPEI507
019000*                                                                 PPEI507
019100 01  KMTA-MESSAGE-TABLE-ARRAY.                     COPY CPLNKMTA. PPEI507
019200*                                                                 PPEI507
019300****************************************************************  PPEI507
019400**    P  R  O  C  E  D  U  R  E      D  I  V  I  S  I  O  N       PPEI507
019500****************************************************************  PPEI507
019600 PROCEDURE DIVISION USING KRMI-LINKAGE-SECTION,                   PPEI507
019700                          KMTA-MESSAGE-TABLE-ARRAY.               PPEI507
019800*                                                                 PPEI507
019900*-------------------------------------------------------------    PPEI507
020000 0000-MAINLINE  SECTION.                                          PPEI507
020100*-------------------------------------------------------------    PPEI507
020200     EXEC SQL                                                     PPEI507
020300          INCLUDE CPPDXE99                                        PPEI507
020400     END-EXEC.                                                    PPEI507
020500     EJECT                                                        PPEI507
020600****************************************************************  PPEI507
020700     IF  FIRST-TIME                                               PPEI507
020800         SET NOT-THE-FIRST-TIME        TO TRUE                    PPEI507
020900         MOVE A-STND-PROG-ID  TO DB2MSG-PGM-ID                    PPEI507
021000*                                                                 PPEI507
021100         IF KRMI-REQ-KEY-CHANGE                                   PPEI507
021200             MOVE EMP-CHANGED-AT OF PER-ROW TO                    PPEI507
021300                                          WS-EMP-CHG-TIMESTAMP    PPEI507
021400         ELSE                                                     PPEI507
021500             MOVE ISO-TODAYS-DATE TO WS-TIMESTAMP-DATE            PPEI507
021600         END-IF                                                   PPEI507
021700         MOVE WS-TS-YYYY TO WS-USA-YYYY                           PPEI507
021800         MOVE WS-TS-MM   TO WS-USA-MM                             PPEI507
021900         MOVE WS-TS-DD   TO WS-USA-DD                             PPEI507
022000*                                                                 PPEI507
022100         IF NOT ENVIRON-IS-CICS                                   PPEI507
022200             PERFORM 0300-DISPLAY-COMPILE-STAMP                   PPEI507
022300         END-IF                                                   PPEI507
022400*                                                                 PPEI507
022500         PERFORM 2000-ESTABLISH-TERM-DATES                        PPEI507
022600     END-IF.                                                      PPEI507
022700*                                                                 PPEI507
022800     PERFORM 1000-SET-GRAD-STUDENT-FLAG.                          PPEI507
022900*                                                                 PPEI507
023000     GOBACK.                                                      PPEI507
023100*                                                                 PPEI507
023200*-------------------------------------------------------------    PPEI507
023300 0300-DISPLAY-COMPILE-STAMP  SECTION.                             PPEI507
023400*-------------------------------------------------------------    PPEI507
023500****************************************************************  PPEI507
023600* EXECUTE CODE IN COPYBOOK TO DISPLAY COMPILE TIMESTAMP           PPEI507
023700****************************************************************  PPEI507
023800     MOVE A-STND-PROG-ID TO XWHC-DISPLAY-MODULE.                  PPEI507
023900*                                               *-------------*   PPEI507
024000                                                 COPY CPPDXWHC.   PPEI507
024100*                                               *-------------*   PPEI507
024200 0300-EXIT.     EXIT.                                             PPEI507
024300     EJECT                                                        PPEI507
024400*-------------------------------------------------------------    PPEI507
024500 1000-SET-GRAD-STUDENT-FLAG   SECTION.                            PPEI507
024600*-------------------------------------------------------------    PPEI507
024700****************************************************************  PPEI507
024800** IF STUDENT STATUS IS EQUAL TO 2 OR 4, THEN IT ISN'T            PPEI507
024900** NECESSARY TO SEARCH THE APPOINTMENTS AND DISTRIBUTION ROWS.    PPEI507
025000****************************************************************  PPEI507
025100*                                                                 PPEI507
025200     MOVE SPACES TO CPWSWORK-GRAD-STUDENT-FLAG.                   PPEI507
025300     IF STUDENT-STATUS = '2' OR '4'                               PPEI507
025400         SET CPWSWORK-GRAD-STUDENT TO TRUE                        PPEI507
025500     ELSE                                                         PPEI507
025600         PERFORM 3000-PROCESS-APPTS                               PPEI507
025700     END-IF.                                                      PPEI507
025800                                                                  PPEI507
025900*-------------------------------------------------------------    PPEI507
026000 2000-ESTABLISH-TERM-DATES  SECTION.                              PPEI507
026100*-------------------------------------------------------------    PPEI507
026200****************************************************************  PPEI507
026300* LOOK UP SYSTEM PARAMETER 060 TO DETERMINE WHETHER THE           PPEI507
026400* CAMPUS IS ON THE SEMESTER PLAN OR QUARTER PLAN.                 PPEI507
026500* ESTABLISH THE BEGIN AND END DATE FOR THE CURRENT TERM.          PPEI507
026600****************************************************************  PPEI507
026700*                                                                 PPEI507
026800     MOVE SPACES TO CPWSWORK-BEGIN-TERM-DATE,                     PPEI507
026900                    CPWSWORK-END-TERM-DATE.                       PPEI507
027000     PERFORM 9600-SELECT-PRM.                                     PPEI507
027100     IF SQLCODE = +100                                            PPEI507
027200         MOVE 'SELECT PRM ROW:PARM 60 MISSING' TO DB2MSG-TAG      PPEI507
027300         PERFORM 999999-SQL-ERROR                                 PPEI507
027400     END-IF.                                                      PPEI507
027500*                                                                 PPEI507
027600     MOVE PRM-DATA TO CPWSTERM-TERM-TYPE.                         PPEI507
027700*                                                                 PPEI507
027800     IF TERM-QUARTERS                                             PPEI507
027900         MOVE QUARTER-TERM-DATES TO WS-TERM-DATES-MM-DD           PPEI507
028000         PERFORM 2100-GET-QTR-TERM-DATES                          PPEI507
028100     ELSE                                                         PPEI507
028200         MOVE SEMESTER-TERM-DATES TO WS-TERM-DATES-MM-DD          PPEI507
028300         PERFORM 2300-GET-SEM-TERM-DATES                          PPEI507
028400     END-IF.                                                      PPEI507
028500*                                                                 PPEI507
028600*                                                                 PPEI507
028700     MOVE WS-TERM-BEGIN TO CPWSWORK-BEGIN-TERM-DATE.              PPEI507
028800     MOVE WS-TERM-END   TO CPWSWORK-END-TERM-DATE.                PPEI507
028900*                                                                 PPEI507
029000 2000-EXIT.    EXIT.                                              PPEI507
029100*                                                                 PPEI507
029200*-------------------------------------------------------------    PPEI507
029300 2100-GET-QTR-TERM-DATES SECTION.                                 PPEI507
029400*-------------------------------------------------------------    PPEI507
029500*                                                                 PPEI507
029600     MOVE WS-TS-YYYY TO WS-TERM-BEGIN-YYYY                        PPEI507
029700                                  WS-TERM-END-YYYY.               PPEI507
029800     MOVE TERM1-BEGIN TO WS-TERM-BEGIN-MM-DD.                     PPEI507
029900     MOVE TERM1-END      TO WS-TERM-END-MM-DD.                    PPEI507
030000     IF WS-TIMESTAMP-DATE NOT GREATER THAN WS-TERM-END            PPEI507
030100         NEXT SENTENCE                                            PPEI507
030200     ELSE                                                         PPEI507
030300         MOVE TERM2-BEGIN TO WS-TERM-BEGIN-MM-DD                  PPEI507
030400         MOVE TERM2-END   TO WS-TERM-END-MM-DD                    PPEI507
030500         IF WS-TIMESTAMP-DATE NOT GREATER THAN WS-TERM-END        PPEI507
030600             NEXT SENTENCE                                        PPEI507
030700         ELSE                                                     PPEI507
030800             MOVE TERM3-BEGIN TO WS-TERM-BEGIN-MM-DD              PPEI507
030900             MOVE TERM3-END   TO WS-TERM-END-MM-DD                PPEI507
031000             IF WS-TIMESTAMP-DATE NOT GREATER THAN WS-TERM-END    PPEI507
031100                 NEXT SENTENCE                                    PPEI507
031200             ELSE                                                 PPEI507
031300                 MOVE TERM4-BEGIN TO WS-TERM-BEGIN-MM-DD          PPEI507
031400                 MOVE TERM4-END   TO WS-TERM-END-MM-DD            PPEI507
031500             END-IF                                               PPEI507
031600         END-IF                                                   PPEI507
031700     END-IF.                                                      PPEI507
031800*                                                                 PPEI507
031900 2100-EXIT.    EXIT.                                              PPEI507
032000*                                                                 PPEI507
032100*-------------------------------------------------------------    PPEI507
032200 2300-GET-SEM-TERM-DATES SECTION.                                 PPEI507
032300*-------------------------------------------------------------    PPEI507
032400*                                                                 PPEI507
032500     MOVE WS-TS-YYYY TO WS-TERM-BEGIN-YYYY                        PPEI507
032600                                  WS-TERM-END-YYYY.               PPEI507
032700     MOVE TERM1-BEGIN TO WS-TERM-BEGIN-MM-DD.                     PPEI507
032800     MOVE TERM1-END   TO WS-TERM-END-MM-DD.                       PPEI507
032900     IF WS-TIMESTAMP-DATE NOT GREATER THAN WS-TERM-END            PPEI507
033000         NEXT SENTENCE                                            PPEI507
033100     ELSE                                                         PPEI507
033200         MOVE TERM2-BEGIN TO WS-TERM-BEGIN-MM-DD                  PPEI507
033300         MOVE TERM2-END   TO WS-TERM-END-MM-DD                    PPEI507
033400         IF WS-TIMESTAMP-DATE NOT GREATER THAN WS-TERM-END        PPEI507
033500             NEXT SENTENCE                                        PPEI507
033600         ELSE                                                     PPEI507
033700             MOVE TERM3-BEGIN TO WS-TERM-BEGIN-MM-DD              PPEI507
033800             MOVE TERM3-END   TO WS-TERM-END-MM-DD                PPEI507
033900         END-IF                                                   PPEI507
034000     END-IF.                                                      PPEI507
034100*                                                                 PPEI507
034200 2300-EXIT.    EXIT.                                              PPEI507
034300*                                                                 PPEI507
034400*-------------------------------------------------------------    PPEI507
034500 3000-PROCESS-APPTS    SECTION.                                   PPEI507
034600*-------------------------------------------------------------    PPEI507
034700* * EXAMINE ALL EDB APPOINTMENTS                                  PPEI507
034800     MOVE 1                     TO SEG-SUB.                       PPEI507
034900     MOVE ZERO                  TO ELEMENT-SUB.                   PPEI507
035000 3005-AXD-LOOP.                                                   PPEI507
035100     IF CPWSWORK-GRAD-STUDENT                                     PPEI507
035200         GO TO 3000-EXIT                                          PPEI507
035300     END-IF.                                                      PPEI507
035400     ADD 1                     TO ELEMENT-SUB.                    PPEI507
035500     IF  ELEMENT-SUB  > 3                                         PPEI507
035600         MOVE 1                 TO ELEMENT-SUB                    PPEI507
035700         ADD 1                  TO SEG-SUB                        PPEI507
035800     END-IF.                                                      PPEI507
035900     IF  SEG-SUB   > 27                                           PPEI507
036000         GO TO 3000-EXIT                                          PPEI507
036100     END-IF.                                                      PPEI507
036200     IF  ELEMENT-SUB = 1   AND                                    PPEI507
036300         SEG-SUB-IS-APPT                                          PPEI507
036400         IF APPT-NUM      OF APP-ROW (SEG-SUB, 1) = ZERO          PPEI507
036500                         AND
036600           PREV-APPT-APPT-NUM  (SEG-SUB, 1) = ZERO
036700             ADD  3                     TO SEG-SUB                PPEI507
036800             MOVE ZERO                  TO ELEMENT-SUB            PPEI507
036900         ELSE                                                     PPEI507
037000             PERFORM 3100-PROCESS-APPOINTMENT                     PPEI507
037100         END-IF                                                   PPEI507
037200     ELSE                                                         PPEI507
037300         CONTINUE                                                 PPEI507
037400     END-IF.                                                      PPEI507
037500     GO TO 3005-AXD-LOOP.                                         PPEI507
037600*                                                                 PPEI507
037700 3000-EXIT.    EXIT.                                              PPEI507
037800*                                                                 PPEI507
037900*-----------------------------------------------------------------PPEI507
038000 3100-PROCESS-APPOINTMENT  SECTION.                               PPEI507
038100*-----------------------------------------------------------------PPEI507
038200                                                                  PPEI507
038300* CHECK APPOINTMENT DATES AGAINST TERM DATES.                     PPEI507
038400* IF APPOINTMENT IS ACTIVE DURING THE TERM, THEN CHECK THE CTO    PPEI507
038500* VALUE IN THE TITLE CODE TABLE.                                  PPEI507
038600*                                                                 PPEI507
038700     IF APPT-NUM OF APP-ROW (SEG-SUB, 1) = ZERO
038800         MOVE PREV-APPT-BEGN-DATE (SEG-SUB, 1) TO WS-APPT-BEGIN
038900         MOVE PREV-APPT-END-DATE  (SEG-SUB, 1) TO WS-APPT-END
039000******** MOVE PREV-APPT-TITLE-CODE (SEG-SUB, 1) TO TCI-TITLE-CODE 73151304
039010         MOVE PREV-APPT-TITLE-CODE (SEG-SUB, 1)                   73151304
039020                                    TO XTCL-CHOSEN-TITLE-CODE     73151304
039100     ELSE
039200         MOVE APPT-BEGIN-DATE (SEG-SUB, 1) TO WS-APPT-BEGIN
039300         MOVE APPT-END-DATE   (SEG-SUB, 1) TO WS-APPT-END
039400         MOVE TITLE-CODE OF APP-ROW (SEG-SUB, 1)
039500********************************************TO TCI-TITLE-CODE     73151304
039510                                    TO XTCL-CHOSEN-TITLE-CODE     73151304
039600     END-IF.
039700*
039800     IF WS-APPT-END   >  WS-TERM-BEGIN
039900         IF WS-APPT-BEGIN <   WS-TERM-END
040000********     PERFORM 9700-SELECT-TCI                              73151304
040100********     IF SQLCODE = +100                                    73151304
040200********         CONTINUE                                         73151304
040300********     ELSE                                                 73151304
040301********         MOVE TCI-CTO-OSC   TO WS-CTO                     73151304
040310             PERFORM 9700-CALL-PPTCTUTL                           73151304
040500                 IF VALID-GSR-CTO                                 PPEI507
040600                     SET CPWSWORK-GRAD-STUDENT TO TRUE            PPEI507
040700                 END-IF                                           PPEI507
040800********     END-IF                                               73151304
040900         END-IF                                                   PPEI507
041000     END-IF.                                                      PPEI507
041100 3100-EXIT.    EXIT.                                              PPEI507
041200*                                                                 PPEI507
041300*-------------------------------------------------------------    PPEI507
041400 9600-SELECT-PRM  SECTION.                                        PPEI507
041500*-------------------------------------------------------------    PPEI507
041600* *    GET DATA FOR SYSTEM PARAMETER 60 FROM THE PRM TABLE        PPEI507
041700*                                                                 PPEI507
041800     MOVE 060 TO WS-TERM-PARM-NO.                                 PPEI507
041900     MOVE    'SELECT PRM ROW'    TO DB2MSG-TAG.                   PPEI507
042000     EXEC SQL                                                     PPEI507
042100         SELECT PRM_DATA                                          PPEI507
042200             INTO :PRM-DATA                                       PPEI507
042300         FROM PPPVZPRM_PRM                                        PPEI507
042400         WHERE PRM_NUMBER = :WS-TERM-PARM-NO                      PPEI507
042500     END-EXEC.                                                    PPEI507
042600*                                                                 PPEI507
042700*-------------------------------------------------------------    PPEI507
042800*9700-SELECT-TCI  SECTION.                                        73151304
042900*-------------------------------------------------------------    73151304
043000*******GET TITLE CODE ENTRY FOR CTO CODE USAGE                    73151304
043100********                                                          73151304
043200*****MOVE    'SELECT TCI ROW'    TO DB2MSG-TAG.                   73151304
043300*****MOVE    WS-USA-CURRENT-DATE TO TCI-CI-EFF-DT.                73151304
043400*****EXEC    SQL                                                  73151304
043500********     SELECT              *                                73151304
043600********               INTO      :DCLPPPVZTCI-TCI                 73151304
043700********               FROM      PPPVZTCI_TCI                     73151304
043800********               WHERE     TCI_TITLE_CODE                   73151304
043900********                         =    :TCI-TITLE-CODE             73151304
044000********                    AND  TCI_UPDT_TIMESTAMP               73151304
044100********                         =                                73151304
044200********               (SELECT   MAX  (TCI_UPDT_TIMESTAMP)        73151304
044300********                    FROM PPPVZTCI_TCI                     73151304
044400********                    WHERE     TCI_TITLE_CODE              73151304
044500********                         =    :TCI-TITLE-CODE             73151304
044600********                         AND  TCI_CI_EFF_DT               73151304
044700********                         =                                73151304
044800********               (SELECT   MAX  (TCI_CI_EFF_DT)             73151304
044900********                    FROM PPPVZTCI_TCI                     73151304
045000********                    WHERE     TCI_TITLE_CODE              73151304
045100********                         =    :TCI-TITLE-CODE             73151304
045200********                         AND  TCI_CI_EFF_DT               73151304
045300********                           <= :TCI-CI-EFF-DT))            73151304
045400*****END-EXEC.                                                    73151304
045500 9700-CALL-PPTCTUTL   SECTION.                                    73151304
045510                                                                  73151304
045511     SET XTCL-READ-CHOSEN-TITLE TO TRUE.                          73151304
045512     CALL PGM-PPTCTUTL.                                           73151304
045513                                                                  73151304
045516     IF  XTCL-STATUS-NORMAL-END                                   73151304
045517         IF  XTCL-TITLE-EXISTS                                    73151304
045518             MOVE XTCL-CTO-OSC TO WS-CTO                          73151304
045523         END-IF                                                   73151304
045524     ELSE                                                         73151304
045525         MOVE SPACES           TO WS-CTO                          73151304
045531     END-IF.                                                      73151304
045532                                                                  73151304
045500 9700-EXIT.      EXIT.                                            PPEI507
045600*                                                                 PPEI507
045700******************************************************************PPEI507
045800*999999-SQL-ERROR.                                               *PPEI507
045900******************************************************************PPEI507
046000*    THIS CODE IS EXECUTED IF A NEGATIVE SQLCODE IS RETURNED     *PPEI507
046100******************************************************************PPEI507
046200     EXEC SQL                                                     PPEI507
046300          INCLUDE CPPDXP99                                        PPEI507
046400     END-EXEC.                                                    PPEI507
046500     SET KRMI-RETURN-WITH-SQLCODE  TO TRUE.                       PPEI507
046600*                                                                 PPEI507
046700     GOBACK.                                                      PPEI507
046800*                                                                 PPEI507
046900****************************************************************  PPEI507
047000**   E N D  S O U R C E   ----  PPEI507 ----                      PPEI507
047100****************************************************************  PPEI507
