000100*==========================================================%      UCSDNNNN
000200*= UCSD LOCAL CHANGES HAVE BEEN IMPLEMENTED.              =%      UCSDNNNN
000300*= COLUMN 73 THRU 80 DENOTES CHANGE NUMBER - UCSDNNNN     =%      UCSDNNNN
000400*==========================================================%      UCSDNNNN
000500*==========================================================%      EFIX690
000600*=    PROGRAM: PPEM111                                    =%      EFIX690
000700*=    CHANGE # EFIX690      PROJ. REQUEST: UCOP REL690_   =%      EFIX690
000800*=    NAME: JIM PIERCE      MODIFICATION DATE: 02/04/93   =%      EFIX690
000900*=                                                        =%      EFIX690
001000*=    DESCRIPTION:                                        =%      EFIX690
001100*=    RELEASE 690 IS PRESENT BUT CODE IS COMMENTED OUT    =%      EFIX690
001200*==========================================================%      EFIX690
001300**************************************************************/   05201511
001400*  PROGRAM: PPEM111                                          */   05201511
001500*  RELEASE: ___1511______ SERVICE REQUEST(S): ____80520____  */   05201511
001600*  NAME:_______QUAN______ MODIFICATION DATE:  ___08/15/03__  */   05201511
001700*  DESCRIPTION:                                              */   05201511
001800*  - DON'T SET BENEFITS ELIGIBILITY DATE (EDB 0361) WHEN     */   05201511
001900*    BELI-IND GOES TO '?'.                                   */   05201511
002000**************************************************************/   05201511
000000**************************************************************/   76591386
000001*  PROGRAM: PPEM111                                          */   76591386
000002*  RELEASE: ___1386______ SERVICE REQUEST(S): ____17659____  */   76591386
000003*  NAME:_______QUAN______ MODIFICATION DATE:  ___11/30/01__  */   76591386
000004*  DESCRIPTION:                                              */   76591386
000005*  - IF THE HIRE DATE HAS NOT BEEN ACHIEVED (LATER THAN TODAY*/   76591386
000006*    DATE), DON'T SET THE BELI-IND BACK TO '?'.              */   76591386
000007**************************************************************/   76591386
000000**************************************************************/   28521025
000001*  PROGRAM: PPEM111                                          */   28521025
000002*  RELEASE: ___1025______ SERVICE REQUEST(S): ____12852____  */   28521025
000003*  NAME:_______QUAN______ MODIFICATION DATE:  ___08/01/95__  */   28521025
000004*  DESCRIPTION:                                              */   28521025
000005*  - DATE CONVERSION PROJECT:                                */   28521025
000006*    DATES CB01-MNTH-END-YRMO AND CB01-1MO-PRIOR-YRMO HAVE   */   28521025
000007*    BEEN COMMENTED OUT. CALLED MODULE PPCB01 WILL OBTAIN    */   28521025
000008*    THESE DATE BY REFERENCING EXTERNAL CPWSXDTS.            */   28521025
000010**************************************************************/   28521025
000000**************************************************************/   26890966
000001*  PROGRAM: PPEM111                                          */   26890966
000002*  RELEASE: ___0966______ SERVICE REQUEST(S): ____12689____  */   26890966
000003*  NAME:_______QUAN______ MODIFICATION DATE:  ___02/14/95__  */   26890966
000004*  DESCRIPTION:                                              */   26890966
000005*  -  CHANGED CRITERIA FOR INCONSISTENCY EDIT BETWEEN        */   26890966
000006*     BELI IND AND DERIVED BELI IND.                         */   26890966
000007*  -  CONVERTED DATE CONVERSION TO CPWSXDC3 AND CPPDXDC3.    */   26890966
000008**************************************************************/   26890966
000100*  PROGRAM: PPEM111                                          */   16160883
000200*  RELEASE: ___0883______ SERVICE REQUEST(S): ____11616____  */   16160883
000300*  NAME:_____M. SANO_____ MODIFICATION DATE:  ___01/27/94__  */   16160883
000400*  DESCRIPTION:                                              */   16160883
000500*  - DELETE CODE NOW EXECUTED BY PPEI204 TO DERIVE BELI-DATE */   16160883
000600*    (0361), BELI-CHANGEDATE (0183) AND BELI-EFF-DATE (0341) */   16160883
000700**************************************************************/   16160883
001300**************************************************************/   36410753
001400*  PROGRAM: PPEM111                                          */   36410753
001500*  RELEASE: ___0753______ SERVICE REQUEST(S): ____3641_____  */   36410753
001600*  NAME:_____JLT_________ MODIFICATION DATE:  ___03/31/93__  */   36410753
001700*  DESCRIPTION:                                              */   36410753
001800*  - REMOVE SUBSCRIPT VIOLATION & CORRECT ELEMENT NUMBER     */   36410753
001900*    ASSOCIATED WITH MSSG 12-336; E.R. #934.                 */   36410753
002000**************************************************************/   36410753
006300**************************************************************/   36410735
006400*  PROGRAM: PPEM111                                          */   36410735
001500*  RELEASE: ___0735______ SERVICE REQUEST(S): _____3641____  */   36410735
001600*  NAME:_______PXP_______ MODIFICATION DATE:  __02/01/93____ */   36410735
006700*  DESCRIPTION:                                              */   36410735
006800*  CORRECT ERROR IN INTERFACE TO PPCB01 PER ERROR            */   36410735
006900*  REPORT #910                                               */   36410735
002000**************************************************************/   36410735
002100*----------------------------------------------------------------*36410717
002200*|**************************************************************|*36410717
002300*|* PROGRAM: PPEM111                                           *|*36410717
002400*|*  RELEASE: __0717_______ SERVICE REQUEST(S): _____3641____  *|*36410717
002500*|*  NAME:______UCOP_______ MODIFICATION DATE:  ___11/19/92__  *|*36410717
002600*|*  DESCRIPTION:                                              *|*36410717
002700*|*  - EDB MAINTENANCE RE-ENGINEERING PROJECT                  *|*36410717
002800*|*  - (RE-)DERIVE BELI                                        *|*36410717
002900*|**************************************************************|*36410717
003000*----------------------------------------------------------------*36410717
003100                                                                  PPEM111
003200 IDENTIFICATION DIVISION.                                         PPEM111
003300 PROGRAM-ID. PPEM111.                                             PPEM111
003400 AUTHOR. BUSINESS INFORMATION TECHNOLOGY.                         PPEM111
003500 INSTALLATION. UNIVERSITY OF CALIFORNIA.                          PPEM111
003600                                                                  PPEM111
003700 DATE-WRITTEN.  AUGUST 22,1992.                                   PPEM111
003800 DATE-COMPILED. XX/XX/XX.                                         PPEM111
003900     EJECT                                                        PPEM111
004000 ENVIRONMENT DIVISION.                                            PPEM111
004100 CONFIGURATION SECTION.                                           PPEM111
004200 SOURCE-COMPUTER.                                  COPY CPOTXUCS. PPEM111
004300 OBJECT-COMPUTER.                                  COPY CPOTXOBJ. PPEM111
004400 SPECIAL-NAMES.                C01 IS NEW-PAGE.                   PPEM111
004500 INPUT-OUTPUT SECTION.                                            PPEM111
004600 FILE-CONTROL.                                                    PPEM111
004700                                                                  PPEM111
004800 DATA DIVISION.                                                   PPEM111
004900 FILE SECTION.                                                    PPEM111
005000     EJECT                                                        PPEM111
005100*----------------------------------------------------------------*PPEM111
005200 WORKING-STORAGE SECTION.                                         PPEM111
005300*----------------------------------------------------------------*PPEM111
005400                                                                  PPEM111
005500 01  A-STND-PROG-ID                   PIC X(15) VALUE             PPEM111
010600*****                                                          CD 05201511
010700*****'PPEM111 /113001'.                                           05201511
010800     'PPEM111 /081503'.                                           05201511
005700                                                                  PPEM111
005800 01  A-STND-MSG-PARMS                 REDEFINES                   PPEM111
005900     A-STND-PROG-ID.                                              PPEM111
006000     05  FILLER                       PIC X(03).                  PPEM111
006100     05  WS-ROUTINE-TYPE              PIC X(01).                  PPEM111
006200     05  WS-ROUTINE-NUM               PIC 9(03).                  PPEM111
006300     05  FILLER                       PIC X(08).                  PPEM111
006400                                                                  PPEM111
006500 01  MESSAGES-USED.                                               PPEM111
006600     05  M00926                       PIC  X(5) VALUE '00926'.    PPEM111
006700     05  M00927                       PIC  X(5) VALUE '00927'.    PPEM111
006800     05  M08301                       PIC  X(5) VALUE '08301'.    PPEM111
006900     05  M12301                       PIC  X(5) VALUE '12301'.    PPEM111
007100     05  M12336                       PIC  X(5) VALUE '12336'.    PPEM111
007200     05  XXX001                       PIC  X(5) VALUE 'XX001'.    PPEM111
007300                                                                  PPEM111
007400 01  ELEMENTS-USED.                                               PPEM111
007500     05  E0183                        PIC  9(4) VALUE  0183.      PPEM111
007600     05  E0341                        PIC  9(4) VALUE  0341.      PPEM111
007700     05  E0360                        PIC  9(4) VALUE  0360.      PPEM111
012900*****05  E0361                        PIC  9(4) VALUE  0361.      05201511
007900     05  E0375                        PIC  9(4) VALUE  0375.      PPEM111
008000     05  E0376                        PIC  9(4) VALUE  0376.      PPEM111
008100     05  E0377                        PIC  9(4) VALUE  0377.      PPEM111
008200     05  E0378                        PIC  9(4) VALUE  0378.      PPEM111
008300     05  E0379                        PIC  9(4) VALUE  0379.      PPEM111
008400                                                                  PPEM111
008500 01  MISC-WORK-AREAS.                                             PPEM111
008600     05  FIRST-TIME-SW                PIC  X(1) VALUE LOW-VALUES. PPEM111
008700         88  THIS-IS-THE-FIRST-TIME             VALUE LOW-VALUES. PPEM111
008800         88  NOT-THE-FIRST-TIME                 VALUE 'Y'.        PPEM111
008900     05  LAST-DAY-OF-MONTH            PIC X(24) VALUE             PPEM111
009000         '312831303130313130313031'.                              PPEM111
009100     05  FILLER  REDEFINES                                        PPEM111
009200         LAST-DAY-OF-MONTH.                                       PPEM111
009300         10  LAST-DAY   OCCURS 12     PIC 9(2).                   PPEM111
009400     05  I1                           PIC S9(4) VALUE +0.         PPEM111
009500                                                                  PPEM111
009600     EJECT                                                        PPEM111
009700 01  CBUC-FLAG-ARRAY.                                             PPEM111
009800     05  FILLER                       PIC  9(9) VALUE ZEROS.      PPEM111
009900                                                                  PPEM111
010000 01  CBUC-FLAG-ARRAY-R  REDEFINES                                 PPEM111
010100     CBUC-FLAG-ARRAY.                                             PPEM111
010200     05  CBUC-APPT-FLAGS   OCCURS 9.                              PPEM111
010300         10  CBUC-APPT-FLAG           PIC  9(1).                  PPEM111
010400                                                                  PPEM111
010500 01  CBUC-WORK-AREAS.                                             PPEM111
010600     05  CBUC-DIFF-SWITCH             PIC S9(2) VALUE +0.         PPEM111
010700     05  CBUC-OLD-CODE                PIC  X(2) VALUE SPACES.     PPEM111
010800     05  CBUC-SAVE-CODE               PIC  X(2) VALUE SPACES.     PPEM111
010900     05  CBUC-SAVE-PCT                PIC  9V99 VALUE ZEROS.      PPEM111
011000     05  CBUC-EXCEPTION               PIC  X(2) VALUE '87'.       PPEM111
011100     05  CBUC-VALUE-88                PIC  X(2) VALUE '88'.       PPEM111
011200     05  CBUC-VALUE-99                PIC  X(2) VALUE '99'.       PPEM111
011300     05  CB-TTL-SW                    PIC  X(1).                  PPEM111
011400                                                                  PPEM111
011600     05  CB-MSG-TBL-12.                                           36410735
011700         10  FILLER                   PIC  9(5) VALUE 12201.      PPEM111
011800         10  FILLER                   PIC  9(5) VALUE 12202.      PPEM111
011900         10  FILLER                   PIC  9(5) VALUE 12203.      PPEM111
012000         10  FILLER                   PIC  9(5) VALUE 12204.      PPEM111
012100         10  FILLER                   PIC  9(5) VALUE 12205.      PPEM111
012200         10  FILLER                   PIC  9(5) VALUE 12206.      PPEM111
012300         10  FILLER                   PIC  9(5) VALUE 12208.      PPEM111
012400         10  FILLER                   PIC  9(5) VALUE 12209.      PPEM111
012500         10  FILLER                   PIC  9(5) VALUE 12210.      PPEM111
012600         10  FILLER                   PIC  9(5) VALUE 12211.      PPEM111
012700         10  FILLER                   PIC  9(5) VALUE 12212.      PPEM111
012800     05  CB-MSG-TBL-08.                                           36410735
017900         10  FILLER                   PIC 9(05) VALUE 08201.      36410735
018000         10  FILLER                   PIC 9(05) VALUE 08202.      36410735
018100         10  FILLER                   PIC 9(05) VALUE 08203.      36410735
018200         10  FILLER                   PIC 9(05) VALUE 08204.      36410735
018300         10  FILLER                   PIC 9(05) VALUE 08205.      36410735
018400         10  FILLER                   PIC 9(05) VALUE 08206.      36410735
018500         10  FILLER                   PIC 9(05) VALUE 08208.      36410735
018600         10  FILLER                   PIC 9(05) VALUE 08209.      36410735
018700         10  FILLER                   PIC 9(05) VALUE 08210.      36410735
018800         10  FILLER                   PIC 9(05) VALUE 08211.      36410735
018900         10  FILLER                   PIC 9(05) VALUE 08212.      36410735
014100                                                                  PPEM111
014200     EJECT                                                        PPEM111
014300 01  CALLED-MODULES.                               COPY CPWSXRTN. PPEM111
014400                                                                  PPEM111
014500                                                                  PPEM111
014600     EJECT                                                        PPEM111
014700 01  DL-FIELD-WORK-AREA.                           COPY CPWSXDLS. PPEM111
014800                                                                  PPEM111
014900     EJECT                                                        PPEM111
015210 01  DATE-CONVERSION-WORK-AREAS.                   COPY CPWSXDC3. 26890966
015100                                                                  PPEM111
015200     EJECT                                                        PPEM111
015300 01  XWHC-COMPILE-WORK-AREA.                       COPY CPWSXWHC. PPEM111
015400                                                                  PPEM111
015500     EJECT                                                        PPEM111
015900*****                                                             76591386
020600*****                                                          CD 05201511
016200 01  APPT-DIST-LOC-WORK-AREAS.                     COPY CPWSADLC. PPEM111
016300                                                                  PPEM111
016400     EJECT                                                        PPEM111
016500 01  INSTALLATION-DEPENDT-CONSTANTS.               COPY CPWSXIDC. PPEM111
016600                                                                  PPEM111
016700     EJECT                                                        PPEM111
016800 01  PPPBELI-INTERFACE.                            COPY CPLNKBEL. PPEM111
016900                                                                  PPEM111
017000     EJECT                                                        PPEM111
017100******************************************************************PPEM111
017200**     E  X  T  E  R  N  A  L  S      S  E  C  T  I  O  N       **PPEM111
017300**--------------------------------------------------------------**PPEM111
017400** THE FOLLOWING EXTERNAL AREAS WILL BE USED BY OTHER PROCESSES **PPEM111
017500******************************************************************PPEM111
017600                                                                  PPEM111
017700 01  COMM-TAB                            EXTERNAL. COPY CPOTXCMF. PPEM111
017800                                                                  PPEM111
017900     EJECT                                                        PPEM111
018000 01  DATA-ELEMENT-CHANGE-INDICATORS      EXTERNAL. COPY CPWSXDEC. PPEM111
018100                                                                  PPEM111
018200     EJECT                                                        PPEM111
018300 01  XCSS-COMMON-SYSTEM-SWITCHES         EXTERNAL. COPY CPWSSWCH. PPEM111
018400                                                                  PPEM111
018500     EJECT                                                        PPEM111
018600 01  XDTS-COMMON-SYSTEM-DATES            EXTERNAL. COPY CPWSXDTS. PPEM111
018700                                                                  PPEM111
018800     EJECT                                                        PPEM111
018900 01  ECES-CON-EDIT-SWITCH                EXTERNAL. COPY CPWSECES. PPEM111
019000                                                                  PPEM111
019100 01  EGES-GTN-EDIT-SWITCH                EXTERNAL. COPY CPWSEGES. PPEM111
019200                                                                  PPEM111
019300 01  EIMS-IMPL-MAINT-SWITCH              EXTERNAL. COPY CPWSEIMS. PPEM111
019400                                                                  PPEM111
019500 01  EAXD-APPT-ARRAY-SWITCH              EXTERNAL. COPY CPWSEAXD. PPEM111
019600                                                                  PPEM111
019700     EJECT                                                        PPEM111
019800 01  XDER-DATA-ELMT-RTN-POINTERS         EXTERNAL. COPY CPWSXDER. PPEM111
019900                                                                  PPEM111
020000     EJECT                                                        PPEM111
020100 01  XDRT-DET-ROUTINE-TRIGGERS           EXTERNAL. COPY CPWSXDRT. PPEM111
020200                                                                  PPEM111
020300     EJECT                                                        PPEM111
020400 01  PPCB01-INTERFACE                    EXTERNAL. COPY CPWSXCB1. PPEM111
020500                                                                  PPEM111
020600 01  CBUC-ELIGIBLE-DOS-TBL               EXTERNAL.                PPEM111
020700     05  CBUC-DOS-INDX                PIC S9(4) COMP.             PPEM111
020800     05  CBUC-DOS-MAX                 PIC S9(4) COMP.             PPEM111
020900     05  CBUC-DOS-WRK                 PIC X(3).                   PPEM111
021000     05  CBUC-DOS-TBL.                                            PPEM111
021100         10  CBUC-DOS OCCURS 0 TO 999 TIMES                       PPEM111
021200             DEPENDING ON CBUC-DOS-MAX                            PPEM111
021300                                      PIC X(3).                   PPEM111
021400                                                                  PPEM111
021500     EJECT                                                        PPEM111
021600 01  PPHDAUTL-INTERFACE                  EXTERNAL. COPY CPLNKHDA  PPEM111
021700                                                                  PPEM111
021800         REPLACING BELI-AVGHRSWEEK BY HDA-BELI-AVGHRSWEEK.        PPEM111
021900                                                                  PPEM111
022000     EJECT                                                        PPEM111
022100 01  RUN-SPECIFICATION                   EXTERNAL. COPY CPWSRS13. PPEM111
022200*                                                                 PPEM111
022300     EJECT                                                        PPEM111
022400******************************************************************PPEM111
022500**  DATA BASE AREAS                                             **PPEM111
022600******************************************************************PPEM111
022700                                                                  PPEM111
022800 01  SCR-ROW                             EXTERNAL.                PPEM111
022900     EXEC SQL INCLUDE PPPVSCR1 END-EXEC.                          PPEM111
023000                                                                  PPEM111
023100     EJECT                                                        PPEM111
023200 01  PER-ROW                             EXTERNAL.                PPEM111
023300     EXEC SQL INCLUDE PPPVPER1 END-EXEC.                          PPEM111
023400                                                                  PPEM111
023500     EJECT                                                        PPEM111
023600 01  BEL-ROW                             EXTERNAL.                PPEM111
023700     EXEC SQL INCLUDE PPPVBEL1 END-EXEC.                          PPEM111
023800                                                                  PPEM111
023900     EJECT                                                        PPEM111
024000 01  BEN-ROW                             EXTERNAL.                PPEM111
024100     EXEC SQL INCLUDE PPPVBEN1 END-EXEC.                          PPEM111
024200                                                                  PPEM111
024300                                                                  PPEM111
024400     EJECT                                                        PPEM111
024500******************************************************************PPEM111
024600**          L  I  N  K  A  G  E      S  E  C  T  I  O  N        **PPEM111
024700******************************************************************PPEM111
024800                                                                  PPEM111
024900*----------------------------------------------------------------*PPEM111
025000 LINKAGE SECTION.                                                 PPEM111
025100*----------------------------------------------------------------*PPEM111
025200                                                                  PPEM111
025300******************************************************************PPEM111
025400**  THE KRMI AREA IS A COMMON AREA THAT IS USED TO PASS         **PPEM111
025500**  INFORMATION THAT IS REQUIRED FOR THIS MODULE TO EXECUTE     **PPEM111
025600******************************************************************PPEM111
025700                                                                  PPEM111
025800 01  KRMI-LINKAGE-SECTION.                         COPY CPLNKRMI. PPEM111
025900                                                                  PPEM111
026000     EJECT                                                        PPEM111
026100******************************************************************PPEM111
026200**  THIS MESSAGE TABLE ARRAY WILL CONTAIN ALL MESSAGES THAT     **PPEM111
026300**  THIS ROUTINE CAN LOGICALLY ISSUE AT ONE TIME                **PPEM111
026400******************************************************************PPEM111
026500                                                                  PPEM111
026600 01  KMTA-MESSAGE-TABLE-ARRAY.                     COPY CPLNKMTA. PPEM111
026700                                                                  PPEM111
026800     EJECT                                                        PPEM111
026900******************************************************************PPEM111
027000**    P  R  O  C  E  D  U  R  E      D  I  V  I  S  I  O  N     **PPEM111
027100******************************************************************PPEM111
027200                                                                  PPEM111
027300 PROCEDURE DIVISION USING KRMI-LINKAGE-SECTION,                   PPEM111
027400                          KMTA-MESSAGE-TABLE-ARRAY.               PPEM111
027500                                                                  PPEM111
027600                                                                  PPEM111
027700*----------------------------------------------------------------*PPEM111
027800 0000-DRIVER.                                                     PPEM111
027900*----------------------------------------------------------------*PPEM111
028000                                                                  PPEM111
028100******************************************************************PPEM111
028200**  PERFORM THE INITIALIZATION ROUTINE NOW                      **PPEM111
028300******************************************************************PPEM111
028400                                                                  PPEM111
028500     IF  THIS-IS-THE-FIRST-TIME                                   PPEM111
028600         PERFORM 0100-INITIALIZE                                  PPEM111
028700     END-IF.                                                      PPEM111
028800                                                                  PPEM111
028900******************************************************************PPEM111
029000**  PERFORM THE MAIN ROUTINE NOW - AFTER WHICH WE WILL RETURN   **PPEM111
029100**  TO THE CALLING PROGRAM                                      **PPEM111
029200******************************************************************PPEM111
029300                                                                  PPEM111
029400     IF EMP-NAME OF PER-ROW NOT = ALL '*'                         PPEM111
029500         PERFORM 1000-MAINLINE-ROUTINE                            PPEM111
029600     END-IF.                                                      PPEM111
029700                                                                  PPEM111
029800     EXIT PROGRAM.                                                PPEM111
029900                                                                  PPEM111
030000                                                                  PPEM111
030100     EJECT                                                        PPEM111
030200*----------------------------------------------------------------*PPEM111
030300 0100-INITIALIZE    SECTION.                                      PPEM111
030400*----------------------------------------------------------------*PPEM111
030500                                                                  PPEM111
030600******************************************************************PPEM111
030700**  DISPLAY THE PROGRAM ID AND DATE/TIME COMPILED               **PPEM111
030800******************************************************************PPEM111
030900                                                                  PPEM111
031000     MOVE A-STND-PROG-ID           TO XWHC-DISPLAY-MODULE.        PPEM111
031100                                                                  PPEM111
031200*                                               *-------------*   PPEM111
031300                                                 COPY CPPDXWHC.   PPEM111
031400*                                               *-------------*   PPEM111
031500                                                                  PPEM111
032400     IF  KRMI-REQUESTED-BY-08                                     36410735
036200         MOVE CB-MSG-TBL-08 TO PPCB01-MESSAGE-LITERALS            36410735
032600     END-IF.                                                      36410735
032700     IF  KRMI-REQUESTED-BY-12                                     36410735
032800         OR KRMI-REQUESTED-BY-13                                  36410735
036600         MOVE CB-MSG-TBL-12 TO PPCB01-MESSAGE-LITERALS            36410735
033000     END-IF.                                                      36410735
033200     MOVE CBUC-DOS-MAX            TO CB01-DOS-SIZE.               PPEM111
033300                                                                  PPEM111
033400     IF  KRMI-REQUESTED-BY-13                                     PPEM111
033500         IF  RS-NEXTCYCLE-MO = ZEROES                             PPEM111
033600             MOVE SPACE           TO CB01-MONTHLY-MAINT-FLAG      PPEM111
033700         ELSE                                                     PPEM111
033800             MOVE 'X'             TO CB01-MONTHLY-MAINT-FLAG      PPEM111
033900         END-IF                                                   PPEM111
034000     ELSE                                                         PPEM111
034100         MOVE SPACE               TO CB01-MONTHLY-MAINT-FLAG      PPEM111
034200     END-IF.                                                      PPEM111
034300                                                                  PPEM111
034400     MOVE CBUC-DOS-TBL            TO CB01-DOS-TABLE.              PPEM111
034500                                                                  PPEM111
034600******************************************************************PPEM111
034700**   INITIAL CALL TO   'PPPBELI'   FOR BENEFITS                 **PPEM111
034800**   ELIGIBILITY PROCESSING                                     **PPEM111
034900******************************************************************PPEM111
035000                                                                  PPEM111
035100     MOVE ZEROS                   TO PPPBELI-INTERFACE.           PPEM111
035200     MOVE 'I'                     TO PPPBELI-CALL-FLAG.           PPEM111
035510     MOVE XDTS-ISO-FIRST-OF-MNTH-CCYY TO PPPBELI-AS-OF-CCYY.      28521025
035520     MOVE XDTS-ISO-FIRST-OF-MNTH-MM   TO PPPBELI-AS-OF-MM.        28521025
035400                                                                  PPEM111
035500     PERFORM 1100-CALL-PPPBELI.                                   PPEM111
035600                                                                  PPEM111
035700******************************************************************PPEM111
035800**   SET FIRST CALL SWITCH OFF                                  **PPEM111
035900******************************************************************PPEM111
036000                                                                  PPEM111
036100     SET NOT-THE-FIRST-TIME        TO TRUE.                       PPEM111
036200                                                                  PPEM111
036300                                                                  PPEM111
036400     EJECT                                                        PPEM111
036500*----------------------------------------------------------------*PPEM111
036600 1000-MAINLINE-ROUTINE    SECTION.                                PPEM111
036700*----------------------------------------------------------------*PPEM111
036800                                                                  PPEM111
036900     PERFORM 1200-CALL-PPCB01.                                    PPEM111
037000                                                                  PPEM111
037100     SET DONT-CHECK-FOR-CONFLICT  TO TRUE.                        PPEM111
037200                                                                  PPEM111
037300     IF     CB01-REDERIVE-BELI-FLAG = 'Y'                         PPEM111
037400         OR REDERIVE-BELI                                         PPEM111
037500                                                                  PPEM111
041300*****    SET DONT-REDERIVE-BELI   TO TRUE                         EFIX690
037700         MOVE ZEROS               TO PPPBELI-INTERFACE            PPEM111
037800         MOVE 'D'                 TO PPPBELI-CALL-FLAG            PPEM111
037900         MOVE HDA-BELI-AVGHRSWEEK TO PPPBELI-AVG-HRS-PER-WK       PPEM111
038000                                                                  PPEM111
038100         PERFORM 1100-CALL-PPPBELI                                PPEM111
038200                                                                  PPEM111
038300         IF  PPPBELI-DERIVED-BELI NOT = BELI-DERIVED-IND          PPEM111
038400             SET CHECK-FOR-CONFLICT                               PPEM111
038500                                  TO TRUE                         PPEM111
038600             MOVE PPPBELI-DERIVED-BELI                            PPEM111
038700                                  TO BELI-DERIVED-IND             PPEM111
038800             MOVE E0375           TO DL-FIELD                     PPEM111
038900             PERFORM 9050-AUDITING-RESPONSIBILITIES               PPEM111
039000         END-IF                                                   PPEM111
039100     END-IF.                                                      PPEM111
039200                                                                  PPEM111
039300                                                                  PPEM111
040140                                                                  28521025
040150     IF      SEPARATE-DATE NOT = XDTS-ISO-ZERO-DATE               28521025
040160         AND SEPARATE-DATE     < XDTS-ISO-FIRST-OF-MONTH-DATE     28521025
040170         AND HIRE-DATE         < XDTS-ISO-DATE-TODAY              76591386
040180         AND HIRE-DATE         < SEPARATE-DATE                    76591386
040000         AND BELI-IND      NOT = '?'                              PPEM111
040100         AND NOT KRMI-REQUESTED-BY-08                             PPEM111
040200         MOVE 5                   TO BELI-NUMERIC-VALUE           PPEM111
040300         MOVE '?'                 TO BELI-IND                     PPEM111
040400         MOVE E0360               TO DL-FIELD                     PPEM111
040500         PERFORM 9050-AUDITING-RESPONSIBILITIES                   PPEM111
040600         MOVE SEPARATE-DATE       TO BELI-EFF-DATE                PPEM111
040700         MOVE E0341               TO DL-FIELD                     PPEM111
040800         PERFORM 9050-AUDITING-RESPONSIBILITIES                   PPEM111
044500*****    MOVE XDTS-ISO-FIRST-OF-MONTH-DATE TO BELI-DATE           05201511
044600*****    MOVE E0361               TO DL-FIELD                     05201511
044700*****    PERFORM 9050-AUDITING-RESPONSIBILITIES                   05201511
041600         MOVE SCR-CURRENT-DATE TO BELI-CHANGEDATE                 16160883
041700         MOVE E0183               TO DL-FIELD                     16160883
041800         PERFORM 9050-AUDITING-RESPONSIBILITIES                   16160883
040900         PERFORM 1400-RESET-OPT-OUT-INDS                          PPEM111
041000         MOVE 1                   TO DL-STATUS                    PPEM111
041100     ELSE                                                         PPEM111
041200         MOVE ZERO                TO DL-STATUS                    PPEM111
041300         MOVE E0360               TO DL-FIELD                     PPEM111
041400         PERFORM 9085-DLSEARCH                                    PPEM111
041500     END-IF.                                                      PPEM111
041600                                                                  PPEM111
043400     IF  DL-STATUS NOT = ZEROS                                    16160883
043500         SET CHECK-FOR-CONFLICT   TO TRUE                         16160883
043600     END-IF.                                                      16160883
042400                                                                  PPEM111
042500     IF  CHECK-FOR-CONFLICT                                       PPEM111
042600         PERFORM 1150-SET-CONFLICT-DATE                           PPEM111
042700     END-IF.                                                      PPEM111
042800                                                                  PPEM111
042900     IF      CHECK-FOR-CONFLICT                                   PPEM111
044310         AND BELI-CONFLICTDATE NOT = XDTS-ISO-ZERO-DATE           28521025
043100             ADD 1                TO KMTA-CTR                     PPEM111
043200             MOVE BELI-IND        TO KMTA-DATA-FIELD    (KMTA-CTR)PPEM111
043300             MOVE E0360           TO KMTA-FIELD-NUM     (KMTA-CTR)PPEM111
043400             MOVE 01              TO KMTA-LENGTH        (KMTA-CTR)PPEM111
043500             IF  KRMI-REQUESTED-BY-08                             PPEM111
043600                 MOVE M08301      TO KMTA-MSG-NUMBER    (KMTA-CTR)PPEM111
043700             ELSE                                                 PPEM111
043800                 MOVE M12301      TO KMTA-MSG-NUMBER    (KMTA-CTR)PPEM111
043900             END-IF                                               PPEM111
044000             MOVE WS-ROUTINE-TYPE TO KMTA-ROUTINE-TYPE  (KMTA-CTR)PPEM111
044100             MOVE WS-ROUTINE-NUM  TO KMTA-ROUTINE-NUM   (KMTA-CTR)PPEM111
044200                                                                  PPEM111
044300             ADD 1                TO KMTA-CTR                     PPEM111
044400             MOVE BELI-DERIVED-IND                                PPEM111
044500                                  TO KMTA-DATA-FIELD    (KMTA-CTR)PPEM111
044600             IF  KRMI-REQUESTED-BY-08                             PPEM111
044700                 MOVE M08301      TO KMTA-MSG-NUMBER    (KMTA-CTR)PPEM111
044800             ELSE                                                 PPEM111
044900                 MOVE M12301      TO KMTA-MSG-NUMBER    (KMTA-CTR)PPEM111
045000             END-IF                                               PPEM111
045100             MOVE WS-ROUTINE-TYPE TO KMTA-ROUTINE-TYPE  (KMTA-CTR)PPEM111
045200             MOVE WS-ROUTINE-NUM  TO KMTA-ROUTINE-NUM   (KMTA-CTR)PPEM111
045300     END-IF.                                                      PPEM111
045400                                                                  PPEM111
045500*----------------------------------------------------------------*PPEM111
052000 1100-CALL-PPPBELI   SECTION.                                     PPEM111
052100*----------------------------------------------------------------*PPEM111
052200                                                                  PPEM111
052300     CALL  PGM-PPPBELI  USING PPPBELI-INTERFACE.                  PPEM111
052400                                                                  PPEM111
052500     IF  PPPBELI-RETURN-STATUS-FLAG NOT = ZERO                    PPEM111
052600         ADD 1                    TO KMTA-CTR                     PPEM111
052700         MOVE M00927              TO KMTA-MSG-NUMBER    (KMTA-CTR)PPEM111
052800         MOVE 'M'                 TO KMTA-ROUTINE-TYPE  (KMTA-CTR)PPEM111
052900         MOVE 111                 TO KMTA-ROUTINE-NUM   (KMTA-CTR)PPEM111
053000         SET AN-ABEND-HAS-OCCURRED                                PPEM111
053100                                  TO TRUE                         PPEM111
053200     END-IF.                                                      PPEM111
053300                                                                  PPEM111
053400                                                                  PPEM111
053500*----------------------------------------------------------------*PPEM111
053600 1150-SET-CONFLICT-DATE   SECTION.                                PPEM111
053700*----------------------------------------------------------------*PPEM111
053800                                                                  PPEM111
058410     EVALUATE TRUE                                                26890966
058411         WHEN BELI-IND  = '1'                                     26890966
058420              IF  BELI-DERIVED-IND NOT = '1'                      26890966
058431                  MOVE XDTS-ISO-FIRST-OF-MONTH-DATE               28521025
058432                                             TO BELI-CONFLICTDATE 28521025
058440              ELSE                                                26890966
058451                  MOVE XDTS-ISO-ZERO-DATE   TO BELI-CONFLICTDATE  28521025
058460              END-IF                                              26890966
058470         WHEN BELI-IND  = ('2' OR '3')                            26890966
058480              IF       BELI-DERIVED-IND NOT = '2'                 26890966
058481                  AND  BELI-DERIVED-IND NOT = '3'                 26890966
058491                  MOVE XDTS-ISO-FIRST-OF-MONTH-DATE               28521025
058492                                       TO BELI-CONFLICTDATE       28521025
058491              ELSE                                                26890966
058495                  MOVE XDTS-ISO-ZERO-DATE   TO BELI-CONFLICTDATE  28521025
058493              END-IF                                              26890966
058494         WHEN BELI-IND  = '4'                                     26890966
058495              IF       BELI-DERIVED-IND NOT = '4'                 26890966
058496                  AND  BELI-DERIVED-IND NOT = 'U'                 26890966
058501                  MOVE XDTS-ISO-FIRST-OF-MONTH-DATE               28521025
058502                                       TO BELI-CONFLICTDATE       28521025
058498              ELSE                                                26890966
058505                  MOVE XDTS-ISO-ZERO-DATE   TO BELI-CONFLICTDATE  28521025
058500              END-IF                                              26890966
058501         WHEN BELI-IND  = '5'                                     26890966
058502              IF      BELI-DERIVED-IND NOT = '5'                  26890966
058503                  AND BELI-DERIVED-IND NOT = '6'                  26890966
058504                  AND BELI-DERIVED-IND NOT = '7'                  26890966
058505                  AND BELI-DERIVED-IND NOT = '8'                  26890966
058506                  AND BELI-DERIVED-IND NOT = '9'                  26890966
058507                  AND BELI-DERIVED-IND NOT = 'U'                  26890966
058508                  AND BELI-DERIVED-IND NOT = 'X'                  26890966
058516                  MOVE XDTS-ISO-FIRST-OF-MONTH-DATE               28521025
058517                                       TO BELI-CONFLICTDATE       28521025
058512              ELSE                                                26890966
058520                  MOVE XDTS-ISO-ZERO-DATE   TO BELI-CONFLICTDATE  28521025
058514              END-IF                                              26890966
058515     END-EVALUATE.                                                26890966
056700                                                                  PPEM111
056800     IF  NOT KRMI-REQUESTED-BY-08                                 PPEM111
056900         MOVE E0376                   TO DL-FIELD                 PPEM111
057000         PERFORM 9050-AUDITING-RESPONSIBILITIES                   PPEM111
057100     END-IF.                                                      PPEM111
057200                                                                  PPEM111
057300                                                                  PPEM111
057400     EJECT                                                        PPEM111
057500*-----------------------------------------------------------------PPEM111
057600 1200-CALL-PPCB01        SECTION.                                 PPEM111
057700*-----------------------------------------------------------------PPEM111
057800                                                                  PPEM111
057900******************************************************************PPEM111
058000** ALL COLLECTIVE BARGAINING CODE DERIVATION IS DONE THROUGH    **PPEM111
058100** MODULE 'PPCB01', WHICH REQUIRES THE DATA BASE SEGMENT ARRAY, **PPEM111
058200** THE DATA-LIST, AND THE PPCB01-INTERFACE. **                    PPEM111
058300******************************************************************PPEM111
058400                                                                  PPEM111
058500     CALL  PGM-PPCB01  USING COMM-TAB                             PPEM111
058600                             PPCB01-INTERFACE.                    PPEM111
058700                                                                  PPEM111
058800******************************************************************PPEM111
058900** IF  THE EUC HAS CHANGED, SET THE CBUC-UPDATE-SW TO FORCE     **PPEM111
059000** DUES DEDUCTION VALIDATION OF THE 6000 SEGMENTS               **PPEM111
059100******************************************************************PPEM111
059200                                                                  PPEM111
059300     MOVE CB01-EUC-CHANGED-FLAG   TO CBUC-UPDATE-SW.              PPEM111
059400                                                                  PPEM111
059500******************************************************************PPEM111
059600** UPON RETURN FROM 'PPCB01' POST ANY CHANGED ELEMENTS AND      **PPEM111
059700** ANY ERRORS.                                                  **PPEM111
059800******************************************************************PPEM111
059900                                                                  PPEM111
060000     PERFORM 1210-POST-CB01-DE-CHGS                               PPEM111
060100         VARYING AUDIT-TABLE-PTR FROM 1 BY 1                      PPEM111
060200           UNTIL AUDIT-TABLE-PTR > AUDIT-TABLE-SIZE.              PPEM111
060300                                                                  PPEM111
060400     PERFORM 1220-POST-CB01-ERRORS                                PPEM111
060500         VARYING ERROR-TABLE-PTR FROM 1 BY 1                      PPEM111
060600           UNTIL ERROR-TABLE-PTR > ERROR-TABLE-SIZE.              PPEM111
060700                                                                  PPEM111
060800                                                                  PPEM111
060900*-----------------------------------------------------------------PPEM111
061000 1210-POST-CB01-DE-CHGS  SECTION.                                 PPEM111
061100*-----------------------------------------------------------------PPEM111
061200                                                                  PPEM111
061300     MOVE AUDIT-FIELD (AUDIT-TABLE-PTR)                           PPEM111
061400                                  TO DL-FIELD.                    PPEM111
061500                                                                  PPEM111
061600     PERFORM 9050-AUDITING-RESPONSIBILITIES.                      PPEM111
061700                                                                  PPEM111
061800                                                                  PPEM111
061900*-----------------------------------------------------------------PPEM111
062000 1220-POST-CB01-ERRORS  SECTION.                                  PPEM111
062100*-----------------------------------------------------------------PPEM111
062200                                                                  PPEM111
062300     ADD +1                       TO KMTA-CTR.                    PPEM111
062400                                                                  PPEM111
062500     MOVE ERROR-TABLE-NO (ERROR-TABLE-PTR)                        PPEM111
062600                                  TO KMTA-MSG-NUMBER   (KMTA-CTR).PPEM111
062700                                                                  PPEM111
062800     MOVE ERROR-TABLE-FIELD (ERROR-TABLE-PTR)                     PPEM111
062900                                  TO KMTA-FIELD-NUM    (KMTA-CTR).PPEM111
063000                                                                  PPEM111
063100                                                                  PPEM111
063200*-----------------------------------------------------------------PPEM111
063300 1400-RESET-OPT-OUT-INDS  SECTION.                                PPEM111
063400*-----------------------------------------------------------------PPEM111
063500                                                                  PPEM111
063600*                                                 *-------------* PPEM111
063700                                                   COPY CPPDXROI. PPEM111
063800*                                                 *-------------* PPEM111
063900                                                                  PPEM111
064000     EJECT                                                        PPEM111
064100*----------------------------------------------------------------*PPEM111
064200 9050-AUDITING-RESPONSIBILITIES  SECTION.                         PPEM111
064300*----------------------------------------------------------------*PPEM111
064400                                                                  PPEM111
064500*                                                 *-------------* PPEM111
064600                                                   COPY CPPDXDEC. PPEM111
064700*                                                 *-------------* PPEM111
064800                                                                  PPEM111
064900*----------------------------------------------------------------*PPEM111
065000 9060-APPT-DIST-LOC-CALCULATION  SECTION.                         PPEM111
065100*----------------------------------------------------------------*PPEM111
065200                                                                  PPEM111
065300*                                                 *-------------* PPEM111
065400                                                   COPY CPPDADLC. PPEM111
065500*                                                 *-------------* PPEM111
065600                                                                  PPEM111
065700     EJECT                                                        PPEM111
065800*----------------------------------------------------------------*PPEM111
065900 9300-DATE-CONVERSION-DB2  SECTION.                               PPEM111
066000*----------------------------------------------------------------*PPEM111
066100                                                                  PPEM111
066200*                                                 *-------------* PPEM111
068110                                                   COPY CPPDXDC3. 26890966
066400*                                                 *-------------* PPEM111
066500                                                                  PPEM111
066600******************************************************************PPEM111
066700*    E N D  S O U R C E   ----  PPEM111 ----                     *PPEM111
066800******************************************************************PPEM111
