000100*EMERGENCY FIX - TEMPORARY 04/03/04!!!!!!!!!!!!!!!!!!!
000000**************************************************************/   48541429
000001*  PROGRAM: PPEM009                                          */   48541429
000002*  RELEASE: ___1429______ SERVICE REQUEST(S): ____14854____  */   48541429
000003*  NAME:______KENNEDY____ CREATION DATE:      ___08/12/02__  */   48541429
000004*  DESCRIPTION:                                              */   48541429
000005*                                                            */   48541429
000006*  THIS PROGRAM WAS ORIGINALLY A COPY OF PPEM003             */   48541429
000007*  THE PURPOSE OF THIS PROGRAM IS TO UPDATE THE END DATES    */   48541429
000008*  ON APPOINTMENTS AND DISTRIBUTIONS OR DELETE THEM AFTER    */   48541429
000009*  SEPARATION.  IMPLICITLY THIS OCCURS DURING MONTHLY PRO-   */   48541429
000010*  CESSING ONE MONTH FOLLOWING THE DATE OF SEPARATION DATE.  */   48541429
000011*  AT THAT TIME THE DURATION CODE ON THE APPOINTMENT IS ALSO */   48541429
000012*  SET TO BLANKS AND THE CHK-DISP-FLAG IS SET TO A CAMPUS    */   48541429
000013*  "DEFAULT" IF IT IS 8(AUTOMATIC DEPOSIT).  FOR A REHIRE,   */   48541429
000014*  BATCH TRANSACTIONS OR ONLINE, THE END DATES ARE SET TO THE*/   48541429
000015*  SEPARATION DATE OR THE APPOINMENT/DISTRIBUTION MAY BE     */   48541429
000016*  DELETED.                                                  */   48541429
000017*                                                            */   48541429
000020**************************************************************/   48541429
002000                                                                  PPEM009
002100 IDENTIFICATION DIVISION.                                         PPEM009
002200 PROGRAM-ID. PPEM009.                                             PPEM009
002300 AUTHOR. UCOP.                                                    PPEM009
002400 INSTALLATION. UNIVERSITY OF CALIFORNIA.                          PPEM009
002500                                                                  PPEM009
002600 DATE-WRITTEN.  AUGUST, 2002.                                     PPEM009
002700 DATE-COMPILED. XX/XX/XX.                                         PPEM009
002800     EJECT                                                        PPEM009
002900 ENVIRONMENT DIVISION.                                            PPEM009
003000 CONFIGURATION SECTION.                                           PPEM009
003100 SOURCE-COMPUTER.                       COPY CPOTXUCS.            PPEM009
003200 OBJECT-COMPUTER.                       COPY CPOTXOBJ.            PPEM009
003300 SPECIAL-NAMES.                C01 IS NEW-PAGE.                   PPEM009
003400     EJECT                                                        PPEM009
003500 INPUT-OUTPUT SECTION.                                            PPEM009
003600 FILE-CONTROL.                                                    PPEM009
003700                                                                  PPEM009
003800 DATA DIVISION.                                                   PPEM009
003900 FILE SECTION.                                                    PPEM009
004000*----------------------------------------------------------------*PPEM009
004100 WORKING-STORAGE SECTION.                                         PPEM009
004200*----------------------------------------------------------------*PPEM009
004300                                                                  PPEM009
004400 01  A-STND-PROG-ID                   PIC X(15) VALUE             PPEM009
004500     'PPEM009 /061502'.                                           PPEM009
004600                                                                  PPEM009
004700 01  A-STND-MSG-PARMS                 REDEFINES                   PPEM009
004800     A-STND-PROG-ID.                                              PPEM009
004900     05  FILLER                       PIC X(03).                  PPEM009
005000     05  WS-ROUTINE-TYPE              PIC X(01).                  PPEM009
005100     05  WS-ROUTINE-NUM               PIC 9(03).                  PPEM009
005200     05  FILLER                       PIC X(08).                  PPEM009
005300                                                                  PPEM009
005400 01  MESSAGES-USED.                                               PPEM009
005500     05  M08947                       PIC X(05)  VALUE '08947'.   PPEM009
005600     05  M12947                       PIC X(05)  VALUE '12947'.   PPEM009
005700                                                                  PPEM009
005800 01  ELEMENTS-USED.                                               PPEM009
005900     05  E0000                        PIC 9(05)  VALUE  0000.     PPEM009
005910     05  CHK-DISP-CODE-DEN            PIC X(04) VALUE '0201'.     PPEM009
006000                                                                  PPEM009
006100 01  MISC-WORK-AREAS.                                             PPEM009
006200     05  FIRST-TIME-SW                PIC X(01) VALUE LOW-VALUES. PPEM009
006300         88  THIS-IS-THE-FIRST-TIME             VALUE LOW-VALUES. PPEM009
006400         88  NOT-THE-FIRST-TIME                 VALUE 'Y'.        PPEM009
006500                                                                  PPEM009
006600     05  APPT-PURGE-SW                PIC X(01) VALUE SPACES.     PPEM009
006700         88  APPOINTMENT-PURGE                  VALUE '1'.        PPEM009
006800         88  APPOINTMENT-KEEP                   VALUE '0'.        PPEM009
006900                                                                  PPEM009
007000     05  APPT-PNTR                    PIC S9(4) COMP.             PPEM009
007100     05  CURR-APPT-PNTR               PIC S9(4) COMP.             PPEM009
007200     05  NEXT-APPT-PNTR               PIC S9(4) COMP.             PPEM009
007300     05  DIST-PNTR                    PIC S9(4) COMP.             PPEM009
007400     05  WORK-SEG-BASE                PIC  9(4) VALUE ZERO.       PPEM009
007500     05  WS-UPD-FLAG                  PIC  X(1) VALUE SPACE.      PPEM009
007600     05  WS-BEGIN-DATE                PIC X(10).                  PPEM009
007700     05  WS-END-DATE                  PIC X(10).                  PPEM009
007800                                                                  PPEM009
007900     EJECT                                                        PPEM009
008000 01  CALLED-ROUTINES.                              COPY CPWSXRTN. PPEM009
008100                                                                  PPEM009
008200     EJECT                                                        PPEM009
008300 01  DL-FIELD-WORK-AREA.                           COPY CPWSXDLS. PPEM009
008400                                                                  PPEM009
008500     EJECT                                                        PPEM009
008600 01  XWHC-COMPILE-WORK-AREA.                       COPY CPWSXWHC. PPEM009
008700                                                                  PPEM009
008800     EJECT                                                        PPEM009
008900 01  COLUMN-88-WORK.                               COPY CPWSW88S. PPEM009
009000                                                                  PPEM009
009100     EJECT                                                        PPEM009
009200 01  APPT-DIST-LOC-WORK-AREAS.                     COPY CPWSADLC. PPEM009
009300                                                                  PPEM009
009400     EJECT                                                        PPEM009
009500 01  INSTALLATION-DEPENDT-CONSTANTS.               COPY CPWSXIDC. PPEM009
009600                                                                  PPEM009
009700 01  DATE-CONVERSION-WORK-AREA.                    COPY CPWSXDC3. PPEM009
009800                                                                  PPEM009
009900     EJECT                                                        PPEM009
010000******************************************************************PPEM009
010100**   THIS ARRAY IS USED TO DETERMINE DATA ELEMENT NUMBERS       **PPEM009
010200**   REQUIRED DURING APPOINTMENT/DISTRIBUTION PROCESSING.       **PPEM009
010300**   THE 27 ROWS OF THE ARRAY REPRESENT THE 27 APPOINTMENT/     **PPEM009
010400**   DISTRIBUTION SEGMENTS.  THE THREE COLUMNS OF THE ARRAY     **PPEM009
010500**   REPRESENT THE THREE GROUPS OF APPOINTMENT OR DISTRIBUTION  **PPEM009
010600**   DATA IN EACH SEGMENT.  ADA-SEG-BASE IS THE FIRST DATA      **PPEM009
010700**   ELEMENT NUMBER IN EACH APPOINTMENT OR DISTRIBUTION.        **PPEM009
010800**   TO CALCULATE A DATA ELEMENT NUMBER, A FIXED OFFSET IS      **PPEM009
010900**   ADDED TO THE BASE ELEMENT NUMBER CONTAINED IN ADA-SEG-BASE.**PPEM009
011000**   SEE OFFSETS-TABLE FOR VALUE OF OFFSETS.                    **PPEM009
011100**                                                              **PPEM009
011200**   THE FOLLOWING EXAMPLE BECOMES OBSOLETE AS OF REL. 0542     **PPEM009
011300**   SINCE THE WORK-STUDY-PGM MOVES TO DIST ELEM 2062.          **PPEM009
011400**                                                              **PPEM009
011500**   FOR EXAMPLE, THE DATA ELEMENT NUMBER OF THE WORK-STUDY-    **PPEM009
011600**   PROGRAM CODE IN THE FOURTH APPOINTMENT IS COMPUTED AS      **PPEM009
011700**   FOLLOWS.                                                   **PPEM009
011800**   THE ROW SUBSCRIPT FOR THE FOURTH APPOINTMENT (2900 SEGMENT)**PPEM009
011900**   IS 10.  THE WORK-STUDY-PROGRAM CODE IS IN THE APPOINTMENT  **PPEM009
012000**   DATA, CONTAINED IN THE FIRST THIRD OF THE SEGMENT, SO THE  **PPEM009
012100**   COLUMN SUBSCRIPT IS 1.  ADA-SEG-BASE (10,1) IS 2901.       **PPEM009
012200**   ADDING AN OFFSET OF 18 GIVES THE DATA ELEMENT NUMBER 2919, **PPEM009
012300**   THE DATA ELEMENT NUMBER OF THE WORK-STUDY-PROGRAM CODE     **PPEM009
012400**   IN THE FOURTH APPOINTMENT.                                 **PPEM009
012500**   NOTE THAT THE COLUMN SUBSCRIPT OF ANY APPOINTMENT DATA     **PPEM009
012600**   IS ALWAYS 1.                                               **PPEM009
012700******************************************************************PPEM009
012800                                                                  PPEM009
012900 01  APPT-DIST-ARRAY.                                             PPEM009
013000     03  FILLER              PIC X(15)    VALUE '2001 2041 2071 '.PPEM009
013100     03  FILLER              PIC X(15)    VALUE '2111 2141 2171 '.PPEM009
013200     03  FILLER              PIC X(15)    VALUE '2211 2241 2271 '.PPEM009
013300     03  FILLER              PIC X(15)    VALUE '2301 2341 2371 '.PPEM009
013400     03  FILLER              PIC X(15)    VALUE '2411 2441 2471 '.PPEM009
013500     03  FILLER              PIC X(15)    VALUE '2511 2541 2571 '.PPEM009
013600     03  FILLER              PIC X(15)    VALUE '2601 2641 2671 '.PPEM009
013700     03  FILLER              PIC X(15)    VALUE '2711 2741 2771 '.PPEM009
013800     03  FILLER              PIC X(15)    VALUE '2811 2841 2871 '.PPEM009
013900     03  FILLER              PIC X(15)    VALUE '2901 2941 2971 '.PPEM009
014000     03  FILLER              PIC X(15)    VALUE '3011 3041 3071 '.PPEM009
014100     03  FILLER              PIC X(15)    VALUE '3111 3141 3171 '.PPEM009
014200     03  FILLER              PIC X(15)    VALUE '3201 3241 3271 '.PPEM009
014300     03  FILLER              PIC X(15)    VALUE '3311 3341 3371 '.PPEM009
014400     03  FILLER              PIC X(15)    VALUE '3411 3441 3471 '.PPEM009
014500     03  FILLER              PIC X(15)    VALUE '3501 3541 3571 '.PPEM009
014600     03  FILLER              PIC X(15)    VALUE '3611 3641 3671 '.PPEM009
014700     03  FILLER              PIC X(15)    VALUE '3711 3741 3771 '.PPEM009
014800     03  FILLER              PIC X(15)    VALUE '3801 3841 3871 '.PPEM009
014900     03  FILLER              PIC X(15)    VALUE '3911 3941 3971 '.PPEM009
015000     03  FILLER              PIC X(15)    VALUE '4011 4041 4071 '.PPEM009
015100     03  FILLER              PIC X(15)    VALUE '4101 4141 4171 '.PPEM009
015200     03  FILLER              PIC X(15)    VALUE '4211 4241 4271 '.PPEM009
015300     03  FILLER              PIC X(15)    VALUE '4311 4341 4371 '.PPEM009
015400     03  FILLER              PIC X(15)    VALUE '4401 4441 4471 '.PPEM009
015500     03  FILLER              PIC X(15)    VALUE '4511 4541 4571 '.PPEM009
015600     03  FILLER              PIC X(15)    VALUE '4611 4641 4671 '.PPEM009
015700                                                                  PPEM009
015800 01  APPT-DIST-ARRAY-R  REDEFINES APPT-DIST-ARRAY.                PPEM009
015900     03  ADA-SEG        OCCURS 27 TIMES.                          PPEM009
016000         05  ADA-APPT-DIST   OCCURS 3 TIMES.                      PPEM009
016100             07  ADA-SEG-BASE              PIC 9999.              PPEM009
016200             07  FILLER                    PIC X.                 PPEM009
016300                                                                  PPEM009
016400     EJECT                                                        PPEM009
016500******************************************************************PPEM009
016600**   THE FOLLOWING TABLE CONTAINS OFFSET VALUES FOR DATA        **PPEM009
016700**   ELEMENTS ACCESSED BY USER12 CODE.  THE OFFSET OF A         **PPEM009
016800**   DATA ELEMENT IS EQUAL TO THE NUMERIC VALUE THAT MUST       **PPEM009
016900**   BE ADDED TO THE FIRST DATA ELEMENT NUMBER IN AN            **PPEM009
017000**   APPOINTMENT OR DISTRIBUTION TO PRODUCE THE DATA ELEMENT    **PPEM009
017100**   NUMBER OF THE ELEMENT BEING PROCESSED.  THIS TABLE IS      **PPEM009
017200**   USED IN CONJUNCTION WITH APPT-DIST-ARRAY.                  **PPEM009
017300******************************************************************PPEM009
017400                                                                  PPEM009
017500 01  OFFSETS-TABLE.                                               PPEM009
017600     03  OFF-2002-APPT-BEGN-DATE   PIC 99  VALUE 01.              PPEM009
017700     03  OFF-2003-APPT-END-DATE    PIC 99  VALUE 02.              PPEM009
017800     03  OFF-2004-DUR-EMPLMT       PIC 99  VALUE 03.              PPEM009
017900     03  OFF-2005-APPT-FLSA-IND    PIC 99  VALUE 04.              PPEM009
018000     03  OFF-2006-TTL-CODE         PIC 99  VALUE 05.              PPEM009
018100     03  OFF-2007-PERSNL-PROGRM    PIC 99  VALUE 06.              PPEM009
018200     03  OFF-2008-GRADE            PIC 99  VALUE 07.              PPEM009
018300     03  OFF-2009-APPT-SUB-LOC     PIC 99  VALUE 08.              PPEM009
018400     03  OFF-2010-BASIS            PIC 99  VALUE 09.              PPEM009
018500     03  OFF-2011-PAID-OVER        PIC 99  VALUE 10.              PPEM009
018600     03  OFF-2012-PCT-FULL-TIME    PIC 99  VALUE 11.              PPEM009
018700     03  OFF-2013-FXD-VAR          PIC 99  VALUE 12.              PPEM009
018800     03  OFF-2014-ANNL-HRLY-RATE   PIC 99  VALUE 13.              PPEM009
018900     03  OFF-2015-RATE-CODE        PIC 99  VALUE 14.              PPEM009
019000     03  OFF-2016-PAY-SCHED        PIC 99  VALUE 15.              PPEM009
019100     03  OFF-2017-TIME-CODE        PIC 99  VALUE 16.              PPEM009
019200     03  OFF-2018-LEAVE            PIC 99  VALUE 17.              PPEM009
019300     03  OFF-2020-APPT-TYPE        PIC 99  VALUE 19.              PPEM009
019400     03  OFF-2021-RETIRE           PIC 99  VALUE 20.              PPEM009
019500     03  OFF-2022-APPT-ADC-CODE    PIC 99  VALUE 21.              PPEM009
019600     03  OFF-2026-PERF-EVAL-CD     PIC 99  VALUE 25.              PPEM009
019700     03  OFF-2027-PERF-EVAL-DT     PIC 99  VALUE 26.              PPEM009
020000     03  OFF-2028-APPT-WOS         PIC 99  VALUE 27.              PPEM009
020100     03  OFF-2029-PERB             PIC 99  VALUE 28.              PPEM009
020200     03  OFF-2030-SHC              PIC 99  VALUE 29.              PPEM009
020300     03  OFF-2031-AREP             PIC 99  VALUE 30.              PPEM009
020400     03  OFF-2032-APPT-DEPT        PIC 99  VALUE 31.              PPEM009
020500     03  OFF-2037-FILLER-OP        PIC 99  VALUE 30.              PPEM009
020600     03  OFF-2038-FILLER-COS       PIC 99  VALUE 31.              PPEM009
020700     03  OFF-2043-FAU              PIC 99  VALUE 02.              PPEM009
020800     03  OFF-2049-STEP             PIC 99  VALUE 08.              PPEM009
020900     03  OFF-2050-OFF-ABOVE        PIC 99  VALUE 09.              PPEM009
021000     03  OFF-2051-FTE              PIC 99  VALUE 10.              PPEM009
021100     03  OFF-2052-DIST-PCT         PIC 99  VALUE 11.              PPEM009
021200     03  OFF-2053-PAY-BEGN-DATE    PIC 99  VALUE 12.              PPEM009
021300     03  OFF-2054-PAY-END-DATE     PIC 99  VALUE 13.              PPEM009
021400     03  OFF-2055-RATE-AMOUNT      PIC 99  VALUE 14.              PPEM009
021500     03  OFF-2056-DOS              PIC 99  VALUE 15.              PPEM009
021600     03  OFF-2057-PERQ             PIC 99  VALUE 16.              PPEM009
021700     03  OFF-2058-DIST-ADC-CODE    PIC 99  VALUE 17.              PPEM009
021800     03  OFF-2059-DIST-DUC         PIC 99  VALUE 18.              PPEM009
021900     03  OFF-2060-DIST-RA-DUC      PIC 99  VALUE 19.              PPEM009
022000     03  OFF-2061-DIST-DEPT-CODE   PIC 99  VALUE 20.              PPEM009
022100     03  OFF-2062-WSP              PIC 99  VALUE 21.              PPEM009
022200     03  OFF-2064-FILLER-OP        PIC 99  VALUE 23.              PPEM009
022300     03  OFF-2065-FILLER-COS       PIC 99  VALUE 24.              PPEM009
022400                                                                  PPEM009
022500     EJECT                                                        PPEM009
022600 01  INITIAL-APPT-DATA.                 COPY CPWSRAPP             PPEM009
022700          REPLACING EMPLOYEE-ID      BY INIT-APPT-EMPLOYEE-ID,    PPEM009
022800                    APPT-NUM         BY INIT-APPT-NO,             PPEM009
022900                    APPT-ADC-CODE    BY INIT-APPT-ADC-CODE,       PPEM009
023000                    RATE-CODE        BY INIT-RATE-CODE,           PPEM009
023100                    PAY-SCHEDULE     BY INIT-PAY-SCHED,           PPEM009
023200                    TIME-REPT-CODE   BY INIT-TIME-CODE,           PPEM009
023300                    APPT-WOS-IND     BY INIT-APPT-WOS,            PPEM009
023400                    APPT-BEGIN-DATE  BY INIT-APPT-BEGN-DATE,      PPEM009
023500                    APPT-END-DATE    BY INIT-APPT-END-DATE,       PPEM009
023600                    APPT-DURATION    BY INIT-DUR-EMPLMT,          PPEM009
023700                    TITLE-CODE       BY INIT-TITLE-CODE,          PPEM009
023800                    APPT-TYPE        BY INIT-APPT-TYPE,           PPEM009
023900                    ACADEMIC-BASIS   BY INIT-BASIS,               PPEM009
024000                    WORK-STUDY-PGM   BY NULL-INIT-WORK-STYDY-PGM, PPEM009
024100                    PERSONNEL-PGM    BY INIT-PERSNL-PROGRM,       PPEM009
024200                    APPT-STEP        BY NULL-INIT-APPT-STEP,      PPEM009
024300                    APPT-OFF-SCALE   BY NULL-INIT-APPT-OFF-SCALE, PPEM009
024400                    APPT-PAID-OVER   BY INIT-PAID-OVER,           PPEM009
024500                    PAY-RATE         BY INIT-ANNL-HRLY-RATE,      PPEM009
024600                    LEAVE-ACRUCODE   BY INIT-LEAVE,               PPEM009
024700                    RETIREMENT-CODE  BY INIT-RETIRE,              PPEM009
024800                    PERCENT-FULLTIME BY INIT-PCT-FULL-TIME,       PPEM009
024900                    FIXED-VAR-CODE   BY INIT-FXD-VAR,             PPEM009
025000                    TITLE-UNIT-CODE  BY INIT-APPT-PERB,           PPEM009
025100                    APPT-SPCL-HNDLG  BY INIT-APPT-SHC,            PPEM009
025200                    APPT-REP-CODE    BY INIT-APPT-AREP,           PPEM009
025300                    APPT-DEPT        BY INIT-APPT-DEPT-CODE,      PPEM009
025310                    APPT-PERF-EVAL-CD  BY INIT-PERF-EVAL-CD,      PPEM009
025320                    APPT-PERF-EVAL-DT  BY INIT-PERF-EVAL-DT,      PPEM009
025400                    GRADE            BY INIT-GRADE.               PPEM009
025500                                                                  PPEM009
025600 01  INITIAL-DIST-DATA.                 COPY CPWSRDIS             PPEM009
025700          REPLACING EMPLOYEE-ID      BY INIT-DIST-EMPLOYEE-ID,    PPEM009
025800                    APPT-NUM         BY DIST-2000-DIST-APPT-NUM,  PPEM009
025900                    DIST-NUM         BY INIT-DIST-NO,             PPEM009
026000                    DIST-ADC-CODE    BY INIT-DIST-ADC-CODE,       PPEM009
026100                    FULL-ACCT-UNIT   BY INIT-FULL-ACCT-UNIT,      PPEM009
026200                    DIST-DEPT-CODE   BY INIT-DIST-DEPT-CODE,      PPEM009
026300                    DIST-FTE         BY INIT-FTE,                 PPEM009
026400                    PAY-BEGIN-DATE   BY INIT-PAY-BEGN-DATE,       PPEM009
026500                    PAY-END-DATE     BY INIT-PAY-END-DATE,        PPEM009
026600                    DIST-PERCENT     BY INIT-DIST-PCT,            PPEM009
026700                    DIST-PAYRATE     BY INIT-RATE-AMOUNT,         PPEM009
026800                    DIST-DOS         BY INIT-DOS,                 PPEM009
026900                    DIST-PERQ        BY INIT-PERQ,                PPEM009
027000                    DIST-UNIT-CODE   BY INIT-DIST-DUC,            PPEM009
027100                    RANGE-ADJ-DUC    BY INIT-DIST-RNG-ADJ-DUC,    PPEM009
027200                    DIST-STEP        BY INIT-DIST-STEP,           PPEM009
027300                    DIST-OFF-ABOVE   BY INIT-OFF-ABV-SCALE,       PPEM009
027400                    WORK-STUDY-PGM   BY INIT-WORK-STUDY-PGM.      PPEM009
027500                                                                  PPEM009
027600     EJECT                                                        PPEM009
027700******************************************************************PPEM009
027800**     E  X  T  E  R  N  A  L  S      S  E  C  T  I  O  N       **PPEM009
027900**--------------------------------------------------------------**PPEM009
028000** THE FOLLOWING EXTERNAL AREAS WILL BE USED BY OTHER PROCESSES **PPEM009
028100******************************************************************PPEM009
028200                                                                  PPEM009
028300 01  DATA-ELEMENT-CHANGE-INDICATORS      EXTERNAL. COPY CPWSXDEC. PPEM009
028400                                                                  PPEM009
028500     EJECT                                                        PPEM009
028600 01  XCSS-COMMON-SYSTEM-SWITCHES         EXTERNAL. COPY CPWSSWCH. PPEM009
028700                                                                  PPEM009
028800     EJECT                                                        PPEM009
028900 01  XDTS-COMMON-SYSTEM-DATES            EXTERNAL. COPY CPWSXDTS. PPEM009
029000                                                                  PPEM009
029100     EJECT                                                        PPEM009
029200 01  ECES-CON-EDIT-SWITCH                EXTERNAL. COPY CPWSECES. PPEM009
029300                                                                  PPEM009
029400 01  EGES-GTN-EDIT-SWITCH                EXTERNAL. COPY CPWSEGES. PPEM009
029500                                                                  PPEM009
029600 01  EIMS-IMPL-MAINT-SWITCH              EXTERNAL. COPY CPWSEIMS. PPEM009
029700                                                                  PPEM009
029800 01  EAXD-APPT-ARRAY-SWITCH              EXTERNAL. COPY CPWSEAXD. PPEM009
029900                                                                  PPEM009
030000     EJECT                                                        PPEM009
030100 01  XDER-DATA-ELMT-RTN-POINTERS         EXTERNAL. COPY CPWSXDER. PPEM009
030200                                                                  PPEM009
030300     EJECT                                                        PPEM009
030400 01  XDRT-DET-ROUTINE-TRIGGERS           EXTERNAL. COPY CPWSXDRT. PPEM009
030500                                                                  PPEM009
030600     EJECT                                                        PPEM009
030700******************************************************************PPEM009
030800**  DATA BASE AREAS                                             **PPEM009
030900******************************************************************PPEM009
031000                                                                  PPEM009
031100 01  SCR-ROW                             EXTERNAL.                PPEM009
031200     EXEC SQL INCLUDE PPPVSCR1 END-EXEC.                          PPEM009
031300                                                                  PPEM009
031400 01  PER-ROW                             EXTERNAL.                PPEM009
031500     EXEC SQL INCLUDE PPPVPER1 END-EXEC.                          PPEM009
031600                                                                  PPEM009
031700 01  PCM-ROW                             EXTERNAL.                PPEM009
031800     EXEC SQL INCLUDE PPPVPCM1 END-EXEC.                          PPEM009
031900                                                                  PPEM009
032000     EJECT                                                        PPEM009
032100 01  AXD-ARRAY                           EXTERNAL.                PPEM009
032200     03  FILLER      OCCURS 27.                                   PPEM009
032300         07  APP-ROW-DELETE-BYTE  PIC X(01).                      PPEM009
032400             88  APP-ROW-DELETED VALUE HIGH-VALUES.               PPEM009
032500         07  APP-ROW-REC-ID       PIC X(02).                      PPEM009
032600         07  FILLER  OCCURS 3.                                    PPEM009
032700             08  APP-ROW.                           COPY CPWSRAPP PPEM009
032800                 REPLACING WORK-STUDY-PGM                         PPEM009
032900                        BY NULL-WORK-STYDY-PGM,                   PPEM009
033000                           APPT-NUM                               PPEM009
033100                        BY APP-APPT-NUM.                          PPEM009
033200                                                                  PPEM009
033300     03  FILLER      OCCURS 27.                                   PPEM009
033400         07  DIS-ROW-DELETE-BYTE  PIC X(01).                      PPEM009
033500             88  DIS-ROW-DELETED VALUE HIGH-VALUES.               PPEM009
033600         07  DIS-ROW-REC-ID       PIC X(02).                      PPEM009
033700         07  FILLER  OCCURS 3.                                    PPEM009
033800             08  DIS-ROW.                          COPY CPWSRDIS. PPEM009
033900                                                                  PPEM009
034000     EJECT                                                        PPEM009
034100******************************************************************PPEM009
034200**         L  I  N  K  A  G  E      S  E  C  T  I  O  N         **PPEM009
034300******************************************************************PPEM009
034400                                                                  PPEM009
034500*----------------------------------------------------------------*PPEM009
034600 LINKAGE SECTION.                                                 PPEM009
034700*----------------------------------------------------------------*PPEM009
034800                                                                  PPEM009
034900******************************************************************PPEM009
035000**  THE KRMI AREA IS A COMMON AREA THAT IS USED TO PASS         **PPEM009
035100**  INFORMATION THAT IS REQUIRED FOR THIS MODULE TO EXECUTE     **PPEM009
035200******************************************************************PPEM009
035300                                                                  PPEM009
035400 01  KRMI-LINKAGE-SECTION.                         COPY CPLNKRMI. PPEM009
035500                                                                  PPEM009
035600     EJECT                                                        PPEM009
035700******************************************************************PPEM009
035800**  THIS MESSAGE TABLE ARRAY WILL CONTAIN ALL MESSAGES THAT     **PPEM009
035900**  THIS ROUTINE CAN LOGICALLY ISSUE AT ONE TIME                **PPEM009
036000******************************************************************PPEM009
036100                                                                  PPEM009
036200 01  KMTA-MESSAGE-TABLE-ARRAY.                     COPY CPLNKMTA. PPEM009
036300                                                                  PPEM009
036400     EJECT                                                        PPEM009
036500******************************************************************PPEM009
036600**    P  R  O  C  E  D  U  R  E      D  I  V  I  S  I  O  N     **PPEM009
036700******************************************************************PPEM009
036800                                                                  PPEM009
036900 PROCEDURE DIVISION USING KRMI-LINKAGE-SECTION,                   PPEM009
037000                          KMTA-MESSAGE-TABLE-ARRAY.               PPEM009
037100                                                                  PPEM009
037200                                                                  PPEM009
037300*----------------------------------------------------------------*PPEM009
037400 0000-DRIVER.                                                     PPEM009
037500*----------------------------------------------------------------*PPEM009
037600                                                                  PPEM009
037700******************************************************************PPEM009
037800**  PERFORM THE INITIALIZATION ROUTINE NOW                      **PPEM009
037900******************************************************************PPEM009
038000                                                                  PPEM009
038100     IF  THIS-IS-THE-FIRST-TIME                                   PPEM009
038200         PERFORM 0100-INITIALIZE                                  PPEM009
038300     END-IF.                                                      PPEM009
038400                                                                  PPEM009
038500******************************************************************PPEM009
038600**  PERFORM THE MAIN ROUTINE NOW - AFTER WHICH WE WILL RETURN   **PPEM009
038700**  TO THE CALLING PROGRAM                                      **PPEM009
038800******************************************************************PPEM009
038900                                                                  PPEM009
039000     PERFORM 1000-MAINLINE-ROUTINE.                               PPEM009
039100                                                                  PPEM009
039200     EXIT PROGRAM.                                                PPEM009
039300                                                                  PPEM009
039400                                                                  PPEM009
039500     EJECT                                                        PPEM009
039600*----------------------------------------------------------------*PPEM009
039700 0100-INITIALIZE    SECTION.                                      PPEM009
039800*----------------------------------------------------------------*PPEM009
039900                                                                  PPEM009
040000******************************************************************PPEM009
040100**  DISPLAY THE PROGRAM ID AND DATE/TIME COMPILED               **PPEM009
040200******************************************************************PPEM009
040300                                                                  PPEM009
040400     MOVE A-STND-PROG-ID           TO XWHC-DISPLAY-MODULE.        PPEM009
040500                                                                  PPEM009
040600*                                               *-------------*   PPEM009
040700                                                 COPY CPPDXWHC.   PPEM009
040800*                                               *-------------*   PPEM009
040900                                                                  PPEM009
041000     SET NOT-THE-FIRST-TIME        TO TRUE.                       PPEM009
041100                                                                  PPEM009
041200     EJECT                                                        PPEM009
041300*----------------------------------------------------------------*PPEM009
041400 1000-MAINLINE-ROUTINE    SECTION.                                PPEM009
041500*----------------------------------------------------------------*PPEM009
041600                                                                  PPEM009
041700******************************************************************PPEM009
041800**  SET UP SOME INITIALIZED AREAS TO COMPARE JOB RECORDS WITH   **PPEM009
041900**  AND RESET THEM SO THIS CODE MAY BE RE-ENTERED.              **PPEM009
042000******************************************************************PPEM009
042100                                                                  PPEM009
042200     INITIALIZE                  INITIAL-APPT-DATA,               PPEM009
042300                                 INITIAL-DIST-DATA.               PPEM009
042400                                                                  PPEM009
042500     MOVE XDTS-ISO-ZERO-DATE  TO INIT-APPT-BEGN-DATE,             PPEM009
042600                                 INIT-APPT-END-DATE,              PPEM009
042610                                 INIT-PERF-EVAL-DT,               PPEM009
042700                                 INIT-PAY-BEGN-DATE,              PPEM009
042800                                 INIT-PAY-END-DATE.               PPEM009
042900                                                                  PPEM009
043000     MOVE ZEROS               TO INIT-TITLE-CODE,                 PPEM009
043100                                 INIT-BASIS,                      PPEM009
043200                                 INIT-PAID-OVER,                  PPEM009
043300                                 INIT-RETIRE.                     PPEM009
043400******************************************************************PPEM009
043500**  CHECK SEPARATION DATE TO SEE IF IT IS TIME TO APPLY THE     **PPEM009
043600**  "SEPARATION ACTIONS" FOR MONTHLY PERIODIC MAINTENANCE       **PPEM009
043610**  FOR REHIRES PERFORM EXPLICIT SEPARATION ACTIONS             **PPEM009
043700******************************************************************PPEM009
043800                                                                  PPEM009
043900     IF KRMI-REQUESTED-BY-13  AND                                 PPEM009
044000          SEPARATE-DATE (1:7) < XDTS-ISO-1-MO-PRI-CCYY-MM AND     PPEM009
044100              SEPARATE-DATE (1:7) > XDTS-ISO-ZERO-DATE            PPEM009
044200         PERFORM 1100-IMPLICIT-SEP-ACTIONS                        PPEM009
044300     ELSE                                                         PPEM009
044310         IF KRMI-REQUESTED-BY-08  OR                              PPEM009
044320                  KRMI-REQUESTED-BY-12                            PPEM009
044400             PERFORM 1200-EXPLICIT-SEP-ACTIONS                    PPEM009
044500         END-IF                                                   PPEM009
044510     END-IF.                                                      PPEM009
044600                                                                  PPEM009
044700     EJECT                                                        PPEM009
044800******************************************************************PPEM009
044900**  THIS OCCURS DURING MONTHLY PERIODIC MAINTENANCE               PPEM009
045000******************************************************************PPEM009
045100                                                                  PPEM009
045200 1100-IMPLICIT-SEP-ACTIONS SECTION.                               PPEM009
045300                                                                  PPEM009
045400     IF HIRE-DATE LESS THAN SEPARATE-DATE OR                      PPEM009
045500        HIRE-DATE EQUAL TO  SEPARATE-DATE                         PPEM009
045600         IF CHK-DISP-CODE = '8'                                   PPEM009
045700             MOVE IDC-CHK-DISP-CODE TO CHK-DISP-CODE              PPEM009
045710             PERFORM 3000-PCM-UPD-AUDIT-RESPON                    PPEM009
045800         END-IF                                                   PPEM009
046700*****    PERFORM VARYING APPT-PNTR FROM +1 BY +3                  PPEM009
046800*****                             UNTIL APPT-PNTR > 25            PPEM009
046900*****        IF APP-APPT-NUM OF APP-ROW (APPT-PNTR, 1) NOT = ZEROSPPEM009
047000*****            IF APPT-BEGIN-DATE (APPT-PNTR, 1) >              PPEM009
047100*****                                            SEPARATE-DATE    PPEM009
047200*****                MOVE INITIAL-APPT-DATA                       PPEM009
047300*****                              TO  APP-ROW (APPT-PNTR, 1)     PPEM009
047400*****                PERFORM 3200-APPT-DEL-AUDIT-RESPON           PPEM009
047500*****                PERFORM 2200-DELETE-ALL-DIST                 PPEM009
047600*****            ELSE                                             PPEM009
047700*****                IF APPT-END-DATE (APPT-PNTR, 1) >            PPEM009
047800*****                                            SEPARATE-DATE    PPEM009
047900*****                    MOVE SEPARATE-DATE TO                    PPEM009
048000*****                                APPT-END-DATE (APPT-PNTR, 1) PPEM009
048100*****                    MOVE ' ' TO APPT-DURATION (APPT-PNTR, 1) PPEM009
048200*****                PERFORM 3100-APPT-UPD-AUDIT-RESPON           PPEM009
048300*****                END-IF                                       PPEM009
048400*****                PERFORM 2100-UPD-DEL-DIST-IMPLICIT           PPEM009
048500*****            END-IF                                           PPEM009
048600*****        END-IF                                               PPEM009
048700*****    END-PERFORM                                              PPEM009
050106     END-IF.                                                      PPEM009
050107                                                                  PPEM009
050108*----------------------------------------------------------------*PPEM009
050109 1200-EXPLICIT-SEP-ACTIONS SECTION.                               PPEM009
050110*----------------------------------------------------------------*PPEM009
050111                                                                  PPEM009
050112     MOVE SPACE TO    WS-UPD-FLAG.                                PPEM009
050113                                                                  PPEM009
050114     PERFORM VARYING APPT-PNTR FROM +1 BY +3                      PPEM009
050115                              UNTIL APPT-PNTR > 25                PPEM009
050116         IF APP-APPT-NUM OF APP-ROW (APPT-PNTR, 1) NOT = ZEROS    PPEM009
050117            AND APPT-ADC-CODE OF APP-ROW (APPT-PNTR, 1) NOT = 'D' PPEM009
050118             IF APPT-BEGIN-DATE (APPT-PNTR, 1)                    PPEM009
050119                                  <   HIRE-DATE   AND             PPEM009
050120                    APPT-BEGIN-DATE (APPT-PNTR, 1)                PPEM009
050130                                   >  SEPARATE-DATE               PPEM009
050140                 MOVE INITIAL-APPT-DATA                           PPEM009
050150                               TO  APP-ROW (APPT-PNTR, 1)         PPEM009
050160                 PERFORM 3200-APPT-DEL-AUDIT-RESPON               PPEM009
050170                 PERFORM 2200-DELETE-ALL-DIST                     PPEM009
050180                 MOVE 'Y' TO WS-UPD-FLAG                          PPEM009
050190             ELSE                                                 PPEM009
050200                 IF APPT-END-DATE (APPT-PNTR, 1)                  PPEM009
050300                                 > SEPARATE-DATE  AND             PPEM009
050400                    (APPT-BEGIN-DATE (APPT-PNTR, 1)               PPEM009
050500                                       < SEPARATE-DATE  OR        PPEM009
050600                     APPT-BEGIN-DATE (APPT-PNTR, 1)               PPEM009
050700                                       = SEPARATE-DATE)           PPEM009
050800                     MOVE SEPARATE-DATE TO                        PPEM009
050900                             APPT-END-DATE (APPT-PNTR, 1)         PPEM009
051000                     MOVE ' ' TO APPT-DURATION (APPT-PNTR, 1)     PPEM009
051100                     MOVE 'C' TO APPT-ADC-CODE (APPT-PNTR, 1)     PPEM009
051200                     MOVE 'Y' TO WS-UPD-FLAG                      PPEM009
051300                     PERFORM 3100-APPT-UPD-AUDIT-RESPON           PPEM009
051400                 END-IF                                           PPEM009
051500                 IF APPT-BEGIN-DATE (APPT-PNTR, 1)                PPEM009
051600                                       < SEPARATE-DATE  OR        PPEM009
051700                    APPT-BEGIN-DATE (APPT-PNTR, 1)                PPEM009
051701                                       = SEPARATE-DATE            PPEM009
051702                 PERFORM 2300-UPD-DEL-DIST-EXPLICIT               PPEM009
051703                 END-IF                                           PPEM009
051704             END-IF                                               PPEM009
051705         END-IF                                                   PPEM009
051706     END-PERFORM.                                                 PPEM009
051707     IF WS-UPD-FLAG  =   'Y'                                      PPEM009
051708         ADD +1 TO KMTA-CTR                                       PPEM009
051709         IF KRMI-REQUESTED-BY-08                                  PPEM009
051710             MOVE M08947      TO KMTA-MSG-NUMBER       (KMTA-CTR) PPEM009
051711         ELSE                                                     PPEM009
051712             MOVE M12947      TO KMTA-MSG-NUMBER       (KMTA-CTR) PPEM009
051713         END-IF                                                   PPEM009
051714         MOVE WS-ROUTINE-TYPE TO KMTA-ROUTINE-TYPE     (KMTA-CTR) PPEM009
051715         MOVE WS-ROUTINE-NUM  TO KMTA-ROUTINE-NUM      (KMTA-CTR) PPEM009
051716     END-IF.                                                      PPEM009
051717                                                                  PPEM009
051718*----------------------------------------------------------------*PPEM009
051800 2100-UPD-DEL-DIST-IMPLICIT SECTION.                              PPEM009
051900*----------------------------------------------------------------*PPEM009
052000     COMPUTE NEXT-APPT-PNTR = APPT-PNTR + 3                       PPEM009
052100     MOVE 2                  TO DIST-PNTR                         PPEM009
052200                                                                  PPEM009
052300     PERFORM                                                      PPEM009
052400      VARYING CURR-APPT-PNTR FROM APPT-PNTR BY +1                 PPEM009
052500        UNTIL CURR-APPT-PNTR NOT < NEXT-APPT-PNTR                 PPEM009
052600                                                                  PPEM009
052700          PERFORM                                                 PPEM009
052800            VARYING DIST-PNTR FROM DIST-PNTR BY +1                PPEM009
052900              UNTIL DIST-PNTR  > +3                               PPEM009
053000              IF DIST-NUM (CURR-APPT-PNTR, DIST-PNTR) NOT = ZERO  PPEM009
053100                  IF PAY-BEGIN-DATE (CURR-APPT-PNTR, DIST-PNTR)   PPEM009
053200                                          > SEPARATE-DATE         PPEM009
053203                     MOVE INITIAL-DIST-DATA TO                    PPEM009
053204                              DIS-ROW (CURR-APPT-PNTR, DIST-PNTR) PPEM009
058307                     PERFORM 3400-DIST-DEL-AUDIT-RESPON           PPEM009
058308                  ELSE                                            PPEM009
058309                      IF PAY-END-DATE (CURR-APPT-PNTR, DIST-PNTR) PPEM009
058310                                       > SEPARATE-DATE            PPEM009
058311                          MOVE SEPARATE-DATE TO                   PPEM009
058312                                 PAY-END-DATE                     PPEM009
058313                                     (CURR-APPT-PNTR, DIST-PNTR)  PPEM009
059200                          PERFORM 3300-DIST-UPD-AUDIT-RESPON      PPEM009
059201                      END-IF                                      PPEM009
059202                   END-IF                                         PPEM009
059203               END-IF                                             PPEM009
059204          END-PERFORM                                             PPEM009
059205                                                                  PPEM009
059206     MOVE 1   TO DIST-PNTR                                        PPEM009
059207     END-PERFORM.                                                 PPEM009
059208                                                                  PPEM009
059209*----------------------------------------------------------------*PPEM009
059210 2200-DELETE-ALL-DIST SECTION.                                    PPEM009
059211*----------------------------------------------------------------*PPEM009
059212     COMPUTE NEXT-APPT-PNTR = APPT-PNTR + 3                       PPEM009
059213     MOVE 2                  TO DIST-PNTR                         PPEM009
059214                                                                  PPEM009
059215     PERFORM                                                      PPEM009
059216      VARYING CURR-APPT-PNTR FROM APPT-PNTR BY +1                 PPEM009
059217        UNTIL CURR-APPT-PNTR NOT < NEXT-APPT-PNTR                 PPEM009
059218                                                                  PPEM009
059219          PERFORM                                                 PPEM009
059220            VARYING DIST-PNTR FROM DIST-PNTR BY +1                PPEM009
059221              UNTIL DIST-PNTR  > +3                               PPEM009
059222              IF DIST-NUM (CURR-APPT-PNTR, DIST-PNTR)             PPEM009
059223                       NOT = ZERO                                 PPEM009
059224                  MOVE INITIAL-DIST-DATA TO                       PPEM009
059225                    DIS-ROW (CURR-APPT-PNTR, DIST-PNTR)           PPEM009
059226                  PERFORM 3400-DIST-DEL-AUDIT-RESPON              PPEM009
059227               END-IF                                             PPEM009
059228          END-PERFORM                                             PPEM009
059229                                                                  PPEM009
059230     MOVE 1   TO DIST-PNTR                                        PPEM009
059231     END-PERFORM.                                                 PPEM009
059232                                                                  PPEM009
059233*----------------------------------------------------------------*PPEM009
059234 2300-UPD-DEL-DIST-EXPLICIT SECTION.                              PPEM009
059235*----------------------------------------------------------------*PPEM009
059236     COMPUTE NEXT-APPT-PNTR = APPT-PNTR + 3                       PPEM009
059237     MOVE 2                  TO DIST-PNTR                         PPEM009
059238                                                                  PPEM009
059239     PERFORM                                                      PPEM009
059240      VARYING CURR-APPT-PNTR FROM APPT-PNTR BY +1                 PPEM009
059241        UNTIL CURR-APPT-PNTR NOT < NEXT-APPT-PNTR                 PPEM009
059242                                                                  PPEM009
059243          PERFORM                                                 PPEM009
059244            VARYING DIST-PNTR FROM DIST-PNTR BY +1                PPEM009
059245              UNTIL DIST-PNTR  > +3                               PPEM009
059246              IF DIST-NUM (CURR-APPT-PNTR, DIST-PNTR) NOT = ZERO  PPEM009
059247                  AND DIST-ADC-CODE (CURR-APPT-PNTR, DIST-PNTR)   PPEM009
059248                                                       NOT = 'D'  PPEM009
059249                  IF PAY-BEGIN-DATE (CURR-APPT-PNTR, DIST-PNTR)   PPEM009
059250                                           > SEPARATE-DATE        PPEM009
059251                      MOVE INITIAL-DIST-DATA TO DIS-ROW           PPEM009
059252                                  (CURR-APPT-PNTR, DIST-PNTR)     PPEM009
059253                      MOVE 'Y' TO WS-UPD-FLAG                     PPEM009
059254                      PERFORM 3400-DIST-DEL-AUDIT-RESPON          PPEM009
059255                  ELSE                                            PPEM009
059256                      IF PAY-END-DATE (CURR-APPT-PNTR, DIST-PNTR) PPEM009
059257                                          > SEPARATE-DATE         PPEM009
059258                          MOVE SEPARATE-DATE TO                   PPEM009
059259                                    PAY-END-DATE                  PPEM009
059260                                      (CURR-APPT-PNTR, DIST-PNTR) PPEM009
059261                          MOVE 'C' TO DIST-ADC-CODE               PPEM009
059262                                      (CURR-APPT-PNTR, DIST-PNTR) PPEM009
059263                          MOVE 'Y' TO WS-UPD-FLAG                 PPEM009
059264                          PERFORM 3300-DIST-UPD-AUDIT-RESPON      PPEM009
059300                      END-IF                                      PPEM009
059310                  END-IF                                          PPEM009
059400               END-IF                                             PPEM009
059500          END-PERFORM                                             PPEM009
059600                                                                  PPEM009
059700     MOVE 1   TO DIST-PNTR                                        PPEM009
059800     END-PERFORM.                                                 PPEM009
059900                                                                  PPEM009
060000*----------------------------------------------------------------*PPEM009
060100 3000-PCM-UPD-AUDIT-RESPON SECTION.                               PPEM009
060200*----------------------------------------------------------------*PPEM009
072600******************************************************************PPEM009
072700**   CHECK DISPOSITION CODE                                     **PPEM009
072800******************************************************************PPEM009
072900                                                                  PPEM009
073000     MOVE CHK-DISP-CODE-DEN TO DL-FIELD                           PPEM009
073100     PERFORM 9050-AUDITING-RESPONSIBILITIES.                      PPEM009
073200                                                                  PPEM009
073201*----------------------------------------------------------------*PPEM009
073202 3100-APPT-UPD-AUDIT-RESPON SECTION.                              PPEM009
073203*----------------------------------------------------------------*PPEM009
073204**  THE FOLLOWING CODE HANDLES AUDITING RESPONSIBILITIES FOR AN **PPEM009
073205**  APPOINTMENT UPDATE OF THE END DATE AND THE DURATION CODE    **PPEM009
073206**  BASED UPON THE SEPARATION DATE.                             **PPEM009
073207**                                                              **PPEM009
073208**  THE DATA ELEMENT NUMBER FOR EACH ELEMENT IN THE APPOINTMENT **PPEM009
073209**  IS COMPUTED BY ADDING AN OFFSET TO A BASE DATA ELEMENT      **PPEM009
073210**  NUMBER.  THE APPOINTMENT'S BASE DATA ELEMENT NUMBER IS      **PPEM009
073211**  MOVED TO A WORK AREA TO MINIMIZE USE OF DOUBLE SUBSCRIPTS   **PPEM009
073212******************************************************************PPEM009
073213                                                                  PPEM009
073214     MOVE ADA-SEG-BASE (APPT-PNTR, 1) TO WORK-SEG-BASE.           PPEM009
073215                                                                  PPEM009
073216******************************************************************PPEM009
073217**   APPOINTMENT END DATE                                       **PPEM009
073218******************************************************************PPEM009
073219                                                                  PPEM009
073220     COMPUTE DL-FIELD-R = WORK-SEG-BASE + OFF-2003-APPT-END-DATE. PPEM009
073221     PERFORM 9050-AUDITING-RESPONSIBILITIES.                      PPEM009
073222                                                                  PPEM009
073223******************************************************************PPEM009
073224**   DURATION OF EMPLOYMENT                                     **PPEM009
073225******************************************************************PPEM009
073226                                                                  PPEM009
073227     COMPUTE DL-FIELD-R = WORK-SEG-BASE + OFF-2004-DUR-EMPLMT.    PPEM009
073228     PERFORM 9050-AUDITING-RESPONSIBILITIES.                      PPEM009
073229******************************************************************PPEM009
073230**   APPOINTMENT ADC CODE                                       **PPEM009
073231******************************************************************PPEM009
073232                                                                  PPEM009
073233     COMPUTE DL-FIELD-R = WORK-SEG-BASE + OFF-2022-APPT-ADC-CODE. PPEM009
073234     PERFORM 9050-AUDITING-RESPONSIBILITIES.                      PPEM009
073235                                                                  PPEM009
073236*----------------------------------------------------------------*PPEM009
073237 3200-APPT-DEL-AUDIT-RESPON SECTION.                              PPEM009
073238*----------------------------------------------------------------*PPEM009
073239******************************************************************PPEM009
073240**  THE FOLLOWING CODE HANDLES AUDITING RESPONSIBILITIES FOR AN **PPEM009
073241**  APPOINTMENT THAT HAS BEEN DELETED (I.E., RESET TO INITIAL   **PPEM009
073242**  VALUES).  FOR EACH DATA ELEMENT IN THE APPOINTMENT THE      **PPEM009
073243**  BEFORE-IMAGE TABLE AND SEGMENT-STATUS TABLE ARE CHECKED AND **PPEM009
073244**  UPDATED IF NECESSARY, A DLINSERT IS DONE, AND A HISTORY     **PPEM009
073245**  ACTIVITY RECORD IS CREATED.                                 **PPEM009
073246**                                                              **PPEM009
073247**  THE DATA ELEMENT NUMBER FOR EACH ELEMENT IN THE APPOINTMENT **PPEM009
073248**  IS COMPUTED BY ADDING AN OFFSET TO A BASE DATA ELEMENT      **PPEM009
073249**  NUMBER.  THE APPOINTMENT'S BASE DATA ELEMENT NUMBER IS      **PPEM009
073250**  MOVED TO A WORK AREA TO MINIMIZE USE OF DOUBLE SUBSCRIPTS   **PPEM009
073251******************************************************************PPEM009
073252                                                                  PPEM009
073253     MOVE ADA-SEG-BASE (APPT-PNTR, 1) TO WORK-SEG-BASE.           PPEM009
073254                                                                  PPEM009
073255******************************************************************PPEM009
073256**   APPOINTMENT NUMBER                                         **PPEM009
073257******************************************************************PPEM009
073258                                                                  PPEM009
073259     MOVE WORK-SEG-BASE TO DL-FIELD                               PPEM009
073260     PERFORM 9050-AUDITING-RESPONSIBILITIES.                      PPEM009
073270                                                                  PPEM009
073300******************************************************************PPEM009
073400**   APPOINTMENT BEGIN DATE                                     **PPEM009
073500******************************************************************PPEM009
073600                                                                  PPEM009
073700     COMPUTE DL-FIELD-R = WORK-SEG-BASE + OFF-2002-APPT-BEGN-DATE.PPEM009
073800     PERFORM 9050-AUDITING-RESPONSIBILITIES.                      PPEM009
073900                                                                  PPEM009
074000******************************************************************PPEM009
074100**   APPOINTMENT END DATE                                       **PPEM009
074200******************************************************************PPEM009
074300                                                                  PPEM009
074400     COMPUTE DL-FIELD-R = WORK-SEG-BASE + OFF-2003-APPT-END-DATE. PPEM009
074500     PERFORM 9050-AUDITING-RESPONSIBILITIES.                      PPEM009
074600                                                                  PPEM009
074700******************************************************************PPEM009
074800**   DURATION OF EMPLOYMENT                                     **PPEM009
074900******************************************************************PPEM009
075000                                                                  PPEM009
075100     COMPUTE DL-FIELD-R = WORK-SEG-BASE + OFF-2004-DUR-EMPLMT.    PPEM009
075200     PERFORM 9050-AUDITING-RESPONSIBILITIES.                      PPEM009
075300                                                                  PPEM009
075400******************************************************************PPEM009
075500**   TITLE CODE                                                 **PPEM009
075600******************************************************************PPEM009
075700                                                                  PPEM009
075800     COMPUTE DL-FIELD-R = WORK-SEG-BASE + OFF-2006-TTL-CODE.      PPEM009
075900     PERFORM 9050-AUDITING-RESPONSIBILITIES.                      PPEM009
076000                                                                  PPEM009
076100******************************************************************PPEM009
076200**   PERSONNEL PROGRAM CODE                                     **PPEM009
076300******************************************************************PPEM009
076400                                                                  PPEM009
076500     COMPUTE DL-FIELD-R = WORK-SEG-BASE + OFF-2007-PERSNL-PROGRM. PPEM009
076600     PERFORM 9050-AUDITING-RESPONSIBILITIES.                      PPEM009
076700                                                                  PPEM009
076800******************************************************************PPEM009
076900**   STEP                                                       **PPEM009
077000******************************************************************PPEM009
077100                                                                  PPEM009
077200     COMPUTE DL-FIELD-R = WORK-SEG-BASE + OFF-2008-GRADE.         PPEM009
077300     PERFORM 9050-AUDITING-RESPONSIBILITIES.                      PPEM009
077400                                                                  PPEM009
077500******************************************************************PPEM009
077600**   BASIS                                                      **PPEM009
077700******************************************************************PPEM009
077800                                                                  PPEM009
077900     COMPUTE DL-FIELD-R = WORK-SEG-BASE + OFF-2010-BASIS.         PPEM009
078000     PERFORM 9050-AUDITING-RESPONSIBILITIES.                      PPEM009
078100                                                                  PPEM009
078200******************************************************************PPEM009
078300**   PAID OVER                                                  **PPEM009
078400******************************************************************PPEM009
078500                                                                  PPEM009
078600     COMPUTE DL-FIELD-R = WORK-SEG-BASE + OFF-2011-PAID-OVER.     PPEM009
078700     PERFORM 9050-AUDITING-RESPONSIBILITIES.                      PPEM009
078800                                                                  PPEM009
078900******************************************************************PPEM009
079000**   PERCENT FULL TIME                                          **PPEM009
079100******************************************************************PPEM009
079200                                                                  PPEM009
079300     COMPUTE DL-FIELD-R = WORK-SEG-BASE + OFF-2012-PCT-FULL-TIME. PPEM009
079400     PERFORM 9050-AUDITING-RESPONSIBILITIES.                      PPEM009
079500                                                                  PPEM009
079600******************************************************************PPEM009
079700**   FIXED/VARIABLE                                             **PPEM009
079800******************************************************************PPEM009
079900                                                                  PPEM009
080000     COMPUTE DL-FIELD-R = WORK-SEG-BASE + OFF-2013-FXD-VAR.       PPEM009
080100     PERFORM 9050-AUDITING-RESPONSIBILITIES.                      PPEM009
080200                                                                  PPEM009
080300******************************************************************PPEM009
080400**   ANNUAL/HOURLY RATE                                         **PPEM009
080500******************************************************************PPEM009
080600                                                                  PPEM009
080700     COMPUTE DL-FIELD-R = WORK-SEG-BASE + OFF-2014-ANNL-HRLY-RATE.PPEM009
080800     PERFORM 9050-AUDITING-RESPONSIBILITIES.                      PPEM009
080900                                                                  PPEM009
081000******************************************************************PPEM009
081100**   RATE CODE                                                  **PPEM009
081200******************************************************************PPEM009
081300                                                                  PPEM009
081400     COMPUTE DL-FIELD-R = WORK-SEG-BASE + OFF-2015-RATE-CODE.     PPEM009
081500     PERFORM 9050-AUDITING-RESPONSIBILITIES.                      PPEM009
081600                                                                  PPEM009
081700******************************************************************PPEM009
081800**   PAY SCHEDULE                                               **PPEM009
081900******************************************************************PPEM009
082000                                                                  PPEM009
082100     COMPUTE DL-FIELD-R = WORK-SEG-BASE + OFF-2016-PAY-SCHED.     PPEM009
082200     PERFORM 9050-AUDITING-RESPONSIBILITIES.                      PPEM009
082300                                                                  PPEM009
082400******************************************************************PPEM009
082500**   TIME CODE                                                  **PPEM009
082600******************************************************************PPEM009
082700                                                                  PPEM009
082800     COMPUTE DL-FIELD-R = WORK-SEG-BASE + OFF-2017-TIME-CODE.     PPEM009
082900     PERFORM 9050-AUDITING-RESPONSIBILITIES.                      PPEM009
083000                                                                  PPEM009
083100******************************************************************PPEM009
083200**   LEAVE                                                      **PPEM009
083300******************************************************************PPEM009
083400                                                                  PPEM009
083500     COMPUTE DL-FIELD-R = WORK-SEG-BASE + OFF-2018-LEAVE.         PPEM009
083600     PERFORM 9050-AUDITING-RESPONSIBILITIES.                      PPEM009
083700                                                                  PPEM009
083800******************************************************************PPEM009
083900**   APPOINTMENT TYPE                                           **PPEM009
084000******************************************************************PPEM009
084100                                                                  PPEM009
084200     COMPUTE DL-FIELD-R = WORK-SEG-BASE + OFF-2020-APPT-TYPE.     PPEM009
084300     PERFORM 9050-AUDITING-RESPONSIBILITIES.                      PPEM009
084400                                                                  PPEM009
084500******************************************************************PPEM009
084600**   RETIREMENT                                                 **PPEM009
084700******************************************************************PPEM009
084800                                                                  PPEM009
084900     COMPUTE DL-FIELD-R = WORK-SEG-BASE + OFF-2021-RETIRE.        PPEM009
085000     PERFORM 9050-AUDITING-RESPONSIBILITIES.                      PPEM009
085100                                                                  PPEM009
085200******************************************************************PPEM009
085300**   APPOINTMENT ADC CODE                                       **PPEM009
085400******************************************************************PPEM009
085500                                                                  PPEM009
085600     COMPUTE DL-FIELD-R = WORK-SEG-BASE + OFF-2022-APPT-ADC-CODE. PPEM009
085700     PERFORM 9050-AUDITING-RESPONSIBILITIES.                      PPEM009
085800                                                                  PPEM009
085810******************************************************************PPEM009
085811**   APPOINTMENT PERFORMANCE EVALUATION CODE                    **PPEM009
085820******************************************************************PPEM009
085830                                                                  PPEM009
085840     COMPUTE DL-FIELD-R = WORK-SEG-BASE + OFF-2026-PERF-EVAL-CD.  PPEM009
085850     PERFORM 9050-AUDITING-RESPONSIBILITIES.                      PPEM009
085860                                                                  PPEM009
085870******************************************************************PPEM009
085880**   APPOINTMENT PERFORMANCE EVALUATION DATE                    **PPEM009
085890******************************************************************PPEM009
085891                                                                  PPEM009
085892     COMPUTE DL-FIELD-R = WORK-SEG-BASE + OFF-2027-PERF-EVAL-DT.  PPEM009
085893     PERFORM 9050-AUDITING-RESPONSIBILITIES.                      PPEM009
085894                                                                  PPEM009
085900******************************************************************PPEM009
086000**   APPOINTMENT WITHOUT SALARY INDICATOR                       **PPEM009
086100******************************************************************PPEM009
086200                                                                  PPEM009
086300     COMPUTE DL-FIELD-R = WORK-SEG-BASE + OFF-2028-APPT-WOS.      PPEM009
086400     PERFORM 9050-AUDITING-RESPONSIBILITIES.                      PPEM009
086500                                                                  PPEM009
086600******************************************************************PPEM009
086700**   APPOINTMENT PERB CODE FOR CBUC DETERMINATION               **PPEM009
086800******************************************************************PPEM009
086900                                                                  PPEM009
087000     COMPUTE DL-FIELD-R = WORK-SEG-BASE + OFF-2029-PERB.          PPEM009
087100     PERFORM 9050-AUDITING-RESPONSIBILITIES.                      PPEM009
087200                                                                  PPEM009
087300******************************************************************PPEM009
087400**   APPOINTMENT SPECIAL HANDLING CODE                          **PPEM009
087500******************************************************************PPEM009
087600                                                                  PPEM009
087700     COMPUTE DL-FIELD-R = WORK-SEG-BASE + OFF-2030-SHC.           PPEM009
087800     PERFORM 9050-AUDITING-RESPONSIBILITIES.                      PPEM009
087900                                                                  PPEM009
088000******************************************************************PPEM009
088100**   APPOINTMENT REP CODE                                       **PPEM009
088200******************************************************************PPEM009
088300                                                                  PPEM009
088400     COMPUTE DL-FIELD-R = WORK-SEG-BASE + OFF-2031-AREP.          PPEM009
088500     PERFORM 9050-AUDITING-RESPONSIBILITIES.                      PPEM009
088600                                                                  PPEM009
088700******************************************************************PPEM009
088800**   APPOINTMENT DEPARTMENT                                     **PPEM009
088900******************************************************************PPEM009
089000                                                                  PPEM009
089100     COMPUTE DL-FIELD-R = WORK-SEG-BASE + OFF-2032-APPT-DEPT.     PPEM009
089200     PERFORM 9050-AUDITING-RESPONSIBILITIES.                      PPEM009
089300                                                                  PPEM009
089400******************************************************************PPEM009
089500**   APPOINTMENT SUB-LOCATION                                   **PPEM009
089600******************************************************************PPEM009
089700                                                                  PPEM009
089800     COMPUTE DL-FIELD-R = WORK-SEG-BASE + OFF-2009-APPT-SUB-LOC.  PPEM009
089900     PERFORM 9050-AUDITING-RESPONSIBILITIES.                      PPEM009
090000                                                                  PPEM009
090100     EJECT                                                        PPEM009
090101*----------------------------------------------------------------*PPEM009
090102 3300-DIST-UPD-AUDIT-RESPON SECTION.                              PPEM009
090103*----------------------------------------------------------------*PPEM009
090104******************************************************************PPEM009
090105**  THE FOLLOWING CODE HANDLES AUDITING RESPONSIBILITIES FOR A  **PPEM009
090106**  DISTRIBUTION THAT HAS BEEN UPDATED WITH A NEW PAY-END-DATE  **PPEM009
090107**  EQUAL TO THE SEPARATION DATE.                               **PPEM009
090108**  BEFORE-IMAGE TABLE AND SEGMENT-STATUS TABLE ARE CHECKED     **PPEM009
090109**  AND UPDATED IF NECESSARY, A DLINSERT IS DONE, AND A HISTORY **PPEM009
090110**  ACTIVITY RECORD IS CREATED.                                 **PPEM009
090111**                                                              **PPEM009
090112**  THE DATA ELEMENT NUMBER FOR EACH ELEMNT IN THE DISTRIBUTION **PPEM009
090113**  IS COMPUTED BY ADDING AN OFFSET TO A BASE DATA ELEMENT      **PPEM009
090114**  NUMBER.  THE DISTRIBUTION'S BASE DATA ELEMENT NUMBER IS     **PPEM009
090115**  MOVED TO A WORK AREA TO MINIMIZE USE OF DOUBLE SUBSCRIPTS.  **PPEM009
090116******************************************************************PPEM009
090117                                                                  PPEM009
090118     MOVE ADA-SEG-BASE (CURR-APPT-PNTR, DIST-PNTR)                PPEM009
090119                                  TO WORK-SEG-BASE.               PPEM009
090120                                                                  PPEM009
090121******************************************************************PPEM009
090122**   PAY END DATE                                               **PPEM009
090123******************************************************************PPEM009
090124                                                                  PPEM009
090125     COMPUTE DL-FIELD-R = WORK-SEG-BASE + OFF-2054-PAY-END-DATE.  PPEM009
090126     PERFORM 9050-AUDITING-RESPONSIBILITIES.                      PPEM009
090127                                                                  PPEM009
090128******************************************************************PPEM009
090129**   DISTRIBUTION ADC CODE                                      **PPEM009
090130******************************************************************PPEM009
090131                                                                  PPEM009
090132     COMPUTE DL-FIELD-R = WORK-SEG-BASE + OFF-2058-DIST-ADC-CODE. PPEM009
090133     PERFORM 9050-AUDITING-RESPONSIBILITIES.                      PPEM009
090134                                                                  PPEM009
090135*----------------------------------------------------------------*PPEM009
090136 3400-DIST-DEL-AUDIT-RESPON SECTION.                              PPEM009
090137*----------------------------------------------------------------*PPEM009
090138******************************************************************PPEM009
090139**  THE FOLLOWING CODE HANDLES AUDITING RESPONSIBILITIES FOR A  **PPEM009
090140**  DISTRIBUTION THAT HAS BEEN DELETED (I.E., RESET TO INITIAL  **PPEM009
090141**  VALUES).  FOR EACH DATA ELEMENT IN THE DISTRIBUTION, THE    **PPEM009
090142**  BEFORE-IMAGE TABLE AND SEGMENT-STATUS TABLE ARE CHECKED     **PPEM009
090143**  AND UPDATED IF NECESSARY, A DLINSERT IS DONE, AND A HISTORY **PPEM009
090144**  ACTIVITY RECORD IS CREATED.                                 **PPEM009
090145**                                                              **PPEM009
090146**  THE DATA ELEMENT NUMBER FOR EACH ELEMNT IN THE DISTRIBUTION **PPEM009
090147**  IS COMPUTED BY ADDING AN OFFSET TO A BASE DATA ELEMENT      **PPEM009
090148**  NUMBER.  THE DISTRIBUTION'S BASE DATA ELEMENT NUMBER IS     **PPEM009
090149**  MOVED TO A WORK AREA TO MINIMIZE USE OF DOUBLE SUBSCRIPTS.  **PPEM009
090150******************************************************************PPEM009
090151                                                                  PPEM009
090152     MOVE ADA-SEG-BASE (CURR-APPT-PNTR, DIST-PNTR)                PPEM009
090153                                  TO WORK-SEG-BASE.               PPEM009
090154                                                                  PPEM009
090155******************************************************************PPEM009
090156**   DISTRIBUTION NUMBER                                        **PPEM009
090157******************************************************************PPEM009
090158                                                                  PPEM009
090159     MOVE WORK-SEG-BASE TO DL-FIELD                               PPEM009
090160     PERFORM 9050-AUDITING-RESPONSIBILITIES.                      PPEM009
090161                                                                  PPEM009
090162*****                                                          CD PPEM009
090163******************************************************************PPEM009
090164**   FULL ACCOUNTING UNIT                                       **PPEM009
090165******************************************************************PPEM009
090166                                                                  PPEM009
090167     COMPUTE DL-FIELD-R = WORK-SEG-BASE + OFF-2043-FAU.           PPEM009
090168     PERFORM 9050-AUDITING-RESPONSIBILITIES.                      PPEM009
090169                                                                  PPEM009
090170******************************************************************PPEM009
090171**   DISTRIBUTION FTE                                           **PPEM009
090172******************************************************************PPEM009
090173                                                                  PPEM009
090174     COMPUTE DL-FIELD-R = WORK-SEG-BASE + OFF-2051-FTE.           PPEM009
090175     PERFORM 9050-AUDITING-RESPONSIBILITIES.                      PPEM009
090176                                                                  PPEM009
090177******************************************************************PPEM009
090178**   DISTRIBUTION PERCENT                                       **PPEM009
090179******************************************************************PPEM009
090180                                                                  PPEM009
090181     COMPUTE DL-FIELD-R = WORK-SEG-BASE + OFF-2052-DIST-PCT.      PPEM009
090182     PERFORM 9050-AUDITING-RESPONSIBILITIES.                      PPEM009
090183                                                                  PPEM009
090184******************************************************************PPEM009
090185**   PAY BEGIN DATE                                             **PPEM009
090186******************************************************************PPEM009
090187                                                                  PPEM009
090188     COMPUTE DL-FIELD-R = WORK-SEG-BASE + OFF-2053-PAY-BEGN-DATE. PPEM009
090189     PERFORM 9050-AUDITING-RESPONSIBILITIES.                      PPEM009
090190                                                                  PPEM009
090191******************************************************************PPEM009
090192**   PAY END DATE                                               **PPEM009
090193******************************************************************PPEM009
090194                                                                  PPEM009
090195     COMPUTE DL-FIELD-R = WORK-SEG-BASE + OFF-2054-PAY-END-DATE.  PPEM009
090196     PERFORM 9050-AUDITING-RESPONSIBILITIES.                      PPEM009
090197                                                                  PPEM009
090198******************************************************************PPEM009
090199**   RATE/AMOUNT                                                **PPEM009
090200******************************************************************PPEM009
090201                                                                  PPEM009
090202     COMPUTE DL-FIELD-R = WORK-SEG-BASE + OFF-2055-RATE-AMOUNT.   PPEM009
090203     PERFORM 9050-AUDITING-RESPONSIBILITIES.                      PPEM009
090204                                                                  PPEM009
090205******************************************************************PPEM009
090206**   DESCRIPTION OF SERVICE                                     **PPEM009
090207******************************************************************PPEM009
090208                                                                  PPEM009
090209     COMPUTE DL-FIELD-R = WORK-SEG-BASE + OFF-2056-DOS.           PPEM009
090210     PERFORM 9050-AUDITING-RESPONSIBILITIES.                      PPEM009
090211                                                                  PPEM009
090212******************************************************************PPEM009
090213**   PERQUISITE TYPE                                            **PPEM009
090214******************************************************************PPEM009
090215                                                                  PPEM009
090216     COMPUTE DL-FIELD-R = WORK-SEG-BASE + OFF-2057-PERQ.          PPEM009
090217     PERFORM 9050-AUDITING-RESPONSIBILITIES.                      PPEM009
090218                                                                  PPEM009
090219******************************************************************PPEM009
090220**   DISTRIBUTION ADC CODE                                      **PPEM009
090221******************************************************************PPEM009
090222                                                                  PPEM009
090223     COMPUTE DL-FIELD-R = WORK-SEG-BASE + OFF-2058-DIST-ADC-CODE. PPEM009
090224     PERFORM 9050-AUDITING-RESPONSIBILITIES.                      PPEM009
090225                                                                  PPEM009
090226******************************************************************PPEM009
090227**   DISTRIBUTION DUC CODE                                      **PPEM009
090228******************************************************************PPEM009
090229                                                                  PPEM009
090230     COMPUTE DL-FIELD-R = WORK-SEG-BASE + OFF-2059-DIST-DUC.      PPEM009
090231     PERFORM 9050-AUDITING-RESPONSIBILITIES.                      PPEM009
090232                                                                  PPEM009
090233******************************************************************PPEM009
090234**   DISTRIBUTION RA DUC                                        **PPEM009
090235******************************************************************PPEM009
090236                                                                  PPEM009
090237     COMPUTE DL-FIELD-R = WORK-SEG-BASE + OFF-2060-DIST-RA-DUC.   PPEM009
090238     PERFORM 9050-AUDITING-RESPONSIBILITIES.                      PPEM009
090239                                                                  PPEM009
090240******************************************************************PPEM009
090241**   DISTRIBUTION DEPT                                          **PPEM009
090242******************************************************************PPEM009
090243                                                                  PPEM009
090244     COMPUTE DL-FIELD-R = WORK-SEG-BASE + OFF-2061-DIST-DEPT-CODE PPEM009
090245     PERFORM 9050-AUDITING-RESPONSIBILITIES.                      PPEM009
090246                                                                  PPEM009
090247******************************************************************PPEM009
090248**   DISTRIBUTION STEP                                          **PPEM009
090249******************************************************************PPEM009
090250                                                                  PPEM009
090251     COMPUTE DL-FIELD-R = WORK-SEG-BASE + OFF-2049-STEP.          PPEM009
090252     PERFORM 9050-AUDITING-RESPONSIBILITIES.                      PPEM009
090253                                                                  PPEM009
090254******************************************************************PPEM009
090255**   DISTRIBUTION OFF-ABOVE CODE                                **PPEM009
090256******************************************************************PPEM009
090257                                                                  PPEM009
090258     COMPUTE DL-FIELD-R = WORK-SEG-BASE + OFF-2050-OFF-ABOVE.     PPEM009
090259     PERFORM 9050-AUDITING-RESPONSIBILITIES.                      PPEM009
090260                                                                  PPEM009
090261******************************************************************PPEM009
090262**   WORK STUDY PROGRAM                                         **PPEM009
090263******************************************************************PPEM009
090264                                                                  PPEM009
090265     COMPUTE DL-FIELD-R = WORK-SEG-BASE + OFF-2062-WSP.           PPEM009
090266     PERFORM 9050-AUDITING-RESPONSIBILITIES.                      PPEM009
090267                                                                  PPEM009
090268     EJECT                                                        PPEM009
090269*----------------------------------------------------------------*PPEM009
090270 9050-AUDITING-RESPONSIBILITIES  SECTION.                         PPEM009
090271*----------------------------------------------------------------*PPEM009
090272                                                                  PPEM009
090273*                                               *-------------*   PPEM009
090274                                                 COPY CPPDXDEC.   PPEM009
090275*                                               *-------------*   PPEM009
090276                                                                  PPEM009
090277******************************************************************PPEM009
090278**   E N D  S O U R C E   ----  PPEM009 ----                    **PPEM009
090279******************************************************************PPEM009
