000100*==========================================================%      UCSD9999
000200*= UCSD LOCAL CHANGES HAVE BEEN IMPLEMENTED.              =%      UCSD9999
000300*= COLUMN 73 THRU 80 DENOTES CHANGE NUMBER - UCSD9999     =%      UCSD9999
000400*==========================================================%      UCSD9999
000500*==========================================================%      UCSD0146
000600*=   PROGRAM: PPEXECLF                                    =%      UCSD0146
000700*=   CHANGE: ___0146____  SERVICE REQUEST(S): _REL 1348___=%      UCSD0146
000800*=   NAME:   G CHIU       MODIFICATION DATE:  __07/18/01__=%      UCSD0146
000800*=                                                        =%      UCSD0146
000900*=   DESCRIPTION:                                         =%      UCSD0146
000900*=   GRADE 1 THRU 4 WAS NOT FOR EXEC TITLES LOCALLY       =%      UCSD0146
000500*==========================================================%      UCSD0146
000500*==========================================================%      UCSD0041
000600*=   PROGRAM: PPEXECLF                                    =%      UCSD0041
000700*=   CHANGE: ___0041____  SERVICE REQUEST(S): ___DT-041___=%      UCSD0041
000800*=   NAME:   JIM PIERCE   MODIFICATION DATE:  __01/28/92__=%      UCSD0041
000800*=                                                        =%      UCSD0041
000800*=   NAME:   G. CHIU   7/8/96                             =%      UCSD0041
000900*=   DESCRIPTION:                                         =%      UCSD0041
000900*=   CHANGES TO ACCOMMODATE RELEASE 1068 HERMI            =%      UCSD0041
000900*=   IMPLEMENTATION                                       =%      UCSD0041
000900*=                                                        =%      UCSD0041
000800*=   NAME:   JIM PIERCE   MODIFICATION DATE:  __01/28/92__=%      UCSD0041
000900*=   DESCRIPTION:                                         =%      UCSD0041
001000*=   PREVENT APPTS WITH NON-EXECUTIVE PERSONNEL PROGRAM   =%      UCSD0041
001100*=   CODE FROM POSSIBLY CAUSING EMPLOYEE TO BE            =%      UCSD0041
001200*=   INELIGIBLE FOR EXECUTIVE LIFE COVERAGE.              =%      UCSD0041
001300*==========================================================%      UCSD0041
000010**************************************************************/   40210592
000020*  PROGRAM: PPEXECLF                                         */   40210592
000000**************************************************************/   76871348
000001*  PROGRAM: PPEXECLF                                         */   76871348
000002*  RELEASE: ___1348______ SERVICE REQUEST(S): ____17687____  */   76871348
000003*  NAME:_______QUAN______ MODIFICATION DATE:  ___05/31/01__  */   76871348
000004*  DESCRIPTION:                                              */   76871348
000005*  - ADDED '1', '2', '3', AND '4' TO VALID LIST OF GRADES    */   76871348
000006*    IN EXECUTIVE TITLES.                                    */   76871348
000007**************************************************************/   76871348
000100**************************************************************/   28201068
000200*  PROGRAM: PPEXECLF                                         */   28201068
000300*  RELEASE: ___1068______ SERVICE REQUEST(S): ____12820____  */   28201068
000400*  NAME:______M SANO_____ MODIFICATION DATE:  ___06/14/96__  */   28201068
000500*  DESCRIPTION:                                              */   28201068
000600*   - CHANGED REFERENCE TO PERSONNEL PGM VALUE 'E' TO '2'    */   28201068
000700*     PLUS SENIOR MANAGEMENT TITLE CODES                     */   28201068
000800**************************************************************/   28201068
000000**************************************************************/   28521025
000001*  PROGRAM: PPEXECLF                                         */   28521025
000002*  RELEASE: ___1025______ SERVICE REQUEST(S): ____12852____  */   28521025
000003*  NAME:_______QUAN______ MODIFICATION DATE:  ___08/01/95__  */   28521025
000004*  DESCRIPTION:                                              */   28521025
000005*  - DATE CONVERSION PROJECT:                                */   28521025
000006*    THE DATE COMPARISON LOGICS HAVE BEEN MODIFIED TO INCLUDE*/   28521025
000007*    THE CENTURY IN THE DATE COMPARES.                       */   28521025
000008**************************************************************/   28521025
000100**************************************************************/   05510747
000200*  PROGRAM: PPEXECLF                                         */   05510747
000300*  RELEASE: ___0747______ SERVICE REQUEST(S): ____10551____  */   05510747
000400*  NAME:_____M. SANO_____ MODIFICATION DATE:  ___02/10/93__  */   05510747
000500*  DESCRIPTION:                                              */   05510747
000600*   - REMOVE REFERENCES TO EXEC LIFE INDICATOR VALUE '3'     */   05510747
000700*     INCLUDING COMMENTS                                     */   05510747
000800*   - DELETE COMMENTED OUT CODE AND REMOVE 'CODE DELETE'     */   05510747
000900*     INDICATORES                                            */   05510747
001000**************************************************************/   05510747
000100**************************************************************/   36410717
000200*  PROGRAM: PPEXECLF                                         */   36410717
000300*  RELEASE: __0717_______ SERVICE REQUEST(S): _____3641____  */   36410717
000400*  NAME:______UCOP_______ MODIFICATION DATE:  ___11/19/92__  */   36410717
000500*  DESCRIPTION:                                              */   36410717
000600*  REMOVE INTERFACE TO PPIOCTL                               */   36410717
000700*                                                            */   36410717
000710**************************************************************/   36410717
000030*  RELEASE: __0651_______ SERVICE REQUEST(S): _____3622____  */   36220651
000040*  NAME:_________KXK_____ MODIFICATION DATE:  ___04/13/92__  */   36220651
000050*  DESCRIPTION:                                              */   36220651
000060*  CAPTURE EARLIEST VALID APPOINTMENT BEGIN DATE             */   36220651
000080*  (XELF-APPT-EFF-DATE) FOR EXECUTIVE LIFE COVERAGE EFFECTIVE*/   36220651
000091*  DATE PROCESSING.                                          */   36220651
000099**************************************************************/   36220651
000010**************************************************************/   40210592
000020*  PROGRAM: PPEXECLF                                         */   40210592
000030*  RELEASE: ___0592______ SERVICE REQUEST(S): _____4021____  */   40210592
000040*  NAME:_____J. QUAN_____ MODIFICATION DATE:  ___06/26/91__  */   40210592
000050*  DESCRIPTION:                                              */   40210592
000060*  DOS EXPANSION                                             */   40210592
000080*     - REWRITE 1300-LOAD-DOS-TABLE                          */   40210592
000091*     - COMMENT OUT 1310-PROCESS-DOS-TABLE-RECORD PROC       */   40210592
000093*     - COMMENT OUT 1999-CALL-PPIOCTL                        */   40210592
000094*     - THE OLD INTERNAL DOS TABLE IS COMMENTED OUT          */   40210592
000099**************************************************************/   40210592
000100**************************************************************/  *36090574
000200*  PROGRAM: PPEXECLF                                         */  *36090574
000300*  RELEASE: ____0574____  SERVICE REQUEST(S): ____3609____   */  *36090574
000400*  NAME:__PXP_____________CREATION DATE:      __06/05/91__   */  *36090574
000500*  DESCRIPTION:                                              */  *36090574
000600*  - CHANGED FOR CONVERSION FROM PPIOEDB TO NATIVE DB2       */  *36090574
000700**************************************************************/  *36090574
000100******************************************************************36070542
000200*  PROGRAM: PPEXECLF                                             *36070542
000300*  RELEASE: ____0542____  SERVICE REQUEST(S): ____3607____       *36070542
000400*  NAME:_PXP______________MODIFICATION DATE:___03/04/91___       *36070542
000500*  DESCRIPTION:                                                  *36070542
000600*  - CHANGED TO PRINT NEW PAF                                    *36070542
000700******************************************************************36070542
000001**************************************************************/   45260430
000002*  PROGRAM: PPEXECLF                                         */   45260430
001000*  RELEASE: ____0430____  SERVICE REQUEST(S): ____4526____   */   45260430
000004*  REF REL: ____0384____                                     */   45260430
001200*  NAME:__ M. BAPTISTA ___CREATION DATE:      __11/10/89__   */   45260430
000006*  DESCRIPTION:                                              */   45260430
000007*  - CORRECTED ROUNDING OF EXEC SAL BASE TO INCLUDE THE      */   45260430
000008*    CENTS AMOUNT WHEN MAKING THE DETERMINATION.             */   45260430
000009*  - FIXED TEST OF MAXIMUM DOS ELEMENTS IN TABLE TO ALLOW    */   45260430
000010*    FOR THE 100TH ENTRY.                                    */   45260430
000020**************************************************************/   45260430
000100**************************************************************/   30930413
000200*  PROGRAM: PPEXECLF                                         */   30930413
000300*  RELEASE: ____0413____  SERVICE REQUEST(S): ____3093____   */   30930413
000400*  NAME:____JIM WILLIAMS__CREATION DATE:      __05/23/89__   */   30930413
000500*  DESCRIPTION:                                              */   30930413
000600*  - CHANGED FOR CONVERSION FROM OS/VS COBOL TO VS COBOL II. */   30930413
000700**************************************************************/   30930413
000800**************************************************************/   45260390
000801*  PROGRAM: PPEXECLF                                         */   45260390
000802*  RELEASE: ____0390____  SERVICE REQUEST(S): ____4526____   */   45260390
000803*  NAME:    __J.WILCOX__  MODIFICATION DATE:  __01/13/89__   */   45260390
000804*  DESCRIPTION:                                              */   45260390
000805*                                                            */   45260390
000806*    - ENLARGED WORKING STORAGE FIELD TO AVOID TRUNCATION    */   45260390
000807*      OF DISTRIBUTION SALARY                                */   45260390
000808*    - MODIFIED DISTRIBUTION LOOP TO PROPERLY STEP THROUGH   */   45260390
000809*      ALL DISTRIBUTIONS OF AN APPOINTMENT                   */   45260390
000810*    - MODIFIED ELIGIBILITY CHECK TO ALWAYS RETURN           */   45260390
000820*      IF THE EMPLOYEE'S SEPARATION DATE HAS BEEN REACHED    */   45260390
000830**************************************************************/   45260390
000840**************************************************************/   45260384
000850*  PROGRAM: PPEXECLF                                         */   45260384
000860*  RELEASE: ____0384____  SERVICE REQUEST(S): ____4526____   */   45260384
000870*  NAME:    ____DXJ_____  MODIFICATION DATE:  __10/26/88__   */   45260384
000880*  DESCRIPTION:                                              */   45260384
000890*                                                            */   45260384
000900*    - PPEXECLF IS A NEW MODULE WHICH DETERMINES ELIGIBILTY  */   45260384
001000*      FOR THE EXECUTIVE LIFE INSURANCE PROGRAM AND WHICH    */   45260384
001100*      ALSO COMPUTES THE COVERED SALARY BASE FOR ELIGIBLE    */   45260384
001200*      EMPLOYEES.                                            */   45260384
001300**************************************************************/   45260384
001400 IDENTIFICATION DIVISION.                                         PPEXECLF
001500 PROGRAM-ID. PPEXECLF.                                            PPEXECLF
001600*SOURCE-COMPUTER.                          COPY 'CPOTXUCS'.       30930413
001700*OBJECT-COMPUTER.                          COPY 'CPOTXOBJ'.       30930413
001800 INSTALLATION. UNIVERSITY OF CALIFORNIA.                          PPEXECLF
001900 AUTHOR.       D.JOE.                                             PPEXECLF
002000 DATE-WRITTEN. OCT 28,1988.                                       PPEXECLF
002100 DATE-COMPILED.                                                   PPEXECLF
002200*REMARKS.                                                         PPEXECLF
002300***************************************************************   PPEXECLF
002400*****                                                     *****   PPEXECLF
002500*****  CALLING PROGRAM PASSES INFORMATION VIA COPY MEMBER *****   PPEXECLF
002600*****  CPLNKELF AND ALSO PASSES IN THE EMPLOYEE'S SEGMENT *****   PPEXECLF
002700*****  SET USING COPY MEMBER CPWSXEDB.  NO ACTUAL DATA    *****   PPEXECLF
002800*****  ELEMENTS WITHIN CPWSXEDB ARE ALTERED BY PPEXECLF.  *****   PPEXECLF
002900*****  ALL RETURNED VALUES ARE PASSED BACK IN CPLNKELF.   *****   PPEXECLF
003000*****                                                     *****   PPEXECLF
003100*****  THERE ARE 4 DIFFERENT CALL TYPES:                  *****   PPEXECLF
003200*****    1. INITIALIZATION - MUST BE CALLED ONCE, PRIOR   *****   PPEXECLF
003300*****       TO ANY OTHER CALLS.                           *****   PPEXECLF
003400*****    2. ELIGIBILITY - DETERMINES IF THE EMPLOYEE IS   *****   PPEXECLF
003500*****       ELIGIBLE FOR EXECUTIVE LIFE, AND IF SO, SETS  *****   PPEXECLF
003600*****       THE COVERAGE LEVEL.  MAY ALSO SET INELIGIBLE  *****   PPEXECLF
003700*****       EXECUTIVE AND LEVEL ERROR FLAGS.              *****   PPEXECLF
003800*****    3. SALARY - DETERMINES COVERED SALARY BASE FOR   *****   PPEXECLF
003900*****       THE EMPLOYEE, ASSUMES EMPLOYEE IS ELIGIBLE.   *****   PPEXECLF
004000*****       MAY SET SALARY ERROR FLAG.                    *****   PPEXECLF
004100*****    4. ELIGIBILITY AND SALARY - A COMBINATION OF THE *****   PPEXECLF
004200*****       ELIGIBILITY AND SALARY CALLS.  FIRST CHECKS   *****   PPEXECLF
004300*****       IF EMPLOYEE IS ELIGIBLE AND IF SO, CONTINUES  *****   PPEXECLF
004400*****       ON TO CALCULATE THE COVERED SALARY BASE.  MAY *****   PPEXECLF
004500*****       SET ALL ERROR FLAGS.                          *****   PPEXECLF
004600*****                                                     *****   PPEXECLF
004700***************************************************************   PPEXECLF
004800     EJECT                                                        PPEXECLF
004900 ENVIRONMENT DIVISION.                                            PPEXECLF
005000 CONFIGURATION SECTION.                                           PPEXECLF
005100 SOURCE-COMPUTER.                          COPY 'CPOTXUCS'.       30930413
005200 OBJECT-COMPUTER.                          COPY 'CPOTXOBJ'.       30930413
005300 SPECIAL-NAMES.                                                   PPEXECLF
005400 INPUT-OUTPUT SECTION.                                            PPEXECLF
005500 FILE-CONTROL.                                                    PPEXECLF
005600     SKIP3                                                        PPEXECLF
005700******************************************************************PPEXECLF
005800*                                                                *PPEXECLF
005900*                         DATA DIVISION                          *PPEXECLF
006000*                                                                *PPEXECLF
006100******************************************************************PPEXECLF
006200 DATA DIVISION.                                                   PPEXECLF
006300 FILE SECTION.                                                    PPEXECLF
006400     EJECT                                                        PPEXECLF
006500******************************************************************PPEXECLF
006600*                                                                *PPEXECLF
006700*                    WORKING-STORAGE SECTION                     *PPEXECLF
006800*                                                                *PPEXECLF
006900******************************************************************PPEXECLF
007000 WORKING-STORAGE SECTION.                                         PPEXECLF
007100     SKIP3                                                        PPEXECLF
014101 01  CALLED-MODULES.  COPY CPWSXRTN.                              36410717
011500 01  PER-ROW EXTERNAL.                                            36090574
011600     EXEC SQL INCLUDE PPPVPER1 END-EXEC.                          36090574
011700 01  AXD-ARRAY EXTERNAL.                                          36090574
011800     03  FILLER                                  OCCURS 27.       36090574
011900             07  APP-ROW-DELETE-BYTE  PIC X(1).                   36090574
012000             88  APP-ROW-DELETED VALUE HIGH-VALUES.               36090574
012100             07  APP-ROW-SEG-ID       PIC X(2).                   36090574
012200             07  FILLER                          OCCURS 3.        36090574
012300             08  APP-ROW.                                         36090574
012400*                                                                *36090574
012500*****            ***************************                 *****36090574
012600*                **  APPOINTMENT    DATA  **                     *36090574
012700*****            ***************************                 *****36090574
012800             COPY CPWSRAPP.                                       36090574
012900     03  FILLER                                  OCCURS 27.       36090574
013000             07  DIS-ROW-DELETE-BYTE  PIC X(1).                   36090574
013100             88  DIS-ROW-DELETED VALUE HIGH-VALUES.               36090574
013200             07  DIS-ROW-SEG-ID       PIC X(2).                   36090574
013300             07  FILLER                          OCCURS 3.        36090574
013400             08  DIS-ROW.                                         36090574
013500             COPY CPWSRDIS.                                       36090574
017510 01  DATE-CONVERSION-WORK-AREAS. COPY CPWSXDC3.                   28521025
007200 01  MC-MISCELLANEOUS-CONDITIONS    SYNC.                         PPEXECLF
007300     05  MC-STD-HR-PER-YR-PARM-NO   PIC S9(03) VALUE +041 COMP-3. PPEXECLF
008100     EJECT                                                        PPEXECLF
008200 01  WS-SAVE-AREAS.                                               PPEXECLF
008300     05  WS-SAVE-STD-HRS-PER-YR        PIC  S9(05) COMP-3.        PPEXECLF
014810     05  WS-SAVE-APPT-BEGIN-DT         PIC  X(10).                36220651
014811     05  WS-INIT-VALUE-DT              PIC  X(10) VALUE           36220651
014812                                       '0001-01-01'.              36220651
008400     05  WS-SAVE-2015-RATE-CODE        PIC  X(01).                PPEXECLF
008500         88  WS-SAVE-2015-ANNL           VALUE 'A'.               PPEXECLF
008600         88  WS-SAVE-2015-HRLY           VALUE 'H'.               PPEXECLF
008700         88  WS-SAVE-2015-BY-AGREE       VALUE 'B'.               PPEXECLF
008800     05  WS-SAVE-2016-PAY-SCHED        PIC  X(02).                PPEXECLF
008900         88  WS-SAVE-2016-SEMI-MO        VALUE 'SM'.              PPEXECLF
009000         88  WS-SAVE-2016-MONTHLY        VALUES 'MO', 'MA'.       PPEXECLF
009100         88  WS-SAVE-2016-BIWKLY         VALUE 'BW'.              PPEXECLF
009200     EJECT                                                        PPEXECLF
009300 01  WS-SUBSCRIPTS     COMP.                                      PPEXECLF
009400     05  APPT-SUB                      PIC S9(04)    VALUE  +0.   PPEXECLF
009500     05  DIST-SUB                      PIC S9(04)    VALUE  +0.   PPEXECLF
009600     05  GRADE-SUB                     PIC S9(04)    VALUE  +0.   PPEXECLF
009700     05  SEG-SUB                       PIC S9(04)    VALUE  +0.   PPEXECLF
009800     EJECT                                                        PPEXECLF
009900 01  WS-SWITCHES.                                                 PPEXECLF
010000     05  WS-INITIAL-CALL-MADE-SW       PIC  X(01)    VALUE  'N'.  PPEXECLF
010100         88  WS-INITIAL-CALL-MADE                    VALUE  'Y'.  PPEXECLF
010200     05  WS-DOS-CODE-FOUND-SW          PIC  X(01)    VALUE  'N'.  PPEXECLF
010300         88  WS-DOS-CODE-FOUND                       VALUE  'Y'.  PPEXECLF
010400     05  WS-EXECUTIVE-APPT-SW          PIC  X(01)    VALUE  'N'.  PPEXECLF
010500         88  WS-EXECUTIVE-APPT                       VALUE  'Y'.  PPEXECLF
010600     05  WS-INELIGIBLE-APPT-SW         PIC  X(01)    VALUE  'N'.  PPEXECLF
010700         88  WS-INELIGIBLE-APPT                      VALUE  'Y'.  PPEXECLF
010800     05  WS-GRADE-FOUND-SW             PIC  X(01)    VALUE  'N'.  PPEXECLF
010900         88  WS-GRADE-FOUND                          VALUE  'Y'.  PPEXECLF
011000     EJECT                                                        PPEXECLF
011100 01  WS-WORK-AREAS.                                               PPEXECLF
011200     05  WS-TOTAL-2012-PCT-FULL-TIME   PIC S9V9999   COMP-3.      PPEXECLF
011300     05  WS-DIST-PCT                   PIC S9V9999   COMP-3.      PPEXECLF
011400     05  WS-HIGHEST-LEVEL              PIC  X(01).                PPEXECLF
011500     05  WS-DOS                        PIC  X(03).                PPEXECLF
011600     05  WS-STEP-GRADE                 PIC  X(04).                PPEXECLF
011700     05  FILLER  REDEFINES  WS-STEP-GRADE.                        PPEXECLF
011800         10  WS-STEP-GRADE-RDF         PIC  X(01)  OCCURS  4.     PPEXECLF
012000     05  WS-ANN-DIST-SALARY            PIC S9(07)V99 COMP-3.      45260390
012100     05  WS-TOTAL-ACCUM-SALARY         PIC S9(07)V99 COMP-3.      PPEXECLF
012200     05  WS-SALARY-BASE                PIC S9(03)    COMP-3.      PPEXECLF
012310     05  WS-SAL-BASE-REMAINDER         PIC S9(03)V99 COMP-3.      45260430
012400     EJECT                                                        PPEXECLF
020710 01  DOST-DESCR-OF-SERV-TABLE.         COPY CPWSDOST.             40210592
013700     EJECT                                                        PPEXECLF
013800*-----------------------------------------------------------------PPEXECLF
013900*--------->                                                       PPEXECLF
014000*---------> USED FOR CTL INTERFACE                                PPEXECLF
014100*--------->                                                       PPEXECLF
014200*-----------------------------------------------------------------PPEXECLF
014300     SKIP1                                                        PPEXECLF
014440 01  SYSTEM-PARAM-INTERFACE.                COPY  CPWSXSPI.       30930413
014900     EJECT                                                        PPEXECLF
023010 01  KDOS-INTERFACE.                        COPY  CPLN2DOS.       40210592
023020     EJECT                                                        40210592
025500 01  INSTALLATION-DEPENDNT-CONSTANT.        COPY CPWSXIDC.        28201068
025600     EJECT                                                        28201068
015100 LINKAGE SECTION.                                                 PPEXECLF
015300 01  PPEXECLF-INTERFACE.                    COPY  CPLNKELF.       30930413
015400     EJECT                                                        PPEXECLF
015800******************************************************************PPEXECLF
015900*                                                                *PPEXECLF
016000*                       PROCEDURE DIVISION                       *PPEXECLF
016100*                                                                *PPEXECLF
016200******************************************************************PPEXECLF
024200 PROCEDURE DIVISION USING PPEXECLF-INTERFACE.                     36090574
016500                                                                  PPEXECLF
016600 0000-DETERM-ELIG-N-SALARY-BASE.                                  PPEXECLF
016700     SKIP1                                                        PPEXECLF
016800     MOVE ZEROES TO XELF-MODULE-ERROR-FLAG.                       PPEXECLF
016900     IF  XELF-INIT                                                PPEXECLF
017000         PERFORM  1000-INITIALIZE                                 PPEXECLF
017100     ELSE                                                         PPEXECLF
017200     IF  NOT WS-INITIAL-CALL-MADE                                 PPEXECLF
017300         MOVE '32' TO XELF-MODULE-ERROR-FLAG                      PPEXECLF
017400     ELSE                                                         PPEXECLF
017500     IF  XELF-ELIG-CK                                             PPEXECLF
017600         PERFORM  2000-ELIGIBILITY-CHECK                          PPEXECLF
017700     ELSE                                                         PPEXECLF
017800     IF  XELF-SALARY-CALC                                         PPEXECLF
017900         PERFORM  3000-SALARY-CALCULATION                         PPEXECLF
018000     ELSE                                                         PPEXECLF
018100     IF  XELF-ELIG-CK-N-CALC                                      PPEXECLF
018200         PERFORM  2000-ELIGIBILITY-CHECK                          PPEXECLF
018300         IF  XELF-ELIGIBILITY-FLAG NOT = ZERO                     PPEXECLF
018400             PERFORM  3000-SALARY-CALCULATION                     PPEXECLF
018500         ELSE                                                     PPEXECLF
018600             NEXT  SENTENCE                                       PPEXECLF
018700     ELSE                                                         PPEXECLF
018800         MOVE  '31' TO XELF-MODULE-ERROR-FLAG.                    PPEXECLF
018900                                                                  PPEXECLF
019000     GOBACK.                                                      PPEXECLF
019100     EJECT                                                        PPEXECLF
019200 1000-INITIALIZE.                                                 PPEXECLF
019300     SKIP1                                                        PPEXECLF
019400******************************************************************PPEXECLF
019500***** THIS ROUTINE IS PERFORMED ONLY ON AN INITIALIZATION    *****PPEXECLF
019600***** CALL.  IT PERFORMS FOUR FUNCTIONS:                     *****PPEXECLF
019900*****   2) LOAD SYSTEM PARAMETERS USING PARAMETER UTILITY    *****PPEXECLF
020000*****   3) LOAD TABLE OF ALL TITLE CODES WHERE THE CTO       *****PPEXECLF
020100*****      (CLASS-TITLE OUTLINE) IS 4XX                      *****PPEXECLF
020300******************************************************************PPEXECLF
020400*-------->                                                        PPEXECLF
020500*-------->   LOADS THE SYSTEM PARAMETERS                          PPEXECLF
020700*-------->   INITIALIZE WORK FIELDS                               PPEXECLF
020800*-------->                                                        PPEXECLF
020900*-----------------------------------------------------------------PPEXECLF
021000     SKIP1                                                        PPEXECLF
021300     IF XELF-NO-MODULE-ERROR                                      PPEXECLF
021400         PERFORM 1200-LOAD-SYSTEM-PARAMETERS.                     PPEXECLF
021500     SKIP1                                                        PPEXECLF
021600     IF XELF-NO-MODULE-ERROR                                      PPEXECLF
021700         PERFORM 1300-LOAD-DOS-TABLE.                             PPEXECLF
021800     SKIP1                                                        PPEXECLF
033200     SKIP1                                                        PPEXECLF
021900     IF XELF-NO-MODULE-ERROR                                      PPEXECLF
022300         MOVE 'Y' TO WS-INITIAL-CALL-MADE-SW.                     PPEXECLF
022400     SKIP3                                                        PPEXECLF
022600     SKIP1                                                        PPEXECLF
024100                                                                  PPEXECLF
024200 1200-LOAD-SYSTEM-PARAMETERS.                                     PPEXECLF
024300     SKIP1                                                        PPEXECLF
024400     MOVE  MC-STD-HR-PER-YR-PARM-NO   TO  XSPI-PARM-NO.           PPEXECLF
024500     SKIP1                                                        PPEXECLF
035810     CALL PGM-PPPRMUTL                                            36410717
024700         USING  SYSTEM-PARAM-INTERFACE.                           PPEXECLF
024800     SKIP1                                                        PPEXECLF
024900     MOVE  XSPI-PARM-VALUE            TO  WS-SAVE-STD-HRS-PER-YR. PPEXECLF
025000     SKIP3                                                        PPEXECLF
025100 1300-LOAD-DOS-TABLE.                                             PPEXECLF
025200     SKIP1                                                        PPEXECLF
034210     MOVE 'ALL' TO KDOS-ACTION-REQUEST.                           40210592
037910     CALL PGM-PPDOSUTL   USING KDOS-INTERFACE                     36410717
034230                             DOST-DESCR-OF-SERV-TABLE.            40210592
034240     EVALUATE TRUE                                                40210592
034250        WHEN KDOS-CTL-FILE-ERROR                                  40210592
034260            MOVE KDOS-REF-VAR2 TO XELF-MODULE-ERROR-FLAG          40210592
034270        WHEN KDOS-NO-DOS-DELIMITER                                40210592
034280            MOVE '34' TO XELF-MODULE-ERROR-FLAG                   40210592
034290        WHEN KDOS-TABLE-OVERFLOW                                  40210592
034291            MOVE '35' TO XELF-MODULE-ERROR-FLAG                   40210592
034292     END-EVALUATE.                                                40210592
026500     SKIP3                                                        PPEXECLF
030600 2000-ELIGIBILITY-CHECK.                                          PPEXECLF
030700     SKIP1                                                        PPEXECLF
030800*-----------------------------------------------------------------PPEXECLF
030900*-------->                                                        PPEXECLF
031000*-------->   EXAMINES THE EMPLOYEE'S APPOINTMENT SET AND          PPEXECLF
031100*-------->   DETERMINES ELIGIBILITY FOR EXECUTIVE LIFE            PPEXECLF
031200*-------->                                                        PPEXECLF
031300*-----------------------------------------------------------------PPEXECLF
031400     SKIP1                                                        PPEXECLF
031500     MOVE 'N' TO WS-EXECUTIVE-APPT-SW,                            PPEXECLF
031600                 WS-INELIGIBLE-APPT-SW,                           PPEXECLF
031700                 XELF-INELIG-EXEC-FLAG,                           PPEXECLF
031800                 XELF-LEVEL-ERROR-FLAG.                           PPEXECLF
031900     MOVE ZERO TO WS-TOTAL-2012-PCT-FULL-TIME.                    PPEXECLF
039810     MOVE HIGH-VALUES TO WS-SAVE-APPT-BEGIN-DT.                   36220651
032000     MOVE SPACE TO WS-HIGHEST-LEVEL                               PPEXECLF
032100     SKIP1                                                        PPEXECLF
032200     PERFORM 2100-CHECK-APPOINTMENT                               PPEXECLF
032300         VARYING APPT-SUB FROM 1 BY 3                             PPEXECLF
032400         UNTIL APPT-SUB > 27.                                     PPEXECLF
032500     SKIP1                                                        PPEXECLF
040410     IF WS-SAVE-APPT-BEGIN-DT EQUAL HIGH-VALUES                   36220651
040411        MOVE WS-INIT-VALUE-DT      TO  XELF-APPT-EFF-DATE         36220651
040412     ELSE                                                         36220651
040413        MOVE WS-SAVE-APPT-BEGIN-DT TO  XELF-APPT-EFF-DATE         36220651
040414     END-IF.                                                      36220651
040420     SKIP1                                                        36220651
032600     IF WS-EXECUTIVE-APPT                                         PPEXECLF
032700         IF WS-INELIGIBLE-APPT OR                                 PPEXECLF
032800            WS-TOTAL-2012-PCT-FULL-TIME < 1.00                    PPEXECLF
032900             MOVE ZERO TO XELF-ELIGIBILITY-FLAG                   PPEXECLF
033000             MOVE 'Y' TO XELF-INELIG-EXEC-FLAG                    PPEXECLF
033100         ELSE                                                     PPEXECLF
033200         IF WS-HIGHEST-LEVEL = SPACE                              PPEXECLF
033300             MOVE '2' TO XELF-ELIGIBILITY-FLAG                    PPEXECLF
033400             MOVE 'Y' TO XELF-LEVEL-ERROR-FLAG                    PPEXECLF
033500         ELSE                                                     PPEXECLF
033600             MOVE WS-HIGHEST-LEVEL TO XELF-ELIGIBILITY-FLAG       PPEXECLF
033700     ELSE                                                         PPEXECLF
041610         MOVE WS-INIT-VALUE-DT     TO  XELF-APPT-EFF-DATE         36220651
033800         MOVE ZERO TO XELF-ELIGIBILITY-FLAG.                      PPEXECLF
033900     SKIP1                                                        45260390
039430     IF XELF-INELIGIBLE-EMPLOYEE  OR                              28521025
039440        SEPARATE-DATE = XDC3-LOW-ISO-DATE                         28521025
039450         NEXT SENTENCE                                            28521025
039460     ELSE                                                         28521025
039470         IF  SEPARATE-DATE < XELF-ISO-EFFECTIVE-DATE              28521025
039480             MOVE ZERO TO XELF-ELIGIBILITY-FLAG                   28521025
039490         ELSE                                                     28521025
039491             NEXT SENTENCE                                        28521025
039492         END-IF                                                   28521025
039493     END-IF.                                                      28521025
034800     EJECT                                                        PPEXECLF
034900 2100-CHECK-APPOINTMENT.                                          PPEXECLF
035000     SKIP1                                                        PPEXECLF
043410     IF APPT-NUM  OF APP-ROW (APPT-SUB, 1)  = ZEROS               28521025
043420         NEXT SENTENCE                                            28521025
043430     ELSE                                                         28521025
042300       MOVE TITLE-CODE (APPT-SUB, 1) TO                           UCSD0041
042400                       IDC-SR-MGMT-TITLE-RANGE                    UCSD0041
043440        IF RATE-CODE (APPT-SUB, 1) = 'B'  OR                      28521025
043450           APPT-WOS-IND (APPT-SUB, 1) = 'Y'                       28521025
042500        OR (NOT (PERSONNEL-PGM  (APPT-SUB, 1) = '2' AND           UCSD0041
042600                                IDC-SR-MGMT-TITLE))               UCSD0041
045000*****   OR (NOT (PERSONNEL-PGM (APPT-SUB, 1) = 'E'))              UCSD0041
043460           NEXT SENTENCE                                          28521025
043470        ELSE                                                      28521025
043495           IF APPT-BEGIN-DATE (APPT-SUB, 1)                       28521025
043496                                       >  XELF-ISO-EFFECTIVE-DATE 28521025
043497              OR                                                  28521025
043498              APPT-END-DATE (APPT-SUB, 1)                         28521025
043499                                       <  XELF-ISO-EFFECTIVE-DATE 28521025
043500              NEXT SENTENCE                                       28521025
043501           ELSE                                                   28521025
043502              PERFORM                                             28521025
043503                 IF APPT-BEGIN-DATE (APPT-SUB, 1)                 28521025
043504                                       <  WS-SAVE-APPT-BEGIN-DT   28521025
043505                    MOVE APPT-BEGIN-DATE (APPT-SUB, 1)            28521025
043506                                       TO  WS-SAVE-APPT-BEGIN-DT  28521025
043507                 END-IF                                           28521025
043508              END-PERFORM                                         28521025
042200*****                                                          CD 76871348
042300              MOVE TITLE-CODE (APPT-SUB, 1) TO                    28201068
042400                              IDC-SR-MGMT-TITLE-RANGE             28201068
042500              IF PERSONNEL-PGM  (APPT-SUB, 1) = '2' AND           28201068
042600                                            IDC-SR-MGMT-TITLE     28201068
042700                 MOVE 'Y' TO WS-EXECUTIVE-APPT-SW                 28201068
043511                 IF APPT-DURATION (APPT-SUB, 1) = 'A'             28521025
043512                    MOVE 'Y' TO WS-INELIGIBLE-APPT-SW             28521025
043513                 ELSE                                             28521025
043514                    IF NOT WS-INELIGIBLE-APPT                     28521025
043515                       PERFORM 2121-ELIGIBLE-APPT                 28521025
043516                    ELSE                                          28521025
043517                       NEXT SENTENCE                              28521025
043518                    END-IF                                        28521025
043519                 END-IF                                           28521025
043520              ELSE                                                28521025
043521                 MOVE 'Y' TO WS-INELIGIBLE-APPT-SW                28521025
043522              END-IF                                              28521025
043523           END-IF                                                 28521025
043524        END-IF                                                    28521025
043525     END-IF.                                                      28521025
037600     EJECT                                                        PPEXECLF
037700 2121-ELIGIBLE-APPT.                                              PPEXECLF
037800     SKIP1                                                        PPEXECLF
037900*-----------------------------------------------------------------PPEXECLF
038000*--------------->                                                 PPEXECLF
038100*--------------->  -THE EXECUTIVE IS ELIGIBLE SO FAR.             PPEXECLF
038200*--------------->  -ACCUM PERCENT-TIME FOR ACTIVE EXEC APPT       PPEXECLF
038300*--------------->  -CHECKS THE SALARY/GRADE TO DETERMINE THE      PPEXECLF
038400*--------------->   COVERAGE LEVEL FOR THE EMPLOYEE:              PPEXECLF
044400*--------------->    -WHEN GRADE=(A, B, C, D, E OR X), LEVEL IS 2 05510747
038900*--------------->    -INVALID GRADES ARE IGNORED.  THE LEVEL      PPEXECLF
039000*--------------->     ERROR FLAG WILL BE SET IF A VALID LEVEL     PPEXECLF
039100*--------------->     IS NOT DISCOVERED ON ANY APPOINTMENT        PPEXECLF
039200*--------------->                                                 PPEXECLF
039300*-----------------------------------------------------------------PPEXECLF
039400     SKIP1                                                        PPEXECLF
048200     ADD  PERCENT-FULLTIME (APPT-SUB 1)                           36090574
039600                                 TO  WS-TOTAL-2012-PCT-FULL-TIME. PPEXECLF
039700                                                                  PPEXECLF
045500     IF WS-HIGHEST-LEVEL NOT = '2'                                05510747
039900         MOVE 'N'                TO  WS-GRADE-FOUND-SW            PPEXECLF
048800         MOVE GRADE (APPT-SUB 1) TO WS-STEP-GRADE                 36090574
040100         PERFORM 2123-FIND-GRADE                                  PPEXECLF
040200            VARYING GRADE-SUB                                     PPEXECLF
040300               FROM 1 BY 1                                        PPEXECLF
040400               UNTIL GRADE-SUB GREATER 4                          PPEXECLF
040500                  OR WS-GRADE-FOUND.                              PPEXECLF
040600     EJECT                                                        PPEXECLF
040700 2123-FIND-GRADE.                                                 PPEXECLF
040800     SKIP1                                                        PPEXECLF
040900     IF  WS-STEP-GRADE-RDF (GRADE-SUB) = SPACE                    PPEXECLF
041000         NEXT SENTENCE                                            PPEXECLF
041100     ELSE                                                         PPEXECLF
041200     IF  WS-STEP-GRADE-RDF (GRADE-SUB)  EQUAL 'X' OR 'A' OR 'B'   PPEXECLF
047100                                           OR 'C' OR 'D' OR 'E'   05510747
047710*****                               OR '1' OR '2' OR '3' OR '4'   UCSD0146
041300         MOVE  '2'           TO  WS-HIGHEST-LEVEL                 PPEXECLF
041400         MOVE  'Y'           TO  WS-GRADE-FOUND-SW                PPEXECLF
041500     ELSE                                                         PPEXECLF
042000         MOVE  'Y'               TO  WS-GRADE-FOUND-SW.           PPEXECLF
042100     EJECT                                                        PPEXECLF
042200 3000-SALARY-CALCULATION.                                         PPEXECLF
042300     SKIP1                                                        PPEXECLF
042400*-----------------------------------------------------------------PPEXECLF
042500*--------------->                                                 PPEXECLF
042600*--------------->  EXAMINE  EACH ACTIVE DISTRIBUTION              PPEXECLF
042700*--------------->        OF EACH ACTIVE SALARIED APPOINTMENT      PPEXECLF
042800*--------------->  AND                                            PPEXECLF
042900*--------------->  COMPUTE THE SALARY BASE FOR THE EXEC LIFE PGM  PPEXECLF
043000*--------------->                                                 PPEXECLF
043100*-----------------------------------------------------------------PPEXECLF
043200     SKIP1                                                        PPEXECLF
043300     MOVE  'N'                   TO  XELF-SALARY-ERROR-FLAG.      PPEXECLF
043400     MOVE  ZEROS                 TO  XELF-SALARY-BASE             PPEXECLF
043500                                     WS-TOTAL-ACCUM-SALARY.       PPEXECLF
043600     SKIP1                                                        PPEXECLF
043700     PERFORM  3100-CHECK-APPOINTMENT-SEGMENT                      PPEXECLF
043800        VARYING  APPT-SUB FROM 1 BY 3                             PPEXECLF
043900           UNTIL APPT-SUB > 27 OR                                 PPEXECLF
044000                 XELF-SALARY-ERROR.                               PPEXECLF
044100                                                                  PPEXECLF
044200     IF  XELF-SALARY-ERROR                                        PPEXECLF
044300         NEXT SENTENCE                                            PPEXECLF
044400     ELSE                                                         PPEXECLF
044500         DIVIDE WS-TOTAL-ACCUM-SALARY                             PPEXECLF
044600             BY 1000                                              PPEXECLF
044700         GIVING WS-SALARY-BASE                                    PPEXECLF
044800         REMAINDER WS-SAL-BASE-REMAINDER                          PPEXECLF
044900         IF WS-SAL-BASE-REMAINDER GREATER ZERO                    PPEXECLF
045000             COMPUTE XELF-SALARY-BASE                             PPEXECLF
045100                   = WS-SALARY-BASE + 1.00                        PPEXECLF
045200         ELSE                                                     PPEXECLF
045300             MOVE WS-SALARY-BASE TO XELF-SALARY-BASE.             PPEXECLF
045400     EJECT                                                        PPEXECLF
045500 3100-CHECK-APPOINTMENT-SEGMENT.                                  PPEXECLF
045600     SKIP1                                                        PPEXECLF
054210     IF APPT-NUM  OF APP-ROW (APPT-SUB, 1)  = ZEROS               28521025
054220         NEXT  SENTENCE                                           28521025
054230     ELSE                                                         28521025
054240         IF APPT-WOS-IND (APPT-SUB, 1) = 'Y'                      28521025
054250            NEXT SENTENCE                                         28521025
054260         ELSE                                                     28521025
052500*****                                                          CD 76871348
052600            MOVE TITLE-CODE (APPT-SUB, 1) TO                      28201068
052700                              IDC-SR-MGMT-TITLE-RANGE             28201068
052800            IF NOT (PERSONNEL-PGM  (APPT-SUB, 1) = '2' AND        28201068
052900                                            IDC-SR-MGMT-TITLE)    28201068
054280               NEXT SENTENCE                                      28521025
054290            ELSE                                                  28521025
054297               IF APPT-BEGIN-DATE (APPT-SUB, 1)                   28521025
054298                                   >   XELF-ISO-EFFECTIVE-DATE    28521025
054299                 OR                                               28521025
054300                  APPT-END-DATE (APPT-SUB, 1)                     28521025
054301                                   <   XELF-ISO-EFFECTIVE-DATE    28521025
054302                  NEXT SENTENCE                                   28521025
054303               ELSE                                               28521025
054304                  MOVE  RATE-CODE (APPT-SUB 1)                    28521025
054305                             TO  WS-SAVE-2015-RATE-CODE           28521025
054306                  MOVE  PAY-SCHEDULE (APPT-SUB 1)                 28521025
054307                             TO  WS-SAVE-2016-PAY-SCHED           28521025
054308                  PERFORM 3110-PROCESS-ALL-DISTRIBUTIONS          28521025
054309               END-IF                                             28521025
054310            END-IF                                                28521025
054311         END-IF                                                   28521025
054312     END-IF.                                                      28521025
047800     EJECT                                                        PPEXECLF
047900 3110-PROCESS-ALL-DISTRIBUTIONS.                                  PPEXECLF
048000     SKIP1                                                        PPEXECLF
048100     MOVE APPT-SUB TO SEG-SUB.                                    PPEXECLF
048200     MOVE 2 TO DIST-SUB.                                          PPEXECLF
048300     PERFORM 3120-CHECK-DISTRIBUTION 2 TIMES.                     PPEXECLF
048400     SKIP1                                                        PPEXECLF
048500     ADD 1 TO SEG-SUB.                                            PPEXECLF
058000     IF XELF-SALARY-ERROR                                         36090574
048700         NEXT SENTENCE                                            PPEXECLF
048800     ELSE                                                         PPEXECLF
048900         MOVE 1 TO DIST-SUB                                       PPEXECLF
049000         PERFORM 3120-CHECK-DISTRIBUTION 3 TIMES.                 PPEXECLF
049100     SKIP1                                                        PPEXECLF
049200     ADD 1 TO SEG-SUB.                                            PPEXECLF
058700     IF XELF-SALARY-ERROR                                         36090574
049400         NEXT SENTENCE                                            PPEXECLF
049500     ELSE                                                         PPEXECLF
049600         MOVE 1 TO DIST-SUB                                       PPEXECLF
049700         PERFORM 3120-CHECK-DISTRIBUTION 3 TIMES.                 PPEXECLF
049800     SKIP2                                                        PPEXECLF
049900 3120-CHECK-DISTRIBUTION.                                         PPEXECLF
050000     SKIP1                                                        PPEXECLF
059500     IF DIST-NUM (SEG-SUB, DIST-SUB) = ZEROES                     36090574
050200         NEXT SENTENCE                                            PPEXECLF
050300     ELSE                                                         PPEXECLF
050400         PERFORM 3130-PROCESS-DISTRIBUTION.                       PPEXECLF
050500     SKIP1                                                        45260390
050600     ADD 1 TO DIST-SUB.                                           45260390
050700     SKIP2                                                        PPEXECLF
050800 3130-PROCESS-DISTRIBUTION.                                       PPEXECLF
050900     SKIP1                                                        PPEXECLF
060400     MOVE DIST-DOS (SEG-SUB, DIST-SUB) TO WS-DOS.                 36090574
060510     SET DOST-INDEX TO 1.                                         40210592
060610     SEARCH DOST-ITEMS                                            40210592
051300         AT END MOVE 'N' TO WS-DOS-CODE-FOUND-SW;                 PPEXECLF
060810         WHEN WS-DOS = DOST-EARNINGS-TYPE (DOST-INDEX)            40210592
051500             MOVE 'Y' TO WS-DOS-CODE-FOUND-SW.                    PPEXECLF
051600     SKIP1                                                        PPEXECLF
060110     IF  WS-DOS-CODE-FOUND                                        28521025
060120         IF  DOST-INS-BEN-IND (DOST-INDEX) EQUAL  'Y'             28521025
060190             IF PAY-BEGIN-DATE (SEG-SUB, DIST-SUB)                28521025
060191                                      >   XELF-ISO-EFFECTIVE-DATE 28521025
060192                 OR                                               28521025
060193                PAY-END-DATE (SEG-SUB, DIST-SUB)                  28521025
060194                                      <   XELF-ISO-EFFECTIVE-DATE 28521025
060195                 NEXT SENTENCE                                    28521025
060196             ELSE                                                 28521025
060197                 PERFORM 3200-COMPUTE-DIST-SALARY                 28521025
060198             END-IF                                               28521025
060199         END-IF                                                   28521025
060200     END-IF.                                                      28521025
052700     EJECT                                                        PPEXECLF
052800 3200-COMPUTE-DIST-SALARY.                                        PPEXECLF
052900     SKIP1                                                        PPEXECLF
053000*------------>                                                    PPEXECLF
053100*------------>     COMPUTE  ANNUALIZED DISTRIBUTION SALARY        PPEXECLF
053200*------------>                                                    PPEXECLF
053300     SKIP1                                                        PPEXECLF
053400     IF WS-SAVE-2015-BY-AGREE OR                                  PPEXECLF
063510        DOST-CALC-PROCESS (DOST-INDEX) = '03'                     40210592
053600         MOVE 1.000 TO WS-DIST-PCT                                PPEXECLF
053700     ELSE                                                         PPEXECLF
063800         MOVE DIST-PERCENT (SEG-SUB, DIST-SUB) TO                 36090574
053900                                                 WS-DIST-PCT.     PPEXECLF
054000     SKIP1                                                        PPEXECLF
054100     IF WS-DIST-PCT = ZERO                                        PPEXECLF
054200         MOVE 'Y' TO XELF-SALARY-ERROR-FLAG                       PPEXECLF
054300     ELSE                                                         PPEXECLF
054400     IF  WS-SAVE-2015-ANNL OR                                     PPEXECLF
054500         WS-SAVE-2015-BY-AGREE                                    PPEXECLF
054600         IF  WS-SAVE-2016-MONTHLY                                 PPEXECLF
054700             COMPUTE  WS-ANN-DIST-SALARY                          PPEXECLF
054800                   =  12                                          PPEXECLF
064900                   *  DIST-PAYRATE    (SEG-SUB DIST-SUB)          36090574
055000                   *  WS-DIST-PCT                                 PPEXECLF
065110                   *  DOST-GROSS-IND (DOST-INDEX 1)               40210592
055200             ADD WS-ANN-DIST-SALARY TO WS-TOTAL-ACCUM-SALARY      PPEXECLF
055300         ELSE                                                     PPEXECLF
055400         IF  WS-SAVE-2016-SEMI-MO                                 PPEXECLF
055500             COMPUTE  WS-ANN-DIST-SALARY                          PPEXECLF
055600                   =  24                                          PPEXECLF
065700                   *  DIST-PAYRATE    (SEG-SUB DIST-SUB)          36090574
055800                   *  WS-DIST-PCT                                 PPEXECLF
065910                   *  DOST-GROSS-IND (DOST-INDEX 1)               40210592
056000             ADD WS-ANN-DIST-SALARY TO WS-TOTAL-ACCUM-SALARY      PPEXECLF
056100         ELSE                                                     PPEXECLF
056200         IF  WS-SAVE-2016-BIWKLY                                  PPEXECLF
056300             COMPUTE  WS-ANN-DIST-SALARY                          PPEXECLF
056400                   =  26                                          PPEXECLF
066500                   *  DIST-PAYRATE    (SEG-SUB DIST-SUB)          36090574
056600                   *  WS-DIST-PCT                                 PPEXECLF
066710                   *  DOST-GROSS-IND (DOST-INDEX 1)               40210592
056800             ADD WS-ANN-DIST-SALARY TO WS-TOTAL-ACCUM-SALARY      PPEXECLF
056900         ELSE                                                     PPEXECLF
057000             NEXT  SENTENCE                                       PPEXECLF
057100     ELSE                                                         PPEXECLF
057200     IF  WS-SAVE-2015-HRLY                                        PPEXECLF
057300         COMPUTE  WS-ANN-DIST-SALARY                              PPEXECLF
057400               =  WS-SAVE-STD-HRS-PER-YR                          PPEXECLF
067500               *  DIST-PAYRATE      (SEG-SUB DIST-SUB)            36090574
057600               *  WS-DIST-PCT                                     PPEXECLF
067710               *  DOST-GROSS-IND (DOST-INDEX 1)                   40210592
057800         ADD  WS-ANN-DIST-SALARY    TO  WS-TOTAL-ACCUM-SALARY.    PPEXECLF
