000000**************************************************************/   01341440
000001*  PROGRAM: PPFCBBEN                                         */   01341440
000002*  RELEASE: ___1440______ SERVICE REQUEST(S): ____80134____  */   01341440
000003*  NAME:__PHIL THOMPSON__ MODIFICATION DATE:  ___11/08/02__  */   01341440
000004*  DESCRIPTION:                                              */   01341440
000005*  - MODIFIED TO CALL PPCOVRGE TO CALCULATE COVERAGE CODES.  */   01341440
000007**************************************************************/   01341440
000000**************************************************************/   54541281
000001*  PROGRAM: PPFCBBEN                                         */   54541281
000002*  RELEASE: ___1281______ SERVICE REQUEST(S): ____15454____  */   54541281
000003*  NAME:_______QUAN______ CREATION DATE:      ___08/05/99__  */   54541281
000004*  DESCRIPTION:                                              */   54541281
000005*  - GET THE APPROPRIATE PLAN CODE FROM FUTURE PLAN AND/OR   */   54541281
000006*    DERIVE THE APPROPRIATE COVERAGE LEVEL FOR COMPUTE  TO   */   54541281
000007*    TAKE THE CORRECT PREMIUMS.                              */   54541281
000008**************************************************************/   54541281
001300 IDENTIFICATION DIVISION.                                         PPFCBBEN
001400 PROGRAM-ID. PPFCBBEN.                                            PPFCBBEN
001500 AUTHOR. UCOP                                                     PPFCBBEN
001600                                                                  PPFCBBEN
001700*REMARKS.                                                         PPFCBBEN
001800                                                                  PPFCBBEN
001810*************************************************************     PPFCBBEN
001822*                                                           *     PPFCBBEN
001823*   PPFCBBEN IS A SUBROUTINE CALLED TO DERIVE THE           *     PPFCBBEN
001830*   APPROPRIATE PLAN AND COVERAGE LEVEL AT THE TIME COMPUTE *     PPFCBBEN
001840*   IS RUN. COVERAGE LEVEL IS DERIVED FOR THE FUTURE        *     PPFCBBEN
001841*   COVERAGE ONLY.                                          *     PPFCBBEN
001842*                                                           *     PPFCBBEN
001843*   IF THE FUTURE COVERAGE EFFECTIVE DATE IS EQUAL TO       *     PPFCBBEN
001844*   THE BEGINNING OF THE PREMIUM MONTH OR PRIOR TO THE      *     PPFCBBEN
001850*   MONTH FOR WHICH PREMIUMS ARE GENERATED, THE FUTURE PLAN *     PPFCBBEN
001860*   CODE AND FUTURE COVERAGE EFFECTIVE DATE ARE MOVED TO THE*     PPFCBBEN
001861*   CURRENT PLAN CODE AND PCED FIELDS, AND THE COVERAGE     *     PPFCBBEN
001870*   LEVEL IS DERIVED.                                       *     PPFCBBEN
001880*                                                           *     PPFCBBEN
001890*   IF THE CURRENT PCED IS LATER THAN THE BEGINNING OF THE  *     PPFCBBEN
001900*   PREMIUM MONTH, THE PLAN CODE, COVERAGE EFFECTIVE DATE,  *     PPFCBBEN
001910*   AND COVERAGE END DATE FOR THE COMPUTE MUST BE TAKEN     *     PPFCBBEN
001911*   FROM THE FCB TABLE.                                     *     PPFCBBEN
001920*************************************************************     PPFCBBEN
002000*        E N V I R O N M E N T     D I V I S I O N        *       PPFCBBEN
002100***********************************************************       PPFCBBEN
002200                                                                  PPFCBBEN
002300 ENVIRONMENT DIVISION.                                            PPFCBBEN
002400 CONFIGURATION SECTION.                                           PPFCBBEN
002500                                                                  PPFCBBEN
002600 SPECIAL-NAMES.                                                   PPFCBBEN
002700     C01 IS NEW-PAGE.                                             PPFCBBEN
002800                                                                  PPFCBBEN
002900 INPUT-OUTPUT SECTION.                                            PPFCBBEN
003000 FILE-CONTROL.                                                    PPFCBBEN
006500 DATA DIVISION.                                                   PPFCBBEN
006600 FILE SECTION.                                                    PPFCBBEN
016800     EJECT                                                        PPFCBBEN
016900 WORKING-STORAGE SECTION.                                         PPFCBBEN
017000***********************************************************       PPFCBBEN
017100*    WORKING STORAGE                                      *       PPFCBBEN
017200***********************************************************       PPFCBBEN
020400 01  WS-WORK-MISC.                                                PPFCBBEN
020510     05  A-STND-PROG-ID           PIC X(15)  VALUE                PPFCBBEN
020600         'PPFCBBEN/080199'.                                       PPFCBBEN
024000***********************************************************       PPFCBBEN
024100*    SWITCHES                                             *       PPFCBBEN
024200***********************************************************       PPFCBBEN
024300 01  WS-SWITCHES.                                                 PPFCBBEN
024600     05  HERE-BEFORE-SW          PIC X(01)  VALUE SPACE.          PPFCBBEN
024700         88 HERE-BEFORE                     VALUE 'Y'.            PPFCBBEN
024800     05  FIRST-TIME-SW           PIC X(01)  VALUE 'Y'.            PPFCBBEN
024900         88  FIRST-TIME                     VALUE 'Y'.            PPFCBBEN
025000         88  NOT-FIRST-TIME                 VALUE 'N'.            PPFCBBEN
025001     05  WS-PAST-BEN-REC-SW        PIC X(01)  VALUE 'N'.          PPFCBBEN
025002         88  WS-PAST-BEN-REC-NOT-FOUND VALUE 'N'.                 PPFCBBEN
025003         88  WS-PAST-BEN-REC-FOUND     VALUE 'Y'.                 PPFCBBEN
025004     05  DEP-HEALTH-CHECK-SW     PIC X(01)  VALUE 'N'.            PPFCBBEN
025005         88  DEP-HEALTH-DATE-IN-RANGE       VALUE 'Y'.            PPFCBBEN
025006         88  DEP-HEALTH-NOT-IN-RANGE        VALUE 'N'.            PPFCBBEN
025007     05  DEP-DENTAL-CHECK-SW     PIC X(01)  VALUE 'N'.            PPFCBBEN
025008         88  DEP-DENTAL-DATE-IN-RANGE       VALUE 'Y'.            PPFCBBEN
025009         88  DEP-DENTAL-NOT-IN-RANGE        VALUE 'N'.            PPFCBBEN
025010     05  DEP-VISION-CHECK-SW     PIC X(01)  VALUE 'N'.            PPFCBBEN
025011         88  DEP-VISION-DATE-IN-RANGE       VALUE 'Y'.            PPFCBBEN
025012         88  DEP-VISION-NOT-IN-RANGE        VALUE 'N'.            PPFCBBEN
025013     05  DEP-LEGAL-CHECK-SW      PIC X(01)  VALUE 'N'.            PPFCBBEN
025014         88  DEP-LEGAL-DATE-IN-RANGE        VALUE 'Y'.            PPFCBBEN
025015         88  DEP-LEGAL-NOT-IN-RANGE         VALUE 'N'.            PPFCBBEN
025016                                                                  PPFCBBEN
025017 01  WS-MISC.                                                     PPFCBBEN
025018     05  WS-TYPE-BENEFIT              PIC X(01).                  01341440
025018     05  HOLD-CURRENT-PCED            PIC X(10).                  PPFCBBEN
025019     05  SAVE-PLAN-CODE               PIC X(02).                  PPFCBBEN
025020     05  SAVE-PLAN-PCED               PIC X(10).                  PPFCBBEN
025021     05  SAVE-PLAN-COVEND-DATE        PIC X(10).                  PPFCBBEN
025022     05  SAVE-PLAN-COVERAGE           PIC X(03).                  PPFCBBEN
025023     05  LATEST-COV-END-DATE-ISO      PIC X(10).                  PPFCBBEN
025024     05  BENEFIT-TYPE                 PIC X(01).                  PPFCBBEN
025026     05  WS-PPCOVRGE                  PIC X(08)  VALUE 'PPCOVRGE'.01341440
025030     05  ISO-COV-FIRST-OF-MONTH-DATE  PIC X(10).                  PPFCBBEN
025040     05  ENTRY-X                      PIC S9(04) COMP.            PPFCBBEN
025041     05  EDEP-NUM-ENTRIES             PIC S9(04) COMP VALUE ZEROS.PPFCBBEN
025042                                                                  PPFCBBEN
025043     05  INIT-EDEP-KEY.                                           PPFCBBEN
025044         10  INIT-EDEP-DEP-NUM        PIC  X(02) VALUE SPACES.    PPFCBBEN
025050     05  HOLD-HLTH-PLAN               PIC X(02).                  PPFCBBEN
025060     05  HOLD-DENTAL-PLAN             PIC X(02).                  PPFCBBEN
025061     05  HOLD-VISION-PLAN             PIC X(02).                  PPFCBBEN
025062     05  HOLD-LEGAL-PLAN              PIC X(02).                  PPFCBBEN
025063*****05  EDEP-DEP-ENROLLED-HEALTH     PIC S9(4)  COMP VALUE ZERO. 01341440
025064*****05  EDEP-DEP-ENROLLED-DENTAL     PIC S9(4)  COMP VALUE ZERO. 01341440
025065*****05  EDEP-DEP-ENROLLED-VISION     PIC S9(4)  COMP VALUE ZERO. 01341440
025066*****05  EDEP-DEP-ENROLLED-LEGAL      PIC S9(4)  COMP VALUE ZERO. 01341440
025067*****05  DEP-ENROLLED-MED-WODM        PIC S9(4)  COMP VALUE ZERO. 01341440
025068*****05  DEP-ENROLLED-DENTAL-WODD     PIC S9(4)  COMP VALUE ZERO. 01341440
025069*****05  DEP-ENROLLED-VIS-WODV        PIC S9(4)  COMP VALUE ZERO. 01341440
025071     05  WS-DEP-COVEND-DATE-PLUS-1    PIC X(10).                  PPFCBBEN
025072                                                                  PPFCBBEN
025073     05  DERIVED-HEALTH-COVERAGE-IND  PIC X(03) VALUE SPACES.     PPFCBBEN
025074*****    88  DERIVED-NO-COVERAGE-HLTH       VALUE '   '.          01341440
025075*****    88  DERIVED-SINGLE-COVERAGE-HLTH   VALUE 'U  '           01341440
025077*****                                             'M  '.          01341440
025079*****    88  DERIVED-TWO-PARTY-COV-HLTH     VALUE 'UU '           01341440
025080*****                                             'UM '           01341440
025081*****                                             'MU '           01341440
025090*****                                             'MM '.          01341440
025100*****    88  DERIVED-FAMILY-COVERAGE-HLTH   VALUE 'UUU'           01341440
025200*****                                             'UUM'           01341440
025300*****                                             'UMU'           01341440
025400*****                                             'UMM'           01341440
025500*****                                             'MUU'           01341440
025600*****                                             'MUM'           01341440
025700*****                                             'MMU'           01341440
025800*****                                             'MMM'.          01341440
025900*****    88  DERIVED-RETAIN-MEDICARE-M      VALUE 'M  '           01341440
026000*****                                             'UM '           01341440
026100*****                                             'MU '           01341440
026110*****                                             'MM '           01341440
026120*****                                             'UUM'           01341440
026130*****                                             'UMU'           01341440
026140*****                                             'UMM'           01341440
026150*****                                             'MUU'           01341440
026160*****                                             'MUM'           01341440
026170*****                                             'MMU'           01341440
026180*****                                             'MMM'.          01341440
026190     05  DER-HEALTH-COVERAGE-IND-REF  REDEFINES                   PPFCBBEN
026191                                      DERIVED-HEALTH-COVERAGE-IND.PPFCBBEN
026192         07  DER-1ST-COV-POS          PIC X(01).                  PPFCBBEN
026193         07  DER-2ND-COV-POS          PIC X(01).                  PPFCBBEN
026194         07  DER-3RD-COV-POS          PIC X(01).                  PPFCBBEN
026195                                                                  PPFCBBEN
026196     05  DERIVED-DENTAL-COVERAGE-IND  PIC X(03) VALUE SPACES.     PPFCBBEN
026197*****    88  DERIVED-NO-COVERAGE-DENTL      VALUE '   '.          01341440
026198*****    88  DERIVED-SINGLE-COVERAGE-DENTL  VALUE 'U  '.          01341440
026199*****    88  DERIVED-TWO-PARTY-COV-DENTL    VALUE 'UU '.          01341440
026200*****    88  DERIVED-FAMILY-COVERAGE-DENTL  VALUE 'UUU'.          01341440
026201                                                                  PPFCBBEN
026202     05  DERIVED-VIS-COVERAGE-IND     PIC X(03) VALUE SPACES.     PPFCBBEN
026203*****    88  DERIVED-NO-COVERAGE-VIS        VALUE '   '.          01341440
026204*****    88  DERIVED-SINGLE-COVERAGE-VIS    VALUE 'U  '.          01341440
026205*****    88  DERIVED-TWO-PARTY-COV-VIS      VALUE 'UU '.          01341440
026206*****    88  DERIVED-FAMILY-COVERAGE-VIS    VALUE 'UUU'.          01341440
026207                                                                  PPFCBBEN
026208     05  DERIVED-LEGAL-COVERAGE-IND   PIC X(03) VALUE SPACES.     PPFCBBEN
026209*****    88  DERIVED-NO-COVERAGE-LEGAL      VALUE '   '.          01341440
026210*****    88  DERIVED-SINGLE-COVERAGE-LEGAL  VALUE 'U  '.          01341440
026211*****    88  DERIVED-FAMILY-COVERAGE-LEGAL  VALUE 'UUU'.          01341440
026212                                                                  PPFCBBEN
026213     05  HOLD-COVERAGE-CODE-IND       PIC X(03)   VALUE SPACE.    PPFCBBEN
026214*****    88  HOLD-NO-COVERAGE               VALUE '   '.          01341440
026216*****    88  HOLD-SINGLE-COVERAGE           VALUE 'U  '           01341440
026217*****                                             'M  '.          01341440
026218*****    88  HOLD-TWO-PARTY-COVERAGE        VALUE 'UU '           01341440
026219*****                                             'UM '           01341440
026220*****                                             'MU '           01341440
026221*****                                             'MM '.          01341440
026222*****    88  HOLD-FAMILY-COVERAGE           VALUE 'UUU'           01341440
026223*****                                             'UUM'           01341440
026224*****                                             'UMU'           01341440
026225*****                                             'UMM'           01341440
026226*****                                             'MUU'           01341440
026227*****                                             'MUM'           01341440
026228*****                                             'MMU'           01341440
026229*****                                             'MMM'.          01341440
026229     05  HLD-COVERAGE-CODE-IND-DEF    REDEFINES                   PPFCBBEN
026230                                      HOLD-COVERAGE-CODE-IND.     PPFCBBEN
026231         07  HLD-1ST-COV-POS          PIC X(01).                  PPFCBBEN
026232         07  HLD-2ND-COV-POS          PIC X(01).                  PPFCBBEN
026233         07  HLD-3RD-COV-POS          PIC X(01).                  PPFCBBEN
026240                                                                  PPFCBBEN
026241     EJECT                                                        PPFCBBEN
026242***********************************************************       PPFCBBEN
026243*        E X T E R N A L S                                *       PPFCBBEN
026244***********************************************************       PPFCBBEN
026245 01  FCB-DATA-ARRAY              EXTERNAL.  COPY CPWSEFCB.        PPFCBBEN
026246     EJECT                                                        PPFCBBEN
026247 01  DEP-DATA-ARRAY              EXTERNAL.  COPY CPWSEDEP.        PPFCBBEN
026248     EJECT                                                        PPFCBBEN
026249 01  PPFCBUTL-INTERFACE          EXTERNAL.  COPY CPLNKFCB.        PPFCBBEN
026250     EJECT                                                        PPFCBBEN
026253 01  KNET-INTERFACE-DATA         EXTERNAL.  COPY CPLNKNET.        PPFCBBEN
026254     EJECT                                                        01341440
026255 01  PPCOVRGE-INTERFACE          EXTERNAL.  COPY CPLNKCOV.        01341440
026260     EJECT                                                        PPFCBBEN
043920***********************************************************       PPFCBBEN
044000*        S T A N D A R D    C O P Y   M E M B E R S       *       PPFCBBEN
044100***********************************************************       PPFCBBEN
044500 01  WS-COMPILE-WORK-AREA.                  COPY CPWSXWHC.        PPFCBBEN
044600     EJECT                                                        PPFCBBEN
044800 01  INSTALLATION-DEPENDT-CONSTANTS.        COPY CPWSXIDC.        PPFCBBEN
044900     EJECT                                                        PPFCBBEN
045400 01  DATE-CONVERSION-WORK-AREAS.            COPY CPWSXDC3.        PPFCBBEN
054850     EJECT                                                        PPFCBBEN
054860***********************************************************       PPFCBBEN
054870*    SQL WORKING STORAGE                                  *       PPFCBBEN
054880***********************************************************       PPFCBBEN
054890 01  BEN-ROW-DATA                EXTERNAL.                        PPFCBBEN
054891     EXEC SQL                                                     PPFCBBEN
054892          INCLUDE PPPV400A                                        PPFCBBEN
054893     END-EXEC.                                                    PPFCBBEN
054894     EJECT                                                        PPFCBBEN
054900                                                                  PPFCBBEN
055000 PROCEDURE DIVISION.                                              PPFCBBEN
055400                                                                  PPFCBBEN
055410 0000-MAINLINE.                                                   PPFCBBEN
055500***********************************************************       PPFCBBEN
055600*                    M A I N L I N E                      *       PPFCBBEN
055700***********************************************************       PPFCBBEN
056000                                                                  PPFCBBEN
056100     PERFORM 0100-INITIALIZATION.                                 PPFCBBEN
056200                                                                  PPFCBBEN
056300     MOVE KNET-END-YYMMDD TO XDC3-STD-DATE.                       PPFCBBEN
056400     MOVE 1 TO XDC3-STD-DD.                                       PPFCBBEN
056500     IF XDC3-STD-MM = 12                                          PPFCBBEN
056510        MOVE 1 TO XDC3-STD-MM                                     PPFCBBEN
056511        ADD  1 TO XDC3-STD-YY                                     PPFCBBEN
056512     ELSE                                                         PPFCBBEN
056513        ADD  1 TO XDC3-STD-MM                                     PPFCBBEN
056514     END-IF.                                                      PPFCBBEN
056516     PERFORM XDC3-CONVERT-STD-TO-ISO.                             PPFCBBEN
056517     MOVE XDC3-ISO-DATE TO  ISO-COV-FIRST-OF-MONTH-DATE.          PPFCBBEN
056518                                                                  PPFCBBEN
056519     IF  ( NXT-FUTBEN-ACT-DTE OF BEN-ROW-DATA                     PPFCBBEN
056520                              NOT = XDC3-LOW-ISO-DATE             PPFCBBEN
056521         AND NXT-FUTBEN-ACT-DTE OF BEN-ROW-DATA                   PPFCBBEN
056530                                 <=  ISO-COV-FIRST-OF-MONTH-DATE )PPFCBBEN
056610         PERFORM 1000-MOVE-FUTURE-PLAN-TO-CURR                    PPFCBBEN
056611     END-IF.                                                      PPFCBBEN
056620                                                                  PPFCBBEN
056630     IF HLTH-COVEFFDATE   > ISO-COV-FIRST-OF-MONTH-DATE           PPFCBBEN
056631     OR DENTAL-COVEFFDATE > ISO-COV-FIRST-OF-MONTH-DATE           PPFCBBEN
056632     OR VIS-COVEFFDATE    > ISO-COV-FIRST-OF-MONTH-DATE           PPFCBBEN
056633     OR LEGAL-COVEFFDATE  > ISO-COV-FIRST-OF-MONTH-DATE           PPFCBBEN
056640        PERFORM 4000-DETERMINE-PAST-PLAN                          PPFCBBEN
056650     END-IF.                                                      PPFCBBEN
056900                                                                  PPFCBBEN
057310     EXIT PROGRAM.                                                PPFCBBEN
057320                                                                  PPFCBBEN
057600     EJECT                                                        PPFCBBEN
057700                                                                  PPFCBBEN
058100 0100-INITIALIZATION       SECTION.                               PPFCBBEN
058110***********************************************************       PPFCBBEN
058120*                   I N I T I A L I Z E                   *       PPFCBBEN
058130***********************************************************       PPFCBBEN
058200                                                                  PPFCBBEN
058210     MOVE A-STND-PROG-ID TO XWHC-DISPLAY-MODULE.                  PPFCBBEN
058230                                                                  PPFCBBEN
058240*                                            *------------*       PPFCBBEN
058241                                              COPY CPPDXWHC.      PPFCBBEN
058242*                                            *------------*       PPFCBBEN
058250                                                                  PPFCBBEN
058260***************************************************************** PPFCBBEN
058270**   SET FIRST CALL SWITCH OFF                                  * PPFCBBEN
058280***************************************************************** PPFCBBEN
058290                                                                  PPFCBBEN
058300     SET NOT-FIRST-TIME        TO TRUE.                           PPFCBBEN
058403                                                                  PPFCBBEN
058431                                                                  PPFCBBEN
058432     EJECT                                                        PPFCBBEN
058433*----------------------------------------------------------------*PPFCBBEN
058530 1000-MOVE-FUTURE-PLAN-TO-CURR    SECTION.                        PPFCBBEN
058540*----------------------------------------------------------------*PPFCBBEN
058700******************************************************************PPFCBBEN
058800*      FIND ANY FUTURE PLANS WHICH ARE WITHIN THE SPECIFIED      *PPFCBBEN
058810*      DATE RANGE, AND MOVE THEM TO THE CURRENT PLANS.           *PPFCBBEN
058900******************************************************************PPFCBBEN
060212                                                                  PPFCBBEN
060213*--> SAVE THE ORIGINAL PLAN CODES FOR LATER PROCESS               PPFCBBEN
060214*--> TO DETERMINE TO RE-DERIVE COVERAGE LEVEL.                    PPFCBBEN
060215     MOVE HLTH-PLAN TO HOLD-HLTH-PLAN.                            PPFCBBEN
060216     MOVE DENTAL-PLAN TO HOLD-DENTAL-PLAN.                        PPFCBBEN
060217     MOVE VIS-PLAN TO HOLD-VISION-PLAN.                           PPFCBBEN
060218     MOVE LEGAL-PLAN TO HOLD-LEGAL-PLAN.                          PPFCBBEN
060219                                                                  PPFCBBEN
060230     PERFORM WITH TEST BEFORE                                     PPFCBBEN
060231     VARYING ENTRY-X  FROM +1 BY +1                               PPFCBBEN
060240     UNTIL ENTRY-X  > PPFCBUTL-ROW-COUNT                          PPFCBBEN
060250                                                                  PPFCBBEN
060251         IF  EFCB-FCB-COVEFF-DATE      (ENTRY-X)                  PPFCBBEN
060252                          >= NXT-FUTBEN-ACT-DTE                   PPFCBBEN
060253         AND EFCB-FCB-COVEFF-DATE      (ENTRY-X)                  PPFCBBEN
060254                          <= ISO-COV-FIRST-OF-MONTH-DATE          PPFCBBEN
060255         AND EFCB-FCB-COV-END-DATE     (ENTRY-X)                  PPFCBBEN
060256                           = XDC3-LOW-ISO-DATE                    PPFCBBEN
060257         AND EFCB-FCB-PLAN-INFO-DATA   (ENTRY-X) (1:2)            PPFCBBEN
060258                       NOT = ('XX' AND 'XC' AND 'XD')             PPFCBBEN
060263         AND EFCB-FCB-COVERAGE-CODE    (ENTRY-X)                  PPFCBBEN
060264                           = SPACES                               PPFCBBEN
060265             EVALUATE (EFCB-FCB-BENEFIT-TYPE (ENTRY-X))           PPFCBBEN
060270                WHEN 'M'                                          PPFCBBEN
060280                   MOVE EFCB-FCB-PLAN-INFO-DATA (ENTRY-X) (1:2)   PPFCBBEN
060290                                 TO HLTH-PLAN                     PPFCBBEN
060291                   MOVE EFCB-FCB-COVEFF-DATE    (ENTRY-X)         PPFCBBEN
060292                                 TO HLTH-COVEFFDATE               PPFCBBEN
060293                   MOVE XDC3-LOW-ISO-DATE TO HEALTH-COVEND-DATE   PPFCBBEN
060294                WHEN 'D'                                          PPFCBBEN
060295                   MOVE EFCB-FCB-PLAN-INFO-DATA (ENTRY-X) (1:2)   PPFCBBEN
060296                                 TO DENTAL-PLAN                   PPFCBBEN
060297                   MOVE EFCB-FCB-COVEFF-DATE    (ENTRY-X)         PPFCBBEN
060298                                 TO DENTAL-COVEFFDATE             PPFCBBEN
060299                   MOVE XDC3-LOW-ISO-DATE TO DENTAL-COVEND-DATE   PPFCBBEN
060300                WHEN 'V'                                          PPFCBBEN
060301                   MOVE EFCB-FCB-PLAN-INFO-DATA (ENTRY-X) (1:2)   PPFCBBEN
060302                                 TO VIS-PLAN                      PPFCBBEN
060303                   MOVE EFCB-FCB-COVEFF-DATE    (ENTRY-X)         PPFCBBEN
060304                                 TO VIS-COVEFFDATE                PPFCBBEN
060305                   MOVE XDC3-LOW-ISO-DATE TO VISION-COVEND-DATE   PPFCBBEN
060306                WHEN 'J'                                          PPFCBBEN
060307                   MOVE EFCB-FCB-PLAN-INFO-DATA (ENTRY-X) (1:2)   PPFCBBEN
060308                                 TO LEGAL-PLAN                    PPFCBBEN
060309                   MOVE EFCB-FCB-COVEFF-DATE    (ENTRY-X)         PPFCBBEN
060310                                 TO LEGAL-COVEFFDATE              PPFCBBEN
060311                   MOVE XDC3-LOW-ISO-DATE TO LEGAL-COVEND-DATE    PPFCBBEN
060312             END-EVALUATE                                         PPFCBBEN
060313         END-IF                                                   PPFCBBEN
060314                                                                  PPFCBBEN
060315     END-PERFORM.                                                 PPFCBBEN
060500                                                                  PPFCBBEN
060700     PERFORM 2000-DERIVE-NEW-COVERAGES.                           PPFCBBEN
138736                                                                  PPFCBBEN
138737     EJECT                                                        PPFCBBEN
138738*----------------------------------------------------------------*PPFCBBEN
138740 2000-DERIVE-NEW-COVERAGES       SECTION.                         PPFCBBEN
138741*----------------------------------------------------------------*PPFCBBEN
138743                                                                  PPFCBBEN
138744     PERFORM 2010-COUNT-DEPENDENTS.                               PPFCBBEN
138745     MOVE 'N' TO DEP-HEALTH-CHECK-SW                              PPFCBBEN
138746                 DEP-DENTAL-CHECK-SW                              PPFCBBEN
138747                 DEP-VISION-CHECK-SW                              PPFCBBEN
138748                 DEP-LEGAL-CHECK-SW.                              PPFCBBEN
138749                                                                  PPFCBBEN
138750*--> CHECK THE DEPENDENT COVERAGE DATES ONLY IF THERE ARE         PPFCBBEN
138751*--> ANY DEPENDENTS.                                              PPFCBBEN
138752     IF EDEP-NUM-ENTRIES   > ZERO                                 PPFCBBEN
138753        PERFORM 2100-CHECK-DEPENDENT-DATES                        PPFCBBEN
138754     END-IF.                                                      PPFCBBEN
138755                                                                  PPFCBBEN
138756     IF HLTH-PLAN NOT = HOLD-HLTH-PLAN                            PPFCBBEN
138757     OR DEP-HEALTH-DATE-IN-RANGE                                  PPFCBBEN
138758        PERFORM 3110-COUNT-DEP-FOR-HEALTH-COV                     PPFCBBEN
138760*****   PERFORM 3120-DERIVE-HEALTH-COV                            01341440
138761*****   PERFORM 3125-DERIVE-MED-WODM                              01341440
138762     END-IF.                                                      PPFCBBEN
138763                                                                  PPFCBBEN
138764     IF DENTAL-PLAN NOT = HOLD-DENTAL-PLAN                        PPFCBBEN
138765     OR DEP-DENTAL-DATE-IN-RANGE                                  PPFCBBEN
138766        PERFORM 3210-COUNT-DEP-FOR-DENTAL-COV                     PPFCBBEN
138771*****   PERFORM 3220-DERIVE-DENTAL-COV                            01341440
138772*****   PERFORM 3225-DERIVE-DENTAL-WODD                           01341440
138770     END-IF.                                                      PPFCBBEN
138771                                                                  PPFCBBEN
138772     IF VIS-PLAN NOT = HOLD-VISION-PLAN                           PPFCBBEN
138773     OR DEP-VISION-DATE-IN-RANGE                                  PPFCBBEN
138774        PERFORM 3310-COUNT-DEP-FOR-VISION-COV                     PPFCBBEN
138778*****   PERFORM 3320-DERIVE-VISION-COV                            01341440
138779*****   PERFORM 3325-DERIVE-VIS-WODV                              01341440
138778     END-IF.                                                      PPFCBBEN
138779                                                                  PPFCBBEN
138780     IF LEGAL-PLAN NOT = HOLD-LEGAL-PLAN                          PPFCBBEN
138781     OR DEP-LEGAL-DATE-IN-RANGE                                   PPFCBBEN
138782        PERFORM 3410-COUNT-DEP-FOR-LEGAL-COV                      PPFCBBEN
138785*****   PERFORM 3420-DERIVE-LEGAL-COV                             01341440
138784     END-IF.                                                      PPFCBBEN
138785                                                                  PPFCBBEN
138786     EJECT                                                        PPFCBBEN
138787*----------------------------------------------------------------*PPFCBBEN
138788 2010-COUNT-DEPENDENTS   SECTION.                                 PPFCBBEN
138789*----------------------------------------------------------------*PPFCBBEN
138790****************************************************************  PPFCBBEN
138791*  COUNT THE NUMBER OF ENTRIES IN THE UPDATED DEP ARRAY.          PPFCBBEN
138792****************************************************************  PPFCBBEN
138793                                                                  PPFCBBEN
138794     PERFORM WITH TEST BEFORE                                     PPFCBBEN
138795      VARYING EDEP-NUM-ENTRIES  FROM +1 BY +1                     PPFCBBEN
138796        UNTIL EDEP-NUM-ENTRIES  > IDC-MAX-NO-DEP                  PPFCBBEN
138797           OR EDEP-OCCURRENCE-KEY (EDEP-NUM-ENTRIES)              PPFCBBEN
138798                                         = INIT-EDEP-KEY          PPFCBBEN
138799           OR EDEP-OCCURRENCE-KEY (EDEP-NUM-ENTRIES)              PPFCBBEN
138800                                         = X'0000'                PPFCBBEN
138801     END-PERFORM.                                                 PPFCBBEN
138802                                                                  PPFCBBEN
138803     COMPUTE EDEP-NUM-ENTRIES  = EDEP-NUM-ENTRIES - +1.           PPFCBBEN
138804                                                                  PPFCBBEN
138805     EJECT                                                        PPFCBBEN
138806*----------------------------------------------------------------*PPFCBBEN
138807 2100-CHECK-DEPENDENT-DATES      SECTION.                         PPFCBBEN
138808*----------------------------------------------------------------*PPFCBBEN
138809                                                                  PPFCBBEN
138810******************************************************************PPFCBBEN
138811*                                                                *PPFCBBEN
138812*   CHECK FOR DEPENDENTS WHOSE COVERAGES ARE BEGINNING OR ENDING *PPFCBBEN
138813*   BETWEEN THE NEXT FUTURE BENEFITS ACTION DATE AND BEGINNING OF*PPFCBBEN
138814*   COVERAGE MONTH INCLUSIVELY.                                  *PPFCBBEN
138815******************************************************************PPFCBBEN
138816                                                                  PPFCBBEN
138817     PERFORM WITH TEST BEFORE                                     PPFCBBEN
138818     VARYING ENTRY-X  FROM +1 BY +1                               PPFCBBEN
138819     UNTIL ENTRY-X  > EDEP-NUM-ENTRIES                            PPFCBBEN
138820                                                                  PPFCBBEN
138821         IF  EDEP-DEP-HLTH-COVEFFDT (ENTRY-X)                     PPFCBBEN
138822                                   NOT = XDC3-LOW-ISO-DATE        PPFCBBEN
138823         AND                                                      PPFCBBEN
138824             EDEP-DEP-HLTH-COVEFFDT (ENTRY-X)                     PPFCBBEN
138825                                      >= NXT-FUTBEN-ACT-DTE       PPFCBBEN
138826         AND                                                      PPFCBBEN
138827             EDEP-DEP-HLTH-COVEFFDT (ENTRY-X)                     PPFCBBEN
138828                                  <= ISO-COV-FIRST-OF-MONTH-DATE  PPFCBBEN
138829         AND                                                      PPFCBBEN
138830             EDEP-DEP-HLTH-COVENDDT (ENTRY-X)                     PPFCBBEN
138831                                       = XDC3-LOW-ISO-DATE        PPFCBBEN
138832               SET DEP-HEALTH-DATE-IN-RANGE TO TRUE               PPFCBBEN
138833         ELSE                                                     PPFCBBEN
138834            IF EDEP-DEP-HLTH-COVENDDT (ENTRY-X)                   PPFCBBEN
138835                                   NOT = XDC3-LOW-ISO-DATE        PPFCBBEN
138836               MOVE EDEP-DEP-HLTH-COVENDDT (ENTRY-X)              PPFCBBEN
138837                                   TO XDC3-ISO-DATE               PPFCBBEN
138838               PERFORM XDC3-CONVERT-ISO-TO-LILIAN                 PPFCBBEN
138839               ADD 1 TO XDC3-LILIAN-DATE                          PPFCBBEN
138840               PERFORM XDC3-CONVERT-LILIAN-TO-ISO                 PPFCBBEN
138841               MOVE XDC3-ISO-DATE TO WS-DEP-COVEND-DATE-PLUS-1    PPFCBBEN
138842               IF WS-DEP-COVEND-DATE-PLUS-1 >= NXT-FUTBEN-ACT-DTE PPFCBBEN
138843               AND                                                PPFCBBEN
138844                  WS-DEP-COVEND-DATE-PLUS-1                       PPFCBBEN
138845                                   <= ISO-COV-FIRST-OF-MONTH-DATE PPFCBBEN
138846                  SET DEP-HEALTH-DATE-IN-RANGE TO TRUE            PPFCBBEN
138847              END-IF                                              PPFCBBEN
138848            END-IF                                                PPFCBBEN
138849         END-IF                                                   PPFCBBEN
138850                                                                  PPFCBBEN
138851         IF  EDEP-DEP-DENTL-COVEFFDT (ENTRY-X)                    PPFCBBEN
138852                                    NOT = XDC3-LOW-ISO-DATE       PPFCBBEN
138853         AND                                                      PPFCBBEN
138854             EDEP-DEP-DENTL-COVEFFDT (ENTRY-X)                    PPFCBBEN
138855                                       >= NXT-FUTBEN-ACT-DTE      PPFCBBEN
138856         AND                                                      PPFCBBEN
138857             EDEP-DEP-DENTL-COVEFFDT (ENTRY-X)                    PPFCBBEN
138858                                  <= ISO-COV-FIRST-OF-MONTH-DATE  PPFCBBEN
138859         AND                                                      PPFCBBEN
138860             EDEP-DEP-DENTL-COVENDDT (ENTRY-X)                    PPFCBBEN
138861                                       = XDC3-LOW-ISO-DATE        PPFCBBEN
138862               SET DEP-DENTAL-DATE-IN-RANGE TO TRUE               PPFCBBEN
138863         ELSE                                                     PPFCBBEN
138864            IF EDEP-DEP-DENTL-COVENDDT (ENTRY-X)                  PPFCBBEN
138865                                   NOT = XDC3-LOW-ISO-DATE        PPFCBBEN
138866               MOVE EDEP-DEP-DENTL-COVENDDT (ENTRY-X)             PPFCBBEN
138867                                   TO XDC3-ISO-DATE               PPFCBBEN
138868               PERFORM XDC3-CONVERT-ISO-TO-LILIAN                 PPFCBBEN
138869               ADD 1 TO XDC3-LILIAN-DATE                          PPFCBBEN
138870               PERFORM XDC3-CONVERT-LILIAN-TO-ISO                 PPFCBBEN
138871               MOVE XDC3-ISO-DATE TO WS-DEP-COVEND-DATE-PLUS-1    PPFCBBEN
138872               IF WS-DEP-COVEND-DATE-PLUS-1 >= NXT-FUTBEN-ACT-DTE PPFCBBEN
138873               AND                                                PPFCBBEN
138874                  WS-DEP-COVEND-DATE-PLUS-1                       PPFCBBEN
138875                                   <= ISO-COV-FIRST-OF-MONTH-DATE PPFCBBEN
138876                  SET DEP-DENTAL-DATE-IN-RANGE TO TRUE            PPFCBBEN
138877               END-IF                                             PPFCBBEN
138878            END-IF                                                PPFCBBEN
138879         END-IF                                                   PPFCBBEN
138880                                                                  PPFCBBEN
138881         IF  EDEP-DEP-VIS-COVEFFDT (ENTRY-X)                      PPFCBBEN
138882                                  NOT = XDC3-LOW-ISO-DATE         PPFCBBEN
138883         AND                                                      PPFCBBEN
138884             EDEP-DEP-VIS-COVEFFDT (ENTRY-X)                      PPFCBBEN
138885                                     >= NXT-FUTBEN-ACT-DTE        PPFCBBEN
138886         AND                                                      PPFCBBEN
138887             EDEP-DEP-VIS-COVEFFDT (ENTRY-X)                      PPFCBBEN
138888                                  <= ISO-COV-FIRST-OF-MONTH-DATE  PPFCBBEN
138889         AND                                                      PPFCBBEN
138890             EDEP-DEP-VIS-COVENDDT (ENTRY-X)                      PPFCBBEN
138891                                       = XDC3-LOW-ISO-DATE        PPFCBBEN
138892               SET DEP-VISION-DATE-IN-RANGE TO TRUE               PPFCBBEN
138893         ELSE                                                     PPFCBBEN
138894            IF EDEP-DEP-VIS-COVENDDT (ENTRY-X)                    PPFCBBEN
138895                                   NOT = XDC3-LOW-ISO-DATE        PPFCBBEN
138896               MOVE EDEP-DEP-VIS-COVENDDT (ENTRY-X)               PPFCBBEN
138897                                   TO XDC3-ISO-DATE               PPFCBBEN
138898               PERFORM XDC3-CONVERT-ISO-TO-LILIAN                 PPFCBBEN
138899               ADD 1 TO XDC3-LILIAN-DATE                          PPFCBBEN
138900               PERFORM XDC3-CONVERT-LILIAN-TO-ISO                 PPFCBBEN
138901               MOVE XDC3-ISO-DATE TO WS-DEP-COVEND-DATE-PLUS-1    PPFCBBEN
138902               IF WS-DEP-COVEND-DATE-PLUS-1 >= NXT-FUTBEN-ACT-DTE PPFCBBEN
138903               AND                                                PPFCBBEN
138904                  WS-DEP-COVEND-DATE-PLUS-1                       PPFCBBEN
138905                                   <= ISO-COV-FIRST-OF-MONTH-DATE PPFCBBEN
138906                  SET DEP-VISION-DATE-IN-RANGE TO TRUE            PPFCBBEN
138907               END-IF                                             PPFCBBEN
138908            END-IF                                                PPFCBBEN
138909         END-IF                                                   PPFCBBEN
138910                                                                  PPFCBBEN
138911         IF  EDEP-DEP-LEGAL-COVEFFDT (ENTRY-X)                    PPFCBBEN
138912                                    NOT = XDC3-LOW-ISO-DATE       PPFCBBEN
138913         AND                                                      PPFCBBEN
138914             EDEP-DEP-LEGAL-COVEFFDT (ENTRY-X)                    PPFCBBEN
138915                                       >= NXT-FUTBEN-ACT-DTE      PPFCBBEN
138916         AND                                                      PPFCBBEN
138917             EDEP-DEP-LEGAL-COVEFFDT (ENTRY-X)                    PPFCBBEN
138918                                  <= ISO-COV-FIRST-OF-MONTH-DATE  PPFCBBEN
138919         AND                                                      PPFCBBEN
138920             EDEP-DEP-LEGAL-COVENDDT (ENTRY-X)                    PPFCBBEN
138921                                       = XDC3-LOW-ISO-DATE        PPFCBBEN
138922               SET DEP-LEGAL-DATE-IN-RANGE TO TRUE                PPFCBBEN
138923         ELSE                                                     PPFCBBEN
138924            IF EDEP-DEP-LEGAL-COVENDDT (ENTRY-X)                  PPFCBBEN
138925                                   NOT = XDC3-LOW-ISO-DATE        PPFCBBEN
138926               MOVE EDEP-DEP-LEGAL-COVENDDT (ENTRY-X)             PPFCBBEN
138927                                   TO XDC3-ISO-DATE               PPFCBBEN
138928               PERFORM XDC3-CONVERT-ISO-TO-LILIAN                 PPFCBBEN
138929               ADD 1 TO XDC3-LILIAN-DATE                          PPFCBBEN
138930               PERFORM XDC3-CONVERT-LILIAN-TO-ISO                 PPFCBBEN
138931               MOVE XDC3-ISO-DATE TO WS-DEP-COVEND-DATE-PLUS-1    PPFCBBEN
138932               IF WS-DEP-COVEND-DATE-PLUS-1 >= NXT-FUTBEN-ACT-DTE PPFCBBEN
138933               AND                                                PPFCBBEN
138934                  WS-DEP-COVEND-DATE-PLUS-1                       PPFCBBEN
138935                                   <= ISO-COV-FIRST-OF-MONTH-DATE PPFCBBEN
138936                  SET DEP-LEGAL-DATE-IN-RANGE TO TRUE             PPFCBBEN
138937               END-IF                                             PPFCBBEN
138938            END-IF                                                PPFCBBEN
138939         END-IF                                                   PPFCBBEN
138940                                                                  PPFCBBEN
138941     END-PERFORM.                                                 PPFCBBEN
138942                                                                  PPFCBBEN
138943     EJECT                                                        PPFCBBEN
138944*----------------------------------------------------------------*PPFCBBEN
138945 3110-COUNT-DEP-FOR-HEALTH-COV   SECTION.                         PPFCBBEN
138946*----------------------------------------------------------------*PPFCBBEN
138947                                                                  PPFCBBEN
138950*****MOVE ZERO TO EDEP-DEP-ENROLLED-HEALTH.                       01341440
138951*****MOVE ZERO TO DEP-ENROLLED-MED-WODM.                          01341440
138952*****PERFORM WITH TEST BEFORE                                     01341440
138953*****VARYING ENTRY-X  FROM +1 BY +1                               01341440
138954*****UNTIL ENTRY-X  > EDEP-NUM-ENTRIES                            01341440
138955*****                                                             01341440
138956*****    IF  EDEP-DEP-HLTH-COVEFFDT (ENTRY-X)                     01341440
138957*****                          NOT = XDC3-LOW-ISO-DATE            01341440
138958*****    AND                                                      01341440
138959*****        EDEP-DEP-HLTH-COVEFFDT (ENTRY-X)                     01341440
138960*****                             <= ISO-COV-FIRST-OF-MONTH-DATE  01341440
138961*****    AND                                                      01341440
138962*****        EDEP-DEP-HLTH-COVENDDT (ENTRY-X)                     01341440
138963*****                                  = XDC3-LOW-ISO-DATE        01341440
138964*****          ADD 1 TO EDEP-DEP-ENROLLED-HEALTH                  01341440
138965*****          IF EDEP-DEP-REL-TO-EMP (ENTRY-X)                   01341440
138966*****                              NOT  = ('D' AND 'K')           01341440
138967*****             ADD 1 TO DEP-ENROLLED-MED-WODM                  01341440
138968*****          END-IF                                             01341440
138969*****    ELSE                                                     01341440
138970*****       IF EDEP-DEP-HLTH-COVENDDT (ENTRY-X)                   01341440
138971*****                              NOT = XDC3-LOW-ISO-DATE        01341440
138972*****           IF EDEP-DEP-HLTH-COVENDDT (ENTRY-X)               01341440
138973*****                             >= ISO-COV-FIRST-OF-MONTH-DATE  01341440
138974*****              ADD 1 TO EDEP-DEP-ENROLLED-HEALTH              01341440
138975*****              IF EDEP-DEP-REL-TO-EMP (ENTRY-X)               01341440
138976*****                              NOT  = ('D' AND 'K')           01341440
138977*****                 ADD 1 TO DEP-ENROLLED-MED-WODM              01341440
138978*****              END-IF                                         01341440
138979*****           ELSE                                              01341440
138980*****              CONTINUE                                       01341440
138981*****           END-IF                                            01341440
138982*****       END-IF                                                01341440
138983*****    END-IF                                                   01341440
138984*****                                                             01341440
138985*****END-PERFORM.                                                 01341440
138986                                                                  01341440
138988     INITIALIZE PPCOVRGE-INTERFACE.                               01341440
138989     MOVE 'M' TO WS-TYPE-BENEFIT.                                 01341440
138990                                                                  01341440
138991     IF HLTH-PLAN = SPACES                                        01341440
138992       OR  HLTH-PLAN = ('XX' OR 'XC' OR 'XD')                     01341440
138994        MOVE SPACES TO DERIVED-HEALTH-COVERAGE-IND                01341440
138995     ELSE                                                         01341440
138996        PERFORM 5500-CALL-COVERAGE-UTILITY                        01341440
138997     END-IF.                                                      01341440
138998                                                                  01341440
138999     IF KCOV-NORMAL                                               01341440
139000        PERFORM 3120-DERIVE-HEALTH-COV                            01341440
139001        PERFORM 3125-DERIVE-MED-WODM                              01341440
139008     END-IF.                                                      01341440
138984                                                                  PPFCBBEN
138985     EJECT                                                        PPFCBBEN
138986*----------------------------------------------------------------*PPFCBBEN
138987 3120-DERIVE-HEALTH-COV   SECTION.                                PPFCBBEN
138988*----------------------------------------------------------------*PPFCBBEN
138989                                                                  PPFCBBEN
139015*****MOVE SPACES         TO  DERIVED-HEALTH-COVERAGE-IND          01341440
139016*****                        HOLD-COVERAGE-CODE-IND.              01341440
139017     MOVE KCOV-COV-CODE  TO  DERIVED-HEALTH-COVERAGE-IND.         01341440
138992     MOVE HLTH-COVERCODE TO HOLD-COVERAGE-CODE-IND.               PPFCBBEN
138993                                                                  PPFCBBEN
139020*****EVALUATE     TRUE                                            01341440
139021*****                                                             01341440
139022*****   WHEN     (EDEP-DEP-ENROLLED-HEALTH = ZERO)                01341440
139023*****        IF HLTH-PLAN NOT = SPACES                            01341440
139024*****        AND  HLTH-PLAN NOT = ('XX' AND 'XC' AND 'XD')        01341440
139025*****           MOVE 'U  ' TO DERIVED-HEALTH-COVERAGE-IND         01341440
139026*****        ELSE                                                 01341440
139027*****           MOVE '   ' TO DERIVED-HEALTH-COVERAGE-IND         01341440
139028*****        END-IF                                               01341440
139029*****                                                             01341440
139030*****   WHEN     (EDEP-DEP-ENROLLED-HEALTH =  1)                  01341440
139031*****        MOVE 'UU ' TO DERIVED-HEALTH-COVERAGE-IND            01341440
139032*****                                                             01341440
139033*****   WHEN     (EDEP-DEP-ENROLLED-HEALTH  > 1)                  01341440
139034*****        MOVE 'UUU' TO DERIVED-HEALTH-COVERAGE-IND            01341440
139035*****                                                             01341440
139036*****END-EVALUATE.                                                01341440
139011                                                                  PPFCBBEN
139012     PERFORM 3130-OVERLAY-COVERAGE.                               PPFCBBEN
139013     MOVE DERIVED-HEALTH-COVERAGE-IND TO HLTH-COVERCODE.          PPFCBBEN
139014                                                                  PPFCBBEN
139015     EJECT                                                        PPFCBBEN
139016*----------------------------------------------------------------*PPFCBBEN
139017 3125-DERIVE-MED-WODM                SECTION.                     PPFCBBEN
139018*----------------------------------------------------------------*PPFCBBEN
139019** DERIVE COVERAGE CODE IF DOMESTIC PARTNERS AND CHILDREN WERE   *PPFCBBEN
139020** EXCLUDED.                                                     *PPFCBBEN
139021*----------------------------------------------------------------*PPFCBBEN
139022                                                                  PPFCBBEN
139023     MOVE HLTH-COVERCODE TO HOLD-COVERAGE-CODE-IND.               PPFCBBEN
139050*****MOVE SPACES TO DERIVED-HEALTH-COVERAGE-IND.                  01341440
139051     MOVE KCOV-COV-CODE-WOD TO DERIVED-HEALTH-COVERAGE-IND.       01341440
139052*****                                                             01341440
139053*****EVALUATE     TRUE                                            01341440
139054*****   WHEN     (DEP-ENROLLED-MED-WODM = ZERO)                   01341440
139055*****        IF HLTH-PLAN NOT = SPACES                            01341440
139056*****        AND HLTH-PLAN NOT = ('XX' AND 'XC' AND 'XD')         01341440
139057*****           MOVE 'U  ' TO DERIVED-HEALTH-COVERAGE-IND         01341440
139058*****        ELSE                                                 01341440
139059*****           MOVE '   ' TO DERIVED-HEALTH-COVERAGE-IND         01341440
139060*****        END-IF                                               01341440
139061*****   WHEN     (DEP-ENROLLED-MED-WODM = 1)                      01341440
139062*****        MOVE 'UU ' TO DERIVED-HEALTH-COVERAGE-IND            01341440
139063*****   WHEN     (DEP-ENROLLED-MED-WODM > 1)                      01341440
139064*****        MOVE 'UUU' TO DERIVED-HEALTH-COVERAGE-IND            01341440
139065*****END-EVALUATE.                                                01341440
139025                                                                  PPFCBBEN
139067*****PERFORM 3130-OVERLAY-COVERAGE.                               01341440
139068     PERFORM 3140-OVERLAY-WODM-COVERAGE.                          01341440
139069                                                                  01341440
139070     MOVE DERIVED-HEALTH-COVERAGE-IND TO MED-COVERAGE-WODM.       01341440
139071                                                                  01341440
139072*****IF DERIVED-HEALTH-COVERAGE-IND NOT = HLTH-COVERCODE          01341440
139073*****   MOVE DERIVED-HEALTH-COVERAGE-IND TO MED-COVERAGE-WODM     01341440
139074*****   PERFORM 2250-X-MED-WODM                                   01341440
139075*****ELSE                                                         01341440
139076*****   MOVE SPACES TO MED-COVERAGE-WODM                          01341440
139077*****END-IF.                                                      01341440
139078*****                                                             01341440
139079*****------------------------------------------------------------*01341440
139080*2250-X-MED-WODM                     SECTION.                     01341440
139081*****------------------------------------------------------------*01341440
139082*****RK WOD COVERAGE TO INDICATE MISSING COVERAGE. X INDICATES U *01341440
139083*****IF MED-COVERAGE-WODM (2:1) = SPACE                           01341440
139084*****AND (HLTH-COVERCODE (2:1) = 'U' OR                           01341440
139085*****     HLTH-COVERCODE (2:1) = 'M')                             01341440
139086*****   MOVE 'X' TO MED-COVERAGE-WODM (2:1)                       01341440
139087*****END-IF.                                                      01341440
139088*****IF MED-COVERAGE-WODM (3:1) = SPACE                           01341440
139089*****AND (HLTH-COVERCODE (3:1) = 'U' OR                           01341440
139090*****     HLTH-COVERCODE (3:1) = 'M')                             01341440
139091*****   MOVE 'X' TO MED-COVERAGE-WODM (3:1)                       01341440
139092*****END-IF.                                                      01341440
139093*****------------------------------------------------------------*01341440
139064                                                                  PPFCBBEN
139065     EJECT                                                        PPFCBBEN
139066*----------------------------------------------------------------*PPFCBBEN
139067 3130-OVERLAY-COVERAGE     SECTION.                               PPFCBBEN
139068*----------------------------------------------------------------*PPFCBBEN
139069                                                                  PPFCBBEN
139070*----------------------------------------------------------------*PPFCBBEN
139071** WE NEED TO MOVE THE EMPLOYEE'S OLD COVERAGE ON TOP OF         *PPFCBBEN
139072** DERIVED PLAN COVERAGE CODE PRIOR TO COMPARING BETWEEN         *PPFCBBEN
139073** DERIVED PLAN COVERAGE CODE AND OLD PLAN COVERAGE CODE.        *PPFCBBEN
139074** THIS IS DONE ONLY FOR MEDICAL COVERAGE LEVEL WHERE WE         *PPFCBBEN
139075** WANT TO RETAIN (M, MU, MMM.....,ETC) IN THE COVERAGE CODE.    *PPFCBBEN
139076*----------------------------------------------------------------*PPFCBBEN
139077                                                                  PPFCBBEN
139078     IF  HLD-1ST-COV-POS NOT = SPACE  AND                         PPFCBBEN
139079              DER-1ST-COV-POS NOT = SPACE                         PPFCBBEN
139080         MOVE HLD-1ST-COV-POS TO DER-1ST-COV-POS                  PPFCBBEN
139081     END-IF.                                                      PPFCBBEN
139082                                                                  PPFCBBEN
139083     IF  HLD-2ND-COV-POS NOT = SPACE  AND                         PPFCBBEN
139084             DER-2ND-COV-POS NOT = SPACE                          PPFCBBEN
139115*****    MOVE HLD-2ND-COV-POS TO DER-2ND-COV-POS                  01341440
139116         IF HLD-2ND-COV-POS = 'M'                                 01341440
139117            MOVE HLD-2ND-COV-POS TO DER-2ND-COV-POS               01341440
139118         END-IF                                                   01341440
139086     END-IF.                                                      PPFCBBEN
139087                                                                  PPFCBBEN
139088     IF  HLD-3RD-COV-POS NOT = SPACE AND                          PPFCBBEN
139089             DER-3RD-COV-POS NOT = SPACE                          PPFCBBEN
139123*****    MOVE HLD-3RD-COV-POS TO DER-3RD-COV-POS                  01341440
139124         IF HLD-3RD-COV-POS = 'M'                                 01341440
139125            MOVE HLD-3RD-COV-POS TO DER-3RD-COV-POS               01341440
139126         END-IF                                                   01341440
139091     END-IF.                                                      PPFCBBEN
139128                                                                  01341440
139129     EJECT                                                        01341440
139130*----------------------------------------------------------------*01341440
139131 3140-OVERLAY-WODM-COVERAGE     SECTION.                          01341440
139132*----------------------------------------------------------------*01341440
139133                                                                  01341440
139134*----------------------------------------------------------------*01341440
139135** WE NEED TO MOVE THE EMPLOYEE'S OLD COVERAGE ON TOP OF         *01341440
139136** DERIVED PLAN COVERAGE CODE PRIOR TO COMPARING BETWEEN         *01341440
139137** DERIVED PLAN COVERAGE CODE AND OLD PLAN COVERAGE CODE.        *01341440
139138** THIS IS DONE ONLY FOR MEDICAL COVERAGE LEVEL WHERE WE         *01341440
139139** WANT TO RETAIN (M, MU, MMM.....,ETC) IN THE COVERAGE CODE.    *01341440
139140**----> DON'T OVERLAY THE 'X' OR 'Y' WITH 'M' IN                 *01341440
139141**--->  DERIVED-HEALTH-COVERAGE-IND.                             *01341440
139142*----------------------------------------------------------------*01341440
139143                                                                  01341440
139144     IF  HLD-1ST-COV-POS NOT = SPACE  AND                         01341440
139145              DER-1ST-COV-POS NOT = SPACE                         01341440
139146         MOVE HLD-1ST-COV-POS TO DER-1ST-COV-POS                  01341440
139147     END-IF.                                                      01341440
139148                                                                  01341440
139149     IF  HLD-2ND-COV-POS NOT = SPACE  AND                         01341440
139150             DER-2ND-COV-POS NOT = SPACE                          01341440
139151         IF DER-2ND-COV-POS NOT = ('X' AND 'Y')                   01341440
139152            MOVE HLD-2ND-COV-POS TO DER-2ND-COV-POS               01341440
139153         END-IF                                                   01341440
139154     END-IF.                                                      01341440
139155                                                                  01341440
139156     IF  HLD-3RD-COV-POS NOT = SPACE AND                          01341440
139157             DER-3RD-COV-POS NOT = SPACE                          01341440
139158         IF DER-3RD-COV-POS NOT = ('X' AND 'Y')                   01341440
139159            MOVE HLD-3RD-COV-POS TO DER-3RD-COV-POS               01341440
139160         END-IF                                                   01341440
139161     END-IF.                                                      01341440
139092                                                                  PPFCBBEN
139093                                                                  PPFCBBEN
139094     EJECT                                                        PPFCBBEN
139095*----------------------------------------------------------------*PPFCBBEN
139096 3210-COUNT-DEP-FOR-DENTAL-COV   SECTION.                         PPFCBBEN
139097*----------------------------------------------------------------*PPFCBBEN
139098                                                                  PPFCBBEN
139169*****MOVE ZERO TO EDEP-DEP-ENROLLED-DENTAL.                       01341440
139170*****MOVE ZERO TO DEP-ENROLLED-DENTAL-WODD.                       01341440
139171*****PERFORM WITH TEST BEFORE                                     01341440
139172*****VARYING ENTRY-X  FROM +1 BY +1                               01341440
139173*****UNTIL ENTRY-X  > EDEP-NUM-ENTRIES                            01341440
139174*****                                                             01341440
139175*****    IF (EDEP-DEP-DENTL-COVEFFDT (ENTRY-X)                    01341440
139176*****                            NOT = XDC3-LOW-ISO-DATE          01341440
139177*****    AND                                                      01341440
139178*****        EDEP-DEP-DENTL-COVEFFDT (ENTRY-X)                    01341440
139179*****                             <= ISO-COV-FIRST-OF-MONTH-DATE  01341440
139180*****    AND                                                      01341440
139181*****        EDEP-DEP-DENTL-COVENDDT (ENTRY-X)                    01341440
139182*****                                  = XDC3-LOW-ISO-DATE)       01341440
139183*****          ADD 1 TO EDEP-DEP-ENROLLED-DENTAL                  01341440
139184*****          IF EDEP-DEP-REL-TO-EMP (ENTRY-X)                   01341440
139185*****                              NOT  = ('D' AND 'K')           01341440
139186*****             ADD 1 TO DEP-ENROLLED-DENTAL-WODD               01341440
139187*****          END-IF                                             01341440
139188*****    ELSE                                                     01341440
139189*****       IF EDEP-DEP-DENTL-COVENDDT (ENTRY-X)                  01341440
139190*****                              NOT = XDC3-LOW-ISO-DATE        01341440
139191*****           IF EDEP-DEP-DENTL-COVENDDT (ENTRY-X)              01341440
139192*****                             >= ISO-COV-FIRST-OF-MONTH-DATE  01341440
139193*****              ADD 1 TO EDEP-DEP-ENROLLED-DENTAL              01341440
139194*****              IF EDEP-DEP-REL-TO-EMP (ENTRY-X)               01341440
139195*****                              NOT  = ('D' AND 'K')           01341440
139196*****                 ADD 1 TO DEP-ENROLLED-DENTAL-WODD           01341440
139197*****              END-IF                                         01341440
139198*****           ELSE                                              01341440
139199*****              CONTINUE                                       01341440
139200*****           END-IF                                            01341440
139201*****       END-IF                                                01341440
139202*****    END-IF                                                   01341440
139203*****                                                             01341440
139204*****END-PERFORM.                                                 01341440
139205                                                                  01341440
139206     INITIALIZE PPCOVRGE-INTERFACE.                               01341440
139207     MOVE 'D' TO WS-TYPE-BENEFIT.                                 01341440
139208                                                                  01341440
139209     IF DENTAL-PLAN = SPACES                                      01341440
139210       OR  DENTAL-PLAN = ('XX' OR 'XC' OR 'XD')                   01341440
139211        MOVE SPACES TO DENTAL-COVERAGE                            01341440
139212     ELSE                                                         01341440
139213        PERFORM 5500-CALL-COVERAGE-UTILITY                        01341440
139214     END-IF.                                                      01341440
139215                                                                  01341440
139216     IF KCOV-NORMAL                                               01341440
139217        MOVE KCOV-COV-CODE TO DENTAL-COVERAGE                     01341440
139218        MOVE KCOV-COV-CODE-WOD TO DEN-COVERAGE-WODD               01341440
139219     END-IF.                                                      01341440
139220                                                                  01341440
139221*****                                                             01341440
139222*****EJECT                                                        01341440
139223*****------------------------------------------------------------*01341440
139224*3220-DERIVE-DENTAL-COV     SECTION.                              01341440
139225*****------------------------------------------------------------*01341440
139226*****                                                             01341440
139227*****MOVE SPACES         TO  DERIVED-DENTAL-COVERAGE-IND.         01341440
139228*****                                                             01341440
139229*****EVALUATE     TRUE                                            01341440
139230*****                                                             01341440
139231*****   WHEN     (EDEP-DEP-ENROLLED-DENTAL = ZERO)                01341440
139232*****        IF DENTAL-PLAN NOT = SPACES                          01341440
139233*****        AND  DENTAL-PLAN NOT = ('XX' AND 'XC' AND 'XD')      01341440
139234*****           MOVE 'U  ' TO DERIVED-DENTAL-COVERAGE-IND         01341440
139235*****        ELSE                                                 01341440
139236*****           MOVE '   ' TO DERIVED-DENTAL-COVERAGE-IND         01341440
139237*****        END-IF                                               01341440
139238*****                                                             01341440
139239*****   WHEN     (EDEP-DEP-ENROLLED-DENTAL =  1)                  01341440
139240*****        MOVE 'UU ' TO DERIVED-DENTAL-COVERAGE-IND            01341440
139241*****                                                             01341440
139242*****   WHEN     (EDEP-DEP-ENROLLED-DENTAL  > 1)                  01341440
139243*****        MOVE 'UUU' TO DERIVED-DENTAL-COVERAGE-IND            01341440
139244*****                                                             01341440
139245*****END-EVALUATE.                                                01341440
139246*****                                                             01341440
139247*****MOVE DERIVED-DENTAL-COVERAGE-IND TO DENTAL-COVERAGE.         01341440
139248*****                                                             01341440
139249*****EJECT                                                        01341440
139250*****------------------------------------------------------------*01341440
139251*3225-DERIVE-DENTAL-WODD             SECTION.                     01341440
139252*****------------------------------------------------------------*01341440
139253*****                                                             01341440
139254*****MOVE DENTAL-COVERAGE TO HOLD-COVERAGE-CODE-IND.              01341440
139255*****MOVE SPACES TO  DERIVED-DENTAL-COVERAGE-IND.                 01341440
139256*****                                                             01341440
139257*****EVALUATE     TRUE                                            01341440
139258*****   WHEN     (DEP-ENROLLED-DENTAL-WODD = ZERO)                01341440
139259*****        IF DENTAL-PLAN NOT = SPACES                          01341440
139260*****        AND  DENTAL-PLAN NOT = ('XX' AND 'XC' AND 'XD')      01341440
139261*****           MOVE 'U  ' TO DERIVED-DENTAL-COVERAGE-IND         01341440
139262*****        ELSE                                                 01341440
139263*****           MOVE '   ' TO DERIVED-DENTAL-COVERAGE-IND         01341440
139264*****        END-IF                                               01341440
139265*****   WHEN     (DEP-ENROLLED-DENTAL-WODD =  1)                  01341440
139266*****        MOVE 'UU ' TO DERIVED-DENTAL-COVERAGE-IND            01341440
139267*****   WHEN     (DEP-ENROLLED-DENTAL-WODD  > 1)                  01341440
139268*****        MOVE 'UUU' TO DERIVED-DENTAL-COVERAGE-IND            01341440
139269*****END-EVALUATE.                                                01341440
139270*****                                                             01341440
139271*****IF DERIVED-DENTAL-COVERAGE-IND NOT = DENTAL-COVERAGE         01341440
139272*****   MOVE DERIVED-DENTAL-COVERAGE-IND TO DEN-COVERAGE-WODD     01341440
139273*****   PERFORM 3250-X-DEN-WODD                                   01341440
139274*****ELSE                                                         01341440
139275*****   MOVE SPACES TO DEN-COVERAGE-WODD                          01341440
139276*****END-IF.                                                      01341440
139277*****                                                             01341440
139278*****------------------------------------------------------------*01341440
139279*3250-X-DEN-WODD                     SECTION.                     01341440
139280*****------------------------------------------------------------*01341440
139281***MARK WOD COVERAGE TO INDICATE MISSING COVERAGE. X INDICATES U *01341440
139282*****IF DEN-COVERAGE-WODD (2:1) = SPACE                           01341440
139283*****AND DENTAL-COVERAGE (2:1) = 'U'                              01341440
139284*****   MOVE 'X' TO DEN-COVERAGE-WODD (2:1)                       01341440
139285*****END-IF.                                                      01341440
139286*****IF DEN-COVERAGE-WODD (3:1) = SPACE                           01341440
139287*****AND DENTAL-COVERAGE (3:1) = 'U'                              01341440
139288*****   MOVE 'X' TO DEN-COVERAGE-WODD (3:1)                       01341440
139289*****END-IF.                                                      01341440
139209                                                                  PPFCBBEN
139210     EJECT                                                        PPFCBBEN
139211*----------------------------------------------------------------*PPFCBBEN
139212 3310-COUNT-DEP-FOR-VISION-COV   SECTION.                         PPFCBBEN
139213*----------------------------------------------------------------*PPFCBBEN
139214                                                                  PPFCBBEN
139296*****MOVE ZERO TO EDEP-DEP-ENROLLED-VISION.                       01341440
139297*****MOVE ZERO TO DEP-ENROLLED-VIS-WODV.                          01341440
139298*****PERFORM WITH TEST BEFORE                                     01341440
139299*****VARYING ENTRY-X  FROM +1 BY +1                               01341440
139300*****UNTIL ENTRY-X  > EDEP-NUM-ENTRIES                            01341440
139301*****                                                             01341440
139302*****    IF (EDEP-DEP-VIS-COVEFFDT (ENTRY-X)                      01341440
139303*****                            NOT = XDC3-LOW-ISO-DATE          01341440
139304*****    AND                                                      01341440
139305*****        EDEP-DEP-VIS-COVEFFDT (ENTRY-X)                      01341440
139306*****                             <= ISO-COV-FIRST-OF-MONTH-DATE  01341440
139307*****    AND                                                      01341440
139308*****        EDEP-DEP-VIS-COVENDDT (ENTRY-X)                      01341440
139309*****                                  = XDC3-LOW-ISO-DATE)       01341440
139310*****          ADD 1 TO EDEP-DEP-ENROLLED-VISION                  01341440
139311*****          IF EDEP-DEP-REL-TO-EMP (ENTRY-X)                   01341440
139312*****                              NOT  = ('D' AND 'K')           01341440
139313*****             ADD 1 TO DEP-ENROLLED-VIS-WODV                  01341440
139314*****          END-IF                                             01341440
139315*****    ELSE                                                     01341440
139316*****       IF EDEP-DEP-VIS-COVENDDT (ENTRY-X)                    01341440
139317*****                              NOT = XDC3-LOW-ISO-DATE        01341440
139318*****           IF EDEP-DEP-VIS-COVENDDT (ENTRY-X)                01341440
139319*****                             >= ISO-COV-FIRST-OF-MONTH-DATE  01341440
139320*****              ADD 1 TO EDEP-DEP-ENROLLED-VISION              01341440
139321*****              IF EDEP-DEP-REL-TO-EMP (ENTRY-X)               01341440
139322*****                              NOT  = ('D' AND 'K')           01341440
139323*****                 ADD 1 TO DEP-ENROLLED-VIS-WODV              01341440
139324*****              END-IF                                         01341440
139325*****           ELSE                                              01341440
139326*****              CONTINUE                                       01341440
139327*****           END-IF                                            01341440
139328*****       END-IF                                                01341440
139329*****    END-IF                                                   01341440
139330*****                                                             01341440
139331*****END-PERFORM.                                                 01341440
139332                                                                  01341440
139333     INITIALIZE PPCOVRGE-INTERFACE.                               01341440
139334     MOVE 'V' TO WS-TYPE-BENEFIT.                                 01341440
139335                                                                  01341440
139336     IF VIS-PLAN = SPACES                                         01341440
139337       OR  VIS-PLAN = ('XX' OR 'XD')                              01341440
139338        MOVE SPACES TO VIS-COVERAGE                               01341440
139339     ELSE                                                         01341440
139340        PERFORM 5500-CALL-COVERAGE-UTILITY                        01341440
139341     END-IF.                                                      01341440
139342                                                                  01341440
139343     IF KCOV-NORMAL                                               01341440
139344        MOVE KCOV-COV-CODE TO VIS-COVERAGE                        01341440
139345        MOVE KCOV-COV-CODE-WOD TO VIS-COVERAGE-WODV               01341440
139346     END-IF.                                                      01341440
139347                                                                  01341440
139348*****                                                             01341440
139349*****EJECT                                                        01341440
139350*----------------------------------------------------------------*01341440
139351*3320-DERIVE-VISION-COV     SECTION.                              01341440
139352*----------------------------------------------------------------*01341440
139353*****                                                             01341440
139354*****MOVE SPACES       TO  DERIVED-VIS-COVERAGE-IND.              01341440
139355*****                                                             01341440
139356*****EVALUATE     TRUE                                            01341440
139357*****                                                             01341440
139358*****   WHEN     (EDEP-DEP-ENROLLED-VISION = ZERO)                01341440
139359*****        IF VIS-PLAN NOT = SPACES                             01341440
139360*****        AND  VIS-PLAN NOT = ('XX' AND 'XD')                  01341440
139361*****           MOVE 'U  ' TO DERIVED-VIS-COVERAGE-IND            01341440
139362*****        ELSE                                                 01341440
139363*****           MOVE '   ' TO DERIVED-VIS-COVERAGE-IND            01341440
139364*****        END-IF                                               01341440
139365*****                                                             01341440
139366*****   WHEN     (EDEP-DEP-ENROLLED-VISION =  1)                  01341440
139367*****        MOVE 'UU ' TO DERIVED-VIS-COVERAGE-IND               01341440
139368*****                                                             01341440
139369*****   WHEN     (EDEP-DEP-ENROLLED-VISION  > 1)                  01341440
139370*****        MOVE 'UUU' TO DERIVED-VIS-COVERAGE-IND               01341440
139371*****                                                             01341440
139372*****END-EVALUATE.                                                01341440
139373*****MOVE DERIVED-VIS-COVERAGE-IND TO VIS-COVERAGE.               01341440
139374*****                                                             01341440
139375*****------------------------------------------------------------*01341440
139376*3325-DERIVE-VIS-WODV                SECTION.                     01341440
139377*****------------------------------------------------------------*01341440
139378*****                                                             01341440
139379*****MOVE VIS-COVERAGE   TO HOLD-COVERAGE-CODE-IND.               01341440
139380*****MOVE SPACES TO  DERIVED-VIS-COVERAGE-IND.                    01341440
139381*****                                                             01341440
139382*****EVALUATE     TRUE                                            01341440
139383*****   WHEN     (DEP-ENROLLED-VIS-WODV = ZERO)                   01341440
139384*****        IF VIS-PLAN NOT = SPACES                             01341440
139385*****        AND  VIS-PLAN NOT = ('XX' AND 'XD')                  01341440
139386*****           MOVE 'U  ' TO DERIVED-VIS-COVERAGE-IND            01341440
139387*****        ELSE                                                 01341440
139388*****           MOVE '   ' TO DERIVED-VIS-COVERAGE-IND            01341440
139389*****        END-IF                                               01341440
139390*****   WHEN     (DEP-ENROLLED-VIS-WODV =     1)                  01341440
139391*****        MOVE 'UU ' TO DERIVED-VIS-COVERAGE-IND               01341440
139392*****   WHEN     (DEP-ENROLLED-VIS-WODV     > 1)                  01341440
139393*****        MOVE 'UUU' TO DERIVED-VIS-COVERAGE-IND               01341440
139394*****END-EVALUATE.                                                01341440
139395*****                                                             01341440
139396*****IF DERIVED-VIS-COVERAGE-IND NOT = VIS-COVERAGE               01341440
139397*****   MOVE DERIVED-VIS-COVERAGE-IND TO VIS-COVERAGE-WODV        01341440
139398*****   PERFORM 3250-X-VIS-WODV                                   01341440
139399*****ELSE                                                         01341440
139400*****   MOVE SPACES TO VIS-COVERAGE-WODV                          01341440
139401*****END-IF.                                                      01341440
139402*****                                                             01341440
139403****-------------------------------------------------------------*01341440
139404*3250-X-VIS-WODV                     SECTION.                     01341440
139405*****------------------------------------------------------------*01341440
139406*****RK WOD COVERAGE TO INDICATE MISSING COVERAGE. X INDICATES U *01341440
139407*****IF VIS-COVERAGE-WODV (2:1) = SPACE                           01341440
139408*****AND VIS-COVERAGE (2:1) = 'U'                                 01341440
139409*****   MOVE 'X' TO VIS-COVERAGE-WODV (2:1)                       01341440
139410*****END-IF.                                                      01341440
139411*****IF VIS-COVERAGE-WODV (3:1) = SPACE                           01341440
139412*****AND VIS-COVERAGE (3:1) = 'U'                                 01341440
139413*****   MOVE 'X' TO VIS-COVERAGE-WODV (3:1)                       01341440
139414*****END-IF.                                                      01341440
139322                                                                  PPFCBBEN
139323     EJECT                                                        PPFCBBEN
139324*----------------------------------------------------------------*PPFCBBEN
139325 3410-COUNT-DEP-FOR-LEGAL-COV   SECTION.                          PPFCBBEN
139326*----------------------------------------------------------------*PPFCBBEN
139327                                                                  PPFCBBEN
139421*****MOVE ZERO TO EDEP-DEP-ENROLLED-LEGAL.                        01341440
139422*****PERFORM WITH TEST BEFORE                                     01341440
139423*****VARYING ENTRY-X  FROM +1 BY +1                               01341440
139424*****UNTIL ENTRY-X  > EDEP-NUM-ENTRIES                            01341440
139425*****                                                             01341440
139426*****    IF (EDEP-DEP-LEGAL-COVEFFDT (ENTRY-X)                    01341440
139427*****                            NOT = XDC3-LOW-ISO-DATE          01341440
139428*****    AND                                                      01341440
139429*****        EDEP-DEP-LEGAL-COVEFFDT (ENTRY-X)                    01341440
139430*****                             <= ISO-COV-FIRST-OF-MONTH-DATE  01341440
139431*****    AND                                                      01341440
139432*****        EDEP-DEP-LEGAL-COVENDDT (ENTRY-X)                    01341440
139433*****                                  = XDC3-LOW-ISO-DATE)       01341440
139434*****          ADD 1 TO EDEP-DEP-ENROLLED-LEGAL                   01341440
139435*****    ELSE                                                     01341440
139436*****       IF EDEP-DEP-LEGAL-COVENDDT (ENTRY-X)                  01341440
139437*****                              NOT = XDC3-LOW-ISO-DATE        01341440
139438*****           IF EDEP-DEP-LEGAL-COVENDDT (ENTRY-X)              01341440
139439*****                             >= ISO-COV-FIRST-OF-MONTH-DATE  01341440
139440*****              ADD 1 TO EDEP-DEP-ENROLLED-LEGAL               01341440
139441*****           ELSE                                              01341440
139442*****              CONTINUE                                       01341440
139443*****           END-IF                                            01341440
139444*****       END-IF                                                01341440
139445*****    END-IF                                                   01341440
139446*****                                                             01341440
139447*****END-PERFORM.                                                 01341440
139448                                                                  01341440
139449     INITIALIZE PPCOVRGE-INTERFACE.                               01341440
139450     MOVE 'J' TO WS-TYPE-BENEFIT.                                 01341440
139451                                                                  01341440
139452     IF LEGAL-PLAN = SPACES                                       01341440
139453       OR  LEGAL-PLAN = ('XC' OR 'XD')                            01341440
139454        MOVE SPACES TO LEGAL-COVERAGE                             01341440
139455     ELSE                                                         01341440
139456        PERFORM 5500-CALL-COVERAGE-UTILITY                        01341440
139457     END-IF.                                                      01341440
139458                                                                  01341440
139459     IF KCOV-NORMAL                                               01341440
139460        MOVE KCOV-COV-CODE TO LEGAL-COVERAGE                      01341440
139461     END-IF.                                                      01341440
139462                                                                  01341440
139463*****EJECT                                                        01341440
139464*****------------------------------------------------------------*01341440
139465*3420-DERIVE-LEGAL-COV      SECTION.                              01341440
139466*****------------------------------------------------------------*01341440
139467*****                                                             01341440
139468*****MOVE SPACES       TO  DERIVED-LEGAL-COVERAGE-IND.            01341440
139469*****                                                             01341440
139470*****EVALUATE     TRUE                                            01341440
139471*****                                                             01341440
139472*****   WHEN     (EDEP-DEP-ENROLLED-LEGAL = ZERO)                 01341440
139473*****        IF LEGAL-PLAN NOT = SPACES                           01341440
139474*****        AND  LEGAL-PLAN NOT = ('XC' AND 'XD')                01341440
139475*****           MOVE 'U  ' TO DERIVED-LEGAL-COVERAGE-IND          01341440
139476*****        ELSE                                                 01341440
139477*****           MOVE '   ' TO DERIVED-LEGAL-COVERAGE-IND          01341440
139478*****        END-IF                                               01341440
139479*****                                                             01341440
139480*****   WHEN     (EDEP-DEP-ENROLLED-LEGAL  > ZERO)                01341440
139481*****        MOVE 'UUU' TO DERIVED-LEGAL-COVERAGE-IND             01341440
139482*****                                                             01341440
139483*****END-EVALUATE.                                                01341440
139484*****MOVE DERIVED-LEGAL-COVERAGE-IND TO LEGAL-COVERAGE.           01341440
139383                                                                  PPFCBBEN
139384     EJECT                                                        PPFCBBEN
139385*----------------------------------------------------------------*PPFCBBEN
139386 4000-DETERMINE-PAST-PLAN     SECTION.                            PPFCBBEN
139387*----------------------------------------------------------------*PPFCBBEN
139400                                                                  PPFCBBEN
139403     IF HLTH-COVEFFDATE > ISO-COV-FIRST-OF-MONTH-DATE             PPFCBBEN
139404        MOVE 'M'  TO  BENEFIT-TYPE                                PPFCBBEN
139405        MOVE HLTH-COVEFFDATE TO HOLD-CURRENT-PCED                 PPFCBBEN
139406        PERFORM 4100-FIND-PAST-BEN-REC-ENDED                      PPFCBBEN
139407        IF WS-PAST-BEN-REC-FOUND                                  PPFCBBEN
139408        AND SAVE-PLAN-CODE NOT = SPACES                           PPFCBBEN
139409            MOVE SAVE-PLAN-CODE TO HLTH-PLAN                      PPFCBBEN
139410            MOVE SAVE-PLAN-COVERAGE    TO HLTH-COVERCODE          PPFCBBEN
139411            MOVE SAVE-PLAN-PCED TO HLTH-COVEFFDATE                PPFCBBEN
139412            MOVE SAVE-PLAN-COVEND-DATE TO HEALTH-COVEND-DATE      PPFCBBEN
139413        END-IF                                                    PPFCBBEN
139414     END-IF.                                                      PPFCBBEN
139415                                                                  PPFCBBEN
139416     IF DENTAL-COVEFFDATE > ISO-COV-FIRST-OF-MONTH-DATE           PPFCBBEN
139417        MOVE 'D'  TO  BENEFIT-TYPE                                PPFCBBEN
139418        MOVE DENTAL-COVEFFDATE TO HOLD-CURRENT-PCED               PPFCBBEN
139419        PERFORM 4100-FIND-PAST-BEN-REC-ENDED                      PPFCBBEN
139420        IF WS-PAST-BEN-REC-FOUND                                  PPFCBBEN
139421        AND SAVE-PLAN-CODE NOT = SPACES                           PPFCBBEN
139422            MOVE SAVE-PLAN-CODE TO DENTAL-PLAN                    PPFCBBEN
139423            MOVE SAVE-PLAN-COVERAGE  TO DENTAL-COVERAGE           PPFCBBEN
139424            MOVE SAVE-PLAN-PCED TO DENTAL-COVEFFDATE              PPFCBBEN
139425            MOVE SAVE-PLAN-COVEND-DATE TO DENTAL-COVEND-DATE      PPFCBBEN
139426        END-IF                                                    PPFCBBEN
139427     END-IF.                                                      PPFCBBEN
139428                                                                  PPFCBBEN
139429     IF VIS-COVEFFDATE > ISO-COV-FIRST-OF-MONTH-DATE              PPFCBBEN
139430        MOVE 'V' TO  BENEFIT-TYPE                                 PPFCBBEN
139431        MOVE VIS-COVEFFDATE TO HOLD-CURRENT-PCED                  PPFCBBEN
139432        PERFORM 4100-FIND-PAST-BEN-REC-ENDED                      PPFCBBEN
139433        IF WS-PAST-BEN-REC-FOUND                                  PPFCBBEN
139434        AND SAVE-PLAN-CODE NOT = SPACES                           PPFCBBEN
139435            MOVE SAVE-PLAN-CODE TO VIS-PLAN                       PPFCBBEN
139436            MOVE SAVE-PLAN-COVERAGE  TO VIS-COVERAGE              PPFCBBEN
139437            MOVE SAVE-PLAN-PCED TO VIS-COVEFFDATE                 PPFCBBEN
139438            MOVE SAVE-PLAN-COVEND-DATE TO VISION-COVEND-DATE      PPFCBBEN
139439        END-IF                                                    PPFCBBEN
139440     END-IF.                                                      PPFCBBEN
139441                                                                  PPFCBBEN
139442     IF LEGAL-COVEFFDATE > ISO-COV-FIRST-OF-MONTH-DATE            PPFCBBEN
139443        MOVE 'J' TO  BENEFIT-TYPE                                 PPFCBBEN
139444        MOVE LEGAL-COVEFFDATE TO HOLD-CURRENT-PCED                PPFCBBEN
139445        PERFORM 4100-FIND-PAST-BEN-REC-ENDED                      PPFCBBEN
139446        IF WS-PAST-BEN-REC-FOUND                                  PPFCBBEN
139447        AND SAVE-PLAN-CODE NOT = SPACES                           PPFCBBEN
139448            MOVE SAVE-PLAN-CODE TO LEGAL-PLAN                     PPFCBBEN
139449            MOVE SAVE-PLAN-COVERAGE  TO LEGAL-COVERAGE            PPFCBBEN
139450            MOVE SAVE-PLAN-PCED TO LEGAL-COVEFFDATE               PPFCBBEN
139451            MOVE SAVE-PLAN-COVEND-DATE TO LEGAL-COVEND-DATE       PPFCBBEN
139452        END-IF                                                    PPFCBBEN
139453     END-IF.                                                      PPFCBBEN
139454                                                                  PPFCBBEN
139455     EJECT                                                        PPFCBBEN
139456*----------------------------------------------------------------*PPFCBBEN
139457 4100-FIND-PAST-BEN-REC-ENDED    SECTION.                         PPFCBBEN
139458*----------------------------------------------------------------*PPFCBBEN
139459                                                                  PPFCBBEN
139466     SET WS-PAST-BEN-REC-NOT-FOUND TO TRUE                        PPFCBBEN
139467     MOVE LOW-VALUES TO LATEST-COV-END-DATE-ISO.                  PPFCBBEN
139468                                                                  PPFCBBEN
139469     MOVE SPACES TO SAVE-PLAN-CODE                                PPFCBBEN
139470                    SAVE-PLAN-PCED                                PPFCBBEN
139471                    SAVE-PLAN-COVEND-DATE                         PPFCBBEN
139472                    SAVE-PLAN-COVERAGE.                           PPFCBBEN
139473                                                                  PPFCBBEN
139474     PERFORM                                                      PPFCBBEN
139475      VARYING ENTRY-X     FROM +1 BY +1                           PPFCBBEN
139476        UNTIL ENTRY-X  > PPFCBUTL-ROW-COUNT                       PPFCBBEN
139477                                                                  PPFCBBEN
139478        IF  EFCB-FCB-BENEFIT-TYPE (ENTRY-X) = BENEFIT-TYPE        PPFCBBEN
139479                                                                  PPFCBBEN
139480        AND EFCB-FCB-PLAN-INFO-DATA (ENTRY-X) (1:2)               PPFCBBEN
139481                                 NOT = ('XX' AND 'XC' AND 'XD')   PPFCBBEN
139482        AND EFCB-FCB-COVERAGE-CODE (ENTRY-X)                      PPFCBBEN
139483                                 NOT = SPACES                     PPFCBBEN
139484        AND EFCB-FCB-COV-END-DATE  (ENTRY-X)                      PPFCBBEN
139485                                 NOT = XDC3-LOW-ISO-DATE          PPFCBBEN
139486        AND EFCB-FCB-COVEFF-DATE   (ENTRY-X)                      PPFCBBEN
139487                                <= ISO-COV-FIRST-OF-MONTH-DATE    PPFCBBEN
139488        AND EFCB-FCB-COV-END-DATE  (ENTRY-X)                      PPFCBBEN
139489                                 >= ISO-COV-FIRST-OF-MONTH-DATE   PPFCBBEN
139490        AND EFCB-FCB-COV-END-DATE  (ENTRY-X)                      PPFCBBEN
139491                                 <  HOLD-CURRENT-PCED             PPFCBBEN
139492            IF  EFCB-FCB-COV-END-DATE (ENTRY-X)                   PPFCBBEN
139493                                     > LATEST-COV-END-DATE-ISO    PPFCBBEN
139494                MOVE EFCB-FCB-COV-END-DATE (ENTRY-X)              PPFCBBEN
139495                               TO  LATEST-COV-END-DATE-ISO        PPFCBBEN
139496                MOVE EFCB-FCB-PLAN-INFO-DATA (ENTRY-X) (1:2)      PPFCBBEN
139497                                          TO SAVE-PLAN-CODE       PPFCBBEN
139498                MOVE EFCB-FCB-COVEFF-DATE  (ENTRY-X)              PPFCBBEN
139499                                          TO SAVE-PLAN-PCED       PPFCBBEN
139500                MOVE EFCB-FCB-COV-END-DATE (ENTRY-X)              PPFCBBEN
139501                                          TO SAVE-PLAN-COVEND-DATEPPFCBBEN
139502                MOVE EFCB-FCB-COVERAGE-CODE (ENTRY-X)             PPFCBBEN
139503                                          TO SAVE-PLAN-COVERAGE   PPFCBBEN
139504                SET WS-PAST-BEN-REC-FOUND TO TRUE                 PPFCBBEN
139506            END-IF                                                PPFCBBEN
139507        END-IF                                                    PPFCBBEN
139508     END-PERFORM.                                                 PPFCBBEN
139509                                                                  PPFCBBEN
139591     EJECT                                                        01341440
139592*----------------------------------------------------------------*01341440
139593 5500-CALL-COVERAGE-UTILITY      SECTION.                         01341440
139594*----------------------------------------------------------------*01341440
139595                                                                  01341440
139596******************************************************************01341440
139597** CALL COVERAGE CODE DERIVATION UTILITY PPCOVRGE.              **01341440
139598******************************************************************01341440
139599                                                                  01341440
139600     SET COMPUTE-PROCESS TO TRUE.                                 01341440
139601     MOVE WS-TYPE-BENEFIT        TO KCOV-BENEFIT-TYPE.            01341440
139602     MOVE ISO-COV-FIRST-OF-MONTH-DATE  TO KCOV-EFFECTIVE-DATE-1.  01341440
139603     MOVE '0001-01-01'           TO KCOV-EFFECTIVE-DATE-2.        01341440
139604                                                                  01341440
139605     CALL WS-PPCOVRGE USING PPCOVRGE-INTERFACE                    01341440
139610                                     DEP-DATA-ARRAY.              01341440
139510                                                                  PPFCBBEN
139511     EJECT                                                        PPFCBBEN
139512                                                                  PPFCBBEN
139513*----------------------------------------------------------------*PPFCBBEN
139514 DATE-CONVERSION           SECTION.                               PPFCBBEN
139515*----------------------------------------------------------------*PPFCBBEN
139516                                                                  PPFCBBEN
139517***********************************************************       PPFCBBEN
139518*               XDC3 DATE ROUTINES                        *       PPFCBBEN
139519***********************************************************       PPFCBBEN
139520*                                          *------------*         PPFCBBEN
139521                                            COPY CPPDXDC3.        PPFCBBEN
139530*                                          *------------*         PPFCBBEN
139600                                                                  PPFCBBEN
143100*************** END OF PPFCBBEN ***************************       PPFCBBEN
