000100**************************************************************/   36091133
000101*  PROGRAM: PPFNWFET                                         */   36091133
000102*  RELEASE: ___1133______ SERVICE REQUEST(S): ____3609_____  */   36091133
000103*  NAME:___G STEINITZ____ MODIFICATION DATE:  ___05/22/97__  */   36091133
000104*  DESCRIPTION:                                              */   36091133
000105*  REMOVE OFFSET LOGIC AND SIMPLIFY RETURN ARRAY LOGIC.      */   36091133
000106**************************************************************/   36091133
000101**************************************************************/   36430795
000200*  PROGRAM: PPFNWFET                                         */   36430795
000300*  RELEASE: ___0795______ SERVICE REQUEST(S): _____3643____  */   36430795
000400*  NAME:_______PXP_______ MODIFICATION DATE:  __07/15/93____ */   36430795
000500*  DESCRIPTION:                                              */   36430795
000600*  RETURN UNCHANGED DATA ON A FETCH CHANGED REQUEST          */   36430795
000700*  ON-LINE TO SUPPORT PPWECON.                               */   36430795
000800**************************************************************/   36430795
000802**************************************************************/   36290694
000803*  PROGRAM:  PPFNWFET                                        */   36290694
000804*  RELEASE # ____0694____ SERVICE REQUEST NO(S)___3629_______*/   36290694
000805*  NAME ______PXP______   MODIFICATION DATE ____08/07/92_____*/   36290694
000806*  DESCRIPTION                                               */   36290694
000807*    CORRECT BUGS IN FETCH NON INITIAL FUNCTION              */   36290694
000808*    PER ERROR REPORT 820                                    */   36290694
000809**************************************************************/   36290694
000900**************************************************************/   36060628
001000*  PROGRAM:  PPFNWFET                                        */   36060628
001100*  RELEASE # ____0628____ SERVICE REQUEST NO(S)___3606_______*/   36060628
001200*  NAME ______PXP______   MODIFICATION DATE ____01/10/92_____*/   36060628
001300*  DESCRIPTION                                               */   36060628
001400*    EDB FNW TABLE  FETCH DRIVER MODULE.                     */   36060628
001500**************************************************************/   36060628
001600 IDENTIFICATION DIVISION.                                         PPFNWFET
001700 PROGRAM-ID. PPFNWFET.                                            PPFNWFET
001800 AUTHOR. UCOP.                                                    PPFNWFET
001900 DATE-WRITTEN. JUNE 1991.                                         PPFNWFET
002000 DATE-COMPILED.                                                   PPFNWFET
002100*REMARKS.                                                         PPFNWFET
002200******************************************************************PPFNWFET
002300*                                                                *PPFNWFET
002400*  THIS PROGRAM DRIVES THE RETRIEVAL OF EMPLOYEE DATA BASE       *PPFNWFET
002500* DATA ELEMENTS, BY DATA ELEMENT NUMBER, FROM WORK-STUDY-ARRAY   *PPFNWFET
002600* THIS PROGRAM IS CALLED BY PPEDBFET.                            *PPFNWFET
002700*                                                                *PPFNWFET
002800*  THE DETAILS OF THIS PROGRAMS FUNCTION ARE DESCRIBED IN THE    *PPFNWFET
002900* PROCEDURE DIVISION COPYMEMBER CPPDEFET.                        *PPFNWFET
003000*                                                                *PPFNWFET
003100******************************************************************PPFNWFET
003200     EJECT                                                        PPFNWFET
003300 ENVIRONMENT DIVISION.                                            PPFNWFET
003400 CONFIGURATION SECTION.                                           PPFNWFET
003500 SOURCE-COMPUTER.                   COPY CPOTXUCS.                PPFNWFET
003600 OBJECT-COMPUTER.                   COPY CPOTXOBJ.                PPFNWFET
003700      EJECT                                                       PPFNWFET
003800******************************************************************PPFNWFET
003900*                                                                *PPFNWFET
004000*                D A T A  D I V I S I O N                        *PPFNWFET
004100*                                                                *PPFNWFET
004200******************************************************************PPFNWFET
004300 DATA DIVISION.                                                   PPFNWFET
004400 WORKING-STORAGE SECTION.                                         PPFNWFET
004500 01  MISCELLANEOUS-WS.                                            PPFNWFET
004600******************************************************************PPFNWFET
004700*                                                                *PPFNWFET
004800* NOTE:                                                          *PPFNWFET
004900*                                                                *PPFNWFET
005000*   DATA NAMES A-STND-PROG-ID AND PPXXXUTL-NAME                  *PPFNWFET
005100*  ARE REFERENCED IN COPY CODE CPPDEFET. A-STND-PROG-ID IS USED  *PPFNWFET
005200*  IN DIAGNOSTIC REFERENCES, WHILE PPXXUTL-NAME                  *PPFNWFET
005300*  IS USED IN DYNAMIC CALLS TO THE APPROPRIATE TABLE READ        *PPFNWFET
005400*  UTILITY.                                                      *PPFNWFET
005500*                                                                *PPFNWFET
005600******************************************************************PPFNWFET
005700     05  A-STND-PROG-ID      PIC X(08) VALUE 'PPFNWFET'.          PPFNWFET
005800     05  PPXXXUTL-NAME       PIC X(08) VALUE 'PPFNWUTL'.          PPFNWFET
005900     05  WS-INIT-DATE        PIC X(10) VALUE '01/01/0001'.        PPFNWFET
006000     05  WS-ISO-INIT-DATE    PIC X(10) VALUE '0001-01-01'.        PPFNWFET
006100     05  FISCAL-MATCH-SWITCH PIC X(01) VALUE 'Y'.                 PPFNWFET
006200         88  FISCAL-MATCH              VALUE 'Y'.                 PPFNWFET
006300         88  NOT-FISCAL-MATCH          VALUE 'N'.                 PPFNWFET
006400     05  FIRST-TIME-SWITCH   PIC X(01) VALUE 'Y'.                 PPFNWFET
006500         88  FIRST-TIME                VALUE 'Y'.                 PPFNWFET
006600         88  NOT-FIRST-TIME            VALUE 'N'.                 PPFNWFET
006700     05  INIT-VALUE-SWITCH   PIC X(01) VALUE 'Y'.                 PPFNWFET
006800         88  INIT-VALUE                VALUE 'Y'.                 PPFNWFET
006900         88  NON-INIT-VALUE            VALUE 'N'.                 PPFNWFET
007000     05  MULTIPLE-OCCUR-SW   PIC X(01) VALUE 'N'.                 PPFNWFET
007100         88  MULTIPLE-OCCURRENCE       VALUE 'Y'.                 PPFNWFET
007200         88  SINGLE-OCCURRENCE         VALUE 'N'.                 PPFNWFET
007300     05  MULT-FISCAL-YR-SW   PIC X(01) VALUE 'N'.                 PPFNWFET
007400         88  MULT-FISCAL-YR            VALUE 'Y'.                 PPFNWFET
007500         88  SNGL-FISCAL-YR            VALUE 'N'.                 PPFNWFET
007600     05  MULT-WORK-STUDY-PGM-SW PIC X(01) VALUE 'N'.              PPFNWFET
007700         88  MULT-WORK-STUDY-PGM       VALUE 'Y'.                 PPFNWFET
007800         88  SNGL-WORK-STUDY-PGM       VALUE 'N'.                 PPFNWFET
007900     05  MULT-DEPT-CODE-SW   PIC X(01) VALUE 'N'.                 PPFNWFET
008000         88  MULT-DEPT-CODE            VALUE 'Y'.                 PPFNWFET
008100         88  SNGL-DEPT-CODE            VALUE 'N'.                 PPFNWFET
008200     05  DATE-VALUE-SWITCH   PIC X(01) VALUE 'N'.                 PPFNWFET
008300         88  NO-DATE-VALUE             VALUE 'N'.                 PPFNWFET
008400         88  ISO-DATE-VALUE            VALUE 'I'.                 PPFNWFET
008500         88  USA-DATE-VALUE            VALUE 'U'.                 PPFNWFET
008600         88  DATE-VALUE                VALUES 'I' 'U'.            PPFNWFET
008700     05  DATA-RETURN-SW      PIC X(01) VALUE 'N'.                 PPFNWFET
008800         88  DATA-RETURN               VALUE 'Y'.                 PPFNWFET
008900         88  BYPASS-RETURN             VALUE 'N'.                 PPFNWFET
008700**** 05  LOCAL-OFFSET-RETURN-SW PIC X(01) VALUE 'N'.              36091133
008800****     88  LOCAL-OFFSET-RETURNED     VALUE 'Y'.                 36091133
008900****     88  NO-LOCAL-OFFSET-RETURNED  VALUE 'N'.                 36091133
009300     05  MULT-DATA-RETURN-SW PIC X(01) VALUE 'N'.                 PPFNWFET
009400         88  MULT-DATA-RETURNED        VALUE 'Y'.                 PPFNWFET
009500         88  MULT-DATA-NOT-RETURNED    VALUE 'N'.                 PPFNWFET
009600     05  DATE-HOLD-SWITCH    PIC X(01) VALUE 'N'.                 PPFNWFET
009700     05  WS-DATA-TYPE        PIC X(01) VALUE 'A'.                 PPFNWFET
009800         88  WS-DATA-TYPE-AN           VALUE 'A'.                 PPFNWFET
009900         88  WS-DATA-TYPE-NUM          VALUE 'N'.                 PPFNWFET
010000         88  WS-DATA-TYPE-DATE         VALUE 'D'.                 PPFNWFET
010100     05  WS-EMPLOYEE-ID      PIC X(09) VALUE SPACES.              PPFNWFET
010200     05  WS-DATA-ELEM-NO     PIC 9(04) VALUE ZEROES.              PPFNWFET
010300     05  WS-OCCURRENCE-KEY.                                       PPFNWFET
010400         15  WS-EFWR-FISCAL-YEAR    PIC  X(04).                   PPFNWFET
010500         15  WS-EFWR-FISCAL-YEAR-9 REDEFINES                      PPFNWFET
010600             WS-EFWR-FISCAL-YEAR    PIC  9(04).                   PPFNWFET
010700         15  WS-EFWR-WORK-STUDY-PGM PIC  X(01).                   PPFNWFET
010800         15  WS-EFWR-DEPT-CODE      PIC  X(06).                   PPFNWFET
010900     05  WS-IX1              PIC S9(4) COMP VALUE ZERO.           PPFNWFET
011000     05  WS-IX2              PIC S9(4) COMP VALUE ZERO.           PPFNWFET
011100     05  WS-IX3              PIC S9(4) COMP VALUE ZERO.           PPFNWFET
011200     05  WS-IX4              PIC S9(4) COMP VALUE ZERO.           PPFNWFET
011300     05  WS-IX5              PIC S9(4) COMP VALUE ZERO.           PPFNWFET
011400     05  WS-IX9              PIC S9(4) COMP VALUE ZERO.           PPFNWFET
011200**** 05  WS-IX10             PIC S9(4) COMP VALUE ZERO.           36091133
011600     05  WS-ARRAY-IX         PIC S9(4) COMP VALUE ZERO.           PPFNWFET
011700     05  WS-ARRAY-MAX        PIC S9(4) COMP VALUE ZERO.           PPFNWFET
011800     05  WS-ARRAY-HOLD-MAX   PIC S9(4) COMP VALUE ZERO.           PPFNWFET
011600**** 05  LOCAL-OFFSET        PIC S9(4) COMP VALUE ZERO.           36091133
012000     SKIP3                                                        PPFNWFET
012100 01  DATE-CONVERSION-WORK-AREAS.                                  PPFNWFET
012200                                    COPY CPWSXDC2.                PPFNWFET
012300     EJECT                                                        PPFNWFET
012400 01  TEMP-DATA-AREA.                                              PPFNWFET
012500                                    COPY CPWSXMMM.                PPFNWFET
012600     EJECT                                                        PPFNWFET
012700******************************************************************PPFNWFET
012800*                                                                *PPFNWFET
012900* WORK-STUDY-ARRAY IS THE ROW THAT WILL BE PASSED AROUND FOR USE *PPFNWFET
013000* BY HIGHER LEVEL PROGRAMS. IT IS DEFINED AS AN EXTERNAL DATA    *PPFNWFET
013100* AREA TO ALLOW HIGHER LEVEL PROGRAMS TO AVOID PASSING THE ROW   *PPFNWFET
013200* THROUGH UNNECESSARY CALLING CHAINS.                            *PPFNWFET
013300*                                                                *PPFNWFET
013400* WORK-STUDY-ARRAY-HOLD IS THE PURE ROW AS READ FROM THE FNW TBL *PPFNWFET
013500* ROW IS HELD IN WORKING-STORAGE TO ALLOW THE REFRESH FUNCTION   *PPFNWFET
013600* TO BE PERFORMED WITHOUT AN ADDED DATA BASE ACCESS.             *PPFNWFET
013700*                                                                *PPFNWFET
013800* WORK-STUDY-ARRAY-HOLD1 IS THE ROW AS SET ASIDE, AFTER SOME UPD *PPFNWFET
013900* ACTIVITY, BY THE EDB UPDATE COMPLEX, TO ALLOW THE GENERATION   *PPFNWFET
014000* OF THE "FIRST" CHANGE ENTRY IN CHANGE RECORDS.                 *PPFNWFET
014100*                                                                *PPFNWFET
014200******************************************************************PPFNWFET
014300 01  WORK-STUDY-ARRAY EXTERNAL.                                   PPFNWFET
014400                                 COPY CPWSEFWR.                   PPFNWFET
014500     EJECT                                                        PPFNWFET
014600 01  WORK-STUDY-ARRAY-HOLD EXTERNAL.                              PPFNWFET
014700                                 COPY CPWSEFWR.                   PPFNWFET
014800     EJECT                                                        PPFNWFET
014900 01  WORK-STUDY-ARRAY-HOLD1 EXTERNAL.                             PPFNWFET
015000                                 COPY CPWSEFWR.                   PPFNWFET
015100     EJECT                                                        PPFNWFET
015200 01  PPEDBFET-REQUEST-ARRAY     EXTERNAL.                         PPFNWFET
015300                                    COPY CPWSEREQ.                PPFNWFET
015400     EJECT                                                        PPFNWFET
015500 01  PPEDBFET-D-E-RETURN-ARRAY  EXTERNAL.                         PPFNWFET
015600                                    COPY CPWSERET.                PPFNWFET
015700     EJECT                                                        PPFNWFET
015800 01  PPEDBFET-CHANGE-RETURN-ARRAY EXTERNAL.                       PPFNWFET
015900                                    COPY CPWSECHG.                PPFNWFET
016000     EJECT                                                        PPFNWFET
016100 01  PPEDBFET-RETURN-POINTERS     EXTERNAL.                       PPFNWFET
016200                                    COPY CPWSEPTR.                PPFNWFET
016300     EJECT                                                        PPFNWFET
016400 01  PPFNWUTL-INTERFACE.                                          PPFNWFET
016500                                    COPY CPLNKFNW.                PPFNWFET
016600     EJECT                                                        PPFNWFET
016700 01  XWHC-COMPILE-WORK-AREA.                                      PPFNWFET
016800                                    COPY CPWSXWHC.                PPFNWFET
016900     EJECT                                                        PPFNWFET
017000 01  PPXXXFET-INTERFACE  EXTERNAL.                                PPFNWFET
017100                                    COPY CPLNFXXX.                PPFNWFET
017200     EJECT                                                        PPFNWFET
017300 01  PAYROLL-CONSTANTS.                                           PPFNWFET
017400                                 COPY CPWSXIC2.                   PPFNWFET
018300 01  ONLINE-SIGNALS                      EXTERNAL. COPY CPWSONLI. 36430795
018302     EJECT                                                        PPFNWFET
018303 PROCEDURE DIVISION.                                              PPFNWFET
018304*                                                                 PPFNWFET
018305******************************************************************PPFNWFET
018306*            P R O C E D U R E  D I V I S I O N                  *PPFNWFET
018307******************************************************************PPFNWFET
018308*                                                                 PPFNWFET
018309******************************************************************PPFNWFET
018310*                                                                *PPFNWFET
018400*  THE PROCEDURE DIVISION OF THIS PROGRAM IS CONTAINED PRIMARILY *PPFNWFET
018500* IN COPY MEMBER CPPDEFET. HERE THE GENERIC DATA-NAMES IN        *PPFNWFET
018600* CPPDEFET ARE REPLACED WITH THE SPECIFIC DATA-NAMES OF THE      *PPFNWFET
018700* WORKING STORAGE TABLE ROWS AND THE PPXXXUTL MODULE INTERFACE.  *PPFNWFET
018800*                                                                *PPFNWFET
018900*                                                                *PPFNWFET
019000******************************************************************PPFNWFET
019100                                     COPY CPPDEFET                PPFNWFET
019200        REPLACING PP000UTL-INTERFACE   BY PPFNWUTL-INTERFACE      PPFNWFET
019300                  PP000UTL-ERROR       BY PPFNWUTL-ERROR          PPFNWFET
019400                  PP000UTL-EMPLOYEE-ID BY PPFNWUTL-EMPLOYEE-ID    PPFNWFET
019500                  000-ROW              BY WORK-STUDY-ARRAY.       PPFNWFET
019600     EJECT                                                        PPFNWFET
019700 7900-FIRST-TIME SECTION.                                         PPFNWFET
019800     SKIP1                                                        PPFNWFET
019900     MOVE A-STND-PROG-ID TO XWHC-DISPLAY-MODULE.                  PPFNWFET
020000     IF PPXXXFET-NON-INITIAL-REQUEST                              36290694
020100          INITIALIZE WORK-STUDY-ARRAY-HOLD1                       36290694
020200          INITIALIZE WORK-STUDY-ARRAY-HOLD                        36290694
020300     END-IF.                                                      36290694
020400     SKIP1                                                        PPFNWFET
020500                                    COPY CPPDXWHC.                PPFNWFET
020600     EJECT                                                        PPFNWFET
020700 8800-CONVERT-DATES SECTION.                                      PPFNWFET
020800     SKIP3                                                        PPFNWFET
020900                                    COPY CPPDXDC2.                PPFNWFET
021000     EJECT                                                        PPFNWFET
021100 9000-RESTORE-INDEXES SECTION.                                    PPFNWFET
021200     SKIP1                                                        PPFNWFET
021300*****MOVE PPXXXFET-SAVE3 TO WS-ARRAY-IX.                          36290694
021400*****MOVE PPXXXFET-SAVE4 TO WS-ARRAY-MAX.                         36290694
021500*****MOVE PPXXXFET-SAVE5 TO WS-ARRAY-HOLD-MAX.                    36290694
021600     INITIALIZE WS-IX4.                                           PPFNWFET
021700     EJECT                                                        PPFNWFET
021800 9050-SAVE-INDEXES SECTION.                                       PPFNWFET
021900     SKIP1                                                        PPFNWFET
022000     COMPUTE WS-ARRAY-IX = WS-IX5.                                PPFNWFET
022100     MOVE WS-ARRAY-IX TO PPXXXFET-SAVE3.                          PPFNWFET
022200*****MOVE WS-ARRAY-MAX TO PPXXXFET-SAVE4.                         36290694
022300*****MOVE WS-ARRAY-HOLD-MAX TO PPXXXFET-SAVE5.                    36290694
022400     EJECT                                                        PPFNWFET
022500 9100-EVALUATE-DATA-ELEMENT SECTION.                              PPFNWFET
022400**** MOVE ZERO TO LOCAL-OFFSET.                                   36091133
022700     IF PPXXXFET-NON-INITIAL-REQUEST                              PPFNWFET
022800         PERFORM 9500-SET-UP-EVAL-DATA-ELEM                       PPFNWFET
022900*****    COMPUTE WS-ARRAY-IX = WS-ARRAY-IX + 1                    36290694
023000         IF WS-ARRAY-IX NOT > ZERO                                36290694
023100             MOVE 1 TO WS-ARRAY-IX                                36290694
023200         END-IF                                                   36290694
023300******************************************************************PPFNWFET
023400*    THIS PERFORM WILL RETURN DATA ELEMENTS SORTED               *PPFNWFET
023500*    BY OCCURENCE KEY FOLLOWED BY DATA ELEMENT NUMBER.           *PPFNWFET
023600*    E.G. FOR "NON INITIAL" REQUEST ALL DATA ELEMENTS FOR AN     *PPFNWFET
023700*    ARRAY ITEMS ARE RETURNED AS THEY ARE LOCATED WITHIN         *PPFNWFET
023800*    ONE ARRAY ITEM.                                             *PPFNWFET
023900*                                                                *PPFNWFET
024000*    NOTE THAT CODE IN SECTION 9400 TAKES OVER THE FUNCTION      *PPFNWFET
024100*    OF THE PERFORM OF SECTION 9100- FOUND IN CPPDEFET.          *PPFNWFET
024200******************************************************************PPFNWFET
024300         PERFORM VARYING WS-IX5 FROM WS-ARRAY-IX BY 1             PPFNWFET
024400             UNTIL (WS-IX5 > WS-ARRAY-MAX)                        PPFNWFET
024500               OR PPXXXFET-MORE-DATA                              PPFNWFET
024600             PERFORM 9400-EVALUATE-DATA-ELEMENT                   PPFNWFET
024700             IF NOT PPXXXFET-MORE-DATA                            PPFNWFET
024800                 MOVE PPEDBFET-MAX-PTR (WS-IX1) TO WS-IX2         PPFNWFET
024900             END-IF                                               PPFNWFET
025000         END-PERFORM                                              PPFNWFET
024900****     COMPUTE PPXXXFET-OFFSET =                                36091133
025000****             PPXXXFET-OFFSET + LOCAL-OFFSET                   36091133
025300     ELSE                                                         PPFNWFET
025400         PERFORM 9500-SET-UP-EVAL-DATA-ELEM                       PPFNWFET
025500         PERFORM 9200-EVALUATE-DATA-ELEMENT.                      PPFNWFET
025600     EJECT                                                        PPFNWFET
025700 9200-EVALUATE-DATA-ELEMENT SECTION.                              PPFNWFET
025800******************************************************************PPFNWFET
025900*    THIS SECTION WILL RETURN DATA ELEMENTS SORTED               *PPFNWFET
026000*    BY DATA ELEMENT NUMBER FOLLOWED BY OCCURENCE KEY.           *PPFNWFET
026100*    E.G. IN THE CASE OF A GENERIC REQUEST (THAT IS WHEN         *PPFNWFET
026200*    88 MULTIPLE-OCCURRENCE IS TRUE), ALL ARRAY ITEMS            *PPFNWFET
026300*    FOR THE DATA ELEMENT ARE RETURNED TOGETHER.                 *PPFNWFET
026400******************************************************************PPFNWFET
026500     SKIP1                                                        PPFNWFET
026600     IF MULT-FISCAL-YR OR MULT-WORK-STUDY-PGM OR MULT-DEPT-CODE   PPFNWFET
026700         SET MULTIPLE-OCCURRENCE TO TRUE                          PPFNWFET
026800     END-IF.                                                      PPFNWFET
026900     SKIP1                                                        PPFNWFET
027000                                                                  PPFNWFET
027100     COMPUTE WS-ARRAY-IX = WS-ARRAY-IX + 1.                       PPFNWFET
027200******************************************************************PPFNWFET
027300******************************************************************PPFNWFET
027400     PERFORM VARYING WS-IX5 FROM WS-ARRAY-IX BY 1                 PPFNWFET
027500         UNTIL (WS-IX5 > WS-ARRAY-MAX)                            PPFNWFET
027600           OR PPXXXFET-MORE-DATA                                  PPFNWFET
027700                                                                  PPFNWFET
027800*      WORK CAREFULLY WITH WS-EFWR-FISCAL-YEAR; IT MAY            PPFNWFET
027900*      BE NON  NUMERIC                                            PPFNWFET
028000                                                                  PPFNWFET
028100         SET NOT-FISCAL-MATCH TO TRUE                             PPFNWFET
028200         IF MULT-FISCAL-YR                                        PPFNWFET
028300             SET FISCAL-MATCH TO TRUE                             PPFNWFET
028400         ELSE                                                     PPFNWFET
028500                                                                  PPFNWFET
028600*      SINCE THE KEY INFO IN THE ARRAY MAY BE GONE                PPFNWFET
028700*      FROM ITEMS WITHIN THE ORIGINAL GROUP OF RECORDS            PPFNWFET
028800*      (DUE TO DELETION),                                         PPFNWFET
028900*      WE MUST MATCH AGAINST -HOLD FOR ORIGINAL ITEMS             PPFNWFET
029000                                                                  PPFNWFET
029100             IF WS-IX5 NOT > WS-ARRAY-HOLD-MAX                    PPFNWFET
029200                 IF (EFWR-FISCAL-YEAR OF WORK-STUDY-ARRAY-HOLD    PPFNWFET
029300                    (WS-IX5)                                      PPFNWFET
029400                     = WS-EFWR-FISCAL-YEAR-9)                     PPFNWFET
029500                     SET FISCAL-MATCH TO TRUE                     PPFNWFET
029600                 END-IF                                           PPFNWFET
029700             ELSE                                                 PPFNWFET
029800                 IF (EFWR-FISCAL-YEAR OF WORK-STUDY-ARRAY         PPFNWFET
029900                    (WS-IX5)                                      PPFNWFET
030000                     = WS-EFWR-FISCAL-YEAR-9)                     PPFNWFET
030100                     SET FISCAL-MATCH TO TRUE                     PPFNWFET
030200                 END-IF                                           PPFNWFET
030300             END-IF                                               PPFNWFET
030400         END-IF                                                   PPFNWFET
030500*                                                                 PPFNWFET
030600*      SINCE THE KEY INFO IN THE ARRAY MAY BE GONE                PPFNWFET
030700*      FROM ITEMS WITHIN THE ORIGINAL GROUP OF RECORDS            PPFNWFET
030800*      (DUE TO DELETION),                                         PPFNWFET
030900*      WE MUST MATCH AGAINST -HOLD FOR ORIGINAL ITEMS             PPFNWFET
031000*                                                                 PPFNWFET
031100         IF WS-IX5 NOT > WS-ARRAY-HOLD-MAX                        PPFNWFET
031200             IF FISCAL-MATCH                                      PPFNWFET
031300             AND ((EFWR-WORK-STUDY-PGM OF WORK-STUDY-ARRAY-HOLD   PPFNWFET
031400             (WS-IX5)                                             PPFNWFET
031500             = WS-EFWR-WORK-STUDY-PGM) OR MULT-WORK-STUDY-PGM)    PPFNWFET
031600             AND ((EFWR-DEPT-CODE  OF WORK-STUDY-ARRAY-HOLD       PPFNWFET
031700             (WS-IX5)                                             PPFNWFET
031800             = WS-EFWR-DEPT-CODE) OR MULT-DEPT-CODE)              PPFNWFET
031900                                                                  PPFNWFET
032000                 PERFORM 9300-EVALUATE-DATA-ELEMENT               PPFNWFET
032100                                                                  PPFNWFET
032200             END-IF                                               PPFNWFET
032300         ELSE                                                     PPFNWFET
032400             IF FISCAL-MATCH                                      PPFNWFET
032500             AND ((EFWR-WORK-STUDY-PGM OF WORK-STUDY-ARRAY        PPFNWFET
032600             (WS-IX5)                                             PPFNWFET
032700             = WS-EFWR-WORK-STUDY-PGM) OR MULT-WORK-STUDY-PGM)    PPFNWFET
032800             AND ((EFWR-DEPT-CODE  OF WORK-STUDY-ARRAY            PPFNWFET
032900             (WS-IX5)                                             PPFNWFET
033000             = WS-EFWR-DEPT-CODE) OR MULT-DEPT-CODE)              PPFNWFET
033100                                                                  PPFNWFET
033200                 PERFORM 9300-EVALUATE-DATA-ELEMENT               PPFNWFET
033300                                                                  PPFNWFET
033400             END-IF                                               PPFNWFET
033500         END-IF                                                   PPFNWFET
033600                                                                  PPFNWFET
033700         IF MULTIPLE-OCCURRENCE AND DATA-RETURN                   PPFNWFET
033800             IF WS-IX4 = PPXXXFET-MAX-RETURN-ENTRIES AND          PPFNWFET
033900                WS-IX5 < WS-ARRAY-MAX                             PPFNWFET
034000                SET PPXXXFET-MORE-DATA TO TRUE                    PPFNWFET
034100                PERFORM 9050-SAVE-INDEXES                         PPFNWFET
034200              ELSE                                                PPFNWFET
034300                PERFORM 0900-SETUP-FOR-RETURN                     PPFNWFET
034200****            ADD 1 TO PPXXXFET-OFFSET                          36091133
034500                SET MULT-DATA-RETURNED TO TRUE                    PPFNWFET
034600             END-IF                                               PPFNWFET
034700         END-IF                                                   PPFNWFET
034800     END-PERFORM.                                                 PPFNWFET
034900******************************************************************PPFNWFET
035000******************************************************************PPFNWFET
035100     SKIP1                                                        PPFNWFET
035200                                                                  PPFNWFET
035100**** IF MULT-DATA-RETURNED                                        36091133
035200****     SUBTRACT 1 FROM PPXXXFET-OFFSET                          36091133
035300**** END-IF.                                                      36091133
035310                                                                  36091133
035600 9300-EVALUATE-DATA-ELEMENT SECTION.                              PPFNWFET
035700     COMPUTE WS-EFWR-FISCAL-YEAR-9 =                              PPFNWFET
035800             EFWR-FISCAL-YEAR OF WORK-STUDY-ARRAY (WS-IX5).       PPFNWFET
035900     MOVE EFWR-WORK-STUDY-PGM OF WORK-STUDY-ARRAY (WS-IX5)        PPFNWFET
036000         TO  WS-EFWR-WORK-STUDY-PGM.                              PPFNWFET
036100     MOVE EFWR-DEPT-CODE OF WORK-STUDY-ARRAY (WS-IX5)             PPFNWFET
036200         TO  WS-EFWR-DEPT-CODE.                                   PPFNWFET
036300     EVALUATE WS-DATA-ELEM-NO                                     PPFNWFET
036400         WHEN '0612'                                              PPFNWFET
036500             COMPUTE TEMP-NUMBER =                                PPFNWFET
036600                     EFWR-FISCAL-YEAR OF WORK-STUDY-ARRAY (WS-IX5)PPFNWFET
036700              IF PPXXXFET-CHANGE-REQUEST                          PPFNWFET
036800                  COMPUTE ORIG-NUMBER =                           PPFNWFET
036900                          EFWR-FISCAL-YEAR                        PPFNWFET
037000                          OF WORK-STUDY-ARRAY-HOLD (WS-IX5)       PPFNWFET
037100                  COMPUTE CHG1-NUMBER =                           PPFNWFET
037200                          EFWR-FISCAL-YEAR                        PPFNWFET
037300                          OF WORK-STUDY-ARRAY-HOLD1 (WS-IX5)      PPFNWFET
037400              END-IF                                              PPFNWFET
037500         WHEN '0613'                                              PPFNWFET
037600             MOVE    EFWR-WORK-STUDY-PGM                          PPFNWFET
037700                     OF WORK-STUDY-ARRAY (WS-IX5)                 PPFNWFET
037800                     TO TEMP-DATA-VALUE                           PPFNWFET
037900              IF PPXXXFET-CHANGE-REQUEST                          PPFNWFET
038000                  MOVE    EFWR-WORK-STUDY-PGM                     PPFNWFET
038100                          OF WORK-STUDY-ARRAY-HOLD (WS-IX5)       PPFNWFET
038200                          TO ORIG-DATA-VALUE                      PPFNWFET
038300                  MOVE    EFWR-WORK-STUDY-PGM                     PPFNWFET
038400                          OF  WORK-STUDY-ARRAY-HOLD1 (WS-IX5)     PPFNWFET
038500                          TO CHG1-DATA-VALUE                      PPFNWFET
038600              END-IF                                              PPFNWFET
038700         WHEN '0614'                                              PPFNWFET
038800             MOVE    EFWR-DEPT-CODE                               PPFNWFET
038900                     OF WORK-STUDY-ARRAY (WS-IX5)                 PPFNWFET
039000                     TO TEMP-DATA-VALUE                           PPFNWFET
039100              IF PPXXXFET-CHANGE-REQUEST                          PPFNWFET
039200                  MOVE    EFWR-DEPT-CODE                          PPFNWFET
039300                          OF WORK-STUDY-ARRAY-HOLD (WS-IX5)       PPFNWFET
039400                          TO ORIG-DATA-VALUE                      PPFNWFET
039500                  MOVE    EFWR-DEPT-CODE                          PPFNWFET
039600                          OF  WORK-STUDY-ARRAY-HOLD1 (WS-IX5)     PPFNWFET
039700                          TO CHG1-DATA-VALUE                      PPFNWFET
039800              END-IF                                              PPFNWFET
039900         WHEN '0615'                                              PPFNWFET
040000             COMPUTE TEMP-NUMBER =                                PPFNWFET
040100                     EFWR-LIMIT OF WORK-STUDY-ARRAY (WS-IX5)      PPFNWFET
040200              IF PPXXXFET-CHANGE-REQUEST                          PPFNWFET
040300                  COMPUTE ORIG-NUMBER =                           PPFNWFET
040400                          EFWR-LIMIT                              PPFNWFET
040500                          OF WORK-STUDY-ARRAY-HOLD (WS-IX5)       PPFNWFET
040600                  COMPUTE CHG1-NUMBER =                           PPFNWFET
040700                          EFWR-LIMIT                              PPFNWFET
040800                          OF WORK-STUDY-ARRAY-HOLD1 (WS-IX5)      PPFNWFET
040900              END-IF                                              PPFNWFET
041000         WHEN '0616'                                              PPFNWFET
041100             MOVE    EFWR-AS-OF-DATE                              PPFNWFET
041200                     OF WORK-STUDY-ARRAY (WS-IX5)                 PPFNWFET
041300                     TO TEMP-DATA-VALUE                           PPFNWFET
041400              IF PPXXXFET-CHANGE-REQUEST                          PPFNWFET
041500                  MOVE    EFWR-AS-OF-DATE                         PPFNWFET
041600                          OF WORK-STUDY-ARRAY-HOLD (WS-IX5)       PPFNWFET
041700                          TO ORIG-DATA-VALUE                      PPFNWFET
041800                  MOVE    EFWR-AS-OF-DATE                         PPFNWFET
041900                          OF  WORK-STUDY-ARRAY-HOLD1 (WS-IX5)     PPFNWFET
042000                          TO CHG1-DATA-VALUE                      PPFNWFET
042100              END-IF                                              PPFNWFET
042200         WHEN '0617'                                              PPFNWFET
042300             COMPUTE TEMP-NUMBER =                                PPFNWFET
042400                     EFWR-PRIOR-LIMIT OF WORK-STUDY-ARRAY (WS-IX5)PPFNWFET
042500              IF PPXXXFET-CHANGE-REQUEST                          PPFNWFET
042600                  COMPUTE ORIG-NUMBER =                           PPFNWFET
042700                          EFWR-PRIOR-LIMIT                        PPFNWFET
042800                          OF WORK-STUDY-ARRAY-HOLD (WS-IX5)       PPFNWFET
042900                  COMPUTE CHG1-NUMBER =                           PPFNWFET
043000                          EFWR-PRIOR-LIMIT                        PPFNWFET
043100                          OF WORK-STUDY-ARRAY-HOLD1 (WS-IX5)      PPFNWFET
043200              END-IF                                              PPFNWFET
043300         WHEN '0618'                                              PPFNWFET
043400             MOVE    EFWR-PRIOR-DATE                              PPFNWFET
043500                     OF WORK-STUDY-ARRAY (WS-IX5)                 PPFNWFET
043600                     TO TEMP-DATA-VALUE                           PPFNWFET
043700              IF PPXXXFET-CHANGE-REQUEST                          PPFNWFET
043800                  MOVE    EFWR-PRIOR-DATE                         PPFNWFET
043900                          OF WORK-STUDY-ARRAY-HOLD (WS-IX5)       PPFNWFET
044000                          TO ORIG-DATA-VALUE                      PPFNWFET
044100                  MOVE    EFWR-PRIOR-DATE                         PPFNWFET
044200                          OF  WORK-STUDY-ARRAY-HOLD1 (WS-IX5)     PPFNWFET
044300                          TO CHG1-DATA-VALUE                      PPFNWFET
044400              END-IF                                              PPFNWFET
044500         WHEN '0619'                                              PPFNWFET
044600             COMPUTE TEMP-NUMBER =                                PPFNWFET
044700                     EFWR-FYTD-GROSS OF WORK-STUDY-ARRAY (WS-IX5) PPFNWFET
044800              IF PPXXXFET-CHANGE-REQUEST                          PPFNWFET
044900                  COMPUTE ORIG-NUMBER =                           PPFNWFET
045000                          EFWR-FYTD-GROSS                         PPFNWFET
045100                          OF WORK-STUDY-ARRAY-HOLD (WS-IX5)       PPFNWFET
045200                  COMPUTE CHG1-NUMBER =                           PPFNWFET
045300                          EFWR-FYTD-GROSS                         PPFNWFET
045400                          OF WORK-STUDY-ARRAY-HOLD1 (WS-IX5)      PPFNWFET
045500              END-IF                                              PPFNWFET
045600         WHEN '0622'                                              PPFNWFET
045700             MOVE    EFWR-ADC-CODE                                PPFNWFET
045800                     OF WORK-STUDY-ARRAY (WS-IX5)                 PPFNWFET
045900                     TO TEMP-DATA-VALUE                           PPFNWFET
046000              IF PPXXXFET-CHANGE-REQUEST                          PPFNWFET
046100                  MOVE    EFWR-ADC-CODE                           PPFNWFET
046200                          OF WORK-STUDY-ARRAY-HOLD (WS-IX5)       PPFNWFET
046300                          TO ORIG-DATA-VALUE                      PPFNWFET
046400                  MOVE    EFWR-ADC-CODE                           PPFNWFET
046500                          OF  WORK-STUDY-ARRAY-HOLD1 (WS-IX5)     PPFNWFET
046600                          TO CHG1-DATA-VALUE                      PPFNWFET
046700              END-IF                                              PPFNWFET
046800         WHEN OTHER                                               PPFNWFET
046900              IF PPXXXFET-DIAGNOSTICS-ON AND PPXXXFET-BATCH-CALL  PPFNWFET
047000                  DISPLAY A-STND-PROG-ID                          PPFNWFET
047100                          ': UNRECOGNIZED DATA ELEMENT NUMBER ('  PPFNWFET
047200                          WS-DATA-ELEM-NO                         PPFNWFET
047300                          ')'                                     PPFNWFET
047400              END-IF                                              PPFNWFET
047500              SET PPXXXFET-DATA-ELEM-NO-ERROR TO TRUE             PPFNWFET
047600     END-EVALUATE.                                                PPFNWFET
047700     SET DATA-RETURN TO TRUE                                      PPFNWFET
048700     IF NOT ENVIRON-IS-CICS                                       36430795
048702     IF PPXXXFET-CHANGE-REQUEST AND                               PPFNWFET
048703        TEMP-DATA-VALUE = ORIG-DATA-VALUE AND                     PPFNWFET
048704        ORIG-DATA-VALUE = CHG1-DATA-VALUE                         PPFNWFET
048705        SET BYPASS-RETURN TO TRUE                                 PPFNWFET
048706     END-IF                                                       PPFNWFET
049300     END-IF                                                       36430795
049302     IF PPXXXFET-LIST-REQUEST AND                                 PPFNWFET
049303        MULTIPLE-OCCURRENCE AND                                   PPFNWFET
049304        TEMP-DATA-VALUE = WS-ISO-INIT-DATE                        PPFNWFET
049305        SET BYPASS-RETURN TO TRUE                                 PPFNWFET
049306     END-IF.                                                      36290694
049307*****END-IF                                                       36290694
049308*****IF PPXXXFET-NON-INITIAL-REQUEST AND                          36290694
049309*****    TEMP-DATA-VALUE = WS-ISO-INIT-DATE                       36290694
049310*****    SET BYPASS-RETURN TO TRUE                                36290694
049311*****END-IF.                                                      36290694
049312 9400-EVALUATE-DATA-ELEMENT SECTION.                              PPFNWFET
049400     SET MULTIPLE-OCCURRENCE TO TRUE.                             PPFNWFET
049500**** IF  LOCAL-OFFSET-RETURNED                                    36091133
049600****     SET NO-LOCAL-OFFSET-RETURNED TO TRUE                     36091133
049700**** ELSE                                                         36091133
049800**** PERFORM VARYING WS-IX10 FROM 1 BY 1                          36091133
049900****   UNTIL WS-IX10 > PPEDBFET-MAX-PTR (WS-IX1)                  36091133
050000****     COMPUTE PPEDBFET-RETURN-INDEX (WS-IX1, WS-IX10) =        36091133
050100****             PPEDBFET-RETURN-INDEX (WS-IX1, WS-IX10)          36091133
050200****             + LOCAL-OFFSET                                   36091133
050300**** END-PERFORM                                                  36091133
050400*****END-PERFORM.                                                 36290694
050500**** END-IF.                                                      36091133
050600*****MOVE ZERO TO LOCAL-OFFSET.                                   36290694
050700     IF WS-IX2 = PPEDBFET-MAX-PTR (WS-IX1)                        PPFNWFET
050800         MOVE ZERO TO WS-IX2                                      PPFNWFET
050900     ELSE                                                         PPFNWFET
051000         COMPUTE WS-IX2 = WS-IX2 - 1                              PPFNWFET
051100     END-IF.                                                      PPFNWFET
051200     PERFORM WITH TEST AFTER                                      PPFNWFET
051300       UNTIL WS-IX2 = PPEDBFET-MAX-PTR (WS-IX1)                   PPFNWFET
051400          OR PPXXXFET-MORE-DATA                                   PPFNWFET
051500         ADD 1 TO WS-IX2                                          PPFNWFET
051600         MOVE PPEDBFET-REQUEST-INDEX (WS-IX1, WS-IX2) TO          PPFNWFET
051700              WS-IX3                                              PPFNWFET
051800         MOVE PPEDBFET-REQ-DATA-ELEM-NO (WS-IX3) TO               PPFNWFET
051900              WS-DATA-ELEM-NO                                     PPFNWFET
052000         MOVE SPACE TO                                            PPFNWFET
052100              WS-OCCURRENCE-KEY                                   PPFNWFET
052200         PERFORM 9300-EVALUATE-DATA-ELEMENT                       PPFNWFET
052300         IF MULTIPLE-OCCURRENCE AND DATA-RETURN                   PPFNWFET
052400             IF WS-IX4 = PPXXXFET-MAX-RETURN-ENTRIES AND          PPFNWFET
052500                WS-IX5 < WS-ARRAY-MAX                             PPFNWFET
052600                SET PPXXXFET-MORE-DATA TO TRUE                    PPFNWFET
052700****            IF WS-IX2 < PPEDBFET-MAX-PTR (WS-IX1)             36091133
052800****                MOVE LOCAL-OFFSET TO PPXXXFET-SAVE7           36091133
052900****            ELSE                                              36091133
053000****                MOVE ZERO TO PPXXXFET-SAVE7                   36091133
053100****            END-IF                                            36091133
053200                PERFORM 9050-SAVE-INDEXES                         PPFNWFET
053300              ELSE                                                PPFNWFET
053400                PERFORM 0900-SETUP-FOR-RETURN                     PPFNWFET
053500*****           ADD 1 TO PPXXXFET-OFFSET                          36290694
053600****            ADD 1 TO LOCAL-OFFSET                             36091133
053700                SET MULT-DATA-RETURNED TO TRUE                    PPFNWFET
053800             END-IF                                               PPFNWFET
053900         END-IF                                                   PPFNWFET
054000     END-PERFORM.                                                 PPFNWFET
054100 9500-SET-UP-EVAL-DATA-ELEM SECTION.                              PPFNWFET
054200     SKIP1                                                        PPFNWFET
054300**** SET NO-LOCAL-OFFSET-RETURNED TO TRUE.                        36091133
054400     SET MULT-DATA-NOT-RETURNED TO TRUE.                          PPFNWFET
054500     SKIP1                                                        PPFNWFET
054600**** IF PPXXXFET-SAVE7 NOT = ZERO                                 36091133
054700****     MOVE PPXXXFET-SAVE7 TO LOCAL-OFFSET                      36091133
054800****     MOVE ZERO TO PPXXXFET-SAVE7                              36091133
054900****     SET LOCAL-OFFSET-RETURNED TO TRUE                        36091133
055000**** END-IF.                                                      36091133
055100     IF PPXXXFET-SAVE3 NOT = ZEROES                               PPFNWFET
055200         INITIALIZE PPXXXFET-SAVE-INDEXES                         PPFNWFET
055300         GO TO 9500-X                                             PPFNWFET
055400     END-IF.                                                      PPFNWFET
055500     SKIP1                                                        PPFNWFET
055600     MOVE ZERO TO WS-ARRAY-IX.                                    PPFNWFET
055700     SET SNGL-FISCAL-YR TO TRUE.                                  PPFNWFET
055800     SET SNGL-WORK-STUDY-PGM TO TRUE.                             PPFNWFET
055900     SET SNGL-DEPT-CODE TO TRUE.                                  PPFNWFET
056000     SKIP1                                                        PPFNWFET
056100     IF (WS-EFWR-FISCAL-YEAR = '*' OR SPACE)                      PPFNWFET
056200         SET MULT-FISCAL-YR TO TRUE                               PPFNWFET
056300     END-IF.                                                      PPFNWFET
056400     SKIP1                                                        PPFNWFET
056500     IF (WS-EFWR-WORK-STUDY-PGM = '*' OR SPACE)                   PPFNWFET
056600         SET MULT-WORK-STUDY-PGM TO TRUE                          PPFNWFET
056700     END-IF.                                                      PPFNWFET
056800     SKIP1                                                        PPFNWFET
056900     IF (WS-EFWR-DEPT-CODE = '*' OR SPACE)                        PPFNWFET
057000         SET MULT-DEPT-CODE TO TRUE                               PPFNWFET
057100     END-IF.                                                      PPFNWFET
057200     SKIP1                                                        PPFNWFET
057300     IF MULT-FISCAL-YR OR MULT-WORK-STUDY-PGM OR MULT-DEPT-CODE   PPFNWFET
057400         SET MULTIPLE-OCCURRENCE TO TRUE                          PPFNWFET
057500     END-IF.                                                      PPFNWFET
057600*                                                                 PPFNWFET
057700*    DETERMINE THE SIZE OF THE ORIGINAL ARRAY                     PPFNWFET
057800*                                                                 PPFNWFET
057900*                                                                 PPFNWFET
058000     PERFORM VARYING WS-IX5 FROM 1 BY 1                           PPFNWFET
058100             UNTIL (WS-IX5 > IDC-MAX-NO-FNW)                      PPFNWFET
058200         OR (EFWR-FISCAL-YEAR    OF WORK-STUDY-ARRAY-HOLD (WS-IX5)PPFNWFET
058300             = ZERO                                               PPFNWFET
058400         AND EFWR-WORK-STUDY-PGM OF WORK-STUDY-ARRAY-HOLD (WS-IX5)PPFNWFET
058500             = SPACE                                              PPFNWFET
058600         AND EFWR-DEPT-CODE      OF WORK-STUDY-ARRAY-HOLD (WS-IX5)PPFNWFET
058700             = SPACE)                                             PPFNWFET
058800     END-PERFORM.                                                 PPFNWFET
058900*                                                                 PPFNWFET
059000*    SAVE THE INFORMATION                                         PPFNWFET
059100*                                                                 PPFNWFET
059200                                                                  PPFNWFET
059300     IF WS-IX5 > IDC-MAX-NO-FNW                                   PPFNWFET
059400         MOVE IDC-MAX-NO-FNW TO WS-ARRAY-HOLD-MAX                 PPFNWFET
059500     ELSE                                                         PPFNWFET
059600         COMPUTE WS-ARRAY-HOLD-MAX = WS-IX5 - 1                   PPFNWFET
059700     END-IF.                                                      PPFNWFET
059800*                                                                 PPFNWFET
059900*    NOW DETERMINE THE SIZE OF THE ARRAY                          PPFNWFET
060000*                                                                 PPFNWFET
060100*                                                                 PPFNWFET
060200     PERFORM VARYING WS-IX9 FROM WS-IX5 BY 1                      PPFNWFET
060300             UNTIL (WS-IX9 > IDC-MAX-NO-FNW)                      PPFNWFET
060400         OR (EFWR-FISCAL-YEAR    OF WORK-STUDY-ARRAY (WS-IX9)     PPFNWFET
060500             = ZERO                                               PPFNWFET
060600         AND EFWR-WORK-STUDY-PGM OF WORK-STUDY-ARRAY (WS-IX9)     PPFNWFET
060700             = SPACE                                              PPFNWFET
060800         AND EFWR-DEPT-CODE      OF WORK-STUDY-ARRAY (WS-IX9)     PPFNWFET
060900             = SPACE)                                             PPFNWFET
061000     END-PERFORM.                                                 PPFNWFET
061100*                                                                 PPFNWFET
061200*    SAVE THE INFORMATION                                         PPFNWFET
061300*                                                                 PPFNWFET
061400*                                                                 PPFNWFET
061500                                                                  PPFNWFET
061600     IF WS-IX9 > IDC-MAX-NO-FNW                                   PPFNWFET
061700         MOVE IDC-MAX-NO-FNW TO WS-ARRAY-MAX                      PPFNWFET
061800     ELSE                                                         PPFNWFET
061900         COMPUTE WS-ARRAY-MAX = WS-IX9 - 1                        PPFNWFET
062000     END-IF.                                                      PPFNWFET
062100     SKIP1                                                        PPFNWFET
062200 9500-X.                                                          PPFNWFET
062300     EXIT.                                                        PPFNWFET
