000000**************************************************************/   28521265
000001*  PROGRAM: PPLOFFET                                         */   28521265
000002*  RELEASE: ___1265______ SERVICE REQUEST(S): ____12852____  */   28521265
000003*  NAME:_______QUAN______ MODIFICATION DATE:  ___11/16/99__  */   28521265
000004*  DESCRIPTION:                                              */   28521265
000005*  - CORRECTED COMPARE BETWEEN DB2 LOF NOTICE DATE AND       */   28521265
000006*    WORKING STORAGE LOF NOTICE DATE.                        */   28521265
000007**************************************************************/   28521265
000100**************************************************************/   36091133
000101*  PROGRAM: PPLOFFET                                         */   36091133
000102*  RELEASE: ___1133______ SERVICE REQUEST(S): ____3609_____  */   36091133
000103*  NAME:___G STEINITZ____ MODIFICATION DATE:  ___05/22/97__  */   36091133
000104*  DESCRIPTION:                                              */   36091133
000105*  REMOVE OFFSET LOGIC AND SIMPLIFY RETURN ARRAY LOGIC.      */   36091133
000106**************************************************************/   36091133
000101**************************************************************/   36430795
000102*  PROGRAM: PPLOFFET                                         */   36430795
000103*  RELEASE: ___0795______ SERVICE REQUEST(S): _____3643____  */   36430795
000104*  NAME:_______PXP_______ MODIFICATION DATE:  __07/15/93____ */   36430795
000105*  DESCRIPTION:                                              */   36430795
000106*  ADJUST FETCH CHANGED PROCESS FOR ECON SCREEN              */   36430795
000107**************************************************************/   36430795
000109**************************************************************/   05490748
000200*  PROGRAM: PPLOFFET                                         */   05490748
000300*  RELEASE: ____0748____  SERVICE REQUEST(S): ____0549____   */   05490748
000400*  NAME:__J LUCAS ________CREATION DATE:      __03/05/93__   */   05490748
000500*  DESCRIPTION:                                              */   05490748
000600*  -ADDED LAYOFF-NOTICE-DATE TO THE OCCURRENCE KEY WHEN      */   05490748
000700*   FETCHING LAYOFF DATA.                                    */   05490748
000800**************************************************************/   05490748
000900**************************************************************/   36290724
001000*  PROGRAM: PPLOFFET                                         */   36290724
001100*  RELEASE # ___0724___   SERVICE REQUEST NO(S)____3629______*/   36290724
001200*  NAME __J. LUCAS_____   CREATION     DATE ____12/11/92_____*/   36290724
001300*  DESCRIPTION                                               */   36290724
001400*    ADDED CODE IN PAR. 9300 TO RETURN THE OCCURRENCE KEY    */   36290724
001500*    FOR ROWS THAT ARE BEING DELETED.                        */   36290724
001600**************************************************************/   36290724
001700**************************************************************/   36290694
001800*  PROGRAM:  PPLOFFET                                        */   36290694
001900*  RELEASE # ____0694____ SERVICE REQUEST NO(S)___3629_______*/   36290694
002000*  NAME ___J_LUCAS_____   MODIFICATION DATE ____08/07/92_____*/   36290694
002100*  DESCRIPTION                                               */   36290694
002200*    EDB LOF TABLE  FETCH DRIVER MODULE.                     */   36290694
002300**************************************************************/   36290694
002400 IDENTIFICATION DIVISION.                                         PPLOFFET
002500 PROGRAM-ID. PPLOFFET.                                            PPLOFFET
002600 AUTHOR. UCOP.                                                    PPLOFFET
002700 DATE-WRITTEN. FEBRUARY 1992.                                     PPLOFFET
002800 DATE-COMPILED.                                                   PPLOFFET
002900*REMARKS.                                                         PPLOFFET
003000******************************************************************PPLOFFET
003100*                                                                *PPLOFFET
003200*  THIS PROGRAM DRIVES THE RETRIEVAL OF EMPLOYEE DATA BASE       *PPLOFFET
003300* DATA ELEMENTS, BY DATA ELEMENT NUMBER, FROM LAYOFF ARRAY.      *PPLOFFET
003400* THIS PROGRAM IS CALLED BY PPEDBFET.                            *PPLOFFET
003500*                                                                *PPLOFFET
003600*  THE DETAILS OF THIS PROGRAMS FUNCTION ARE DESCRIBED IN THE    *PPLOFFET
003700* PROCEDURE DIVISION COPYMEMBER CPPDEFET.                        *PPLOFFET
003800*                                                                *PPLOFFET
003900******************************************************************PPLOFFET
004000     EJECT                                                        PPLOFFET
004100 ENVIRONMENT DIVISION.                                            PPLOFFET
004200 CONFIGURATION SECTION.                                           PPLOFFET
004300 SOURCE-COMPUTER.                   COPY CPOTXUCS.                PPLOFFET
004400 OBJECT-COMPUTER.                   COPY CPOTXOBJ.                PPLOFFET
004500      EJECT                                                       PPLOFFET
004600******************************************************************PPLOFFET
004700*                                                                *PPLOFFET
004800*                D A T A  D I V I S I O N                        *PPLOFFET
004900*                                                                *PPLOFFET
005000******************************************************************PPLOFFET
005100 DATA DIVISION.                                                   PPLOFFET
005200 WORKING-STORAGE SECTION.                                         PPLOFFET
005300 01  MISCELLANEOUS-WS.                                            PPLOFFET
005400******************************************************************PPLOFFET
005500*                                                                *PPLOFFET
005600* NOTE:                                                          *PPLOFFET
005700*                                                                *PPLOFFET
005800*  DATA NAMES, A-STND-PROG-ID AND PPXXXUTL-NAME,                 *PPLOFFET
005900*  ARE REFERENCED IN COPY CODE CPPDEFET. A-STND-PROG-ID IS USED  *PPLOFFET
006000*  IN DIAGNOSTIC REFERENCES, WHILE PPXXUTL-NAME                  *PPLOFFET
006100*  IS USED IN DYNAMIC CALLS TO THE APPROPRIATE TABLE READ        *PPLOFFET
006200*  UTILITY.                                                      *PPLOFFET
006300*                                                                *PPLOFFET
006400******************************************************************PPLOFFET
006500     05  A-STND-PROG-ID      PIC X(08) VALUE 'PPLOFFET'.          PPLOFFET
006600     05  PPXXXUTL-NAME       PIC X(08) VALUE 'PPLOFUTL'.          PPLOFFET
006700     05  WS-INIT-DATE        PIC X(10) VALUE '01/01/0001'.        PPLOFFET
006800     05  WS-ISO-INIT-DATE    PIC X(10) VALUE '0001-01-01'.        PPLOFFET
006900     05  TITLE-MATCH-SWITCH PIC X(01) VALUE 'Y'.                  PPLOFFET
007000         88  TITLE-MATCH              VALUE 'Y'.                  PPLOFFET
007100         88  NOT-TITLE-MATCH          VALUE 'N'.                  PPLOFFET
007200     05  FIRST-TIME-SWITCH   PIC X(01) VALUE 'Y'.                 PPLOFFET
007300         88  FIRST-TIME                VALUE 'Y'.                 PPLOFFET
007400         88  NOT-FIRST-TIME            VALUE 'N'.                 PPLOFFET
007500     05  INIT-VALUE-SWITCH   PIC X(01) VALUE 'Y'.                 PPLOFFET
007600         88  INIT-VALUE                VALUE 'Y'.                 PPLOFFET
007700         88  NON-INIT-VALUE            VALUE 'N'.                 PPLOFFET
007800     05  MULTIPLE-OCCUR-SW   PIC X(01) VALUE 'N'.                 PPLOFFET
007900         88  MULTIPLE-OCCURRENCE       VALUE 'Y'.                 PPLOFFET
008000         88  SINGLE-OCCURRENCE         VALUE 'N'.                 PPLOFFET
008100     05  MULT-TITLE-CODE-SW  PIC X(01) VALUE 'N'.                 PPLOFFET
008200         88  MULT-TITLE-CODE           VALUE 'Y'.                 PPLOFFET
008300         88  SNGL-TITLE-CODE           VALUE 'N'.                 PPLOFFET
008400     05  MULT-DEPT-CODE-SW   PIC X(01) VALUE 'N'.                 PPLOFFET
008500         88  MULT-DEPT-CODE            VALUE 'Y'.                 PPLOFFET
008600         88  SNGL-DEPT-CODE            VALUE 'N'.                 PPLOFFET
008700     05  MULT-NOTICE-DATE-SW PIC X(01) VALUE 'N'.                 05490748
008800         88  MULT-NOTICE-DATE          VALUE 'Y'.                 05490748
008900         88  SNGL-NOTICE-DATE          VALUE 'N'.                 05490748
009000     05  DATE-VALUE-SWITCH   PIC X(01) VALUE 'N'.                 PPLOFFET
009100         88  NO-DATE-VALUE             VALUE 'N'.                 PPLOFFET
009200         88  ISO-DATE-VALUE            VALUE 'I'.                 PPLOFFET
009300         88  USA-DATE-VALUE            VALUE 'U'.                 PPLOFFET
009400         88  DATE-VALUE                VALUES 'I' 'U'.            PPLOFFET
009500     05  DATA-RETURN-SW      PIC X(01) VALUE 'N'.                 PPLOFFET
009600         88  DATA-RETURN               VALUE 'Y'.                 PPLOFFET
009700         88  BYPASS-RETURN             VALUE 'N'.                 PPLOFFET
009800**** 05  LOCAL-OFFSET-RETURN-SW PIC X(01) VALUE 'N'.              36091133
009900****     88  LOCAL-OFFSET-RETURNED     VALUE 'Y'.                 36091133
010000****     88  NO-LOCAL-OFFSET-RETURNED  VALUE 'N'.                 36091133
010100     05  MULT-DATA-RETURN-SW PIC X(01) VALUE 'N'.                 PPLOFFET
010200         88  MULT-DATA-RETURNED        VALUE 'Y'.                 PPLOFFET
010300         88  MULT-DATA-NOT-RETURNED    VALUE 'N'.                 PPLOFFET
010400     05  DATE-HOLD-SWITCH    PIC X(01) VALUE 'N'.                 PPLOFFET
010500     05  WS-DATA-TYPE        PIC X(01) VALUE 'A'.                 PPLOFFET
010600         88  WS-DATA-TYPE-AN           VALUE 'A'.                 PPLOFFET
010700         88  WS-DATA-TYPE-NUM          VALUE 'N'.                 PPLOFFET
010800         88  WS-DATA-TYPE-DATE         VALUE 'D'.                 PPLOFFET
010900     05  WS-EMPLOYEE-ID      PIC X(09) VALUE SPACES.              PPLOFFET
011000     05  WS-DATA-ELEM-NO     PIC 9(04) VALUE ZEROES.              PPLOFFET
011100     05  WS-OCCURRENCE-KEY.                                       PPLOFFET
011200         15  WS-LAYOFF-TITLE-CODE   PIC  X(04).                   PPLOFFET
011300         15  WS-LAYOFF-DEPT-CODE    PIC  X(06).                   PPLOFFET
011400         15  WS-LAYOFF-NOTICE-DATE  PIC  X(06).                   05490748
011500     05  WS-IX1              PIC S9(4) COMP VALUE ZERO.           PPLOFFET
011600     05  WS-IX2              PIC S9(4) COMP VALUE ZERO.           PPLOFFET
011700     05  WS-IX3              PIC S9(4) COMP VALUE ZERO.           PPLOFFET
011800     05  WS-IX4              PIC S9(4) COMP VALUE ZERO.           PPLOFFET
011900     05  WS-IX5              PIC S9(4) COMP VALUE ZERO.           PPLOFFET
012000     05  WS-IX9              PIC S9(4) COMP VALUE ZERO.           PPLOFFET
012100**** 05  WS-IX10             PIC S9(4) COMP VALUE ZERO.           36091133
012200     05  WS-ARRAY-IX         PIC S9(4) COMP VALUE ZERO.           PPLOFFET
012300     05  WS-ARRAY-MAX        PIC S9(4) COMP VALUE ZERO.           PPLOFFET
012400     05  WS-ARRAY-HOLD-MAX   PIC S9(4) COMP VALUE ZERO.           PPLOFFET
012500*****                                                             28521265
012510     05  WS-LAYOFF-NOTICE-ISO-DATE  PIC  X(10).                   28521265
012600     05  WS-RATE-DEF             PIC 9(06)V9(04).                 PPLOFFET
012700     05  FILLER REDEFINES WS-RATE-DEF.                            PPLOFFET
012800         10  WS-PERIOD-RATE-6V2.                                  PPLOFFET
012900             15  FILLER              PIC X(01).                   PPLOFFET
013000             15  WS-PERIOD-RATE-5V2  PIC X(07).                   PPLOFFET
013100         10  FILLER              PIC X(02).                       PPLOFFET
013200     05  FILLER REDEFINES WS-RATE-DEF.                            PPLOFFET
013300         10  FILLER              PIC X(02).                       PPLOFFET
013400         10  WS-HOURLY-RATE-4V4.                                  PPLOFFET
013500             15  FILLER              PIC X(01).                   PPLOFFET
013600             15  WS-HOURLY-RATE-3V4  PIC X(07).                   PPLOFFET
013700     SKIP3                                                        PPLOFFET
013800 01  DATE-CONVERSION-WORK-AREAS.                                  PPLOFFET
013900*****                               COPY CPWSXDC2.                28521265
013910                                    COPY CPWSXDC3.                28521265
014000     EJECT                                                        PPLOFFET
014100 01  TEMP-DATA-AREA.                                              PPLOFFET
014200                                    COPY CPWSXMMM.                PPLOFFET
014300     EJECT                                                        PPLOFFET
014400******************************************************************PPLOFFET
014500*                                                                *PPLOFFET
014600* LAYOFF-ARRAY IS THE ROW THAT WILL BE PASSED AROUND FOR USE     *PPLOFFET
014700* BY HIGHER LEVEL PROGRAMS. IT IS DEFINED AS AN EXTERNAL DATA    *PPLOFFET
014800* AREA TO ALLOW HIGHER LEVEL PROGRAMS TO AVOID PASSING THE ROW   *PPLOFFET
014900* THROUGH UNNECESSARY CALLING CHAINS.                            *PPLOFFET
015000*                                                                *PPLOFFET
015100* LAYOFF-ARRAY-HOLD IS THE PURE ROW AS READ FROM THE LOF TBL ROW.*PPLOFFET
015200* IT IS HELD IN WORKING-STORAGE TO ALLOW THE REFRESH FUNCTION    *PPLOFFET
015300* TO BE PERFORMED WITHOUT AN ADDED DATA BASE ACCESS.             *PPLOFFET
015400*                                                                *PPLOFFET
015500* LAYOFF-ARRAY-HOLD1 IS THE ROW AS SET ASIDE, AFTER SOME UPD     *PPLOFFET
015600* ACTIVITY, BY THE EDB UPDATE COMPLEX, TO ALLOW THE GENERATION   *PPLOFFET
015700* OF THE "FIRST" CHANGE ENTRY IN CHANGE RECORDS.                 *PPLOFFET
015800*                                                                *PPLOFFET
015900******************************************************************PPLOFFET
016000 01  LAYOFF-ARRAY EXTERNAL.                                       PPLOFFET
016100                                 COPY CPWSELOF.                   PPLOFFET
016200     EJECT                                                        PPLOFFET
016300 01  LAYOFF-ARRAY-HOLD EXTERNAL.                                  PPLOFFET
016400                                 COPY CPWSELOF.                   PPLOFFET
016500     EJECT                                                        PPLOFFET
016600 01  LAYOFF-ARRAY-HOLD1 EXTERNAL.                                 PPLOFFET
016700                                 COPY CPWSELOF.                   PPLOFFET
016800     EJECT                                                        PPLOFFET
016900 01  PPEDBFET-REQUEST-ARRAY     EXTERNAL.                         PPLOFFET
017000                                    COPY CPWSEREQ.                PPLOFFET
017100     EJECT                                                        PPLOFFET
017200 01  PPEDBFET-D-E-RETURN-ARRAY  EXTERNAL.                         PPLOFFET
017300                                    COPY CPWSERET.                PPLOFFET
017400     EJECT                                                        PPLOFFET
017500 01  PPEDBFET-CHANGE-RETURN-ARRAY EXTERNAL.                       PPLOFFET
017600                                    COPY CPWSECHG.                PPLOFFET
017700     EJECT                                                        PPLOFFET
017800 01  PPEDBFET-RETURN-POINTERS     EXTERNAL.                       PPLOFFET
017900                                    COPY CPWSEPTR.                PPLOFFET
018000     EJECT                                                        PPLOFFET
018100 01  PPLOFUTL-INTERFACE.                                          PPLOFFET
018200                                    COPY CPLNKLOF.                PPLOFFET
018300     EJECT                                                        PPLOFFET
018400 01  XWHC-COMPILE-WORK-AREA.                                      PPLOFFET
018500                                    COPY CPWSXWHC.                PPLOFFET
018600     EJECT                                                        PPLOFFET
018700 01  PPXXXFET-INTERFACE  EXTERNAL.                                PPLOFFET
018800                                    COPY CPLNFXXX.                PPLOFFET
018900     EJECT                                                        PPLOFFET
019000 01  PAYROLL-CONSTANTS.                                           PPLOFFET
019100                                    COPY CPWSXIC2.                PPLOFFET
019110 01  ONLINE-SIGNALS                      EXTERNAL. COPY CPWSONLI. 36430795
019200     EJECT                                                        PPLOFFET
019300 PROCEDURE DIVISION.                                              PPLOFFET
019400*                                                                 PPLOFFET
019500******************************************************************PPLOFFET
019600*            P R O C E D U R E  D I V I S I O N                  *PPLOFFET
019700******************************************************************PPLOFFET
019800*                                                                 PPLOFFET
019900******************************************************************PPLOFFET
020000*                                                                *PPLOFFET
020100*  THE PROCEDURE DIVISION OF THIS PROGRAM IS CONTAINED PRIMARILY *PPLOFFET
020200* IN COPY MEMBER CPPDEFET. HERE THE GENERIC DATA-NAMES IN        *PPLOFFET
020300* CPPDEFET ARE REPLACED WITH THE SPECIFIC DATA-NAMES OF THE      *PPLOFFET
020400* WORKING STORAGE TABLE ROWS AND THE PPXXXUTL MODULE INTERFACE.  *PPLOFFET
020500*                                                                *PPLOFFET
020600*                                                                *PPLOFFET
020700******************************************************************PPLOFFET
020800                                     COPY CPPDEFET                PPLOFFET
020900        REPLACING PP000UTL-INTERFACE   BY PPLOFUTL-INTERFACE      PPLOFFET
021000                  PP000UTL-ERROR       BY PPLOFUTL-ERROR          PPLOFFET
021100                  PP000UTL-EMPLOYEE-ID BY PPLOFUTL-EMPLOYEE-ID    PPLOFFET
021200                  000-ROW              BY LAYOFF-ARRAY.           PPLOFFET
021300     EJECT                                                        PPLOFFET
021400 7900-FIRST-TIME SECTION.                                         PPLOFFET
021500     SKIP1                                                        PPLOFFET
021600     MOVE A-STND-PROG-ID TO XWHC-DISPLAY-MODULE.                  PPLOFFET
021700     IF PPXXXFET-NON-INITIAL-REQUEST                              PPLOFFET
021800         INITIALIZE LAYOFF-ARRAY-HOLD                             PPLOFFET
021900         INITIALIZE LAYOFF-ARRAY-HOLD1                            PPLOFFET
022000     END-IF.                                                      PPLOFFET
022100     SKIP1                                                        PPLOFFET
022200                                    COPY CPPDXWHC.                PPLOFFET
022300     EJECT                                                        PPLOFFET
022400 8800-CONVERT-DATES SECTION.                                      PPLOFFET
022500     SKIP3                                                        PPLOFFET
022600*****                               COPY CPPDXDC2.                28521265
022610                                    COPY CPPDXDC3.                28521265
022700     EJECT                                                        PPLOFFET
022800 9000-RESTORE-INDEXES SECTION.                                    PPLOFFET
022900     SKIP1                                                        PPLOFFET
023000     INITIALIZE WS-IX4.                                           PPLOFFET
023100     EJECT                                                        PPLOFFET
023200 9050-SAVE-INDEXES SECTION.                                       PPLOFFET
023300     SKIP1                                                        PPLOFFET
023400     COMPUTE WS-ARRAY-IX = WS-IX5.                                PPLOFFET
023500     MOVE WS-ARRAY-IX TO PPXXXFET-SAVE3.                          PPLOFFET
023600     EJECT                                                        PPLOFFET
023700 9100-EVALUATE-DATA-ELEMENT SECTION.                              PPLOFFET
023800**** MOVE ZERO TO LOCAL-OFFSET.                                   36091133
023900     IF PPXXXFET-NON-INITIAL-REQUEST                              PPLOFFET
024000         PERFORM 9500-SET-UP-EVAL-DATA-ELEM                       PPLOFFET
024100         IF WS-ARRAY-IX NOT > ZERO                                PPLOFFET
024200             MOVE 1 TO WS-ARRAY-IX                                PPLOFFET
024300         END-IF                                                   PPLOFFET
024400******************************************************************PPLOFFET
024500*    THIS PERFORM WILL RETURN DATA ELEMENTS SORTED               *PPLOFFET
024600*    BY OCCURENCE KEY FOLLOWED BY DATA ELEMENT NUMBER.           *PPLOFFET
024700*    E.G. FOR "NON INITIAL" REQUEST ALL DATA ELEMENTS FOR AN     *PPLOFFET
024800*    ARRAY ITEMS ARE RETURNED AS THEY ARE LOCATED WITHIN         *PPLOFFET
024900*    ONE ARRAY ITEM.                                             *PPLOFFET
025000*                                                                *PPLOFFET
025100*    NOTE THAT CODE IN SECTION 9400 TAKES OVER THE FUNCTION      *PPLOFFET
025200*    OF THE PERFORM OF SECTION 9100- FOUND IN CPPDEFET.          *PPLOFFET
025300******************************************************************PPLOFFET
025400         PERFORM VARYING WS-IX5 FROM WS-ARRAY-IX BY 1             PPLOFFET
025500             UNTIL (WS-IX5 > WS-ARRAY-MAX)                        PPLOFFET
025600               OR PPXXXFET-MORE-DATA                              PPLOFFET
025700             PERFORM 9400-EVALUATE-DATA-ELEMENT                   PPLOFFET
025800             IF NOT PPXXXFET-MORE-DATA                            PPLOFFET
025900                 MOVE PPEDBFET-MAX-PTR (WS-IX1) TO WS-IX2         PPLOFFET
026000             END-IF                                               PPLOFFET
026100         END-PERFORM                                              PPLOFFET
026200****     COMPUTE PPXXXFET-OFFSET =                                36091133
026300****             PPXXXFET-OFFSET + LOCAL-OFFSET                   36091133
026400     ELSE                                                         PPLOFFET
026500         PERFORM 9500-SET-UP-EVAL-DATA-ELEM                       PPLOFFET
026600         PERFORM 9200-EVALUATE-DATA-ELEMENT.                      PPLOFFET
026700     EJECT                                                        PPLOFFET
026800 9200-EVALUATE-DATA-ELEMENT SECTION.                              PPLOFFET
026900******************************************************************PPLOFFET
027000*    THIS SECTION WILL RETURN DATA ELEMENTS SORTED               *PPLOFFET
027100*    BY DATA ELEMENT NUMBER FOLLOWED BY OCCURENCE KEY.           *PPLOFFET
027200*    E.G. IN THE CASE OF A GENERIC REQUEST (THAT IS WHEN         *PPLOFFET
027300*    88 MULTIPLE-OCCURRENCE IS TRUE), ALL ARRAY ITEMS            *PPLOFFET
027400*    FOR THE DATA ELEMENT ARE RETURNED TOGETHER.                 *PPLOFFET
027500******************************************************************PPLOFFET
027600     SKIP1                                                        PPLOFFET
027700     IF MULT-TITLE-CODE OR MULT-DEPT-CODE                         PPLOFFET
027800         OR MULT-NOTICE-DATE                                      05490748
027900         SET MULTIPLE-OCCURRENCE TO TRUE                          PPLOFFET
028000     END-IF.                                                      PPLOFFET
028100     SKIP1                                                        PPLOFFET
028200                                                                  PPLOFFET
028300     COMPUTE WS-ARRAY-IX = WS-ARRAY-IX + 1.                       PPLOFFET
028400******************************************************************PPLOFFET
028500******************************************************************PPLOFFET
028600     PERFORM VARYING WS-IX5 FROM WS-ARRAY-IX BY 1                 PPLOFFET
028700         UNTIL (WS-IX5 > WS-ARRAY-MAX)                            PPLOFFET
028800           OR PPXXXFET-MORE-DATA                                  PPLOFFET
028900                                                                  PPLOFFET
029000         SET NOT-TITLE-MATCH TO TRUE                              PPLOFFET
029100         IF MULT-TITLE-CODE                                       PPLOFFET
029200             SET TITLE-MATCH  TO TRUE                             PPLOFFET
029300         ELSE                                                     PPLOFFET
029400                                                                  PPLOFFET
029500*      SINCE THE KEY INFO IN THE ARRAY MAY BE GONE                PPLOFFET
029600*      FROM ITEMS WITHIN THE ORIGINAL GROUP OF RECORDS            PPLOFFET
029700*      (DUE TO DELETION),                                         PPLOFFET
029800*      WE MUST MATCH AGAINST -HOLD FOR ORIGINAL ITEMS             PPLOFFET
029900                                                                  PPLOFFET
030000             IF WS-IX5 NOT > WS-ARRAY-HOLD-MAX                    PPLOFFET
030100                 IF (LOF-TITLE-CODE   OF LAYOFF-ARRAY-HOLD        PPLOFFET
030200                    (WS-IX5)                                      PPLOFFET
030300                     = WS-LAYOFF-TITLE-CODE)                      PPLOFFET
030400                     SET TITLE-MATCH TO TRUE                      PPLOFFET
030500                 END-IF                                           PPLOFFET
030600             ELSE                                                 PPLOFFET
030700                 IF (LOF-TITLE-CODE   OF LAYOFF-ARRAY             PPLOFFET
030800                    (WS-IX5)                                      PPLOFFET
030900                     = WS-LAYOFF-TITLE-CODE)                      PPLOFFET
031000                     SET TITLE-MATCH TO TRUE                      PPLOFFET
031100                 END-IF                                           PPLOFFET
031200             END-IF                                               PPLOFFET
031300         END-IF                                                   PPLOFFET
031400*                                                                 PPLOFFET
031500*      SINCE THE KEY INFO IN THE ARRAY MAY BE GONE                PPLOFFET
031600*      FROM ITEMS WITHIN THE ORIGINAL GROUP OF RECORDS            PPLOFFET
031700*      (DUE TO DELETION),                                         PPLOFFET
031800*      WE MUST MATCH AGAINST -HOLD FOR ORIGINAL ITEMS             PPLOFFET
031900*                                                                 PPLOFFET
032000         IF WS-IX5 NOT > WS-ARRAY-HOLD-MAX                        PPLOFFET
032100             IF TITLE-MATCH                                       PPLOFFET
032200             AND ((LOF-DEPT-CODE OF LAYOFF-ARRAY-HOLD (WS-IX5)    PPLOFFET
032300             = WS-LAYOFF-DEPT-CODE) OR MULT-DEPT-CODE)            PPLOFFET
032400             AND ((LOF-NOTICE-DATE  OF LAYOFF-ARRAY-HOLD (WS-IX5) 05490748
032500*****        = WS-LAYOFF-NOTICE-DATE) OR MULT-NOTICE-DATE)        28521265
032510             = WS-LAYOFF-NOTICE-ISO-DATE) OR MULT-NOTICE-DATE)    28521265
032600                                                                  PPLOFFET
032700                 PERFORM 9300-EVALUATE-DATA-ELEMENT               PPLOFFET
032800                                                                  PPLOFFET
032900             END-IF                                               PPLOFFET
033000         ELSE                                                     PPLOFFET
033100             IF TITLE-MATCH                                       PPLOFFET
033200             AND ((LOF-DEPT-CODE  OF LAYOFF-ARRAY                 PPLOFFET
033300             (WS-IX5)                                             PPLOFFET
033400             = WS-LAYOFF-DEPT-CODE) OR MULT-DEPT-CODE)            PPLOFFET
033500             AND ((LOF-NOTICE-DATE  OF LAYOFF-ARRAY (WS-IX5)      05490748
033600******       = WS-LAYOFF-NOTICE-DATE) OR MULT-NOTICE-DATE)        28521265
033610             = WS-LAYOFF-NOTICE-ISO-DATE) OR MULT-NOTICE-DATE)    28521265
033700                                                                  PPLOFFET
033800                 PERFORM 9300-EVALUATE-DATA-ELEMENT               PPLOFFET
033900                                                                  PPLOFFET
034000             END-IF                                               PPLOFFET
034100         END-IF                                                   PPLOFFET
034200                                                                  PPLOFFET
034300         IF MULTIPLE-OCCURRENCE AND DATA-RETURN                   PPLOFFET
034400             IF WS-IX4 = PPXXXFET-MAX-RETURN-ENTRIES AND          PPLOFFET
034500                WS-IX5 < WS-ARRAY-MAX                             PPLOFFET
034600                SET PPXXXFET-MORE-DATA TO TRUE                    PPLOFFET
034700                PERFORM 9050-SAVE-INDEXES                         PPLOFFET
034800              ELSE                                                PPLOFFET
034900                PERFORM 0900-SETUP-FOR-RETURN                     PPLOFFET
035000****            ADD 1 TO PPXXXFET-OFFSET                          36091133
035100                SET MULT-DATA-RETURNED TO TRUE                    PPLOFFET
035200             END-IF                                               PPLOFFET
035300         END-IF                                                   PPLOFFET
035400     END-PERFORM.                                                 PPLOFFET
035500******************************************************************PPLOFFET
035600**** IF MULT-DATA-RETURNED                                        36091133
035700****     SUBTRACT 1 FROM PPXXXFET-OFFSET                          36091133
035800**** END-IF.                                                      36091133
035900     EJECT                                                        PPLOFFET
036000 9300-EVALUATE-DATA-ELEMENT SECTION.                              PPLOFFET
036100     MOVE LOF-TITLE-CODE  OF LAYOFF-ARRAY (WS-IX5)                PPLOFFET
036200         TO  WS-LAYOFF-TITLE-CODE.                                PPLOFFET
036300     MOVE LOF-DEPT-CODE OF LAYOFF-ARRAY (WS-IX5)                  PPLOFFET
036400         TO  WS-LAYOFF-DEPT-CODE.                                 PPLOFFET
036500     MOVE LOF-NOTICE-DATE OF LAYOFF-ARRAY (WS-IX5)                28521265
036600         TO WS-LAYOFF-NOTICE-ISO-DATE.                            28521265
036500     MOVE LOF-NOTICE-DATE OF LAYOFF-ARRAY (WS-IX5)                05490748
036620*****    TO DB2-DATE.                                             28521265
036700*****PERFORM CONVERT-DB2-DATE.                                    28521265
036800*****MOVE WSX-STD-DATE TO WS-LAYOFF-NOTICE-DATE.                  28521265
036810         TO XDC3-DB2-DATE.                                        28521265
036820     PERFORM XDC3-CONVERT-DB2-TO-STD.                             28521265
036830     MOVE XDC3-STD-DATE TO WS-LAYOFF-NOTICE-DATE.                 28521265
036900******************************************************************36290724
037000*       ROWS BEING DELETED HAVE BEEN INITIALIZED, SO THE         *36290724
037100*       OCCURRENCE KEY FOR DELETED ROWS MUST BE OBTAINED         *36290724
037200*       FROM 'LAYOFF-ARRAY-HOLD'.                                *36290724
037300******************************************************************36290724
037400*****IF WS-OCCURRENCE-KEY = SPACES                                05490748
037500     IF WS-LAYOFF-TITLE-CODE = SPACES   AND                       05490748
037600        WS-LAYOFF-DEPT-CODE  = SPACES   AND                       05490748
037700        WS-LAYOFF-NOTICE-DATE = ZERO                              05490748
037800         MOVE LOF-TITLE-CODE OF LAYOFF-ARRAY-HOLD (WS-IX5)        36290724
037900             TO WS-LAYOFF-TITLE-CODE                              36290724
038000         MOVE LOF-DEPT-CODE OF LAYOFF-ARRAY-HOLD (WS-IX5)         36290724
038100             TO WS-LAYOFF-DEPT-CODE                               36290724
038200         MOVE LOF-NOTICE-DATE OF LAYOFF-ARRAY-HOLD (WS-IX5)       28521265
038201                      TO WS-LAYOFF-NOTICE-ISO-DATE                28521265
038200         MOVE LOF-NOTICE-DATE OF LAYOFF-ARRAY-HOLD (WS-IX5)       05490748
038300*****         TO DB2-DATE                                         28521265
038400*****    PERFORM CONVERT-DB2-DATE                                 28521265
038500*****    MOVE WSX-STD-DATE TO WS-LAYOFF-NOTICE-DATE               28521265
038510              TO XDC3-DB2-DATE                                    28521265
038520         PERFORM XDC3-CONVERT-DB2-TO-STD                          28521265
038530         MOVE XDC3-STD-DATE TO WS-LAYOFF-NOTICE-DATE              28521265
038600     END-IF.                                                      36290724
038700     SET NOT-DB2X-DET-NUMERIC TO TRUE                             PPLOFFET
038800     EVALUATE WS-DATA-ELEM-NO                                     PPLOFFET
038900         WHEN '0462'                                              PPLOFFET
039000             MOVE    LOF-NOTICE-DATE                              PPLOFFET
039100                     OF LAYOFF-ARRAY (WS-IX5)                     PPLOFFET
039200                     TO TEMP-DATA-VALUE                           PPLOFFET
039300              IF PPXXXFET-CHANGE-REQUEST                          PPLOFFET
039400                  MOVE    LOF-NOTICE-DATE                         PPLOFFET
039500                          OF LAYOFF-ARRAY-HOLD (WS-IX5)           PPLOFFET
039600                          TO ORIG-DATA-VALUE                      PPLOFFET
039700                  MOVE    LOF-NOTICE-DATE                         PPLOFFET
039800                          OF  LAYOFF-ARRAY-HOLD1 (WS-IX5)         PPLOFFET
039900                          TO CHG1-DATA-VALUE                      PPLOFFET
040000              END-IF                                              PPLOFFET
040100         WHEN '0463'                                              PPLOFFET
040200             MOVE    LOF-REHIRE-BGN-DATE                          PPLOFFET
040300                     OF LAYOFF-ARRAY (WS-IX5)                     PPLOFFET
040400                     TO TEMP-DATA-VALUE                           PPLOFFET
040500              IF PPXXXFET-CHANGE-REQUEST                          PPLOFFET
040600                  MOVE    LOF-REHIRE-BGN-DATE                     PPLOFFET
040700                          OF LAYOFF-ARRAY-HOLD (WS-IX5)           PPLOFFET
040800                          TO ORIG-DATA-VALUE                      PPLOFFET
040900                  MOVE    LOF-REHIRE-BGN-DATE                     PPLOFFET
041000                          OF  LAYOFF-ARRAY-HOLD1 (WS-IX5)         PPLOFFET
041100                          TO CHG1-DATA-VALUE                      PPLOFFET
041200              END-IF                                              PPLOFFET
041300         WHEN '0464'                                              PPLOFFET
041400             MOVE    LOF-REHIRE-EXP-DATE                          PPLOFFET
041500                     OF LAYOFF-ARRAY (WS-IX5)                     PPLOFFET
041600                     TO TEMP-DATA-VALUE                           PPLOFFET
041700              IF PPXXXFET-CHANGE-REQUEST                          PPLOFFET
041800                  MOVE    LOF-REHIRE-EXP-DATE                     PPLOFFET
041900                          OF LAYOFF-ARRAY-HOLD (WS-IX5)           PPLOFFET
042000                          TO ORIG-DATA-VALUE                      PPLOFFET
042100                  MOVE    LOF-REHIRE-EXP-DATE                     PPLOFFET
042200                          OF  LAYOFF-ARRAY-HOLD1 (WS-IX5)         PPLOFFET
042300                          TO CHG1-DATA-VALUE                      PPLOFFET
042400              END-IF                                              PPLOFFET
042500         WHEN '0465'                                              PPLOFFET
042600             MOVE    LOF-REHIRE-SUSP-BGN-TERM-DATE                PPLOFFET
042700                     OF LAYOFF-ARRAY (WS-IX5)                     PPLOFFET
042800                     TO TEMP-DATA-VALUE                           PPLOFFET
042900              IF PPXXXFET-CHANGE-REQUEST                          PPLOFFET
043000                  MOVE    LOF-REHIRE-SUSP-BGN-TERM-DATE           PPLOFFET
043100                          OF LAYOFF-ARRAY-HOLD (WS-IX5)           PPLOFFET
043200                          TO ORIG-DATA-VALUE                      PPLOFFET
043300                  MOVE    LOF-REHIRE-SUSP-BGN-TERM-DATE           PPLOFFET
043400                          OF  LAYOFF-ARRAY-HOLD1 (WS-IX5)         PPLOFFET
043500                          TO CHG1-DATA-VALUE                      PPLOFFET
043600              END-IF                                              PPLOFFET
043700         WHEN '0466'                                              PPLOFFET
043800             MOVE    LOF-REHIRE-SUSP-END-DATE                     PPLOFFET
043900                     OF LAYOFF-ARRAY (WS-IX5)                     PPLOFFET
044000                     TO TEMP-DATA-VALUE                           PPLOFFET
044100              IF PPXXXFET-CHANGE-REQUEST                          PPLOFFET
044200                  MOVE    LOF-REHIRE-SUSP-END-DATE                PPLOFFET
044300                          OF LAYOFF-ARRAY-HOLD (WS-IX5)           PPLOFFET
044400                          TO ORIG-DATA-VALUE                      PPLOFFET
044500                  MOVE    LOF-REHIRE-SUSP-END-DATE                PPLOFFET
044600                          OF  LAYOFF-ARRAY-HOLD1 (WS-IX5)         PPLOFFET
044700                          TO CHG1-DATA-VALUE                      PPLOFFET
044800              END-IF                                              PPLOFFET
044900         WHEN '0467'                                              PPLOFFET
045000             MOVE    LOF-RECALL-BGN-DATE                          PPLOFFET
045100                     OF LAYOFF-ARRAY (WS-IX5)                     PPLOFFET
045200                     TO TEMP-DATA-VALUE                           PPLOFFET
045300              IF PPXXXFET-CHANGE-REQUEST                          PPLOFFET
045400                  MOVE    LOF-RECALL-BGN-DATE                     PPLOFFET
045500                          OF LAYOFF-ARRAY-HOLD (WS-IX5)           PPLOFFET
045600                          TO ORIG-DATA-VALUE                      PPLOFFET
045700                  MOVE    LOF-RECALL-BGN-DATE                     PPLOFFET
045800                          OF  LAYOFF-ARRAY-HOLD1 (WS-IX5)         PPLOFFET
045900                          TO CHG1-DATA-VALUE                      PPLOFFET
046000              END-IF                                              PPLOFFET
046100         WHEN '0468'                                              PPLOFFET
046200             MOVE    LOF-RECALL-EXP-DATE                          PPLOFFET
046300                     OF LAYOFF-ARRAY (WS-IX5)                     PPLOFFET
046400                     TO TEMP-DATA-VALUE                           PPLOFFET
046500              IF PPXXXFET-CHANGE-REQUEST                          PPLOFFET
046600                  MOVE    LOF-RECALL-EXP-DATE                     PPLOFFET
046700                          OF LAYOFF-ARRAY-HOLD (WS-IX5)           PPLOFFET
046800                          TO ORIG-DATA-VALUE                      PPLOFFET
046900                  MOVE    LOF-RECALL-EXP-DATE                     PPLOFFET
047000                          OF  LAYOFF-ARRAY-HOLD1 (WS-IX5)         PPLOFFET
047100                          TO CHG1-DATA-VALUE                      PPLOFFET
047200              END-IF                                              PPLOFFET
047300         WHEN '0469'                                              PPLOFFET
047400             MOVE    LOF-RECALL-SUSP-BGN-TERM-DATE                PPLOFFET
047500                     OF LAYOFF-ARRAY (WS-IX5)                     PPLOFFET
047600                     TO TEMP-DATA-VALUE                           PPLOFFET
047700              IF PPXXXFET-CHANGE-REQUEST                          PPLOFFET
047800                  MOVE    LOF-RECALL-SUSP-BGN-TERM-DATE           PPLOFFET
047900                          OF LAYOFF-ARRAY-HOLD (WS-IX5)           PPLOFFET
048000                          TO ORIG-DATA-VALUE                      PPLOFFET
048100                  MOVE    LOF-RECALL-SUSP-BGN-TERM-DATE           PPLOFFET
048200                          OF  LAYOFF-ARRAY-HOLD1 (WS-IX5)         PPLOFFET
048300                          TO CHG1-DATA-VALUE                      PPLOFFET
048400              END-IF                                              PPLOFFET
048500         WHEN '0470'                                              PPLOFFET
048600             MOVE    LOF-RECALL-SUSP-END-DATE                     PPLOFFET
048700                     OF LAYOFF-ARRAY (WS-IX5)                     PPLOFFET
048800                     TO TEMP-DATA-VALUE                           PPLOFFET
048900              IF PPXXXFET-CHANGE-REQUEST                          PPLOFFET
049000                  MOVE    LOF-RECALL-SUSP-END-DATE                PPLOFFET
049100                          OF LAYOFF-ARRAY-HOLD (WS-IX5)           PPLOFFET
049200                          TO ORIG-DATA-VALUE                      PPLOFFET
049300                  MOVE    LOF-RECALL-SUSP-END-DATE                PPLOFFET
049400                          OF  LAYOFF-ARRAY-HOLD1 (WS-IX5)         PPLOFFET
049500                          TO CHG1-DATA-VALUE                      PPLOFFET
049600              END-IF                                              PPLOFFET
049700         WHEN '0471'                                              PPLOFFET
049800             MOVE    LOF-REHIRE-SUSP-TERM-RSN                     PPLOFFET
049900                     OF LAYOFF-ARRAY (WS-IX5)                     PPLOFFET
050000                     TO TEMP-DATA-VALUE                           PPLOFFET
050100              IF PPXXXFET-CHANGE-REQUEST                          PPLOFFET
050200                  MOVE    LOF-REHIRE-SUSP-TERM-RSN                PPLOFFET
050300                          OF LAYOFF-ARRAY-HOLD (WS-IX5)           PPLOFFET
050400                          TO ORIG-DATA-VALUE                      PPLOFFET
050500                  MOVE    LOF-REHIRE-SUSP-TERM-RSN                PPLOFFET
050600                          OF  LAYOFF-ARRAY-HOLD1 (WS-IX5)         PPLOFFET
050700                          TO CHG1-DATA-VALUE                      PPLOFFET
050800              END-IF                                              PPLOFFET
050900         WHEN '0472'                                              PPLOFFET
051000             MOVE    LOF-RECALL-SUSP-TERM-RSN                     PPLOFFET
051100                     OF LAYOFF-ARRAY (WS-IX5)                     PPLOFFET
051200                     TO TEMP-DATA-VALUE                           PPLOFFET
051300              IF PPXXXFET-CHANGE-REQUEST                          PPLOFFET
051400                  MOVE    LOF-RECALL-SUSP-TERM-RSN                PPLOFFET
051500                          OF LAYOFF-ARRAY-HOLD (WS-IX5)           PPLOFFET
051600                          TO ORIG-DATA-VALUE                      PPLOFFET
051700                  MOVE    LOF-RECALL-SUSP-TERM-RSN                PPLOFFET
051800                          OF  LAYOFF-ARRAY-HOLD1 (WS-IX5)         PPLOFFET
051900                          TO CHG1-DATA-VALUE                      PPLOFFET
052000              END-IF                                              PPLOFFET
052100         WHEN '0473'                                              PPLOFFET
052200             MOVE    LOF-UNIT-CODE                                PPLOFFET
052300                     OF LAYOFF-ARRAY (WS-IX5)                     PPLOFFET
052400                     TO TEMP-DATA-VALUE                           PPLOFFET
052500              IF PPXXXFET-CHANGE-REQUEST                          PPLOFFET
052600                  MOVE    LOF-UNIT-CODE                           PPLOFFET
052700                          OF LAYOFF-ARRAY-HOLD (WS-IX5)           PPLOFFET
052800                          TO ORIG-DATA-VALUE                      PPLOFFET
052900                  MOVE    LOF-UNIT-CODE                           PPLOFFET
053000                          OF  LAYOFF-ARRAY-HOLD1 (WS-IX5)         PPLOFFET
053100                          TO CHG1-DATA-VALUE                      PPLOFFET
053200              END-IF                                              PPLOFFET
053300         WHEN '0474'                                              PPLOFFET
053400             MOVE    LOF-TITLE-CODE                               PPLOFFET
053500                     OF LAYOFF-ARRAY (WS-IX5)                     PPLOFFET
053600                     TO TEMP-DATA-VALUE                           PPLOFFET
053700              IF PPXXXFET-CHANGE-REQUEST                          PPLOFFET
053800                  MOVE    LOF-TITLE-CODE                          PPLOFFET
053900                          OF LAYOFF-ARRAY-HOLD (WS-IX5)           PPLOFFET
054000                          TO ORIG-DATA-VALUE                      PPLOFFET
054100                  MOVE    LOF-TITLE-CODE                          PPLOFFET
054200                          OF  LAYOFF-ARRAY-HOLD1 (WS-IX5)         PPLOFFET
054300                          TO CHG1-DATA-VALUE                      PPLOFFET
054400              END-IF                                              PPLOFFET
054500         WHEN '0475'                                              PPLOFFET
054600             MOVE    LOF-DEPT-CODE                                PPLOFFET
054700                     OF LAYOFF-ARRAY (WS-IX5)                     PPLOFFET
054800                     TO TEMP-DATA-VALUE                           PPLOFFET
054900              IF PPXXXFET-CHANGE-REQUEST                          PPLOFFET
055000                  MOVE    LOF-DEPT-CODE                           PPLOFFET
055100                          OF LAYOFF-ARRAY-HOLD (WS-IX5)           PPLOFFET
055200                          TO ORIG-DATA-VALUE                      PPLOFFET
055300                  MOVE    LOF-DEPT-CODE                           PPLOFFET
055400                          OF  LAYOFF-ARRAY-HOLD1 (WS-IX5)         PPLOFFET
055500                          TO CHG1-DATA-VALUE                      PPLOFFET
055600              END-IF                                              PPLOFFET
055700         WHEN '0476'                                              PPLOFFET
055800             MOVE    LOF-ADC-CODE                                 PPLOFFET
055900                     OF LAYOFF-ARRAY (WS-IX5)                     PPLOFFET
056000                     TO TEMP-DATA-VALUE                           PPLOFFET
056100              IF PPXXXFET-CHANGE-REQUEST                          PPLOFFET
056200                  MOVE    LOF-ADC-CODE                            PPLOFFET
056300                          OF LAYOFF-ARRAY-HOLD (WS-IX5)           PPLOFFET
056400                          TO ORIG-DATA-VALUE                      PPLOFFET
056500                  MOVE    LOF-ADC-CODE                            PPLOFFET
056600                          OF  LAYOFF-ARRAY-HOLD1 (WS-IX5)         PPLOFFET
056700                          TO CHG1-DATA-VALUE                      PPLOFFET
056800              END-IF                                              PPLOFFET
056900         WHEN '0477'                                              PPLOFFET
057000             IF PPXXXFET-CHANGE-REQUEST                           PPLOFFET
057100                  MOVE    LOF-SALARY                              PPLOFFET
057200                          OF LAYOFF-ARRAY (WS-IX5)                PPLOFFET
057300                          TO TEMP-NUMBER                          PPLOFFET
057400                  MOVE    LOF-SALARY                              PPLOFFET
057500                          OF LAYOFF-ARRAY-HOLD (WS-IX5)           PPLOFFET
057600                          TO ORIG-NUMBER                          PPLOFFET
057700                  MOVE    LOF-SALARY                              PPLOFFET
057800                          OF  LAYOFF-ARRAY-HOLD1 (WS-IX5)         PPLOFFET
057900                          TO CHG1-NUMBER                          PPLOFFET
058000             ELSE                                                 PPLOFFET
058100                  SET DB2X-DET-NUMERIC TO TRUE                    PPLOFFET
058200                  MOVE    LOF-SALARY                              PPLOFFET
058300                          OF LAYOFF-ARRAY (WS-IX5)                PPLOFFET
058400                          TO WS-RATE-DEF                          PPLOFFET
058500                  IF LOF-SALARY-IND OF LAYOFF-ARRAY (WS-IX5)      PPLOFFET
058600                          = 'H'                                   PPLOFFET
058700                      MOVE WS-HOURLY-RATE-4V4 TO TEMP-DATA-VALUE  PPLOFFET
058800                  ELSE                                            PPLOFFET
058900                      MOVE WS-PERIOD-RATE-6V2 TO TEMP-DATA-VALUE  PPLOFFET
059000                  END-IF                                          PPLOFFET
059100             END-IF                                               PPLOFFET
059200         WHEN '0478'                                              PPLOFFET
059300             MOVE    LOF-SALARY-IND                               PPLOFFET
059400                     OF LAYOFF-ARRAY (WS-IX5)                     PPLOFFET
059500                     TO TEMP-DATA-VALUE                           PPLOFFET
059600              IF PPXXXFET-CHANGE-REQUEST                          PPLOFFET
059700                  MOVE    LOF-SALARY-IND                          PPLOFFET
059800                          OF LAYOFF-ARRAY-HOLD (WS-IX5)           PPLOFFET
059900                          TO ORIG-DATA-VALUE                      PPLOFFET
060000                  MOVE    LOF-SALARY-IND                          PPLOFFET
060100                          OF  LAYOFF-ARRAY-HOLD1 (WS-IX5)         PPLOFFET
060200                          TO CHG1-DATA-VALUE                      PPLOFFET
060300              END-IF                                              PPLOFFET
060400         WHEN '0479'                                              PPLOFFET
060500             MOVE    LOF-PERCENT-TIME                             PPLOFFET
060600                     OF LAYOFF-ARRAY (WS-IX5)                     PPLOFFET
060700                     TO TEMP-NUMBER                               PPLOFFET
060800              IF PPXXXFET-CHANGE-REQUEST                          PPLOFFET
060900                  MOVE    LOF-PERCENT-TIME                        PPLOFFET
061000                          OF LAYOFF-ARRAY-HOLD (WS-IX5)           PPLOFFET
061100                          TO ORIG-NUMBER                          PPLOFFET
061200                  MOVE    LOF-PERCENT-TIME                        PPLOFFET
061300                          OF  LAYOFF-ARRAY-HOLD1 (WS-IX5)         PPLOFFET
061400                          TO CHG1-NUMBER                          PPLOFFET
061500              END-IF                                              PPLOFFET
061600         WHEN OTHER                                               PPLOFFET
061700              IF PPXXXFET-DIAGNOSTICS-ON AND PPXXXFET-BATCH-CALL  PPLOFFET
061800                  DISPLAY A-STND-PROG-ID                          PPLOFFET
061900                          ': UNRECOGNIZED DATA ELEMENT NUMBER ('  PPLOFFET
062000                          WS-DATA-ELEM-NO                         PPLOFFET
062100                          ')'                                     PPLOFFET
062200              END-IF                                              PPLOFFET
062300              SET PPXXXFET-DATA-ELEM-NO-ERROR TO TRUE             PPLOFFET
062400     END-EVALUATE.                                                PPLOFFET
062500     SET DATA-RETURN TO TRUE                                      PPLOFFET
062510     IF NOT ENVIRON-IS-CICS                                       36430795
062600     IF PPXXXFET-CHANGE-REQUEST AND                               PPLOFFET
062700        TEMP-DATA-VALUE = ORIG-DATA-VALUE AND                     PPLOFFET
062800        ORIG-DATA-VALUE = CHG1-DATA-VALUE                         PPLOFFET
062900        SET BYPASS-RETURN TO TRUE                                 PPLOFFET
063000     END-IF                                                       PPLOFFET
063010     END-IF                                                       36430795
063100     IF PPXXXFET-LIST-REQUEST AND                                 PPLOFFET
063200        MULTIPLE-OCCURRENCE AND                                   PPLOFFET
063300        TEMP-DATA-VALUE = WS-ISO-INIT-DATE                        PPLOFFET
063400        SET BYPASS-RETURN TO TRUE                                 PPLOFFET
063500     END-IF.                                                      PPLOFFET
063600     EJECT                                                        PPLOFFET
063700 9400-EVALUATE-DATA-ELEMENT SECTION.                              PPLOFFET
063800*                                                                 PPLOFFET
063900     SET MULTIPLE-OCCURRENCE TO TRUE.                             PPLOFFET
064000**** IF  LOCAL-OFFSET-RETURNED                                    36091133
064100****     SET NO-LOCAL-OFFSET-RETURNED TO TRUE                     36091133
064200**** ELSE                                                         36091133
064300****     PERFORM VARYING WS-IX10 FROM 1 BY 1                      36091133
064400****       UNTIL WS-IX10 > PPEDBFET-MAX-PTR (WS-IX1)              36091133
064500****         COMPUTE PPEDBFET-RETURN-INDEX (WS-IX1, WS-IX10) =    36091133
064600****                 PPEDBFET-RETURN-INDEX (WS-IX1, WS-IX10)      36091133
064700****                 + LOCAL-OFFSET                               36091133
064800****     END-PERFORM                                              36091133
064900**** END-IF.                                                      36091133
065000     IF WS-IX2 = PPEDBFET-MAX-PTR (WS-IX1)                        PPLOFFET
065100         MOVE ZERO TO WS-IX2                                      PPLOFFET
065200     ELSE                                                         PPLOFFET
065300         COMPUTE WS-IX2 = WS-IX2 - 1                              PPLOFFET
065400     END-IF.                                                      PPLOFFET
065500     PERFORM WITH TEST AFTER                                      PPLOFFET
065600       UNTIL WS-IX2 = PPEDBFET-MAX-PTR (WS-IX1)                   PPLOFFET
065700          OR PPXXXFET-MORE-DATA                                   PPLOFFET
065800         ADD 1 TO WS-IX2                                          PPLOFFET
065900         MOVE PPEDBFET-REQUEST-INDEX (WS-IX1, WS-IX2) TO          PPLOFFET
066000              WS-IX3                                              PPLOFFET
066100         MOVE PPEDBFET-REQ-DATA-ELEM-NO (WS-IX3) TO               PPLOFFET
066200              WS-DATA-ELEM-NO                                     PPLOFFET
066300         MOVE SPACE TO                                            PPLOFFET
066400              WS-OCCURRENCE-KEY                                   PPLOFFET
066500         PERFORM 9300-EVALUATE-DATA-ELEMENT                       PPLOFFET
066600         IF MULTIPLE-OCCURRENCE AND DATA-RETURN                   PPLOFFET
066700             IF WS-IX4 = PPXXXFET-MAX-RETURN-ENTRIES AND          PPLOFFET
066800                WS-IX5 < WS-ARRAY-MAX                             PPLOFFET
066900                SET PPXXXFET-MORE-DATA TO TRUE                    PPLOFFET
067000****            IF WS-IX2 < PPEDBFET-MAX-PTR (WS-IX1)             36091133
067100****                MOVE LOCAL-OFFSET TO PPXXXFET-SAVE7           36091133
067200****            ELSE                                              36091133
067300****                MOVE ZERO TO PPXXXFET-SAVE7                   36091133
067400****            END-IF                                            36091133
067500                PERFORM 9050-SAVE-INDEXES                         PPLOFFET
067600              ELSE                                                PPLOFFET
067700                PERFORM 0900-SETUP-FOR-RETURN                     PPLOFFET
067800****            ADD 1 TO LOCAL-OFFSET                             36091133
067900                SET MULT-DATA-RETURNED TO TRUE                    PPLOFFET
068000             END-IF                                               PPLOFFET
068100         END-IF                                                   PPLOFFET
068200     END-PERFORM.                                                 PPLOFFET
068300******************************************************************PPLOFFET
068400 9500-SET-UP-EVAL-DATA-ELEM SECTION.                              PPLOFFET
068500     SKIP1                                                        PPLOFFET
068600**** SET NO-LOCAL-OFFSET-RETURNED TO TRUE.                        36091133
068700     SET MULT-DATA-NOT-RETURNED TO TRUE.                          PPLOFFET
068800     SKIP1                                                        PPLOFFET
068900**** IF PPXXXFET-SAVE7 NOT = ZERO                                 36091133
069000****     MOVE PPXXXFET-SAVE7 TO LOCAL-OFFSET                      36091133
069100****     MOVE ZERO TO PPXXXFET-SAVE7                              36091133
069200****     SET LOCAL-OFFSET-RETURNED TO TRUE                        36091133
069300**** END-IF.                                                      36091133
069400     IF PPXXXFET-SAVE3 NOT = ZEROES                               PPLOFFET
069500         INITIALIZE PPXXXFET-SAVE-INDEXES                         PPLOFFET
069600         GO TO 9500-X                                             PPLOFFET
069700     END-IF.                                                      PPLOFFET
069800     SKIP1                                                        PPLOFFET
069900     MOVE ZERO TO WS-ARRAY-IX.                                    PPLOFFET
070000     SET SNGL-TITLE-CODE TO TRUE.                                 PPLOFFET
070100     SET SNGL-DEPT-CODE TO TRUE.                                  PPLOFFET
070200     SET SNGL-NOTICE-DATE TO TRUE.                                05490748
070300     SKIP1                                                        PPLOFFET
070400     IF (WS-LAYOFF-TITLE-CODE = '*' OR SPACE)                     PPLOFFET
070500         SET MULT-TITLE-CODE TO TRUE                              PPLOFFET
070600     END-IF.                                                      PPLOFFET
070700     SKIP1                                                        PPLOFFET
070800     IF (WS-LAYOFF-DEPT-CODE = '*' OR SPACE)                      PPLOFFET
070900         SET MULT-DEPT-CODE TO TRUE                               PPLOFFET
071000     END-IF.                                                      PPLOFFET
071100     SKIP1                                                        PPLOFFET
071200     IF (WS-LAYOFF-NOTICE-DATE  = '*' OR SPACE)                   05490748
071300         SET MULT-NOTICE-DATE TO TRUE                             05490748
071400     END-IF.                                                      05490748
071500     SKIP1                                                        05490748
071600     IF MULT-TITLE-CODE OR MULT-DEPT-CODE                         PPLOFFET
071700         OR  MULT-NOTICE-DATE                                     05490748
071800         SET MULTIPLE-OCCURRENCE TO TRUE                          PPLOFFET
071900     END-IF.                                                      PPLOFFET
072000*                                                                 PPLOFFET
072100*    DETERMINE THE SIZE OF THE ORIGINAL ARRAY                     PPLOFFET
072200*                                                                 PPLOFFET
072300*                                                                 PPLOFFET
072400     PERFORM VARYING WS-IX5 FROM 1 BY 1                           PPLOFFET
072500             UNTIL (WS-IX5 > IDC-MAX-NO-LOF)                      PPLOFFET
072600         OR (LOF-TITLE-CODE   OF LAYOFF-ARRAY-HOLD  (WS-IX5)      PPLOFFET
072700             = SPACE                                              PPLOFFET
072800         AND LOF-DEPT-CODE    OF LAYOFF-ARRAY-HOLD  (WS-IX5)      PPLOFFET
072900*****        = SPACE)                                             05490748
073000             = SPACE                                              05490748
073100         AND LOF-NOTICE-DATE  OF LAYOFF-ARRAY-HOLD  (WS-IX5)      05490748
073200             = WS-ISO-INIT-DATE)                                  05490748
073300     END-PERFORM.                                                 PPLOFFET
073400*                                                                 PPLOFFET
073500*    SAVE THE INFORMATION                                         PPLOFFET
073600*                                                                 PPLOFFET
073700                                                                  PPLOFFET
073800     IF WS-IX5 > IDC-MAX-NO-LOF                                   PPLOFFET
073900         MOVE IDC-MAX-NO-LOF TO WS-ARRAY-HOLD-MAX                 PPLOFFET
074000     ELSE                                                         PPLOFFET
074100         COMPUTE WS-ARRAY-HOLD-MAX = WS-IX5 - 1                   PPLOFFET
074200     END-IF.                                                      PPLOFFET
074300*                                                                 PPLOFFET
074400*    NOW DETERMINE THE SIZE OF THE ARRAY                          PPLOFFET
074500*                                                                 PPLOFFET
074600*                                                                 PPLOFFET
074700     PERFORM VARYING WS-IX9 FROM WS-IX5 BY 1                      PPLOFFET
074800             UNTIL (WS-IX9 > IDC-MAX-NO-LOF)                      PPLOFFET
074900         OR (LOF-TITLE-CODE      OF LAYOFF-ARRAY (WS-IX9)         PPLOFFET
075000             = SPACE                                              PPLOFFET
075100         AND LOF-DEPT-CODE       OF LAYOFF-ARRAY (WS-IX9)         PPLOFFET
075200             = SPACE)                                             PPLOFFET
075300     END-PERFORM.                                                 PPLOFFET
075400*                                                                 PPLOFFET
075500*    SAVE THE INFORMATION                                         PPLOFFET
075600*                                                                 PPLOFFET
075700*                                                                 PPLOFFET
075800                                                                  PPLOFFET
075900     IF WS-IX9 > IDC-MAX-NO-LOF                                   PPLOFFET
076000         MOVE IDC-MAX-NO-LOF TO WS-ARRAY-MAX                      PPLOFFET
076100     ELSE                                                         PPLOFFET
076200         COMPUTE WS-ARRAY-MAX = WS-IX9 - 1                        PPLOFFET
076300     END-IF.                                                      PPLOFFET
076400     SKIP1                                                        PPLOFFET
076500 9500-X.                                                          PPLOFFET
076600     EXIT.                                                        PPLOFFET
