000001**************************************************************/   36091133
000002*  PROGRAM: PPLSCFET                                         */   36091133
000003*  RELEASE: ___1133______ SERVICE REQUEST(S): ____3609_____  */   36091133
000004*  NAME:___G STEINITZ____ MODIFICATION DATE:  ___05/22/97__  */   36091133
000005*  DESCRIPTION:                                              */   36091133
000006*  REMOVE OFFSET LOGIC AND SIMPLIFY RETURN ARRAY LOGIC.      */   36091133
000007**************************************************************/   36091133
000100**************************************************************/   36290827
000200*  PROGRAM:  PPLSCFET                                        */   36290827
000300*  RELEASE # ____0827____ SERVICE REQUEST NO(S)___3629_______*/   36290827
000400*  NAME ___J_LUCAS_____   MODIFICATION DATE ____10/21/93_____*/   36290827
000500*  DESCRIPTION                                               */   36290827
000600*    EDB LSC TABLE  FETCH DRIVER MODULE.                     */   36290827
000700**************************************************************/   36290827
000800 IDENTIFICATION DIVISION.                                         PPLSCFET
000900 PROGRAM-ID. PPLSCFET.                                            PPLSCFET
001000 AUTHOR. UCOP.                                                    PPLSCFET
001100 DATE-WRITTEN. APRIL 1993.                                        PPLSCFET
001200 DATE-COMPILED.                                                   PPLSCFET
001300*REMARKS.                                                         PPLSCFET
001400******************************************************************PPLSCFET
001500*                                                                *PPLSCFET
001600*  THIS PROGRAM DRIVES THE RETRIEVAL OF EMPLOYEE DATA BASE       *PPLSCFET
001700* DATA ELEMENTS, BY DATA ELEMENT NUMBER, FROM LAYOFF SENIORITY   *PPLSCFET
001800* CREDIT ARRAY.                                                  *PPLSCFET
001900* THIS PROGRAM IS CALLED BY PPEDBFET.                            *PPLSCFET
002000*                                                                *PPLSCFET
002100*  THE DETAILS OF THIS PROGRAMS FUNCTION ARE DESCRIBED IN THE    *PPLSCFET
002200* PROCEDURE DIVISION COPYMEMBER CPPDEFET.                        *PPLSCFET
002300*                                                                *PPLSCFET
002400******************************************************************PPLSCFET
002500     EJECT                                                        PPLSCFET
002600 ENVIRONMENT DIVISION.                                            PPLSCFET
002700 CONFIGURATION SECTION.                                           PPLSCFET
002800 SOURCE-COMPUTER.                   COPY CPOTXUCS.                PPLSCFET
002900 OBJECT-COMPUTER.                   COPY CPOTXOBJ.                PPLSCFET
003000      EJECT                                                       PPLSCFET
003100******************************************************************PPLSCFET
003200*                                                                *PPLSCFET
003300*                D A T A  D I V I S I O N                        *PPLSCFET
003400*                                                                *PPLSCFET
003500******************************************************************PPLSCFET
003600 DATA DIVISION.                                                   PPLSCFET
003700 WORKING-STORAGE SECTION.                                         PPLSCFET
003800 01  MISCELLANEOUS-WS.                                            PPLSCFET
003900******************************************************************PPLSCFET
004000*                                                                *PPLSCFET
004100* NOTE:                                                          *PPLSCFET
004200*                                                                *PPLSCFET
004300*  DATA NAMES, A-STND-PROG-ID AND PPXXXUTL-NAME,                 *PPLSCFET
004400*  ARE REFERENCED IN COPY CODE CPPDEFET. A-STND-PROG-ID IS USED  *PPLSCFET
004500*  IN DIAGNOSTIC REFERENCES, WHILE PPXXUTL-NAME                  *PPLSCFET
004600*  IS USED IN DYNAMIC CALLS TO THE APPROPRIATE TABLE READ        *PPLSCFET
004700*  UTILITY.                                                      *PPLSCFET
004800*                                                                *PPLSCFET
004900******************************************************************PPLSCFET
005000     05  A-STND-PROG-ID      PIC X(08) VALUE 'PPLSCFET'.          PPLSCFET
005100     05  PPXXXUTL-NAME       PIC X(08) VALUE 'PPLSCUTL'.          PPLSCFET
005200     05  WS-INIT-DATE        PIC X(10) VALUE '01/01/0001'.        PPLSCFET
005300     05  WS-ISO-INIT-DATE    PIC X(10) VALUE '0001-01-01'.        PPLSCFET
005400     05  TITLE-MATCH-SWITCH PIC X(01) VALUE 'Y'.                  PPLSCFET
005500         88  TITLE-MATCH              VALUE 'Y'.                  PPLSCFET
005600         88  NOT-TITLE-MATCH          VALUE 'N'.                  PPLSCFET
005700     05  FIRST-TIME-SWITCH   PIC X(01) VALUE 'Y'.                 PPLSCFET
005800         88  FIRST-TIME                VALUE 'Y'.                 PPLSCFET
005900         88  NOT-FIRST-TIME            VALUE 'N'.                 PPLSCFET
006000     05  INIT-VALUE-SWITCH   PIC X(01) VALUE 'Y'.                 PPLSCFET
006100         88  INIT-VALUE                VALUE 'Y'.                 PPLSCFET
006200         88  NON-INIT-VALUE            VALUE 'N'.                 PPLSCFET
006300     05  MULTIPLE-OCCUR-SW   PIC X(01) VALUE 'N'.                 PPLSCFET
006400         88  MULTIPLE-OCCURRENCE       VALUE 'Y'.                 PPLSCFET
006500         88  SINGLE-OCCURRENCE         VALUE 'N'.                 PPLSCFET
006600     05  MULT-TITLE-CODE-SW  PIC X(01) VALUE 'N'.                 PPLSCFET
006700         88  MULT-TITLE-CODE           VALUE 'Y'.                 PPLSCFET
006800         88  SNGL-TITLE-CODE           VALUE 'N'.                 PPLSCFET
006900     05  MULT-TUC-SW         PIC X(01) VALUE 'N'.                 PPLSCFET
007000         88  MULT-TUC                  VALUE 'Y'.                 PPLSCFET
007100         88  SNGL-TUC                  VALUE 'N'.                 PPLSCFET
007200     05  MULT-APPT-REP-SW    PIC X(01) VALUE 'N'.                 PPLSCFET
007300         88  MULT-APPT-REP             VALUE 'Y'.                 PPLSCFET
007400         88  SNGL-APPT-REP             VALUE 'N'.                 PPLSCFET
007500     05  DATE-VALUE-SWITCH   PIC X(01) VALUE 'N'.                 PPLSCFET
007600         88  NO-DATE-VALUE             VALUE 'N'.                 PPLSCFET
007700         88  ISO-DATE-VALUE            VALUE 'I'.                 PPLSCFET
007800         88  USA-DATE-VALUE            VALUE 'U'.                 PPLSCFET
007900         88  DATE-VALUE                VALUES 'I' 'U'.            PPLSCFET
008000     05  DATA-RETURN-SW      PIC X(01) VALUE 'N'.                 PPLSCFET
008100         88  DATA-RETURN               VALUE 'Y'.                 PPLSCFET
008200         88  BYPASS-RETURN             VALUE 'N'.                 PPLSCFET
008300     05  LOCAL-OFFSET-RETURN-SW PIC X(01) VALUE 'N'.              PPLSCFET
008400         88  LOCAL-OFFSET-RETURNED     VALUE 'Y'.                 PPLSCFET
008500         88  NO-LOCAL-OFFSET-RETURNED  VALUE 'N'.                 PPLSCFET
008600     05  MULT-DATA-RETURN-SW PIC X(01) VALUE 'N'.                 PPLSCFET
008700         88  MULT-DATA-RETURNED        VALUE 'Y'.                 PPLSCFET
008800         88  MULT-DATA-NOT-RETURNED    VALUE 'N'.                 PPLSCFET
008900     05  DATE-HOLD-SWITCH    PIC X(01) VALUE 'N'.                 PPLSCFET
009000     05  WS-DATA-TYPE        PIC X(01) VALUE 'A'.                 PPLSCFET
009100         88  WS-DATA-TYPE-AN           VALUE 'A'.                 PPLSCFET
009200         88  WS-DATA-TYPE-NUM          VALUE 'N'.                 PPLSCFET
009300         88  WS-DATA-TYPE-DATE         VALUE 'D'.                 PPLSCFET
009400     05  WS-EMPLOYEE-ID      PIC X(09) VALUE SPACES.              PPLSCFET
009500     05  WS-DATA-ELEM-NO     PIC 9(04) VALUE ZEROES.              PPLSCFET
009600     05  WS-OCCURRENCE-KEY.                                       PPLSCFET
009700         15  WS-LSC-TITLE-CODE      PIC  X(04).                   PPLSCFET
009800         15  WS-LSC-TUC             PIC  X(02).                   PPLSCFET
009900         15  WS-LSC-APPT-REP-CODE   PIC  X(01).                   PPLSCFET
010000     05  WS-IX1              PIC S9(4) COMP VALUE ZERO.           PPLSCFET
010100     05  WS-IX2              PIC S9(4) COMP VALUE ZERO.           PPLSCFET
010200     05  WS-IX3              PIC S9(4) COMP VALUE ZERO.           PPLSCFET
010300     05  WS-IX4              PIC S9(4) COMP VALUE ZERO.           PPLSCFET
010400     05  WS-IX5              PIC S9(4) COMP VALUE ZERO.           PPLSCFET
010500     05  WS-IX9              PIC S9(4) COMP VALUE ZERO.           PPLSCFET
009500**** 05  WS-IX10             PIC S9(4) COMP VALUE ZERO.           36091133
010700     05  WS-ARRAY-IX         PIC S9(4) COMP VALUE ZERO.           PPLSCFET
010800     05  WS-ARRAY-MAX        PIC S9(4) COMP VALUE ZERO.           PPLSCFET
010900     05  WS-ARRAY-HOLD-MAX   PIC S9(4) COMP VALUE ZERO.           PPLSCFET
009900**** 05  LOCAL-OFFSET        PIC S9(4) COMP VALUE ZERO.           36091133
011100     SKIP3                                                        PPLSCFET
011200 01  DATE-CONVERSION-WORK-AREAS.                                  PPLSCFET
011300                                    COPY CPWSXDC2.                PPLSCFET
011400     EJECT                                                        PPLSCFET
011500 01  TEMP-DATA-AREA.                                              PPLSCFET
011600                                    COPY CPWSXMMM.                PPLSCFET
011700     EJECT                                                        PPLSCFET
011800******************************************************************PPLSCFET
011900* LAYOFF-CREDIT-ARRAY:                                           *PPLSCFET
012000*                 THE ROW THAT WILL BE PASSED AROUND FOR USE     *PPLSCFET
012100* BY HIGHER LEVEL PROGRAMS. IT IS DEFINED AS AN EXTERNAL DATA    *PPLSCFET
012200* AREA TO ALLOW HIGHER LEVEL PROGRAMS TO AVOID PASSING THE ROW   *PPLSCFET
012300* THROUGH UNNECESSARY CALLING CHAINS.                            *PPLSCFET
012400*                                                                *PPLSCFET
012500* LAYOFF-CREDIT-ARRAY-HOLD:                                      *PPLSCFET
012600*                      THE PURE ROW AS READ FROM THE LSC TBL ROW.*PPLSCFET
012700* IT IS HELD IN WORKING-STORAGE TO ALLOW THE REFRESH FUNCTION    *PPLSCFET
012800* TO BE PERFORMED WITHOUT AN ADDED DATA BASE ACCESS.             *PPLSCFET
012900*                                                                *PPLSCFET
013000* LAYOFF-CREDIT-ARRAY-HOLD1:                                     *PPLSCFET
013100*                       THE ROW AS SET ASIDE, AFTER SOME UPDATE  *PPLSCFET
013200* ACTIVITY, BY THE EDB UPDATE COMPLEX, TO ALLOW THE GENERATION   *PPLSCFET
013300* OF THE "FIRST" CHANGE ENTRY IN CHANGE RECORDS.                 *PPLSCFET
013400*                                                                *PPLSCFET
013500******************************************************************PPLSCFET
013600 01  LAYOFF-CREDIT-ARRAY              EXTERNAL.                   PPLSCFET
013700                                 COPY CPWSELSC.                   PPLSCFET
013800     EJECT                                                        PPLSCFET
013900 01  LAYOFF-CREDIT-ARRAY-HOLD         EXTERNAL.                   PPLSCFET
014000                                 COPY CPWSELSC.                   PPLSCFET
014100     EJECT                                                        PPLSCFET
014200 01  LAYOFF-CREDIT-ARRAY-HOLD1  EXTERNAL.                         PPLSCFET
014300                                 COPY CPWSELSC.                   PPLSCFET
014400     EJECT                                                        PPLSCFET
014500 01  PPEDBFET-REQUEST-ARRAY     EXTERNAL.                         PPLSCFET
014600                                    COPY CPWSEREQ.                PPLSCFET
014700     EJECT                                                        PPLSCFET
014800 01  PPEDBFET-D-E-RETURN-ARRAY  EXTERNAL.                         PPLSCFET
014900                                    COPY CPWSERET.                PPLSCFET
015000     EJECT                                                        PPLSCFET
015100 01  PPEDBFET-CHANGE-RETURN-ARRAY EXTERNAL.                       PPLSCFET
015200                                    COPY CPWSECHG.                PPLSCFET
015300     EJECT                                                        PPLSCFET
015400 01  PPEDBFET-RETURN-POINTERS     EXTERNAL.                       PPLSCFET
015500                                    COPY CPWSEPTR.                PPLSCFET
015600     EJECT                                                        PPLSCFET
015700 01  PPLSCUTL-INTERFACE.                                          PPLSCFET
015800                                    COPY CPLNKLSC.                PPLSCFET
015900     EJECT                                                        PPLSCFET
016000 01  XWHC-COMPILE-WORK-AREA.                                      PPLSCFET
016100                                    COPY CPWSXWHC.                PPLSCFET
016200     EJECT                                                        PPLSCFET
016300 01  PPXXXFET-INTERFACE  EXTERNAL.                                PPLSCFET
016400                                    COPY CPLNFXXX.                PPLSCFET
016500     EJECT                                                        PPLSCFET
016600 01  PAYROLL-CONSTANTS.                                           PPLSCFET
016700                                    COPY CPWSXIC2.                PPLSCFET
016800     EJECT                                                        PPLSCFET
016900 PROCEDURE DIVISION.                                              PPLSCFET
017000*                                                                 PPLSCFET
017100******************************************************************PPLSCFET
017200*            P R O C E D U R E  D I V I S I O N                  *PPLSCFET
017300******************************************************************PPLSCFET
017400*                                                                 PPLSCFET
017500******************************************************************PPLSCFET
017600*                                                                *PPLSCFET
017700*  THE PROCEDURE DIVISION OF THIS PROGRAM IS CONTAINED PRIMARILY *PPLSCFET
017800* IN COPY MEMBER CPPDEFET. HERE THE GENERIC DATA-NAMES IN        *PPLSCFET
017900* CPPDEFET ARE REPLACED WITH THE SPECIFIC DATA-NAMES OF THE      *PPLSCFET
018000* WORKING STORAGE TABLE ROWS AND THE PPXXXUTL MODULE INTERFACE.  *PPLSCFET
018100*                                                                *PPLSCFET
018200*                                                                *PPLSCFET
018300******************************************************************PPLSCFET
018400                                     COPY CPPDEFET                PPLSCFET
018500        REPLACING PP000UTL-INTERFACE   BY PPLSCUTL-INTERFACE      PPLSCFET
018600                  PP000UTL-ERROR       BY PPLSCUTL-ERROR          PPLSCFET
018700                  PP000UTL-EMPLOYEE-ID BY PPLSCUTL-EMPLOYEE-ID    PPLSCFET
018800                  000-ROW  BY LAYOFF-CREDIT-ARRAY.                PPLSCFET
018900     EJECT                                                        PPLSCFET
019000 7900-FIRST-TIME SECTION.                                         PPLSCFET
019100     SKIP1                                                        PPLSCFET
019200     MOVE A-STND-PROG-ID TO XWHC-DISPLAY-MODULE.                  PPLSCFET
019300     IF PPXXXFET-NON-INITIAL-REQUEST OR                           PPLSCFET
018300        PPXXXFET-LIST-REQUEST                                     36091133
019500         INITIALIZE LAYOFF-CREDIT-ARRAY-HOLD                      PPLSCFET
019600         INITIALIZE LAYOFF-CREDIT-ARRAY-HOLD1                     PPLSCFET
019700     END-IF.                                                      PPLSCFET
019800     SKIP1                                                        PPLSCFET
019900                                    COPY CPPDXWHC.                PPLSCFET
020000     EJECT                                                        PPLSCFET
020100 8800-CONVERT-DATES SECTION.                                      PPLSCFET
020200     SKIP3                                                        PPLSCFET
020300                                    COPY CPPDXDC2.                PPLSCFET
020400     EJECT                                                        PPLSCFET
020500 9000-RESTORE-INDEXES SECTION.                                    PPLSCFET
020600     SKIP1                                                        PPLSCFET
020700     INITIALIZE WS-IX4.                                           PPLSCFET
020800     EJECT                                                        PPLSCFET
020900 9050-SAVE-INDEXES SECTION.                                       PPLSCFET
021000     SKIP1                                                        PPLSCFET
021100     COMPUTE WS-ARRAY-IX = WS-IX5.                                PPLSCFET
021200     MOVE WS-ARRAY-IX TO PPXXXFET-SAVE3.                          PPLSCFET
021300     EJECT                                                        PPLSCFET
021400 9100-EVALUATE-DATA-ELEMENT SECTION.                              PPLSCFET
020400**** MOVE ZERO TO LOCAL-OFFSET.                                   36091133
021600     IF PPXXXFET-NON-INITIAL-REQUEST                              PPLSCFET
021700         PERFORM 9500-SET-UP-EVAL-DATA-ELEM                       PPLSCFET
021800         IF WS-ARRAY-IX NOT > ZERO                                PPLSCFET
021900             MOVE 1 TO WS-ARRAY-IX                                PPLSCFET
022000         END-IF                                                   PPLSCFET
022100******************************************************************PPLSCFET
022200*    THIS PERFORM WILL RETURN DATA ELEMENTS SORTED               *PPLSCFET
022300*    BY OCCURENCE KEY FOLLOWED BY DATA ELEMENT NUMBER.           *PPLSCFET
022400*    E.G. FOR "NON INITIAL" REQUEST, ALL DATA ELEMENTS FOR       *PPLSCFET
022500*    AN ARRAY ITEMS ARE RETURNED AS THEY ARE LOCATED WITHIN      *PPLSCFET
022600*    ONE ARRAY ITEM.                                             *PPLSCFET
022700*                                                                *PPLSCFET
022800*    NOTE THAT CODE IN SECTION 9400 TAKES OVER THE FUNCTION      *PPLSCFET
022900*    OF THE PERFORM OF SECTION 9100- FOUND IN CPPDEFET.          *PPLSCFET
023000******************************************************************PPLSCFET
023100         PERFORM VARYING WS-IX5 FROM WS-ARRAY-IX BY 1             PPLSCFET
023200             UNTIL (WS-IX5 > WS-ARRAY-MAX)                        PPLSCFET
023300               OR PPXXXFET-MORE-DATA                              PPLSCFET
023400             PERFORM 9400-EVALUATE-DATA-ELEMENT                   PPLSCFET
023500             IF NOT PPXXXFET-MORE-DATA                            PPLSCFET
023600                 MOVE PPEDBFET-MAX-PTR (WS-IX1) TO WS-IX2         PPLSCFET
023700             END-IF                                               PPLSCFET
023800         END-PERFORM                                              PPLSCFET
022800****     COMPUTE PPXXXFET-OFFSET =                                36091133
022900****             PPXXXFET-OFFSET + LOCAL-OFFSET                   36091133
024100     ELSE                                                         PPLSCFET
024200         PERFORM 9500-SET-UP-EVAL-DATA-ELEM                       PPLSCFET
024300         PERFORM 9200-EVALUATE-DATA-ELEMENT.                      PPLSCFET
024400     EJECT                                                        PPLSCFET
024500 9200-EVALUATE-DATA-ELEMENT SECTION.                              PPLSCFET
024600******************************************************************PPLSCFET
024700*    THIS SECTION WILL RETURN DATA ELEMENTS SORTED               *PPLSCFET
024800*    BY DATA ELEMENT NUMBER FOLLOWED BY OCCURENCE KEY.           *PPLSCFET
024900*    E.G. IN THE CASE OF A GENERIC REQUEST (THAT IS WHEN         *PPLSCFET
025000*    88 MULTIPLE-OCCURRENCE IS TRUE), ALL ARRAY ITEMS            *PPLSCFET
025100*    FOR THE DATA ELEMENT ARE RETURNED TOGETHER.                 *PPLSCFET
025200******************************************************************PPLSCFET
025300     SKIP1                                                        PPLSCFET
025400     IF MULT-TITLE-CODE OR MULT-TUC                               PPLSCFET
025500         OR MULT-APPT-REP                                         PPLSCFET
025600         SET MULTIPLE-OCCURRENCE TO TRUE                          PPLSCFET
025700     END-IF.                                                      PPLSCFET
025800     SKIP1                                                        PPLSCFET
025900                                                                  PPLSCFET
026000     COMPUTE WS-ARRAY-IX = WS-ARRAY-IX + 1.                       PPLSCFET
026100******************************************************************PPLSCFET
026200     PERFORM VARYING WS-IX5 FROM WS-ARRAY-IX BY 1                 PPLSCFET
026300         UNTIL (WS-IX5 > WS-ARRAY-MAX)                            PPLSCFET
026400           OR PPXXXFET-MORE-DATA                                  PPLSCFET
026500                                                                  PPLSCFET
026600         SET NOT-TITLE-MATCH TO TRUE                              PPLSCFET
026700         IF MULT-TITLE-CODE                                       PPLSCFET
026800             SET TITLE-MATCH  TO TRUE                             PPLSCFET
026900         ELSE                                                     PPLSCFET
027000*                                                                 PPLSCFET
027100*      SINCE THE KEY INFO IN THE ARRAY MAY BE GONE                PPLSCFET
027200*      FROM ITEMS WITHIN THE ORIGINAL GROUP OF RECORDS            PPLSCFET
027300*      (DUE TO DELETION),                                         PPLSCFET
027400*      WE MUST MATCH AGAINST -HOLD FOR ORIGINAL ITEMS             PPLSCFET
027500                                                                  PPLSCFET
027600             IF WS-IX5 NOT > WS-ARRAY-HOLD-MAX                    PPLSCFET
027700                 IF (LAY-CR-TITLE-CODE OF                         PPLSCFET
027800                    LAYOFF-CREDIT-ARRAY-HOLD (WS-IX5)             PPLSCFET
027900                     = WS-LSC-TITLE-CODE)                         PPLSCFET
028000                     SET TITLE-MATCH TO TRUE                      PPLSCFET
028100                 END-IF                                           PPLSCFET
028200             ELSE                                                 PPLSCFET
028300                 IF (LAY-CR-TITLE-CODE OF                         PPLSCFET
028400                    LAYOFF-CREDIT-ARRAY        (WS-IX5)           PPLSCFET
028500                     = WS-LSC-TITLE-CODE)                         PPLSCFET
028600                     SET TITLE-MATCH TO TRUE                      PPLSCFET
028700                 END-IF                                           PPLSCFET
028800             END-IF                                               PPLSCFET
028900         END-IF                                                   PPLSCFET
029000*                                                                 PPLSCFET
029100*      SINCE THE KEY INFO IN THE ARRAY MAY BE GONE                PPLSCFET
029200*      FROM ITEMS WITHIN THE ORIGINAL GROUP OF RECORDS            PPLSCFET
029300*      (DUE TO DELETION),                                         PPLSCFET
029400*      WE MUST MATCH AGAINST -HOLD FOR ORIGINAL ITEMS             PPLSCFET
029500*                                                                 PPLSCFET
029600         IF WS-IX5 NOT > WS-ARRAY-HOLD-MAX                        PPLSCFET
029700             IF TITLE-MATCH                                       PPLSCFET
029800               AND ((LAY-CR-TUC OF                                PPLSCFET
029900                     LAYOFF-CREDIT-ARRAY-HOLD (WS-IX5)            PPLSCFET
030000                 =   WS-LSC-TUC)                                  PPLSCFET
030100                         OR                                       PPLSCFET
030200                     MULT-TUC)                                    PPLSCFET
030300               AND ((LAY-CR-APPT-REP-CODE OF                      PPLSCFET
030400                     LAYOFF-CREDIT-ARRAY-HOLD (WS-IX5)            PPLSCFET
030500                 =   WS-LSC-APPT-REP-CODE OR MULT-APPT-REP)       PPLSCFET
030600                         OR                                       PPLSCFET
030700                     MULT-APPT-REP)                               PPLSCFET
030800                                                                  PPLSCFET
030900                 PERFORM 9300-EVALUATE-DATA-ELEMENT               PPLSCFET
031000                                                                  PPLSCFET
031100             END-IF                                               PPLSCFET
031200         ELSE                                                     PPLSCFET
031300             IF TITLE-MATCH                                       PPLSCFET
031400               AND ((LAY-CR-TUC OF                                PPLSCFET
031500                     LAYOFF-CREDIT-ARRAY (WS-IX5)                 PPLSCFET
031600                 =   WS-LSC-TUC)                                  PPLSCFET
031700                     OR                                           PPLSCFET
031800                     MULT-TUC)                                    PPLSCFET
031900               AND ((LAY-CR-APPT-REP-CODE OF                      PPLSCFET
032000                     LAYOFF-CREDIT-ARRAY (WS-IX5)                 PPLSCFET
032100                 =   WS-LSC-APPT-REP-CODE)                        PPLSCFET
032200                     OR                                           PPLSCFET
032300                     MULT-APPT-REP)                               PPLSCFET
032400                 PERFORM 9300-EVALUATE-DATA-ELEMENT               PPLSCFET
032500                                                                  PPLSCFET
032600             END-IF                                               PPLSCFET
032700         END-IF                                                   PPLSCFET
032800                                                                  PPLSCFET
032900         IF MULTIPLE-OCCURRENCE AND DATA-RETURN                   PPLSCFET
033000             IF WS-IX4 = PPXXXFET-MAX-RETURN-ENTRIES AND          PPLSCFET
033100                WS-IX5 < WS-ARRAY-MAX                             PPLSCFET
033200                SET PPXXXFET-MORE-DATA TO TRUE                    PPLSCFET
033300                PERFORM 9050-SAVE-INDEXES                         PPLSCFET
033400              ELSE                                                PPLSCFET
033500                PERFORM 0900-SETUP-FOR-RETURN                     PPLSCFET
032500****            ADD 1 TO PPXXXFET-OFFSET                          36091133
033700                SET MULT-DATA-RETURNED TO TRUE                    PPLSCFET
033800             END-IF                                               PPLSCFET
033900         END-IF                                                   PPLSCFET
034000     END-PERFORM.                                                 PPLSCFET
034100******************************************************************PPLSCFET
033100**** IF MULT-DATA-RETURNED                                        36091133
033200****     SUBTRACT 1 FROM PPXXXFET-OFFSET                          36091133
033300**** END-IF.                                                      36091133
034500     EJECT                                                        PPLSCFET
034600******************************************************************PPLSCFET
034700 9300-EVALUATE-DATA-ELEMENT SECTION.                              PPLSCFET
034800     MOVE LAY-CR-TITLE-CODE OF                                    PPLSCFET
034900          LAYOFF-CREDIT-ARRAY (WS-IX5)                            PPLSCFET
035000          TO WS-LSC-TITLE-CODE.                                   PPLSCFET
035100     MOVE LAY-CR-TUC OF LAYOFF-CREDIT-ARRAY (WS-IX5)              PPLSCFET
035200          TO WS-LSC-TUC.                                          PPLSCFET
035300     MOVE LAY-CR-APPT-REP-CODE OF                                 PPLSCFET
035400          LAYOFF-CREDIT-ARRAY (WS-IX5)                            PPLSCFET
035500          TO WS-LSC-APPT-REP-CODE.                                PPLSCFET
035600******************************************************************PPLSCFET
035700*       ROWS BEING DELETED HAVE BEEN INITIALIZED, SO THE         *PPLSCFET
035800*       OCCURRENCE KEY FOR DELETED ROWS MUST BE OBTAINED         *PPLSCFET
035900*       FROM 'LAYOFF-CREDIT-ARRAY-HOLD'.                         *PPLSCFET
036000******************************************************************PPLSCFET
036100     IF WS-OCCURRENCE-KEY = SPACES                                PPLSCFET
036200          MOVE LAY-CR-TITLE-CODE OF                               PPLSCFET
036300               LAYOFF-CREDIT-ARRAY-HOLD (WS-IX5)                  PPLSCFET
036400               TO WS-LSC-TITLE-CODE                               PPLSCFET
036500          MOVE LAY-CR-TUC OF                                      PPLSCFET
036600               LAYOFF-CREDIT-ARRAY-HOLD (WS-IX5)                  PPLSCFET
036700               TO WS-LSC-TUC                                      PPLSCFET
036800          MOVE LAY-CR-APPT-REP-CODE OF                            PPLSCFET
036900               LAYOFF-CREDIT-ARRAY-HOLD (WS-IX5)                  PPLSCFET
037000               TO WS-LSC-APPT-REP-CODE                            PPLSCFET
037100     END-IF.                                                      PPLSCFET
037200     SET NOT-DB2X-DET-NUMERIC TO TRUE                             PPLSCFET
037300     EVALUATE WS-DATA-ELEM-NO                                     PPLSCFET
037400         WHEN '0486'                                              PPLSCFET
037500             MOVE    LAY-CR-TITLE-CODE                            PPLSCFET
037600                     OF LAYOFF-CREDIT-ARRAY      (WS-IX5)         PPLSCFET
037700                     TO TEMP-DATA-VALUE                           PPLSCFET
037800              IF PPXXXFET-CHANGE-REQUEST                          PPLSCFET
037900                  MOVE LAY-CR-TITLE-CODE OF                       PPLSCFET
038000                       LAYOFF-CREDIT-ARRAY-HOLD (WS-IX5)          PPLSCFET
038100                          TO ORIG-DATA-VALUE                      PPLSCFET
038200                  MOVE LAY-CR-TITLE-CODE OF                       PPLSCFET
038300                       LAYOFF-CREDIT-ARRAY-HOLD1 (WS-IX5)         PPLSCFET
038400                          TO CHG1-DATA-VALUE                      PPLSCFET
038500              END-IF                                              PPLSCFET
038600         WHEN '0487'                                              PPLSCFET
038700             MOVE    LAY-CR-TUC                                   PPLSCFET
038800                     OF LAYOFF-CREDIT-ARRAY      (WS-IX5)         PPLSCFET
038900                     TO TEMP-DATA-VALUE                           PPLSCFET
039000              IF PPXXXFET-CHANGE-REQUEST                          PPLSCFET
039100                  MOVE LAY-CR-TUC OF                              PPLSCFET
039200                       LAYOFF-CREDIT-ARRAY-HOLD (WS-IX5)          PPLSCFET
039300                          TO ORIG-DATA-VALUE                      PPLSCFET
039400                  MOVE LAY-CR-TUC OF                              PPLSCFET
039500                       LAYOFF-CREDIT-ARRAY-HOLD1 (WS-IX5)         PPLSCFET
039600                          TO CHG1-DATA-VALUE                      PPLSCFET
039700              END-IF                                              PPLSCFET
039800         WHEN '0488'                                              PPLSCFET
039900             MOVE    LAY-CR-APPT-REP-CODE                         PPLSCFET
040000                     OF LAYOFF-CREDIT-ARRAY      (WS-IX5)         PPLSCFET
040100                     TO TEMP-DATA-VALUE                           PPLSCFET
040200              IF PPXXXFET-CHANGE-REQUEST                          PPLSCFET
040300                  MOVE LAY-CR-APPT-REP-CODE OF                    PPLSCFET
040400                       LAYOFF-CREDIT-ARRAY-HOLD (WS-IX5)          PPLSCFET
040500                          TO ORIG-DATA-VALUE                      PPLSCFET
040600                  MOVE LAY-CR-APPT-REP-CODE OF                    PPLSCFET
040700                       LAYOFF-CREDIT-ARRAY-HOLD1 (WS-IX5)         PPLSCFET
040800                          TO CHG1-DATA-VALUE                      PPLSCFET
040900              END-IF                                              PPLSCFET
041000         WHEN '0489'                                              PPLSCFET
041100             MOVE    LAY-CR-REG-HOURS                             PPLSCFET
041200                     OF LAYOFF-CREDIT-ARRAY      (WS-IX5)         PPLSCFET
041300                     TO TEMP-NUMBER                               PPLSCFET
041400              IF PPXXXFET-CHANGE-REQUEST                          PPLSCFET
041500                  MOVE LAY-CR-REG-HOURS OF                        PPLSCFET
041600                       LAYOFF-CREDIT-ARRAY-HOLD (WS-IX5)          PPLSCFET
041700                          TO ORIG-NUMBER                          PPLSCFET
041800                  MOVE LAY-CR-REG-HOURS OF                        PPLSCFET
041900                       LAYOFF-CREDIT-ARRAY-HOLD1 (WS-IX5)         PPLSCFET
042000                          TO CHG1-NUMBER                          PPLSCFET
042100              END-IF                                              PPLSCFET
042200         WHEN '0490'                                              PPLSCFET
042300             MOVE    LAY-CR-PRIOR-BAL-HRS                         PPLSCFET
042400                     OF LAYOFF-CREDIT-ARRAY      (WS-IX5)         PPLSCFET
042500                     TO TEMP-NUMBER                               PPLSCFET
042600              IF PPXXXFET-CHANGE-REQUEST                          PPLSCFET
042700                  MOVE LAY-CR-PRIOR-BAL-HRS  OF                   PPLSCFET
042800                       LAYOFF-CREDIT-ARRAY-HOLD (WS-IX5)          PPLSCFET
042900                          TO ORIG-NUMBER                          PPLSCFET
043000                  MOVE LAY-CR-PRIOR-BAL-HRS  OF                   PPLSCFET
043100                       LAYOFF-CREDIT-ARRAY-HOLD1 (WS-IX5)         PPLSCFET
043200                          TO CHG1-NUMBER                          PPLSCFET
043300              END-IF                                              PPLSCFET
043400         WHEN '0491'                                              PPLSCFET
043500             MOVE    LAY-CR-REG-HOURS-DATE                        PPLSCFET
043600                     OF LAYOFF-CREDIT-ARRAY      (WS-IX5)         PPLSCFET
043700                     TO TEMP-DATA-VALUE                           PPLSCFET
043800              IF PPXXXFET-CHANGE-REQUEST                          PPLSCFET
043900                  MOVE LAY-CR-REG-HOURS-DATE OF                   PPLSCFET
044000                       LAYOFF-CREDIT-ARRAY-HOLD (WS-IX5)          PPLSCFET
044100                          TO ORIG-DATA-VALUE                      PPLSCFET
044200                  MOVE LAY-CR-REG-HOURS-DATE OF                   PPLSCFET
044300                       LAYOFF-CREDIT-ARRAY-HOLD1 (WS-IX5)         PPLSCFET
044400                          TO CHG1-DATA-VALUE                      PPLSCFET
044500              END-IF                                              PPLSCFET
044600         WHEN '0492'                                              PPLSCFET
044700             MOVE    LAY-CR-PRIOR-BAL-DATE                        PPLSCFET
044800                     OF LAYOFF-CREDIT-ARRAY      (WS-IX5)         PPLSCFET
044900                     TO TEMP-DATA-VALUE                           PPLSCFET
045000              IF PPXXXFET-CHANGE-REQUEST                          PPLSCFET
045100                  MOVE LAY-CR-PRIOR-BAL-DATE OF                   PPLSCFET
045200                       LAYOFF-CREDIT-ARRAY-HOLD (WS-IX5)          PPLSCFET
045300                          TO ORIG-DATA-VALUE                      PPLSCFET
045400                  MOVE LAY-CR-PRIOR-BAL-DATE OF                   PPLSCFET
045500                       LAYOFF-CREDIT-ARRAY-HOLD1 (WS-IX5)         PPLSCFET
045600                          TO CHG1-DATA-VALUE                      PPLSCFET
045700              END-IF                                              PPLSCFET
045800         WHEN '0493'                                              PPLSCFET
045900             MOVE    LAY-CR-ADC-CODE                              PPLSCFET
046000                     OF LAYOFF-CREDIT-ARRAY      (WS-IX5)         PPLSCFET
046100                     TO TEMP-DATA-VALUE                           PPLSCFET
046200              IF PPXXXFET-CHANGE-REQUEST                          PPLSCFET
046300                  MOVE LAY-CR-ADC-CODE OF                         PPLSCFET
046400                       LAYOFF-CREDIT-ARRAY-HOLD (WS-IX5)          PPLSCFET
046500                          TO ORIG-DATA-VALUE                      PPLSCFET
046600                  MOVE LAY-CR-ADC-CODE OF                         PPLSCFET
046700                       LAYOFF-CREDIT-ARRAY-HOLD1 (WS-IX5)         PPLSCFET
046800                          TO CHG1-DATA-VALUE                      PPLSCFET
046900              END-IF                                              PPLSCFET
047000         WHEN OTHER                                               PPLSCFET
047100              IF PPXXXFET-DIAGNOSTICS-ON AND PPXXXFET-BATCH-CALL  PPLSCFET
047200                  DISPLAY A-STND-PROG-ID                          PPLSCFET
047300                          ': UNRECOGNIZED DATA ELEMENT NUMBER ('  PPLSCFET
047400                          WS-DATA-ELEM-NO                         PPLSCFET
047500                          ')'                                     PPLSCFET
047600              END-IF                                              PPLSCFET
047700              SET PPXXXFET-DATA-ELEM-NO-ERROR TO TRUE             PPLSCFET
047800     END-EVALUATE.                                                PPLSCFET
047900     SET DATA-RETURN TO TRUE.                                     PPLSCFET
048000     IF PPXXXFET-CHANGE-REQUEST AND                               PPLSCFET
048100        TEMP-DATA-VALUE = ORIG-DATA-VALUE AND                     PPLSCFET
048200        ORIG-DATA-VALUE = CHG1-DATA-VALUE                         PPLSCFET
048300        SET BYPASS-RETURN TO TRUE                                 PPLSCFET
048400     END-IF.                                                      PPLSCFET
048500     IF PPXXXFET-LIST-REQUEST AND                                 PPLSCFET
048600        MULTIPLE-OCCURRENCE AND                                   PPLSCFET
048700        TEMP-DATA-VALUE = WS-ISO-INIT-DATE                        PPLSCFET
048800        SET BYPASS-RETURN TO TRUE                                 PPLSCFET
048900     END-IF.                                                      PPLSCFET
049000     EJECT                                                        PPLSCFET
049100 9400-EVALUATE-DATA-ELEMENT SECTION.                              PPLSCFET
049200*                                                                 PPLSCFET
049300     SET MULTIPLE-OCCURRENCE TO TRUE.                             PPLSCFET
048300**** IF  LOCAL-OFFSET-RETURNED                                    36091133
048400****     SET NO-LOCAL-OFFSET-RETURNED TO TRUE                     36091133
048500**** ELSE                                                         36091133
048600****     PERFORM VARYING WS-IX10 FROM 1 BY 1                      36091133
048700****       UNTIL WS-IX10 > PPEDBFET-MAX-PTR (WS-IX1)              36091133
048800****         COMPUTE PPEDBFET-RETURN-INDEX (WS-IX1, WS-IX10) =    36091133
048900****                 PPEDBFET-RETURN-INDEX (WS-IX1, WS-IX10)      36091133
049000****                 + LOCAL-OFFSET                               36091133
049100****     END-PERFORM                                              36091133
049200**** END-IF.                                                      36091133
050400     IF WS-IX2 = PPEDBFET-MAX-PTR (WS-IX1)                        PPLSCFET
050500         MOVE ZERO TO WS-IX2                                      PPLSCFET
050600     ELSE                                                         PPLSCFET
050700         COMPUTE WS-IX2 = WS-IX2 - 1                              PPLSCFET
050800     END-IF.                                                      PPLSCFET
050900     PERFORM WITH TEST AFTER                                      PPLSCFET
051000       UNTIL WS-IX2 = PPEDBFET-MAX-PTR (WS-IX1)                   PPLSCFET
051100          OR PPXXXFET-MORE-DATA                                   PPLSCFET
051200         ADD 1 TO WS-IX2                                          PPLSCFET
051300         MOVE PPEDBFET-REQUEST-INDEX (WS-IX1, WS-IX2) TO          PPLSCFET
051400              WS-IX3                                              PPLSCFET
051500         MOVE PPEDBFET-REQ-DATA-ELEM-NO (WS-IX3) TO               PPLSCFET
051600              WS-DATA-ELEM-NO                                     PPLSCFET
051700         MOVE SPACE TO                                            PPLSCFET
051800              WS-OCCURRENCE-KEY                                   PPLSCFET
051900         PERFORM 9300-EVALUATE-DATA-ELEMENT                       PPLSCFET
052000         IF MULTIPLE-OCCURRENCE AND DATA-RETURN                   PPLSCFET
052100             IF WS-IX4 = PPXXXFET-MAX-RETURN-ENTRIES AND          PPLSCFET
051100                    WS-IX5 < WS-ARRAY-MAX                         PPLSCFET
052300                SET PPXXXFET-MORE-DATA TO TRUE                    PPLSCFET
051300****            IF WS-IX2 < PPEDBFET-MAX-PTR (WS-IX1)             36091133
051400****                MOVE LOCAL-OFFSET TO PPXXXFET-SAVE7           36091133
051500****            ELSE                                              36091133
051600****                MOVE ZERO TO PPXXXFET-SAVE7                   36091133
051700****            END-IF                                            36091133
052900                PERFORM 9050-SAVE-INDEXES                         PPLSCFET
051900             ELSE                                                 PPLSCFET
053100                PERFORM 0900-SETUP-FOR-RETURN                     PPLSCFET
052100****            ADD 1 TO LOCAL-OFFSET                             36091133
053300                SET MULT-DATA-RETURNED TO TRUE                    PPLSCFET
053400             END-IF                                               PPLSCFET
053500         END-IF                                                   PPLSCFET
053600     END-PERFORM.                                                 PPLSCFET
053700******************************************************************PPLSCFET
053800 9500-SET-UP-EVAL-DATA-ELEM SECTION.                              PPLSCFET
053900     SKIP1                                                        PPLSCFET
052900**** SET NO-LOCAL-OFFSET-RETURNED TO TRUE.                        36091133
054100     SET MULT-DATA-NOT-RETURNED TO TRUE.                          PPLSCFET
054200     SKIP1                                                        PPLSCFET
053200**** IF PPXXXFET-SAVE7 NOT = ZERO                                 36091133
053300****     MOVE PPXXXFET-SAVE7 TO LOCAL-OFFSET                      36091133
053400****     MOVE ZERO TO PPXXXFET-SAVE7                              36091133
053500****     SET LOCAL-OFFSET-RETURNED TO TRUE                        36091133
053600**** END-IF.                                                      36091133
054800     IF PPXXXFET-SAVE3 NOT = ZEROES                               PPLSCFET
054900         INITIALIZE PPXXXFET-SAVE-INDEXES                         PPLSCFET
055000         GO TO 9500-X                                             PPLSCFET
055100     END-IF.                                                      PPLSCFET
055200     SKIP1                                                        PPLSCFET
055300     MOVE ZERO TO WS-ARRAY-IX.                                    PPLSCFET
055400     SET SNGL-TITLE-CODE TO TRUE.                                 PPLSCFET
055500     SET SNGL-TUC TO TRUE.                                        PPLSCFET
055600     SET SNGL-APPT-REP TO TRUE.                                   PPLSCFET
055700     SKIP1                                                        PPLSCFET
055800     IF (WS-LSC-TITLE-CODE    = '*' OR SPACE)                     PPLSCFET
055900         SET MULT-TITLE-CODE TO TRUE                              PPLSCFET
056000     END-IF.                                                      PPLSCFET
056100     SKIP1                                                        PPLSCFET
056200     IF (WS-LSC-TUC  = '*' OR SPACE)                              PPLSCFET
056300         SET MULT-TUC TO TRUE                                     PPLSCFET
056400     END-IF.                                                      PPLSCFET
056500     SKIP1                                                        PPLSCFET
056600     IF (WS-LSC-APPT-REP-CODE   = '*' OR SPACE)                   PPLSCFET
056700         SET MULT-APPT-REP TO TRUE                                PPLSCFET
056800     END-IF.                                                      PPLSCFET
056900     SKIP1                                                        PPLSCFET
057000     IF MULT-TITLE-CODE OR MULT-TUC                               PPLSCFET
057100         OR  MULT-APPT-REP                                        PPLSCFET
057200         SET MULTIPLE-OCCURRENCE TO TRUE                          PPLSCFET
057300     END-IF.                                                      PPLSCFET
057400*                                                                 PPLSCFET
057500*    DETERMINE THE SIZE OF THE ORIGINAL ARRAY                     PPLSCFET
057600*                                                                 PPLSCFET
057700     PERFORM VARYING WS-IX5 FROM 1 BY 1                           PPLSCFET
057800             UNTIL (WS-IX5 > IDC-MAX-NO-LSC)                      PPLSCFET
057900         OR (LAY-CR-OCCURRENCE-KEY OF                             PPLSCFET
058000             LAYOFF-CREDIT-ARRAY-HOLD        (WS-IX5)             PPLSCFET
058100             = SPACE)                                             PPLSCFET
058200     END-PERFORM.                                                 PPLSCFET
058300*                                                                 PPLSCFET
058400*    SAVE THE INFORMATION                                         PPLSCFET
058500*                                                                 PPLSCFET
058600                                                                  PPLSCFET
058700     IF WS-IX5 > IDC-MAX-NO-LSC                                   PPLSCFET
058800         MOVE IDC-MAX-NO-LSC TO WS-ARRAY-HOLD-MAX                 PPLSCFET
058900     ELSE                                                         PPLSCFET
059000         COMPUTE WS-ARRAY-HOLD-MAX = WS-IX5 - 1                   PPLSCFET
059100     END-IF.                                                      PPLSCFET
059200*                                                                 PPLSCFET
059300*    NOW DETERMINE THE SIZE OF THE ARRAY                          PPLSCFET
059400*                                                                 PPLSCFET
059500*                                                                 PPLSCFET
059600     PERFORM VARYING WS-IX9 FROM WS-IX5 BY 1                      PPLSCFET
059700             UNTIL (WS-IX9 > IDC-MAX-NO-LSC)                      PPLSCFET
059800         OR (LAY-CR-OCCURRENCE-KEY  OF                            PPLSCFET
059900             LAYOFF-CREDIT-ARRAY        (WS-IX9)                  PPLSCFET
060000             = SPACE)                                             PPLSCFET
060100     END-PERFORM.                                                 PPLSCFET
060200*                                                                 PPLSCFET
060300*    SAVE THE INFORMATION                                         PPLSCFET
060400*                                                                 PPLSCFET
060500*                                                                 PPLSCFET
060600                                                                  PPLSCFET
060700     IF WS-IX9 > IDC-MAX-NO-LSC                                   PPLSCFET
060800         MOVE IDC-MAX-NO-LSC TO WS-ARRAY-MAX                      PPLSCFET
060900     ELSE                                                         PPLSCFET
061000         COMPUTE WS-ARRAY-MAX = WS-IX9 - 1                        PPLSCFET
061100     END-IF.                                                      PPLSCFET
061200     SKIP1                                                        PPLSCFET
061300 9500-X.                                                          PPLSCFET
061400     EXIT.                                                        PPLSCFET
