000100*==========================================================%      UCSD9999
000200*= UCSD LOCAL CHANGES HAVE BEEN IMPLEMENTED.              =%      UCSD9999
000300*= COLUMN 73 THRU 80 DENOTES CHANGE NUMBER - UCSD9999     =%      UCSD9999
000400*==========================================================%      UCSD9999
000410*==========================================================%      UCSD0072
000420*=    PROGRAM: PPPERCHG                                   =%      UCSD0072
000430*=    CHANGE # 0072         PROJ. REQUEST: 0072           =%      UCSD0072
000440*=    NAME: DELIA PERKINS   MODIFICATION DATE: 06/01/95   =%      UCSD0072
000450*=                                                        =%      UCSD0072
000460*=  ADDED LOCAL FIELDS ALT-DEPT-2-CD, ALT-DEPT-3-CD,      =%      UCSD0072
000460*=  PROT-STU-REC-IND, EXT-REF-1-ID, AND EXT-REF-2-ID.     =%      UCSD0072
000470*==========================================================%      UCSD0072
000500*==========================================================%      UCSD0038
000600*=    PROGRAM: PPPERCHG                                   =%      UCSD0038
000700*=    CHANGE # 0038         PROJ. REQUEST: DT038          =%      UCSD0038
000800*=    NAME:JIM PIERCE       MODIFICATION DATE: 6/24/93    =%      UCSD0038
000900*=                                                        =%      UCSD0038
001000*=    DESCRIPTION: ACTIVE LOCAL ELEMENTS ADDED --         =%      UCSD0038
001100*=                 TIMEKEEP-DEPT                          =%      UCSD0038
001200*=                 TIMEKEEP-SUB                           =%      UCSD0038
001300*=                 VICE-CHAN-UNIT                         =%      UCSD0038
001400*=                 COLLEGE-CODE                           =%      UCSD0038
001500*=                 ACAD-REVIEW-DATE                       =%      UCSD0038
001600*==========================================================%      UCSD0038
000000**************************************************************/   52171338
000001*  PROGRAM: PPPERCHG                                         */   52171338
000002*  RELEASE: ___1338______ SERVICE REQUEST(S): ____15217____  */   52171338
000003*  NAME:__PHIL THOMPSON__ MODIFICATION DATE:  ___03/20/01__  */   52171338
000004*  DESCRIPTION:                                              */   52171338
000005*  - ADD LIMITED HOURS AS OF DATE.                           */   52171338
000007**************************************************************/   52171338
000000**************************************************************/   51231302
000001*  PROGRAM: PPPERCHG                                         */   51231302
000002*  RELEASE: ___1302______ SERVICE REQUEST(S): ____15123____  */   51231302
000003*  NAME:___ROY STAPLES___ MODIFICATION DATE:  ___08/02/00__  */   51231302
000004*  DESCRIPTION:                                              */   51231302
000005*   - ADDED WCE-VETERAN-STATUS (EDB0345)                     */   51231302
000006*                                                            */   51231302
000007**************************************************************/   51231302
000000**************************************************************/   54181253
000001*  PROGRAM: PPPERCHG                                         */   54181253
000002*  RELEASE: ___1253______ SERVICE REQUEST(S): _15418, 15419  */   54181253
000003*  NAME:_______WJG_______ MODIFICATION DATE:  ___06/10/99__  */   54181253
000004*  DESCRIPTION:                                              */   54181253
000005*                                                            */   54181253
000006*  ADDED DATA ELEMENTS:                                      */   54181253
000007*                                                            */   54181253
000008*            HOME-ADDR-RLSE                                  */   54181253
000009*            HOME-PHONE-RLSE                                 */   54181253
000010*            SPOUSE-NAME-RLSE                                */   54181253
000011*            EMP-ORG-ADDR-RLSE                               */   54181253
000012*            EMP-ORG-PHONE-RLSE                              */   54181253
000013*            NET-ID                                          */   54181253
000014*            FIRST-NAME                                      */   54181253
000015*            MIDDLE-NAME                                     */   54181253
000016*            LAST-NAME                                       */   54181253
000017*                                                            */   54181253
000018**************************************************************/   54181253
000000**************************************************************/   25981207
000001*  PROGRAM: PPPERCHG                                         */   25981207
000002*  RELEASE: ___1207______ SERVICE REQUEST(S): ____12598____  */   25981207
000003*  NAME:___ROY STAPLES___ MODIFICATION DATE:  ___08/12/98__  */   25981207
000004*  DESCRIPTION:                                              */   25981207
000005*   REMOVED TRIP DATA ELEMENTS (DE 482,483,484).  TRIP       */   25981207
000006*   PROGRAM IS OBSOLETE.                                     */   25981207
000007**************************************************************/   25981207
000000**************************************************************/   49031194
000001*  PROGRAM: PPPERCHG                                         */   49031194
000002*  RELEASE: ___1194______ SERVICE REQUEST(S): ____14903____  */   49031194
000003*  NAME:_______QUAN______ MODIFICATION DATE:  ___06/01/98__  */   49031194
000004*  DESCRIPTION:                                              */   49031194
000005*    ADDED EMPLOYMENT STATUS CHANGE DATE                     */   49031194
000006*                                                            */   49031194
000007**************************************************************/   49031194
000000**************************************************************/   32011144
000001*  PROGRAM: PPPERCHG                                         */   32011144
000002*  RELEASE: ___1144______ SERVICE REQUEST(S): ____13201____  */   32011144
000003*  NAME:_______QUAN______ MODIFICATION DATE:  ___08/16/97__  */   32011144
000004*  DESCRIPTION:                                              */   32011144
000005*   ADDED SICK LEAVE ACCRUED THROUGH DATE (D.E. # 0760)      */   32011144
000007**************************************************************/   32011144
000100**************************************************************/   17810964
000200*  PROGRAM: PPPERCHG                                         */   17810964
000300*  RELEASE: ___0964______ SERVICE REQUEST(S): ____11781____  */   17810964
000400*  NAME:_____M. SANO_____ MODIFICATION DATE:  ___02/23/95__  */   17810964
000500*  DESCRIPTION:                                              */   17810964
000600*     ADDED NUMBER OF REGISTERED UNITS (EDB 0237)            */   17810964
000700*                                                            */   17810964
000800**************************************************************/   17810964
000100**************************************************************/   36560949
000200*  PROGRAM: PPPERCHG                                         */   36560949
000300*  RELEASE: ___0949______ SERVICE REQUEST(S): ____3656_____  */   36560949
000400*  NAME:_____JYL_________ MODIFICATION DATE:  ___12/14/94__  */   36560949
000500*  DESCRIPTION:                                              */   36560949
000600*   ADDED DATA ELEMENT 0724 - TA-AS-OF-TERM.                 */   36560949
000700**************************************************************/   36560949
000000**************************************************************/   36450775
000001*  PROGRAM: PPPERCHG                                         */   36450775
000002*  RELEASE: ___0775______ SERVICE REQUEST(S): _____3645____  */   36450775
000003*  NAME:_______DDM_______ MODIFICATION DATE:  __06/01/93____ */   36450775
000004*  DESCRIPTION: EDB ENTRY/UPDATE IMPLEMENTATION.             */   36450775
000006*     ADDED MORE THAN 30 COLUMNS.                            */   36450775
000007*     COMMENTED OUT OBSOLETE PAY-RATE-CHG AND RECLASS-TYPE.  */   36450775
000008*     DATA ELEMENTS 0134 AND 0150 HAVE BEEN REUSED.          */   36450775
000009**************************************************************/   36450775
000100*----------------------------------------------------------------*36410717
000200*|**************************************************************|*36410717
000300*|* PROGRAM: PPPERCHG                                          *|*36410717
000400*|*  RELEASE: __0717_______ SERVICE REQUEST(S): _____3641____  *|*36410717
000500*|*  NAME:______UCOP_______ MODIFICATION DATE:  ___11/19/92__  *|*36410717
000600*|*  DESCRIPTION:                                              *|*36410717
000700*|*  - EDB MAINTENANCE RE-ENGINEERING PROJECT                  *|*36410717
000800*|*    THIS PROCESS WILL SET THE XDEC WITH PER ROW CHANGES     *|*36410717
000900*|**************************************************************|*36410717
001000*----------------------------------------------------------------*36410717
001100                                                                  PPPERCHG
001200 IDENTIFICATION DIVISION.                                         PPPERCHG
001300 PROGRAM-ID. PPPERCHG.                                            PPPERCHG
001400 AUTHOR. BIT.                                                     PPPERCHG
001500 DATE-WRITTEN. JULY 21, 1992.                                     PPPERCHG
001600 DATE-COMPILED.                                                   PPPERCHG
001700                                                                  PPPERCHG
001800 ENVIRONMENT DIVISION.                                            PPPERCHG
001900 CONFIGURATION SECTION.                                           PPPERCHG
002000 SOURCE-COMPUTER.                   COPY CPOTXUCS.                PPPERCHG
002100 OBJECT-COMPUTER.                   COPY CPOTXOBJ.                PPPERCHG
002200      EJECT                                                       PPPERCHG
002300 DATA DIVISION.                                                   PPPERCHG
002400*----------------------------------------------------------------*PPPERCHG
002500 WORKING-STORAGE SECTION.                                         PPPERCHG
002600*----------------------------------------------------------------*PPPERCHG
002700                                                                  PPPERCHG
002800 01  A-STND-PROG-ID                   PIC X(15) VALUE             PPPERCHG
005500*****                                                          CD 49031194
005510*****'PPPERCHG/081697'.                                           49031194
005520     'PPPERCHG/060198'.                                           49031194
003000                                                                  PPPERCHG
003100 01  XWHC-COMPILE-WORK-AREA.                       COPY CPWSXWHC. PPPERCHG
003200                                                                  PPPERCHG
003300     EJECT                                                        PPPERCHG
003400******************************************************************PPPERCHG
003500**     E  X  T  E  R  N  A  L  S      S  E  C  T  I  O  N       **PPPERCHG
003600**--------------------------------------------------------------**PPPERCHG
003700** THE FOLLOWING EXTERNAL AREAS WILL BE USED BY OTHER PROCESSES **PPPERCHG
003800******************************************************************PPPERCHG
003900                                                                  PPPERCHG
004000 01  DATA-ELEMENT-CHANGE-INDICATORS      EXTERNAL. COPY CPWSXDEC. PPPERCHG
004100                                                                  PPPERCHG
004200     EJECT                                                        PPPERCHG
004300******************************************************************PPPERCHG
004400*              L I N K A G E    S E C T I O N                    *PPPERCHG
004500******************************************************************PPPERCHG
004600*----------------------------------------------------------------*PPPERCHG
004700 LINKAGE SECTION.                                                 PPPERCHG
004800*----------------------------------------------------------------*PPPERCHG
004900                                                                  PPPERCHG
005000 01  PER-ROW.                                      COPY CPWSRPER. PPPERCHG
005100                                                                  PPPERCHG
005200     EJECT                                                        PPPERCHG
005300 01  SAVE-PER-ROW.                                 COPY CPWSRPER. PPPERCHG
005400                                                                  PPPERCHG
005500     EJECT                                                        PPPERCHG
005600******************************************************************PPPERCHG
005700*            P R O C E D U R E  D I V I S I O N                  *PPPERCHG
005800******************************************************************PPPERCHG
005900*----------------------------------------------------------------*PPPERCHG
006000 PROCEDURE DIVISION USING PER-ROW,                                PPPERCHG
006100                          SAVE-PER-ROW.                           PPPERCHG
006200*----------------------------------------------------------------*PPPERCHG
006300                                                                  PPPERCHG
006400*----------------------------------------------------------------*PPPERCHG
006500 0000-DRIVER    SECTION.                                          PPPERCHG
006600*----------------------------------------------------------------*PPPERCHG
006700                                                                  PPPERCHG
006800******************************************************************PPPERCHG
006900**  PERFORM THE MAIN ROUTINE NOW - AFTER WHICH WE WILL RETURN   **PPPERCHG
007000**  TO THE CALLING PROGRAM                                      **PPPERCHG
007100******************************************************************PPPERCHG
007200                                                                  PPPERCHG
007300     PERFORM 1000-MAINLINE-ROUTINE.                               PPPERCHG
007400                                                                  PPPERCHG
007500 0000-DRIVER-EXIT.    EXIT PROGRAM.                               PPPERCHG
007600                                                                  PPPERCHG
007700                                                                  PPPERCHG
007800     EJECT                                                        PPPERCHG
007900*----------------------------------------------------------------*PPPERCHG
008000 1000-MAINLINE-ROUTINE    SECTION.                                PPPERCHG
008100*----------------------------------------------------------------*PPPERCHG
008200                                                                  PPPERCHG
008300******************************************************************PPPERCHG
008400**   THIS ROUTINE WILL SET THE DEC BASED ON WHAT HAS CHANGED    **PPPERCHG
008500******************************************************************PPPERCHG
008600                                                                  PPPERCHG
008700     PERFORM 1100-CHECK-CHANGES.                                  PPPERCHG
008800                                                                  PPPERCHG
008900*----------------------------------------------------------------*PPPERCHG
009000 1100-CHECK-CHANGES    SECTION.                                   PPPERCHG
009100*----------------------------------------------------------------*PPPERCHG
009200                                                                  PPPERCHG
009300******************************************************************PPPERCHG
009400**   SEE WHAT CHANGED NOW                                       **PPPERCHG
009500******************************************************************PPPERCHG
009600                                                                  PPPERCHG
009700     IF LAST-ACTION        OF PER-ROW      NOT =                  PPPERCHG
009800        LAST-ACTION        OF SAVE-PER-ROW                        PPPERCHG
009900         MOVE 1 TO XDEC-DATA-ELEM-CHANGE-IND (0101)               PPPERCHG
010000     END-IF.                                                      PPPERCHG
010100                                                                  PPPERCHG
010200     IF LAST-ACTION-OTHER  OF PER-ROW      NOT =                  PPPERCHG
010300        LAST-ACTION-OTHER  OF SAVE-PER-ROW                        PPPERCHG
010400         MOVE 1 TO XDEC-DATA-ELEM-CHANGE-IND (0102)               PPPERCHG
010500     END-IF.                                                      PPPERCHG
010600                                                                  PPPERCHG
010700     IF LAST-ACTION-DATE   OF PER-ROW      NOT =                  PPPERCHG
010800        LAST-ACTION-DATE   OF SAVE-PER-ROW                        PPPERCHG
010900         MOVE 1 TO XDEC-DATA-ELEM-CHANGE-IND (0103)               PPPERCHG
011000     END-IF.                                                      PPPERCHG
011100                                                                  PPPERCHG
011200     IF PAF-GEN-NUM        OF PER-ROW      NOT =                  PPPERCHG
011300        PAF-GEN-NUM        OF SAVE-PER-ROW                        PPPERCHG
011400         MOVE 1 TO XDEC-DATA-ELEM-CHANGE-IND (0104)               PPPERCHG
011500     END-IF.                                                      PPPERCHG
011600                                                                  PPPERCHG
011700     IF EMP-NAME           OF PER-ROW      NOT =                  PPPERCHG
011800        EMP-NAME           OF SAVE-PER-ROW                        PPPERCHG
011900         MOVE 1 TO XDEC-DATA-ELEM-CHANGE-IND (0105)               PPPERCHG
012000     END-IF.                                                      PPPERCHG
012100                                                                  PPPERCHG
012200     IF NAMESUFFIX         OF PER-ROW      NOT =                  PPPERCHG
012300        NAMESUFFIX         OF SAVE-PER-ROW                        PPPERCHG
012400         MOVE 1 TO XDEC-DATA-ELEM-CHANGE-IND (0106)               PPPERCHG
012500     END-IF.                                                      PPPERCHG
012600                                                                  PPPERCHG
012700     IF BIRTH-DATE         OF PER-ROW      NOT =                  PPPERCHG
012800        BIRTH-DATE         OF SAVE-PER-ROW                        PPPERCHG
012900         MOVE 1 TO XDEC-DATA-ELEM-CHANGE-IND (0107)               PPPERCHG
013000     END-IF.                                                      PPPERCHG
013100                                                                  PPPERCHG
013200     IF SEXCODE            OF PER-ROW      NOT =                  PPPERCHG
013300        SEXCODE            OF SAVE-PER-ROW                        PPPERCHG
013400         MOVE 1 TO XDEC-DATA-ELEM-CHANGE-IND (0108)               PPPERCHG
013500     END-IF.                                                      PPPERCHG
013600                                                                  PPPERCHG
013700     IF ETHNIC-ID          OF PER-ROW      NOT =                  PPPERCHG
013800        ETHNIC-ID          OF SAVE-PER-ROW                        PPPERCHG
013900         MOVE 1 TO XDEC-DATA-ELEM-CHANGE-IND (0112)               PPPERCHG
014000     END-IF.                                                      PPPERCHG
014100                                                                  PPPERCHG
014200     IF HIRE-DATE          OF PER-ROW      NOT =                  PPPERCHG
014300        HIRE-DATE          OF SAVE-PER-ROW                        PPPERCHG
014400         MOVE 1 TO XDEC-DATA-ELEM-CHANGE-IND (0113)               PPPERCHG
014500     END-IF.                                                      PPPERCHG
014600                                                                  PPPERCHG
014700     IF HOME-DEPT          OF PER-ROW      NOT =                  PPPERCHG
014800        HOME-DEPT          OF SAVE-PER-ROW                        PPPERCHG
014900         MOVE 1 TO XDEC-DATA-ELEM-CHANGE-IND (0114)               PPPERCHG
015000     END-IF.                                                      PPPERCHG
015100                                                                  PPPERCHG
015200     IF EDU-LEVEL          OF PER-ROW      NOT =                  PPPERCHG
015300        EDU-LEVEL          OF SAVE-PER-ROW                        PPPERCHG
015400         MOVE 1 TO XDEC-DATA-ELEM-CHANGE-IND (0116)               PPPERCHG
015500     END-IF.                                                      PPPERCHG
015600                                                                  PPPERCHG
015700     IF EDU-LEVEL-YR       OF PER-ROW      NOT =                  PPPERCHG
015800        EDU-LEVEL-YR       OF SAVE-PER-ROW                        PPPERCHG
015900         MOVE 1 TO XDEC-DATA-ELEM-CHANGE-IND (0117)               PPPERCHG
016000     END-IF.                                                      PPPERCHG
016100                                                                  PPPERCHG
016200     IF PRIOR-SERVICE-CODE OF PER-ROW      NOT =                  PPPERCHG
016300        PRIOR-SERVICE-CODE OF SAVE-PER-ROW                        PPPERCHG
016400         MOVE 1 TO XDEC-DATA-ELEM-CHANGE-IND (0118)               PPPERCHG
016500     END-IF.                                                      PPPERCHG
016600                                                                  PPPERCHG
016700     IF STUDENT-STATUS     OF PER-ROW      NOT =                  PPPERCHG
016800        STUDENT-STATUS     OF SAVE-PER-ROW                        PPPERCHG
016900         MOVE 1 TO XDEC-DATA-ELEM-CHANGE-IND (0119)               PPPERCHG
017000     END-IF.                                                      PPPERCHG
017100                                                                  PPPERCHG
017200     IF STAFF-SALARY-REV   OF PER-ROW      NOT =                  PPPERCHG
017300        STAFF-SALARY-REV   OF SAVE-PER-ROW                        PPPERCHG
017400         MOVE 1 TO XDEC-DATA-ELEM-CHANGE-IND (0124)               PPPERCHG
017500     END-IF.                                                      PPPERCHG
017600                                                                  PPPERCHG
017700     IF STAFF-SALREV-STAT  OF PER-ROW      NOT =                  PPPERCHG
017800        STAFF-SALREV-STAT  OF SAVE-PER-ROW                        PPPERCHG
017900         MOVE 1 TO XDEC-DATA-ELEM-CHANGE-IND (0125)               PPPERCHG
018000     END-IF.                                                      PPPERCHG
018100                                                                  PPPERCHG
018200     IF STAFF-SALREV-DATE  OF PER-ROW      NOT =                  PPPERCHG
018300        STAFF-SALREV-DATE  OF SAVE-PER-ROW                        PPPERCHG
018400         MOVE 1 TO XDEC-DATA-ELEM-CHANGE-IND (0126)               PPPERCHG
018500     END-IF.                                                      PPPERCHG
019010                                                                  36450775
019020     IF EMP-CHANGED-AT     OF PER-ROW      NOT =                  36450775
019030        EMP-CHANGED-AT     OF SAVE-PER-ROW                        36450775
019040         MOVE 1 TO XDEC-DATA-ELEM-CHANGE-IND (0134)               36450775
019050     END-IF.                                                      36450775
018600                                                                  PPPERCHG
019200     IF NEXT-SALARY-REV    OF PER-ROW      NOT =                  PPPERCHG
019300        NEXT-SALARY-REV    OF SAVE-PER-ROW                        PPPERCHG
019400         MOVE 1 TO XDEC-DATA-ELEM-CHANGE-IND (0135)               PPPERCHG
019500     END-IF.                                                      PPPERCHG
019600                                                                  PPPERCHG
019700     IF NEXT-SALREV-DATE   OF PER-ROW      NOT =                  PPPERCHG
019800        NEXT-SALREV-DATE   OF SAVE-PER-ROW                        PPPERCHG
019900         MOVE 1 TO XDEC-DATA-ELEM-CHANGE-IND (0136)               PPPERCHG
020000     END-IF.                                                      PPPERCHG
020100                                                                  PPPERCHG
020200     IF LOA-BEGIN-DATE     OF PER-ROW      NOT =                  PPPERCHG
020300        LOA-BEGIN-DATE     OF SAVE-PER-ROW                        PPPERCHG
020400         MOVE 1 TO XDEC-DATA-ELEM-CHANGE-IND (0137)               PPPERCHG
020500     END-IF.                                                      PPPERCHG
020600                                                                  PPPERCHG
020700     IF LOA-RETURN-DATE    OF PER-ROW      NOT =                  PPPERCHG
020800        LOA-RETURN-DATE    OF SAVE-PER-ROW                        PPPERCHG
020900         MOVE 1 TO XDEC-DATA-ELEM-CHANGE-IND (0138)               PPPERCHG
021000     END-IF.                                                      PPPERCHG
021100                                                                  PPPERCHG
021200     IF LOA-TYPE-CODE      OF PER-ROW      NOT =                  PPPERCHG
021300        LOA-TYPE-CODE      OF SAVE-PER-ROW                        PPPERCHG
021400         MOVE 1 TO XDEC-DATA-ELEM-CHANGE-IND (0139)               PPPERCHG
021500     END-IF.                                                      PPPERCHG
021600                                                                  PPPERCHG
021700     IF SEPARATE-DATE      OF PER-ROW      NOT =                  PPPERCHG
021800        SEPARATE-DATE      OF SAVE-PER-ROW                        PPPERCHG
021900         MOVE 1 TO XDEC-DATA-ELEM-CHANGE-IND (0140)               PPPERCHG
022000     END-IF.                                                      PPPERCHG
022100                                                                  PPPERCHG
022200     IF SEPARATE-REASON    OF PER-ROW      NOT =                  PPPERCHG
022300        SEPARATE-REASON    OF SAVE-PER-ROW                        PPPERCHG
022400         MOVE 1 TO XDEC-DATA-ELEM-CHANGE-IND (0141)               PPPERCHG
022500     END-IF.                                                      PPPERCHG
022600                                                                  PPPERCHG
022700     IF SEPARATE-DESTIN    OF PER-ROW      NOT =                  PPPERCHG
022800        SEPARATE-DESTIN    OF SAVE-PER-ROW                        PPPERCHG
022900         MOVE 1 TO XDEC-DATA-ELEM-CHANGE-IND (0142)               PPPERCHG
023000     END-IF.                                                      PPPERCHG
023100                                                                  PPPERCHG
023200     IF EMP-STATUS         OF PER-ROW      NOT =                  PPPERCHG
023300        EMP-STATUS         OF SAVE-PER-ROW                        PPPERCHG
023400         MOVE 1 TO XDEC-DATA-ELEM-CHANGE-IND (0144)               PPPERCHG
023500     END-IF.                                                      PPPERCHG
023600                                                                  PPPERCHG
023700     IF PRIOR-SERVICE-MTHS OF PER-ROW      NOT =                  PPPERCHG
023800        PRIOR-SERVICE-MTHS OF SAVE-PER-ROW                        PPPERCHG
023900         MOVE 1 TO XDEC-DATA-ELEM-CHANGE-IND (0146)               PPPERCHG
024000     END-IF.                                                      PPPERCHG
024100                                                                  PPPERCHG
024200     IF LAST-CHG-DATE      OF PER-ROW      NOT =                  PPPERCHG
024300        LAST-CHG-DATE      OF SAVE-PER-ROW                        PPPERCHG
024400         MOVE 1 TO XDEC-DATA-ELEM-CHANGE-IND (0148)               PPPERCHG
024500     END-IF.                                                      PPPERCHG
025010                                                                  36450775
025020     IF EMP-CHANGED-BY     OF PER-ROW      NOT =                  36450775
025030        EMP-CHANGED-BY     OF SAVE-PER-ROW                        36450775
025040         MOVE 1 TO XDEC-DATA-ELEM-CHANGE-IND (0150)               36450775
025050     END-IF.                                                      36450775
024600                                                                  PPPERCHG
025200     IF MERIT-PERCENT      OF PER-ROW      NOT =                  PPPERCHG
025300        MERIT-PERCENT      OF SAVE-PER-ROW                        PPPERCHG
025400         MOVE 1 TO XDEC-DATA-ELEM-CHANGE-IND (0153)               PPPERCHG
025500     END-IF.                                                      PPPERCHG
025600                                                                  PPPERCHG
025700     IF LOA-STATUS-IND     OF PER-ROW      NOT =                  PPPERCHG
025800        LOA-STATUS-IND     OF SAVE-PER-ROW                        PPPERCHG
025900         MOVE 1 TO XDEC-DATA-ELEM-CHANGE-IND (0154)               PPPERCHG
026000     END-IF.                                                      PPPERCHG
026100                                                                  PPPERCHG
026200     IF EMP-REL-CODE       OF PER-ROW      NOT =                  PPPERCHG
026300        EMP-REL-CODE       OF SAVE-PER-ROW                        PPPERCHG
026400         MOVE 1 TO XDEC-DATA-ELEM-CHANGE-IND (0160)               PPPERCHG
026500     END-IF.                                                      PPPERCHG
026600                                                                  PPPERCHG
026700     IF EMP-CBUC           OF PER-ROW      NOT =                  PPPERCHG
026800        EMP-CBUC           OF SAVE-PER-ROW                        PPPERCHG
026900         MOVE 1 TO XDEC-DATA-ELEM-CHANGE-IND (0161)               PPPERCHG
027000     END-IF.                                                      PPPERCHG
027100                                                                  PPPERCHG
027200     IF VISA-END-DATE      OF PER-ROW      NOT =                  PPPERCHG
027300        VISA-END-DATE      OF SAVE-PER-ROW                        PPPERCHG
027400         MOVE 1 TO XDEC-DATA-ELEM-CHANGE-IND (0184)               PPPERCHG
027500     END-IF.                                                      PPPERCHG
027600                                                                  PPPERCHG
027700     IF LAST-DAY-ON-PAY    OF PER-ROW      NOT =                  PPPERCHG
027800        LAST-DAY-ON-PAY    OF SAVE-PER-ROW                        PPPERCHG
027900         MOVE 1 TO XDEC-DATA-ELEM-CHANGE-IND (0189)               PPPERCHG
028000     END-IF.                                                      PPPERCHG
028100                                                                  PPPERCHG
031700     IF VICE-CHAN-UNIT     OF PER-ROW      NOT =                  UCSD0038
031800        VICE-CHAN-UNIT     OF SAVE-PER-ROW                        UCSD0038
031900         MOVE 1 TO XDEC-DATA-ELEM-CHANGE-IND (0194)               UCSD0038
032000     END-IF.                                                      UCSD0038
032100                                                                  UCSD0038
032200     IF COLLEGE-CODE       OF PER-ROW      NOT =                  UCSD0038
032300        COLLEGE-CODE       OF SAVE-PER-ROW                        UCSD0038
032400         MOVE 1 TO XDEC-DATA-ELEM-CHANGE-IND (0195)               UCSD0038
032500     END-IF.                                                      UCSD0038
032600                                                                  UCSD0038
032700     IF ACAD-REVIEW-DATE   OF PER-ROW      NOT =                  UCSD0038
032800        ACAD-REVIEW-DATE   OF SAVE-PER-ROW                        UCSD0038
032900         MOVE 1 TO XDEC-DATA-ELEM-CHANGE-IND (0197)               UCSD0038
033000     END-IF.                                                      UCSD0038
033100                                                                  UCSD0038
033200     IF TIMEKEEP-DEPT      OF PER-ROW      NOT =                  UCSD0038
033300        TIMEKEEP-DEPT      OF SAVE-PER-ROW                        UCSD0038
033400         MOVE 1 TO XDEC-DATA-ELEM-CHANGE-IND (0198)               UCSD0038
033500     END-IF.                                                      UCSD0038
033600                                                                  UCSD0038
033700     IF TIMEKEEP-SUB       OF PER-ROW      NOT =                  UCSD0038
033800        TIMEKEEP-SUB       OF SAVE-PER-ROW                        UCSD0038
033900         MOVE 1 TO XDEC-DATA-ELEM-CHANGE-IND (0199)               UCSD0038
034000     END-IF.                                                      UCSD0038
034100                                                                  UCSD0038
028200     IF HOME-PHONE         OF PER-ROW      NOT =                  PPPERCHG
028300        HOME-PHONE         OF SAVE-PER-ROW                        PPPERCHG
028400         MOVE 1 TO XDEC-DATA-ELEM-CHANGE-IND (0210)               PPPERCHG
028500     END-IF.                                                      PPPERCHG
028600                                                                  PPPERCHG
031500**** IF ADDR-DISCLOSURE1   OF PER-ROW      NOT =                  54181253
031600****    ADDR-DISCLOSURE1   OF SAVE-PER-ROW                        54181253
031700****     MOVE 1 TO XDEC-DATA-ELEM-CHANGE-IND (0211)               54181253
031800**** END-IF.                                                      54181253
031900****                                                              54181253
032000**** IF ADDR-DISCLOSURE2   OF PER-ROW      NOT =                  54181253
032100****    ADDR-DISCLOSURE2   OF SAVE-PER-ROW                        54181253
032200****     MOVE 1 TO XDEC-DATA-ELEM-CHANGE-IND (0212)               54181253
032300**** END-IF.                                                      54181253
032400****                                                              54181253
032500**** IF SPOUSE-DISC-IND    OF PER-ROW      NOT =                  54181253
032600****    SPOUSE-DISC-IND    OF SAVE-PER-ROW                        54181253
032700****     MOVE 1 TO XDEC-DATA-ELEM-CHANGE-IND (0213)               54181253
032800**** END-IF.                                                      54181253
030100                                                                  PPPERCHG
033000**** IF EMP-ORGAN-DISCLO   OF PER-ROW      NOT =                  54181253
033100****    EMP-ORGAN-DISCLO   OF SAVE-PER-ROW                        54181253
033101****     MOVE 1 TO XDEC-DATA-ELEM-CHANGE-IND (0214)               54181253
033110     IF  EMP-ORG-ADDR-RLSE OF PER-ROW      NOT =                  54181253
033120         EMP-ORG-ADDR-RLSE OF SAVE-PER-ROW                        54181253
033210         MOVE 1 TO XDEC-DATA-ELEM-CHANGE-IND (0247)               54181253
030500     END-IF.                                                      PPPERCHG
033441                                                                  54181253
033442     IF  HOME-ADDR-RLSE OF PER-ROW      NOT =                     54181253
033443         HOME-ADDR-RLSE OF SAVE-PER-ROW                           54181253
033444         MOVE 1 TO XDEC-DATA-ELEM-CHANGE-IND (0244)               54181253
033445     END-IF.                                                      54181253
033446                                                                  54181253
033447     IF  HOME-PHONE-RLSE OF PER-ROW     NOT =                     54181253
033448         HOME-PHONE-RLSE OF SAVE-PER-ROW                          54181253
033449         MOVE 1 TO XDEC-DATA-ELEM-CHANGE-IND (0245)               54181253
033450     END-IF.                                                      54181253
033451                                                                  54181253
033452     IF  SPOUSE-NAME-RLSE OF PER-ROW NOT =                        54181253
033453         SPOUSE-NAME-RLSE OF SAVE-PER-ROW                         54181253
033454         MOVE 1 TO XDEC-DATA-ELEM-CHANGE-IND (0246)               54181253
033455     END-IF.                                                      54181253
033456                                                                  54181253
033457     IF  EMP-ORG-PHONE-RLSE OF PER-ROW     NOT =                  54181253
033458         EMP-ORG-PHONE-RLSE OF SAVE-PER-ROW                       54181253
033459         MOVE 1 TO XDEC-DATA-ELEM-CHANGE-IND (0248)               54181253
033460     END-IF.                                                      54181253
033461                                                                  54181253
033462     IF  NET-ID            OF PER-ROW   NOT =                     54181253
033463         NET-ID            OF SAVE-PER-ROW                        54181253
033464         MOVE 1 TO XDEC-DATA-ELEM-CHANGE-IND (0249)               54181253
033465     END-IF.                                                      54181253
033466                                                                  54181253
033467     IF  FIRST-NAME        OF PER-ROW   NOT =                     54181253
033468         FIRST-NAME        OF SAVE-PER-ROW                        54181253
033469         MOVE 1 TO XDEC-DATA-ELEM-CHANGE-IND (0250)               54181253
033470     END-IF.                                                      54181253
033471                                                                  54181253
033472     IF  MIDDLE-NAME       OF PER-ROW   NOT =                     54181253
033473         MIDDLE-NAME       OF SAVE-PER-ROW                        54181253
033474         MOVE 1 TO XDEC-DATA-ELEM-CHANGE-IND (0251)               54181253
033475     END-IF.                                                      54181253
033476                                                                  54181253
033490     IF  LAST-NAME         OF PER-ROW   NOT =                     54181253
033491         LAST-NAME         OF SAVE-PER-ROW                        54181253
033492         MOVE 1 TO XDEC-DATA-ELEM-CHANGE-IND (0252)               54181253
033493     END-IF.                                                      54181253
030600                                                                  36450775
030700     IF ALT-DEPT-CD        OF PER-ROW      NOT =                  36450775
030800        ALT-DEPT-CD        OF SAVE-PER-ROW                        36450775
030900         MOVE 1 TO XDEC-DATA-ELEM-CHANGE-IND (0235)               36450775
031000     END-IF.                                                      36450775
030600                                                                  PPPERCHG
036607     IF ALT-DEPT-2-CD      OF PER-ROW      NOT =                  UCSD0072
036608        ALT-DEPT-2-CD      OF SAVE-PER-ROW                        UCSD0072
036609         MOVE 1 TO XDEC-DATA-ELEM-CHANGE-IND (0511)               UCSD0072
036610     END-IF.                                                      UCSD0072
036611                                                                  UCSD0072
036612     IF ALT-DEPT-3-CD      OF PER-ROW      NOT =                  UCSD0072
036613        ALT-DEPT-3-CD      OF SAVE-PER-ROW                        UCSD0072
036614         MOVE 1 TO XDEC-DATA-ELEM-CHANGE-IND (0512)               UCSD0072
036615     END-IF.                                                      UCSD0072
036617                                                                  UCSD0072
036612     IF PROT-STU-REC-IND   OF PER-ROW      NOT =                  UCSD0072
036613        PROT-STU-REC-IND   OF SAVE-PER-ROW                        UCSD0072
036614         MOVE 1 TO XDEC-DATA-ELEM-CHANGE-IND (0513)               UCSD0072
036615     END-IF.                                                      UCSD0072
036617                                                                  UCSD0072
036612     IF EXT-REF-1-ID       OF PER-ROW      NOT =                  UCSD0072
036613        EXT-REF-1-ID       OF SAVE-PER-ROW                        UCSD0072
036614         MOVE 1 TO XDEC-DATA-ELEM-CHANGE-IND (0514)               UCSD0072
036615     END-IF.                                                      UCSD0072
036617                                                                  UCSD0072
036612     IF EXT-REF-2-ID       OF PER-ROW      NOT =                  UCSD0072
036613        EXT-REF-2-ID       OF SAVE-PER-ROW                        UCSD0072
036614         MOVE 1 TO XDEC-DATA-ELEM-CHANGE-IND (0515)               UCSD0072
036615     END-IF.                                                      UCSD0072
036617                                                                  PPPERCHG
034000     IF REGISTERD-UNITS    OF PER-ROW      NOT =                  17810964
034100        REGISTERD-UNITS    OF SAVE-PER-ROW                        17810964
034200         MOVE 1 TO XDEC-DATA-ELEM-CHANGE-IND (0237)               17810964
034300     END-IF.                                                      17810964
034400                                                                  17810964
030700     IF EMP-REL-UNIT       OF PER-ROW      NOT =                  PPPERCHG
030800        EMP-REL-UNIT       OF SAVE-PER-ROW                        PPPERCHG
030900         MOVE 1 TO XDEC-DATA-ELEM-CHANGE-IND (0255)               PPPERCHG
031000     END-IF.                                                      PPPERCHG
031100                                                                  PPPERCHG
031200     IF EMP-SPEC-HAND      OF PER-ROW      NOT =                  PPPERCHG
031300        EMP-SPEC-HAND      OF SAVE-PER-ROW                        PPPERCHG
031400         MOVE 1 TO XDEC-DATA-ELEM-CHANGE-IND (0256)               PPPERCHG
031500     END-IF.                                                      PPPERCHG
031600                                                                  PPPERCHG
031700     IF EMP-DIST-UNIT-CODE OF PER-ROW      NOT =                  PPPERCHG
031800        EMP-DIST-UNIT-CODE OF SAVE-PER-ROW                        PPPERCHG
031900         MOVE 1 TO XDEC-DATA-ELEM-CHANGE-IND (0257)               PPPERCHG
032000     END-IF.                                                      PPPERCHG
032100                                                                  PPPERCHG
032200     IF EMP-REP-CODE       OF PER-ROW      NOT =                  PPPERCHG
032300        EMP-REP-CODE       OF SAVE-PER-ROW                        PPPERCHG
032400         MOVE 1 TO XDEC-DATA-ELEM-CHANGE-IND (0295)               PPPERCHG
032500     END-IF.                                                      PPPERCHG
032600                                                                  PPPERCHG
032700     IF SPOUSE-NAME        OF PER-ROW      NOT =                  PPPERCHG
032800        SPOUSE-NAME        OF SAVE-PER-ROW                        PPPERCHG
032900         MOVE 1 TO XDEC-DATA-ELEM-CHANGE-IND (0312)               PPPERCHG
033000     END-IF.                                                      PPPERCHG
033100                                                                  PPPERCHG
033200     IF EMP-PRIOR-NAME     OF PER-ROW      NOT =                  PPPERCHG
033300        EMP-PRIOR-NAME     OF SAVE-PER-ROW                        PPPERCHG
033400         MOVE 1 TO XDEC-DATA-ELEM-CHANGE-IND (0313)               PPPERCHG
033500     END-IF.                                                      PPPERCHG
033600                                                                  PPPERCHG
033700     IF VET-STATUS         OF PER-ROW      NOT =                  PPPERCHG
033800        VET-STATUS         OF SAVE-PER-ROW                        PPPERCHG
033900         MOVE 1 TO XDEC-DATA-ELEM-CHANGE-IND (0350)               PPPERCHG
034000     END-IF.                                                      PPPERCHG
034100                                                                  PPPERCHG
037820     IF WCE-VETERAN-STATUS OF PER-ROW      NOT =                  51231302
037830        WCE-VETERAN-STATUS OF SAVE-PER-ROW                        51231302
037840         MOVE 1 TO XDEC-DATA-ELEM-CHANGE-IND (0345)               51231302
037850     END-IF.                                                      51231302
037900                                                                  51231302
034200     IF VET-DISAB-STAT     OF PER-ROW      NOT =                  PPPERCHG
034300        VET-DISAB-STAT     OF SAVE-PER-ROW                        PPPERCHG
034400         MOVE 1 TO XDEC-DATA-ELEM-CHANGE-IND (0351)               PPPERCHG
034500     END-IF.                                                      PPPERCHG
034600                                                                  PPPERCHG
034700     IF HANDICAP-STAT      OF PER-ROW      NOT =                  PPPERCHG
034800        HANDICAP-STAT      OF SAVE-PER-ROW                        PPPERCHG
034900         MOVE 1 TO XDEC-DATA-ELEM-CHANGE-IND (0352)               PPPERCHG
035000     END-IF.                                                      PPPERCHG
038810                                                                  52171338
038820     IF LIM-HRS-AS-OF-DATE OF PER-ROW      NOT =                  52171338
038830        LIM-HRS-AS-OF-DATE OF SAVE-PER-ROW                        52171338
038840         MOVE 1 TO XDEC-DATA-ELEM-CHANGE-IND (0427)               52171338
038850     END-IF.                                                      52171338
035100                                                                  PPPERCHG
035200     IF PRIMARY-TITLE      OF PER-ROW      NOT =                  PPPERCHG
035300        PRIMARY-TITLE      OF SAVE-PER-ROW                        PPPERCHG
035400         MOVE 1 TO XDEC-DATA-ELEM-CHANGE-IND (0460)               PPPERCHG
035500     END-IF.                                                      PPPERCHG
035600                                                                  PPPERCHG
035700     IF JOB-GROUP-ID       OF PER-ROW      NOT =                  PPPERCHG
035800        JOB-GROUP-ID       OF SAVE-PER-ROW                        PPPERCHG
035900         MOVE 1 TO XDEC-DATA-ELEM-CHANGE-IND (0461)               PPPERCHG
036000     END-IF.                                                      PPPERCHG
036100                                                                  PPPERCHG
040000*****IF TRIP-PERCENT       OF PER-ROW      NOT =                  25981207
040100*****   TRIP-PERCENT       OF SAVE-PER-ROW                        25981207
040200*****    MOVE 1 TO XDEC-DATA-ELEM-CHANGE-IND (0482)               25981207
040300*****END-IF.                                                      25981207
036600                                                                  PPPERCHG
040500*****IF TRIP-DURATION      OF PER-ROW      NOT =                  25981207
040600*****   TRIP-DURATION      OF SAVE-PER-ROW                        25981207
040700*****    MOVE 1 TO XDEC-DATA-ELEM-CHANGE-IND (0483)               25981207
040800*****END-IF.                                                      25981207
037100                                                                  PPPERCHG
041000*****IF TRIP-BEGIN-DATE    OF PER-ROW      NOT =                  25981207
041100*****   TRIP-BEGIN-DATE    OF SAVE-PER-ROW                        25981207
041200*****    MOVE 1 TO XDEC-DATA-ELEM-CHANGE-IND (0484)               25981207
041300*****END-IF.                                                      25981207
037600                                                                  PPPERCHG
037700     IF PER-CURR-STUD-FLAG  OF PER-ROW     NOT =                  PPPERCHG
037800        PER-CURR-STUD-FLAG  OF SAVE-PER-ROW                       PPPERCHG
037900         MOVE 1 TO XDEC-DATA-ELEM-CHANGE-IND (0621)               PPPERCHG
038000     END-IF.                                                      PPPERCHG
038010                                                                  36450775
038020     IF DEGREE-INST        OF PER-ROW      NOT =                  36450775
038030        DEGREE-INST        OF SAVE-PER-ROW                        36450775
038040         MOVE 1 TO XDEC-DATA-ELEM-CHANGE-IND (0701)               36450775
038050     END-IF.                                                      36450775
038051                                                                  36450775
038052     IF FUTURE-INST        OF PER-ROW      NOT =                  36450775
038053        FUTURE-INST        OF SAVE-PER-ROW                        36450775
038054         MOVE 1 TO XDEC-DATA-ELEM-CHANGE-IND (0702)               36450775
038055     END-IF.                                                      36450775
038056                                                                  36450775
038057     IF PRIOR-SERV-INST    OF PER-ROW      NOT =                  36450775
038058        PRIOR-SERV-INST    OF SAVE-PER-ROW                        36450775
038059         MOVE 1 TO XDEC-DATA-ELEM-CHANGE-IND (0703)               36450775
038060     END-IF.                                                      36450775
038061                                                                  36450775
038062     IF ORIG-HIRE-DATE     OF PER-ROW      NOT =                  36450775
038063        ORIG-HIRE-DATE     OF SAVE-PER-ROW                        36450775
038064         MOVE 1 TO XDEC-DATA-ELEM-CHANGE-IND (0704)               36450775
038065     END-IF.                                                      36450775
038066                                                                  36450775
038067     IF OATH-SIGN-DATE     OF PER-ROW      NOT =                  36450775
038068        OATH-SIGN-DATE     OF SAVE-PER-ROW                        36450775
038069         MOVE 1 TO XDEC-DATA-ELEM-CHANGE-IND (0705)               36450775
038070     END-IF.                                                      36450775
038071                                                                  36450775
038072     IF PROB-END-DATE      OF PER-ROW      NOT =                  36450775
038073        PROB-END-DATE      OF SAVE-PER-ROW                        36450775
038074         MOVE 1 TO XDEC-DATA-ELEM-CHANGE-IND (0706)               36450775
038075     END-IF.                                                      36450775
038076                                                                  36450775
038077     IF CUR-SPECIALTY-1    OF PER-ROW      NOT =                  36450775
038078        CUR-SPECIALTY-1    OF SAVE-PER-ROW                        36450775
038079         MOVE 1 TO XDEC-DATA-ELEM-CHANGE-IND (0707)               36450775
038080     END-IF.                                                      36450775
038081                                                                  36450775
038082     IF CUR-SPECIALTY-2    OF PER-ROW      NOT =                  36450775
038083        CUR-SPECIALTY-2    OF SAVE-PER-ROW                        36450775
038084         MOVE 1 TO XDEC-DATA-ELEM-CHANGE-IND (0708)               36450775
038085     END-IF.                                                      36450775
038086                                                                  36450775
038087     IF CUR-SPECIALTY-3    OF PER-ROW      NOT =                  36450775
038088        CUR-SPECIALTY-3    OF SAVE-PER-ROW                        36450775
038089         MOVE 1 TO XDEC-DATA-ELEM-CHANGE-IND (0709)               36450775
038090     END-IF.                                                      36450775
038091                                                                  36450775
038092     IF HIGH-DEGREE        OF PER-ROW      NOT =                  36450775
038093        HIGH-DEGREE        OF SAVE-PER-ROW                        36450775
038094         MOVE 1 TO XDEC-DATA-ELEM-CHANGE-IND (0710)               36450775
038095     END-IF.                                                      36450775
038096                                                                  36450775
038097     IF EMPLMT-CREDIT      OF PER-ROW      NOT =                  36450775
038098        EMPLMT-CREDIT      OF SAVE-PER-ROW                        36450775
038099         MOVE 1 TO XDEC-DATA-ELEM-CHANGE-IND (0719)               36450775
038100     END-IF.                                                      36450775
038101                                                                  36450775
038102     IF CREDIT-FROM-DATE   OF PER-ROW      NOT =                  36450775
038103        CREDIT-FROM-DATE   OF SAVE-PER-ROW                        36450775
038104         MOVE 1 TO XDEC-DATA-ELEM-CHANGE-IND (0720)               36450775
038105     END-IF.                                                      36450775
038106                                                                  36450775
038107     IF TERM-COMP-TIME     OF PER-ROW      NOT =                  36450775
038108        TERM-COMP-TIME     OF SAVE-PER-ROW                        36450775
038109         MOVE 1 TO XDEC-DATA-ELEM-CHANGE-IND (0721)               36450775
038110     END-IF.                                                      36450775
038111                                                                  36450775
038112     IF TERM-SICK-LEAVE    OF PER-ROW      NOT =                  36450775
038113        TERM-SICK-LEAVE    OF SAVE-PER-ROW                        36450775
038114         MOVE 1 TO XDEC-DATA-ELEM-CHANGE-IND (0722)               36450775
038115     END-IF.                                                      36450775
038116                                                                  36450775
038117     IF TERM-VAC-LEAVE     OF PER-ROW      NOT =                  36450775
038118        TERM-VAC-LEAVE     OF SAVE-PER-ROW                        36450775
038119         MOVE 1 TO XDEC-DATA-ELEM-CHANGE-IND (0723)               36450775
038120     END-IF.                                                      36450775
048000                                                                  36560949
048100     IF TA-AS-OF-TERM      OF PER-ROW      NOT =                  36560949
048200        TA-AS-OF-TERM      OF SAVE-PER-ROW                        36560949
048300         MOVE 1 TO XDEC-DATA-ELEM-CHANGE-IND (0724)               36560949
048400     END-IF.                                                      36560949
038121                                                                  36450775
038122     IF TA-TIME            OF PER-ROW      NOT =                  36450775
038123        TA-TIME            OF SAVE-PER-ROW                        36450775
038124         MOVE 1 TO XDEC-DATA-ELEM-CHANGE-IND (0725)               36450775
038125     END-IF.                                                      36450775
038126                                                                  36450775
038127     IF TA-TIME-TYPE       OF PER-ROW      NOT =                  36450775
038128        TA-TIME-TYPE       OF SAVE-PER-ROW                        36450775
038129         MOVE 1 TO XDEC-DATA-ELEM-CHANGE-IND (0726)               36450775
038130     END-IF.                                                      36450775
038131                                                                  36450775
038132     IF UNIT18-TIME        OF PER-ROW      NOT =                  36450775
038133        UNIT18-TIME        OF SAVE-PER-ROW                        36450775
038134         MOVE 1 TO XDEC-DATA-ELEM-CHANGE-IND (0727)               36450775
038135     END-IF.                                                      36450775
038136                                                                  36450775
038137     IF UNIT18-TIME-TYPE   OF PER-ROW      NOT =                  36450775
038138        UNIT18-TIME-TYPE   OF SAVE-PER-ROW                        36450775
038139         MOVE 1 TO XDEC-DATA-ELEM-CHANGE-IND (0728)               36450775
038140     END-IF.                                                      36450775
038141                                                                  36450775
038142     IF YEAR8-TIME         OF PER-ROW      NOT =                  36450775
038143        YEAR8-TIME         OF SAVE-PER-ROW                        36450775
038144         MOVE 1 TO XDEC-DATA-ELEM-CHANGE-IND (0729)               36450775
038145     END-IF.                                                      36450775
038146                                                                  36450775
038147     IF YEAR8-TIME-TYPE    OF PER-ROW      NOT =                  36450775
038148        YEAR8-TIME-TYPE    OF SAVE-PER-ROW                        36450775
038149         MOVE 1 TO XDEC-DATA-ELEM-CHANGE-IND (0730)               36450775
038150     END-IF.                                                      36450775
038151                                                                  36450775
038152     IF OVER50-TIME        OF PER-ROW      NOT =                  36450775
038153        OVER50-TIME        OF SAVE-PER-ROW                        36450775
038154         MOVE 1 TO XDEC-DATA-ELEM-CHANGE-IND (0731)               36450775
038155     END-IF.                                                      36450775
038156                                                                  36450775
038157     IF OVER50-TIME-TYPE   OF PER-ROW      NOT =                  36450775
038158        OVER50-TIME-TYPE   OF SAVE-PER-ROW                        36450775
038159         MOVE 1 TO XDEC-DATA-ELEM-CHANGE-IND (0732)               36450775
038160     END-IF.                                                      36450775
038161                                                                  36450775
038162     IF YEAR8-EXT          OF PER-ROW      NOT =                  36450775
038163        YEAR8-EXT          OF SAVE-PER-ROW                        36450775
038164         MOVE 1 TO XDEC-DATA-ELEM-CHANGE-IND (0733)               36450775
038165     END-IF.                                                      36450775
038166                                                                  36450775
038167     IF YEAR8-EXT-TYPE     OF PER-ROW      NOT =                  36450775
038168        YEAR8-EXT-TYPE     OF SAVE-PER-ROW                        36450775
038169         MOVE 1 TO XDEC-DATA-ELEM-CHANGE-IND (0734)               36450775
038170     END-IF.                                                      36450775
038171                                                                  36450775
038172     IF LAST-CREDIT-BAL    OF PER-ROW      NOT =                  36450775
038173        LAST-CREDIT-BAL    OF SAVE-PER-ROW                        36450775
038174         MOVE 1 TO XDEC-DATA-ELEM-CHANGE-IND (0735)               36450775
038175     END-IF.                                                      36450775
038176                                                                  36450775
038177     IF CREDIT-DATE        OF PER-ROW      NOT =                  36450775
038178        CREDIT-DATE        OF SAVE-PER-ROW                        36450775
038179         MOVE 1 TO XDEC-DATA-ELEM-CHANGE-IND (0736)               36450775
038180     END-IF.                                                      36450775
038181                                                                  36450775
038182     IF LAST-CREDIT-ACC    OF PER-ROW      NOT =                  36450775
038183        LAST-CREDIT-ACC    OF SAVE-PER-ROW                        36450775
038184         MOVE 1 TO XDEC-DATA-ELEM-CHANGE-IND (0737)               36450775
038185     END-IF.                                                      36450775
038186                                                                  36450775
038187     IF CREDIT-USED        OF PER-ROW      NOT =                  36450775
038188        CREDIT-USED        OF SAVE-PER-ROW                        36450775
038189         MOVE 1 TO XDEC-DATA-ELEM-CHANGE-IND (0738)               36450775
038190     END-IF.                                                      36450775
038191                                                                  36450775
038192     IF TOT-CREDIT-BAL     OF PER-ROW      NOT =                  36450775
038193        TOT-CREDIT-BAL     OF SAVE-PER-ROW                        36450775
038194         MOVE 1 TO XDEC-DATA-ELEM-CHANGE-IND (0739)               36450775
038195     END-IF.                                                      36450775
038206                                                                  36450775
038207     IF CREDIT-THRU-DATE   OF PER-ROW      NOT =                  36450775
038208        CREDIT-THRU-DATE   OF SAVE-PER-ROW                        36450775
038209         MOVE 1 TO XDEC-DATA-ELEM-CHANGE-IND (0748)               36450775
038210     END-IF.                                                      36450775
038211                                                                  36450775
038212     IF CUT-CAP-ELIG-IND   OF PER-ROW      NOT =                  36450775
038213        CUT-CAP-ELIG-IND   OF SAVE-PER-ROW                        36450775
038214         MOVE 1 TO XDEC-DATA-ELEM-CHANGE-IND (0749)               36450775
038215     END-IF.                                                      36450775
038100                                                                  PPPERCHG
038200     IF STRIKE-IND         OF PER-ROW      NOT =                  PPPERCHG
038300        STRIKE-IND         OF SAVE-PER-ROW                        PPPERCHG
038400         MOVE 1 TO XDEC-DATA-ELEM-CHANGE-IND (1121)               PPPERCHG
038500     END-IF.                                                      PPPERCHG
058810                                                                  32011144
058820     IF SKL-ACCR-THRU-DATE OF PER-ROW      NOT =                  32011144
058830        SKL-ACCR-THRU-DATE OF SAVE-PER-ROW                        32011144
058840         MOVE 1 TO XDEC-DATA-ELEM-CHANGE-IND (0760)               32011144
058850     END-IF.                                                      32011144
058860                                                                  49031194
058870     IF EMP-STATUS-CHG-DT  OF PER-ROW      NOT =                  49031194
058880        EMP-STATUS-CHG-DT  OF SAVE-PER-ROW                        49031194
058890         MOVE 1 TO XDEC-DATA-ELEM-CHANGE-IND (0766)               49031194
058891     END-IF.                                                      49031194
038600                                                                  PPPERCHG
038700******************************************************************PPPERCHG
038900*    E N D  S O U R C E   ----  PPPERCHG   ---                   *PPPERCHG
039100******************************************************************PPPERCHG
