000100**************************************************************/   36410717
000200*  PROGRAM:  PPTTLUT2                                        */   36410717
000300*  RELEASE # ___0717___   SERVICE REQUEST NO(S) __3641______ */   36410717
000400*  NAME ________UCOP___   MODIFICATION DATE ____11/19/92_____*/   36410717
000500*  DESCRIPTION                                               */   36410717
000600*  THIS PROGRAM IS A CLONE OF PPTTLUTL WHICH MUST BE         */   36410717
000700*  IN STRICT PARALLEL WITH PPTTLUTL.                         */   36410717
000800*  ALL CODE AND CHANGE FLAGS HAVE BEEN LEFT INTACT AS AN     */   36410717
000900*  AID TO PARALLEL MAINTENANCE.                              */   36410717
001000**************************************************************/   36410717
001100**************************************************************/   36060628
001200*  PROGRAM: PPTTLUTL                                         */   36060628
001300*  RELEASE: ____0628____  SERVICE REQUEST(S): ____3606____   */   36060628
001400*  NAME: G._STEINITZ_____ MODIFICATION DATE:  __01/10/92__   */   36060628
001500*  DESCRIPTION:                                              */   36060628
001600*  - ADDED FIELDS NEEDED BY THE COMPUTE.                     */   36060628
001700**************************************************************/   30930413
001800*  PROGRAM: PPTTLUTL                                         */   30930413
001900*  RELEASE: ____0413____  SERVICE REQUEST(S): ____3093____   */   30930413
002000*  NAME:____JIM WILLIAMS__CREATION DATE:      __05/23/89__   */   30930413
002100*  DESCRIPTION:                                              */   30930413
002200*  - CHANGED FOR CONVERSION FROM OS/VS COBOL TO VS COBOL II. */   30930413
002300**************************************************************/   30930413
002400**************************************************************/   30620330
002500*  PROGRAM:  PPTTLUTL                                        */   30620330
002600*  REL#:  0330   REF: NONE  SERVICE REQUESTS:   ___3062_____ */   30620330
002700*  NAME _____JLT_______   MODIFICATION DATE ____10/30/87_____*/   30620330
002800*  DESCRIPTION                                               */   30620330
002900*   - RETURN INVALID TITLE TYPE (CONDITION '01') IF TITLE    */   30620330
003000*     CODE REQUESTED IS ZERO.                                */   30620330
003100*                                                            */   30620330
003200**************************************************************/   30620330
003300**************************************************************/   13880212
003400*  PROGRAM: PPTTLUTL                                         */   13880212
003500*  REL#:  0212   REF#:  NONE   SERVICE REQUEST:____1388______*/   13880212
003600*  NAME ___M.NISHI_____   MODIFICATION DATE ____04/28/86_____*/   13880212
003700*  DESCRIPTION                                               */   13880212
003800*                                                            */   13880212
003900*  THIS IS A NEW MODULE WHICH LOOKS UP THE APPOINTMENT TYPE  */   13880212
004000*  FROM THE TITLE CODE TABLE IF GIVEN THE TITLE CODE NUMBER. */   13880212
004100*                                                            */   13880212
004200*  PROGRAMS WHICH USED IDC-TITLE-CODE OR IDC-TTLE-CODE       */   13880212
004300*  SHOULD NOW USE THE MODULE TO DETERMINE WHICH GROUP THE    */   13880212
004400*  TITLE CODE FALLS INTO OF THE FOLLOWING GROUPS             */   13880212
004500*     A   ACADEMIC                                           */   13880212
004600*     E   EXECUTIVE                                          */   13880212
004700*     M   MANAGMENT AND PROFESSIONAL                         */   13880212
004800*     P   ADMINISTRATIVE AND PROFESSIONAL STAFF              */   13880212
004900*     S   STAFF PERSONNEL                                    */   13880212
005000*     K   PER DIEM HEALTH CARE                               */   13880212
005100*     C   CONTRACT                                           */   13880212
005200*                                                            */   13880212
005300**************************************************************/   13880212
005400     SKIP1                                                        13880212
005500     EJECT                                                        PPTTLUTL
005600 IDENTIFICATION DIVISION.                                         PPTTLUTL
005700 PROGRAM-ID. PPTTLUT2.                                            36410717
005800*PROGRAM-ID. PPTTLUTL.                                            36410717
005900*SOURCE-COMPUTER.                          COPY 'CPOTXUCS'.       30930413
006000*OBJECT-COMPUTER.                          COPY 'CPOTXOBJ'.       30930413
006100 INSTALLATION. UNIVERSITY OF CALIFORNIA.                          PPTTLUTL
006200 AUTHOR. M. NISHI.                                                PPTTLUTL
006300 DATE-WRITTEN. APRIL, 1986.                                       PPTTLUTL
006400 DATE-COMPILED.                                                   PPTTLUTL
006500*REMARKS.                                                         30930413
006600******************************************************************PPTTLUTL
006700*                                                                 PPTTLUTL
006800*  THIS PROGRAM (CALLED MODULE) WAS DEVELOPED IN RESPONSE TO      PPTTLUTL
006900*  THE NEW PERSONNEL PROGRAMS BEING INSTALLED IN THE PAYROLL      PPTTLUTL
007000*  SYSTEM.                                                        PPTTLUTL
007100*                                                                 PPTTLUTL
007200*  PREVIOUSLY, TITLE CODE RANGES DEFINED WHICH PERSONNEL GROUP    PPTTLUTL
007300*  AN EMPLOYEE BELONGED TO (DEFINED IN CPWSXIC2, CPWSXIC5 AND     PPTTLUTL
007400*  HARD-CODED IN VARIOUS PROGRAM CODE).                           PPTTLUTL
007500*                                                                 PPTTLUTL
007600*  BY USING THIS CALLED MODULE AND THE TITLE CODE TABLE ON THE    PPTTLUTL
007700*  SYSTEM CONTROL FILE, THE PERSONNEL GROUP IS DETERMINED BY      PPTTLUTL
007800*  LOOKING UP THE TITLE TYPE FIELD ON THE TITLE CODE TABLE WHICH  PPTTLUTL
007900*  INDICATES WHICH GROUP THE TITLE CODE IS ASSOCIATED WITH.       PPTTLUTL
008000*                                                                 PPTTLUTL
008100*  IF THE TITLE TYPE CANNOT BE FOUND, AN ERROR CODE IS RETURNED   PPTTLUTL
008200*  OR IF THE TITLE CODE TABLE CANNOT BE ACCESSED CORRECTLY, AN    PPTTLUTL
008300*  ERROR CODE IS RETURNED.                                        PPTTLUTL
008400*                                                                 PPTTLUTL
008500******************************************************************PPTTLUTL
008600 ENVIRONMENT DIVISION.                                            PPTTLUTL
008700 CONFIGURATION SECTION.                                           PPTTLUTL
008800 SOURCE-COMPUTER.                          COPY 'CPOTXUCS'.       30930413
008900 OBJECT-COMPUTER.                          COPY 'CPOTXOBJ'.       30930413
009000 SPECIAL-NAMES.                                                   PPTTLUTL
009100     SKIP1                                                        PPTTLUTL
009200     C01 IS NEW-PAGE.                                             PPTTLUTL
009300     SKIP1                                                        PPTTLUTL
009400 INPUT-OUTPUT SECTION.                                            PPTTLUTL
009500 FILE-CONTROL.                                                    PPTTLUTL
009600     SKIP3                                                        PPTTLUTL
009700******************************************************************PPTTLUTL
009800*                                                                *PPTTLUTL
009900*                         DATA DIVISION                          *PPTTLUTL
010000*                                                                *PPTTLUTL
010100******************************************************************PPTTLUTL
010200 DATA DIVISION.                                                   PPTTLUTL
010300 FILE SECTION.                                                    PPTTLUTL
010400     SKIP1                                                        PPTTLUTL
010500     EJECT                                                        PPTTLUTL
010600******************************************************************PPTTLUTL
010700*                                                                *PPTTLUTL
010800*                    WORKING-STORAGE SECTION                     *PPTTLUTL
010900*                                                                *PPTTLUTL
011000******************************************************************PPTTLUTL
011100 WORKING-STORAGE SECTION.                                         PPTTLUTL
011200     SKIP1                                                        PPTTLUTL
011300 77  WS-ID                        PIC X(27)                       PPTTLUTL
011400              VALUE 'WORKING-STORAGE BEGINS HERE'.                PPTTLUTL
011500     SKIP3                                                        PPTTLUTL
011600 01  TL-MISC-WORK-AREA.                                           PPTTLUTL
011700     SKIP1                                                        PPTTLUTL
011800     05  TL-TABLE-LOAD-SW         PIC X(01) VALUE SPACES.         PPTTLUTL
011900         88  TL-TABLE-LOADED                VALUE 'Y'.            PPTTLUTL
012000         88  TL-TABLE-NOT-LOADED            VALUE SPACES.         PPTTLUTL
012100     05  WS-NUMERIC-WRK           PIC X(04).                      36410717
012200     05  WS-NUM-9 REDEFINES WS-NUMERIC-WRK                        36410717
012300                                  PIC 9(04).                      36410717
012400     05 FILLER            PIC X(01)         VALUE SPACE.          36410717
012500         88 TTL-ROW-OPEN VALUE 'Y'.                               36410717
012600         88 NOT-TTL-ROW-OPEN VALUE SPACE.                         36410717
012700*****05  TL-CTL-FILE-SW           PIC X(01) VALUE SPACES.         36410717
012800*****    88  TL-CTL-FILE-OPEN               VALUE 'Y'.            36410717
012900*****    88  TL-CTL-FILE-NOT-OPEN           VALUE SPACES.         36410717
013000     05  TL-INDEX                 PIC S9(5) COMP-3 VALUE +0.      PPTTLUTL
013100     SKIP3                                                        PPTTLUTL
013200 01  TTL-TITLE-TYPE-TABLE.                                        PPTTLUTL
013300     05  TTL-TITLE-TYPE-X.                                        PPTTLUTL
013400         10  FILLER               PIC X(10000).                   PPTTLUTL
013500     05  TTL-TITLE-TYPE-Y  REDEFINES  TTL-TITLE-TYPE-X.           PPTTLUTL
013600         10  TTL-TITLE-TYPE  OCCURS 10000 TIMES                   PPTTLUTL
013700                                  PIC X(01).                      PPTTLUTL
013800     SKIP1                                                        36060628
013900 01  TTL-STORAGE-TABLE.                                           36060628
014000     05  FILLER                               OCCURS 10000.       36060628
014100         10  TTL-PERB1-CODE          PIC  X(02).                  36060628
014200         10  TTL-SPCL-HNDLG-CODE     PIC  X(01).                  36060628
014300         10  TTL-RETIRE-CODE-2       PIC  X(01).                  36060628
014400         10  TTL-CLASS-TTL-OUTLINE   PIC  X(03).                  36060628
014500     EJECT                                                        PPTTLUTL
014600******************************************************************PPTTLUTL
014700 01  800-WORK-AREA.                                               PPTTLUTL
014800*                                                                 PPTTLUTL
014900     05  800-ERROR-INDICATOR            PIC X(02) VALUE SPACES.   PPTTLUTL
015000         88  800-ERROR-INDICATED                  VALUE 'XX'.     PPTTLUTL
015100     SKIP3                                                        PPTTLUTL
015200*01**800-FLAGS.                                                   36410717
015300*****05  800-CTL-ACTION-HOLD.                                     36410717
015400*****    10  800-CTL-ACTION-HOLD-1 PIC X(01).                     36410717
015500*****        88  CTL-IS-OPEN-RANDOM         VALUE 'R'.            36410717
015600*****        88  CTL-IS-OPEN-SEQUENTIAL     VALUE 'S'.            36410717
015700*****        88  CTL-IS-OPEN                VALUES 'R' 'S'.       36410717
015800*****        88  CTL-IS-CLOSED              VALUE 'F'.            36410717
015900*****    10  FILLER                PIC X(11).                     36410717
016000     SKIP2                                                        PPTTLUTL
016100******************************************************************PPTTLUTL
016200     EJECT                                                        PPTTLUTL
016300******************************************************************PPTTLUTL
016400*                                                                *PPTTLUTL
016500*             WORK AREAS FOR TITLE CODE TABLE READ               *PPTTLUTL
016600*                                                                *PPTTLUTL
016700******************************************************************PPTTLUTL
016800*                                                                 PPTTLUTL
016900*01  XCFK-CONTROL-FILE-KEYS                 COPY 'CPWSXCFK'.      30930413
017000*01**XCFK-CONTROL-FILE-KEYS.                                      36410717
017100*****                                       COPY 'CPWSXCFK'.      36410717
017200*****SKIP2                                                        36410717
017300*01  IO-FUNCTIONS                           COPY 'CPWSXIOF'.      30930413
017400*01**IO-FUNCTIONS.                                                36410717
017500*****                                       COPY 'CPWSXIOF'.      36410717
017600*****SKIP2                                                        36410717
017700*01  XTTL-TITLE-CODE-RECORD                 COPY 'CPWSXTTL'.      30930413
017800*01**XTTL-TITLE-CODE-RECORD.                                      36410717
017900*****                                       COPY 'CPWSXTTL'.      36410717
018000*****SKIP2                                                        36410717
018100*01  CTL-INTERFACE                          COPY 'CPWSXCIF'.      30930413
018200*01**CTL-INTERFACE.                                               36410717
018300*****                                       COPY 'CPWSXCIF'.      36410717
018400*****SKIP2                                                        36410717
018500*01  CTL-SEGMENT-TABLE                      COPY 'CPWSXCST'.      30930413
018600*01**CTL-SEGMENT-TABLE.                                           36410717
018700*****                                       COPY 'CPWSXCST'.      36410717
018800 01  PPDB2MSG-INTERFACE.            COPY CPLNKDB2.                36410717
018900******************************************************************36410717
019000*          SQL - WORKING STORAGE                                 *36410717
019100******************************************************************36410717
019200 01  TTL-ROW-DATA.                                                36410717
019300     EXEC SQL                                                     36410717
019400          INCLUDE PPPVZTTL                                        36410717
019500     END-EXEC.                                                    36410717
019600     EXEC SQL                                                     36410717
019700          INCLUDE SQLCA                                           36410717
019800     END-EXEC.                                                    36410717
019900*****                                                             36410717
020000     EXEC SQL                                                     36410717
020100          DECLARE TTL_ROW CURSOR FOR                              36410717
020200              SELECT *                                            36410717
020300              FROM PPPVZTTL_TTL                                   36410717
020400              ORDER BY                                            36410717
020500                  TTL_CODE                                        36410717
020600     END-EXEC.                                                    36410717
020700     EJECT                                                        PPTTLUTL
020800******************************************************************PPTTLUTL
020900*                                                                *PPTTLUTL
021000*                       LINKAGE  SECTION                         *PPTTLUTL
021100*                                                                *PPTTLUTL
021200******************************************************************PPTTLUTL
021300 LINKAGE SECTION.                                                 PPTTLUTL
021400*                                                                 PPTTLUTL
021500     SKIP3                                                        PPTTLUTL
021600 01  PPTTLUTL-INTERFACE.                                          PPTTLUTL
021700                                            COPY 'CPWSXTLI'.      PPTTLUTL
021800     SKIP3                                                        PPTTLUTL
021900******************************************************************PPTTLUTL
022000 PROCEDURE DIVISION USING PPTTLUTL-INTERFACE.                     PPTTLUTL
022100******************************************************************36410717
022200*    THE FOLLOWING SQL WILL CAUSE ANY 'ABNORMAL' SQLCODE TO      *36410717
022300*    CAUSE A BRANCH TO 999999-SQL-ERROR.                         *36410717
022400******************************************************************36410717
022500     EXEC SQL                                                     36410717
022600          INCLUDE CPPDXE99                                        36410717
022700     END-EXEC.                                                    36410717
022800     MOVE 'PPTTLUT2'     TO DB2MSG-PGM-ID.                        36410717
022900     SKIP3                                                        PPTTLUTL
023000*                                                                 PPTTLUTL
023100******************************************************************PPTTLUTL
023200*                                                                *PPTTLUTL
023300*                       PROCEDURE DIVISION                       *PPTTLUTL
023400*                                                                *PPTTLUTL
023500******************************************************************PPTTLUTL
023600*                                                                 PPTTLUTL
023700*       INITIALIZE THE 'TITLE TYPE' ARRAY ON THE FIRST CALL.      PPTTLUTL
023800*                                                                 PPTTLUTL
023900     IF  TL-TABLE-NOT-LOADED                                      PPTTLUTL
024000         MOVE SPACES  TO  TTL-TITLE-TYPE-X.                       PPTTLUTL
024100*                                                                 PPTTLUTL
024200*       INITIALIZE THE ERROR CODE IF PREVIOUS ERROR IS NOT        PPTTLUTL
024300*       A 'SEE SYSTEMS' SEVERITY  (GREATER THAN '09').            PPTTLUTL
024400*                                                                 PPTTLUTL
024500     IF  XTLI-ERROR-CODE  <  '10'                                 PPTTLUTL
024600         MOVE '00'    TO  XTLI-ERROR-CODE.                        PPTTLUTL
024700*                                                                 PPTTLUTL
024800*                                                                 PPTTLUTL
024900******************************************************************PPTTLUTL
025000*                                                                 PPTTLUTL
025100*  IF THIS IS THE FIRST CALL TO THIS MODULE,  LOAD THE TITLE      PPTTLUTL
025200*  CODE TABLE 'TITLE TYPE' VALUES FOR EACH EXISTING TITLE CODE    PPTTLUTL
025300*  INTO THE INTERNAL ARRAY TO BE ACCESSED USING TITLE CODE VALUE  PPTTLUTL
025400*  AS THE INDEX AND TURN THE TABLE LOAD SWITCH ON.                PPTTLUTL
025500*                                                                 PPTTLUTL
025600******************************************************************PPTTLUTL
025700*                                                                 PPTTLUTL
025800     IF  TL-TABLE-NOT-LOADED                                      PPTTLUTL
025900         OR  XTLI-FUNCTION-LOAD                                   PPTTLUTL
026000         PERFORM A01000-LOAD-XTTL-TABLE THRU                      PPTTLUTL
026100                 A01009-LOAD-XTTL-TABLE-EXIT.                     PPTTLUTL
026200*                                                                 PPTTLUTL
026300******************************************************************PPTTLUTL
026400*                                                                *PPTTLUTL
026500* IF THERE WAS NO ERROR ENCOUNTERED BY THE TITLE CODE TABLE      *PPTTLUTL
026600* LOAD ROUTINE, PERFORM THE TITLE TYPE LOOKUP FOR THE TITLE CODE.*PPTTLUTL
026700*                                                                *PPTTLUTL
026800******************************************************************PPTTLUTL
026900*                                                                 PPTTLUTL
027000*                                                                 PPTTLUTL
027100     IF 800-ERROR-INDICATED                                       PPTTLUTL
027200         MOVE '11'  TO  XTLI-ERROR-CODE                           PPTTLUTL
027300     ELSE                                                         PPTTLUTL
027400     IF  XTLI-FUNCTION-FIND                                       PPTTLUTL
027500         PERFORM B01000-SEARCH-TABLE THRU                         PPTTLUTL
027600                 B01099-SEARCH-TABLE-EXIT.                        PPTTLUTL
027700*                                                                 PPTTLUTL
027800     GOBACK.                                                      PPTTLUTL
027900     EJECT                                                        PPTTLUTL
028000 A01000-LOAD-XTTL-TABLE.                                          PPTTLUTL
028100******************************************************************PPTTLUTL
028200*                                                                 PPTTLUTL
028300* THIS ROUTINE IS PERFORMED ONCE FOR THE FIRST CALL OF THIS       PPTTLUTL
028400* MODULE.  ALL THE 'TITLE TYPE' CODES ARE LOADED IN AN ARRAY      PPTTLUTL
028500* USING THE TITLE CODE AS THE INDEX VALUE.                        PPTTLUTL
028600* IF THERE IS AN ERROR ENCOUNTERED IN LOADING THE TITLE CODE      PPTTLUTL
028700* TABLE VALUES, AN ERROR INDICATOR IS SET TO NOTIFY THE CALLING   PPTTLUTL
028800* PROGRAM THAT THERE WAS A PROBLEM LOADING THE CONTROL FILE.      PPTTLUTL
028900* IF THIS ERROR OCCURS THE CALLING PROGRAM SHOULD ABEND WITH      PPTTLUTL
029000* A MESSAGE THAT THE TITLE CODE TABLE COULD NOT BE LOADED.        PPTTLUTL
029100*                                                                 PPTTLUTL
029200******************************************************************PPTTLUTL
029300*                                                                 PPTTLUTL
029400*****PERFORM R01000-OPEN-CTL-SEQ THRU                             36410717
029500*****        R01099-OPEN-CTL-SEQ-EXIT.                            36410717
029600*                                                                 PPTTLUTL
029700*****IF 800-ERROR-INDICATED                                       36410717
029800*****    MOVE '11'  TO  XTLI-ERROR-CODE                           36410717
029900*****    GO TO  A01009-LOAD-XTTL-TABLE-EXIT.                      36410717
030000*****                                                          CD 36410717
030100*****MOVE SEQ-READ  TO  IO-CTL-ACTION.                            36410717
030200*****MOVE XCFK-TTL  TO  IO-CTL-NOM-KEY.                           36410717
030300*                                                                 PPTTLUTL
030400*****PERFORM  R02000-CALL-PPIOCTL THRU                            36410717
030500*****         R02099-CALL-PPIOCTL-EXIT.                           36410717
030600*                                                                 PPTTLUTL
030700*****IF 800-ERROR-INDICATED                                       36410717
030800*****    MOVE '11'  TO  XTLI-ERROR-CODE                           36410717
030900*****ELSE                                                         36410717
031000*****    MOVE  ZEROS TO  IO-CTL-NOM-KEY                           36410717
031100     PERFORM SQL-OPEN-TTL.                                        36410717
031200     PERFORM SQL-FETCH-TTL.                                       36410717
031300         PERFORM  A01020-LOAD-XTTL THRU                           PPTTLUTL
031400                  A01029-LOAD-XTTL-EXIT                           PPTTLUTL
031500                  UNTIL SQLCODE NOT = ZERO.                       36410717
031600*****             UNTIL TL-TABLE-LOADED.                          36410717
031700*                                                                 PPTTLUTL
031800*****PERFORM  R03000-CLOSE-CTL-SEQ THRU                           36410717
031900*****         R03099-CLOSE-CTL-SEQ-EXIT.                          36410717
032000     PERFORM SQL-CLOSE-TTL.                                       36410717
032100*                                                                 PPTTLUTL
032200 A01009-LOAD-XTTL-TABLE-EXIT.                                     PPTTLUTL
032300     EXIT.                                                        PPTTLUTL
032400     EJECT                                                        PPTTLUTL
032500*                                                                 PPTTLUTL
032600 A01020-LOAD-XTTL.                                                PPTTLUTL
032700*                                                                 PPTTLUTL
032800*****PERFORM R02000-CALL-PPIOCTL THRU                             36410717
032900*****        R02099-CALL-PPIOCTL-EXIT.                            36410717
033000*                                                                 PPTTLUTL
033100*****IF 800-ERROR-INDICATED                                       36410717
033200*****    MOVE '11'  TO  XTLI-ERROR-CODE                           36410717
033300*****    MOVE  'Y'  TO  TL-TABLE-LOAD-SW                          36410717
033400*****    GO TO  A01029-LOAD-XTTL-EXIT.                            36410717
033500*                                                                 PPTTLUTL
033600*****MOVE CTL-SEGMENT-TABLE  TO  XTTL-TITLE-CODE-RECORD.          36410717
033700*                                                                 PPTTLUTL
033800*****IF (XCFK-TTL-CONSTANT  NOT =  XTTL-KEY-CONSTANT)             36410717
033900*****    OR                                                       36410717
034000*****                                                          CD 36410717
034100*****    (IO-CTL-ERROR-CODE  =  '06')                             36410717
034200*****    MOVE  'Y'  TO  TL-TABLE-LOAD-SW                          36410717
034300*****    GO TO  A01029-LOAD-XTTL-EXIT.                            36410717
034400*                                                                 PPTTLUTL
034500*****MOVE XTTL-KEY-TTL-CODE  TO  TL-INDEX.                        36410717
034600     MOVE TTL-CODE TO WS-NUMERIC-WRK.                             36410717
034700     MOVE WS-NUM-9 TO TL-INDEX.                                   36410717
034800*                                                                 PPTTLUTL
034900*****MOVE XTTL-TITLE-TYPE    TO  TTL-TITLE-TYPE (TL-INDEX).       36410717
035000*****MOVE XTTL-PERB1-CODE TO TTL-PERB1-CODE (TL-INDEX).           36410717
035100*****MOVE XTTL-SPCL-HNDLG-CODE TO TTL-SPCL-HNDLG-CODE (TL-INDEX). 36410717
035200*****MOVE XTTL-RETIRE-CODE-2 TO TTL-RETIRE-CODE-2 (TL-INDEX).     36410717
035300*****MOVE XTTL-CLASS-TTL-OUTLINE TO TTL-CLASS-TTL-OUTLINE         36410717
035400*****        (TL-INDEX).                                          36410717
035500     MOVE TTL-TITLE-TYPE OF TTL-ROW-DATA                          36410717
035600           TO TTL-TITLE-TYPE OF TTL-TITLE-TYPE-TABLE (TL-INDEX).  36410717
035700     MOVE TTL-TUC OF TTL-ROW-DATA                                 36410717
035800           TO TTL-PERB1-CODE OF TTL-STORAGE-TABLE (TL-INDEX).     36410717
035900     MOVE TTL-SPCL-HNDLG-CD OF TTL-ROW-DATA                       36410717
036000           TO TTL-SPCL-HNDLG-CODE OF TTL-STORAGE-TABLE (TL-INDEX).36410717
036100     MOVE TTL-RETIRE-CODE-2 OF TTL-ROW-DATA                       36410717
036200           TO TTL-RETIRE-CODE-2 OF TTL-STORAGE-TABLE (TL-INDEX).  36410717
036300     MOVE TTL-CLASS-TTL-OUTL OF TTL-ROW-DATA                      36410717
036400           TO TTL-CLASS-TTL-OUTLINE                               36410717
036500             OF TTL-STORAGE-TABLE (TL-INDEX).                     36410717
036600     PERFORM SQL-FETCH-TTL.                                       36410717
036700     IF SQLCODE NOT = ZERO                                        36410717
036800         MOVE  'Y'  TO  TL-TABLE-LOAD-SW                          36410717
036900     END-IF.                                                      36410717
037000*                                                                 PPTTLUTL
037100*                                                                 PPTTLUTL
037200 A01029-LOAD-XTTL-EXIT.                                           PPTTLUTL
037300     EXIT.                                                        PPTTLUTL
037400     EJECT                                                        PPTTLUTL
037500 B01000-SEARCH-TABLE.                                             PPTTLUTL
037600*                                                                 PPTTLUTL
037700******************************************************************PPTTLUTL
037800*                                                                 PPTTLUTL
037900* THIS ROUTINE SEARCHED THE INTERNAL TABLE OF TITLE TYPES         PPTTLUTL
038000* USING THE TITLE CODE AS THE INDEX TO FIND THE SPECIFIC TITLE    PPTTLUTL
038100* CODE'S TITLE TYPE.                                              PPTTLUTL
038200*                                                                 PPTTLUTL
038300******************************************************************PPTTLUTL
038400*                                                                 PPTTLUTL
038500*                                                                 PPTTLUTL
038600     MOVE  XTLI-TTLE-CODE  TO  TL-INDEX.                          PPTTLUTL
038700*                                                                 PPTTLUTL
038800*****IF  TTL-TITLE-TYPE (TL-INDEX)  =  SPACES                     30620330
038900     IF  XTLI-TTLE-CODE  = ZEROS  OR                              30620330
039000*****    TTL-TITLE-TYPE (TL-INDEX)  =  SPACES                     36410717
039100         TTL-TITLE-TYPE OF TTL-TITLE-TYPE-TABLE (TL-INDEX)        36410717
039200                                    =  SPACES                     36410717
039300         MOVE  SPACES                     TO  XTLI-TITLE-TYPE     PPTTLUTL
039400         MOVE SPACE TO XTLI-PERB1-CODE                            36060628
039500         MOVE SPACE TO XTLI-SPCL-HNDLG-CODE                       36060628
039600         MOVE SPACE TO XTLI-RETIRE-CODE-2                         36060628
039700         MOVE SPACE TO XTLI-CLASS-TTL-OUTLINE                     36060628
039800         MOVE  '01'                       TO  XTLI-ERROR-CODE     PPTTLUTL
039900     ELSE                                                         PPTTLUTL
040000*****    MOVE  TTL-TITLE-TYPE (TL-INDEX)  TO  XTLI-TITLE-TYPE     36410717
040100*****    MOVE TTL-PERB1-CODE (TL-INDEX) TO XTLI-PERB1-CODE        36410717
040200*****    MOVE TTL-SPCL-HNDLG-CODE (TL-INDEX) TO                   36410717
040210*****            XTLI-SPCL-HNDLG-CODE                             36410717
040300         MOVE TTL-TITLE-TYPE OF TTL-TITLE-TYPE-TABLE (TL-INDEX)   36410717
040400                 TO XTLI-TITLE-TYPE                               36410717
040500         MOVE TTL-PERB1-CODE OF TTL-STORAGE-TABLE (TL-INDEX)      36410717
040600                 TO XTLI-PERB1-CODE                               36410717
040700         MOVE TTL-SPCL-HNDLG-CODE OF TTL-STORAGE-TABLE (TL-INDEX) 36410717
040800                 TO XTLI-SPCL-HNDLG-CODE                          36410717
041000*****    MOVE TTL-RETIRE-CODE-2 (TL-INDEX) TO XTLI-RETIRE-CODE-2  36410717
041100         MOVE TTL-RETIRE-CODE-2 OF TTL-STORAGE-TABLE (TL-INDEX)   36410717
041200                 TO XTLI-RETIRE-CODE-2                            36410717
041300*****    MOVE TTL-CLASS-TTL-OUTLINE (TL-INDEX) TO                 36410717
041310*****            XTLI-CLASS-TTL-OUTLINE                           36410717
041400         MOVE TTL-CLASS-TTL-OUTLINE                               36410717
041410                 OF TTL-STORAGE-TABLE (TL-INDEX)                  36410717
041500                 TO XTLI-CLASS-TTL-OUTLINE                        36410717
041700         MOVE  '00'                       TO  XTLI-ERROR-CODE.    PPTTLUTL
041800*                                                                 PPTTLUTL
041900**   EXHIBIT      '  FROM PPTTLUTL:   '.                          PPTTLUTL
042000**   EXHIBIT NAMED XTLI-TTLE-CODE.                                PPTTLUTL
042100**   EXHIBIT NAMED TTL-TITLE-TYPE (TL-INDEX).                     PPTTLUTL
042200**   EXHIBIT NAMED XTLI-ERROR-CODE.                               PPTTLUTL
042300**   EXHIBIT      '  --------------   '.                          PPTTLUTL
042400*                                                                 PPTTLUTL
042500******************************************************************PPTTLUTL
042600*                                                                 PPTTLUTL
042700******************************************************************PPTTLUTL
042800*                                                                 PPTTLUTL
042900 B01099-SEARCH-TABLE-EXIT.                                        PPTTLUTL
043000     EXIT.                                                        PPTTLUTL
043100     EJECT                                                        PPTTLUTL
043200******************************************************************PPTTLUTL
043300*                                                                 PPTTLUTL
043400*    COMMON ROUTINES FOR THIS PROGRAM.                            PPTTLUTL
043500*                                                                 PPTTLUTL
043600******************************************************************PPTTLUTL
043700     SKIP3                                                        PPTTLUTL
043800*R01000-OPEN-CTL-SEQ.                                             36410717
043900*****                                                             36410717
044000**OPENS CONTROL TABLE FILE FOR SEQUENTIAL ACCESS                  36410717
044100*****                                                             36410717
044200*****MOVE 'FILE-STATUS' TO IO-CTL-ACTION.                         36410717
044300*****PERFORM R02000-CALL-PPIOCTL THRU                             36410717
044400*****        R02099-CALL-PPIOCTL-EXIT.                            36410717
044500*****                                                             36410717
044600*****MOVE IO-CTL-ACTION TO 800-CTL-ACTION-HOLD.                   36410717
044700*****                                                             36410717
044800*****IF CTL-IS-OPEN-SEQUENTIAL                                    36410717
044900*****    GO TO R01099-OPEN-CTL-SEQ-EXIT.                          36410717
045000*****                                                             36410717
045100*****IF CTL-IS-OPEN-RANDOM                                        36410717
045200*****    MOVE RAND-CLOSE TO IO-CTL-ACTION                         36410717
045300*****    PERFORM R02000-CALL-PPIOCTL THRU                         36410717
045400*****            R02099-CALL-PPIOCTL-EXIT.                        36410717
045500*****                                                             36410717
045600*****MOVE SEQ-OPEN-IN TO IO-CTL-ACTION.                           36410717
045700*****MOVE SPACES TO IO-CTL-NOM-KEY.                               36410717
045800*****PERFORM R02000-CALL-PPIOCTL THRU                             36410717
045900*****        R02099-CALL-PPIOCTL-EXIT.                            36410717
046000*****                                                             36410717
046100*****                                                             36410717
046200*R01099-OPEN-CTL-SEQ-EXIT.                                        36410717
046300*****EXIT.                                                        36410717
046400*****SKIP3                                                        36410717
046500*R02000-CALL-PPIOCTL.                                             36410717
046600*****SKIP1                                                        36410717
046700*****CALL 'PPIOCTL' USING CTL-INTERFACE CTL-SEGMENT-TABLE.        36410717
046800*****                                                             36410717
046900*****IF IO-CTL-ERROR-CODE NOT = '00' AND '06'                     36410717
047000*****    MOVE 'XX'  TO  800-ERROR-INDICATOR.                      36410717
047100*****SKIP3                                                        36410717
047200*R02099-CALL-PPIOCTL-EXIT.                                        36410717
047300*****EXIT.                                                        36410717
047400*****SKIP3                                                        36410717
047500*R03000-CLOSE-CTL-SEQ.                                            36410717
047600*****                                                             36410717
047700**CLOSE CONTROL TABLE FILE, SEQUENTIALLY ACCESSED                 36410717
047800*****                                                             36410717
047900*****IF CTL-IS-OPEN-SEQUENTIAL                                    36410717
048000*****    GO TO R03099-CLOSE-CTL-SEQ-EXIT.                         36410717
048100*****                                                             36410717
048200*****                                                             36410717
048300*****MOVE SEQ-CLOSE TO IO-CTL-ACTION.                             36410717
048400*****PERFORM R02000-CALL-PPIOCTL THRU                             36410717
048500*****        R02099-CALL-PPIOCTL-EXIT.                            36410717
048600*****                                                             36410717
048700*****IF CTL-IS-OPEN-RANDOM                                        36410717
048800*****    MOVE 800-CTL-ACTION-HOLD TO IO-CTL-ACTION                36410717
048900*****    PERFORM R02000-CALL-PPIOCTL THRU                         36410717
049000*****            R02099-CALL-PPIOCTL-EXIT.                        36410717
049100*****                                                             36410717
049200*R03099-CLOSE-CTL-SEQ-EXIT.                                       36410717
049300*****EXIT.                                                        36410717
049400 SQL-OPEN-TTL      SECTION.                                       36410717
049500     IF NOT TTL-ROW-OPEN                                          36410717
049600         MOVE 'OPEN TTL CURSOR' TO DB2MSG-TAG                     36410717
049700         EXEC SQL                                                 36410717
049800             OPEN TTL_ROW                                         36410717
049900         END-EXEC                                                 36410717
050000         SET TTL-ROW-OPEN TO TRUE                                 36410717
050100     END-IF.                                                      36410717
050200 SQL-CLOSE-TTL      SECTION.                                      36410717
050300     IF TTL-ROW-OPEN                                              36410717
050400         MOVE 'CLOSE TTL CURSOR' TO DB2MSG-TAG                    36410717
050500         EXEC SQL                                                 36410717
050600             CLOSE TTL_ROW                                        36410717
050700         END-EXEC                                                 36410717
050800         SET NOT-TTL-ROW-OPEN TO TRUE                             36410717
050900     END-IF.                                                      36410717
051000 SQL-FETCH-TTL      SECTION.                                      36410717
051100     MOVE 'FETCH TTL ROW' TO DB2MSG-TAG.                          36410717
051200     EXEC SQL                                                     36410717
051300         FETCH TTL_ROW INTO :TTL-ROW-DATA                         36410717
051400     END-EXEC.                                                    36410717
051500*999999-SQL-ERROR.                                               *36410717
051600     COPY CPPDXP99.                                               36410717
051700     MOVE '11'  TO  XTLI-ERROR-CODE                               36410717
051800     GOBACK.                                                      36410717
051900*********************      END OF  PPTTLUTL  *********************36410717
